{
  "General": [
    {
      "allow_mirror": true, 
      "description": "arm up pregrasp", 
      "joints": {
        "l_arm_elx": -1.75, 
        "l_arm_ely": -1.55, 
        "l_arm_lwy": 0.0, 
        "l_arm_mwx": 0.0, 
        "l_arm_shx": -1.25, 
        "l_arm_shz": 1.75, 
        "l_arm_uwy": -1.5
      }, 
      "name": "arm up pregrasp", 
      "nominal_handedness": "left"
    }, 
    {
      "allow_mirror": true, 
      "description": "handdown", 
      "joints": {
        "l_arm_elx": -0.8, 
        "l_arm_ely": 0.0, 
        "l_arm_lwy": 0.0, 
        "l_arm_mwx": 0.0, 
        "l_arm_shx": -0.2, 
        "l_arm_shz": 0.3, 
        "l_arm_uwy": 0.0
      }, 
      "name": "handdown", 
      "nominal_handedness": "left"
    }
  ], 
  "bihanded": [
    {
      "allow_mirror": true, 
      "description": "board pregrasp", 
      "joints": {
        "l_arm_elx": -1.3696403503417969, 
        "l_arm_ely": 0.24836266040802002, 
        "l_arm_lwy": -0.22391527891159058, 
        "l_arm_mwx": -0.42069876194000244, 
        "l_arm_shx": -0.1745329201221466, 
        "l_arm_shz": 0.20167237520217896, 
        "l_arm_uwy": -1.702666997909546
      }, 
      "name": "board pregrasp", 
      "nominal_handedness": "left"
    }
  ], 
  "table clearing": [
    {
      "allow_mirror": true, 
      "description": "pre drop 1", 
      "joints": {
        "l_arm_elx": -0.3035127520561218, 
        "l_arm_ely": -0.8513715863227844, 
        "l_arm_lwy": 0.0, 
        "l_arm_mwx": -0.2019345909357071, 
        "l_arm_shx": -2.602198600769043, 
        "l_arm_shz": 1.6022123098373413, 
        "l_arm_uwy": -1.4325662851333618
      }, 
      "name": "pre drop 1", 
      "nominal_handedness": "left"
    }, 
    {
      "allow_mirror": true, 
      "description": "pre drop 2", 
      "joints": {
        "l_arm_elx": -0.7085164189338684, 
        "l_arm_ely": -0.7131415605545044, 
        "l_arm_lwy": 0.0, 
        "l_arm_mwx": -0.412421315908432, 
        "l_arm_shx": -2.887298107147217, 
        "l_arm_shz": 1.910088300704956, 
        "l_arm_uwy": -0.8340928554534912
      }, 
      "name": "pre drop 2", 
      "nominal_handedness": "left"
    }
  ]
}
