####
#
# OBJ File Generated by Meshlab
#
####
# Object lj4_Left.obj
#
# Vertices: 300
# Faces: 100
#
####
vn 0.001749 0.999998 -0.000136
v 0.383770 0.075002 0.029283
vn 0.001749 0.999998 -0.000136
v 0.080559 0.075521 -0.053571
vn 0.001749 0.999998 -0.000136
v 0.075696 0.075545 0.055163
vn -0.309064 -0.950996 -0.009274
v 0.069802 -0.087655 0.031636
vn -0.309064 -0.950996 -0.009274
v 0.069591 -0.086768 -0.052251
vn -0.309064 -0.950996 -0.009274
v 0.108075 -0.100220 0.044630
vn 0.001707 0.999999 0.000017
v 0.383770 0.075002 0.029283
vn 0.001707 0.999999 0.000017
v 0.383770 0.075003 -0.026751
vn 0.001707 0.999999 0.000017
v 0.080559 0.075521 -0.053571
vn 0.054039 -0.009035 0.998498
v 0.168580 0.044412 0.083485
vn 0.054039 -0.009035 0.998498
v 0.039218 0.041979 0.090464
vn 0.054039 -0.009035 0.998498
v 0.141647 -0.074499 0.083867
vn 1.000000 0.000000 0.000000
v 0.383770 0.041708 0.056772
vn 1.000000 0.000000 0.000000
v 0.383770 -0.022463 0.058300
vn 1.000000 0.000000 0.000000
v 0.383770 0.041572 -0.054360
vn -0.973285 -0.229599 0.000027
v 0.039218 0.041979 -0.103413
vn -0.973285 -0.229599 0.000027
v 0.069591 -0.086768 -0.052251
vn -0.973285 -0.229599 0.000027
v 0.069802 -0.087655 0.031636
vn 0.144902 -0.035266 -0.988817
v 0.170696 0.026124 -0.091621
vn 0.144902 -0.035266 -0.988817
v 0.176600 -0.043466 -0.088274
vn 0.144902 -0.035266 -0.988817
v 0.097545 -0.042864 -0.099880
vn -0.758624 -0.651529 -0.000615
v 0.039048 0.042211 0.071115
vn -0.758624 -0.651529 -0.000615
v 0.032002 0.050426 0.059743
vn -0.758624 -0.651529 -0.000615
v 0.038318 0.043189 -0.064341
vn 0.045431 0.309252 0.949894
v 0.039048 0.057501 0.085419
vn 0.045431 0.309252 0.949894
v 0.039218 0.041979 0.090464
vn 0.045431 0.309252 0.949894
v 0.168580 0.044412 0.083485
vn 0.056702 0.777754 -0.626006
v 0.383770 0.075003 -0.026751
vn 0.056702 0.777754 -0.626006
v 0.128502 0.039398 -0.094108
vn 0.056702 0.777754 -0.626006
v 0.080559 0.075521 -0.053571
vn -0.802293 -0.596931 0.000015
v 0.039048 0.042211 0.071115
vn -0.802293 -0.596931 0.000015
v 0.038318 0.043189 -0.064341
vn -0.802293 -0.596931 0.000015
v 0.039218 0.041979 -0.103413
vn 1.000000 0.000000 0.000000
v 0.383770 -0.022463 0.058300
vn 1.000000 0.000000 0.000000
v 0.383770 -0.028965 -0.054907
vn 1.000000 0.000000 0.000000
v 0.383770 0.041572 -0.054360
vn 0.161032 0.007656 -0.986920
v 0.237383 0.030321 -0.078333
vn 0.161032 0.007656 -0.986920
v 0.383770 0.041572 -0.054360
vn 0.161032 0.007656 -0.986920
v 0.383770 -0.028965 -0.054907
vn 0.123807 -0.992306 -0.000004
v 0.238571 -0.080163 0.042034
vn 0.123807 -0.992306 -0.000004
v 0.260847 -0.077384 -0.028919
vn 0.123807 -0.992306 -0.000004
v 0.383770 -0.062048 0.034668
vn 0.148669 -0.486444 0.860970
v 0.274714 -0.039660 0.072741
vn 0.148669 -0.486444 0.860970
v 0.168182 -0.085523 0.065224
vn 0.148669 -0.486444 0.860970
v 0.383770 -0.049085 0.048585
vn 1.000000 0.000000 0.000000
v 0.383770 -0.022463 0.058300
vn 1.000000 0.000000 0.000000
v 0.383770 -0.049085 0.048585
vn 1.000000 0.000000 0.000000
v 0.383770 -0.028965 -0.054907
vn -0.973283 -0.229610 0.000000
v 0.064201 -0.063923 0.087917
vn -0.973283 -0.229610 0.000000
v 0.039218 0.041979 0.090464
vn -0.973283 -0.229610 0.000000
v 0.039218 0.041979 -0.103413
vn -0.055194 -0.998406 -0.011817
v 0.093495 -0.096628 -0.039168
vn -0.055194 -0.998406 -0.011817
v 0.172118 -0.101145 -0.024713
vn -0.055194 -0.998406 -0.011817
v 0.162811 -0.101352 0.036205
vn -0.001145 -0.915384 -0.402579
v 0.093495 -0.096628 -0.039168
vn -0.001145 -0.915384 -0.402579
v 0.122715 -0.080129 -0.076766
vn -0.001145 -0.915384 -0.402579
v 0.176692 -0.093441 -0.046650
vn -0.620180 -0.784332 0.014179
v 0.032002 0.050426 0.059743
vn -0.620180 -0.784332 0.014179
v 0.010983 0.064955 -0.055885
vn -0.620180 -0.784332 0.014179
v 0.038318 0.043189 -0.064341
vn 0.173592 0.984818 0.000000
v 0.031738 0.078135 -0.056893
vn 0.173592 0.984818 0.000000
v -0.029791 0.088981 -0.052692
vn 0.173592 0.984818 0.000000
v -0.029791 0.088981 0.055222
vn 0.169767 0.985482 -0.002163
v 0.031251 0.078473 0.058769
vn 0.169767 0.985482 -0.002163
v 0.031738 0.078135 -0.056893
vn 0.169767 0.985482 -0.002163
v -0.029791 0.088981 0.055222
vn -0.458606 -0.888191 -0.028241
v 0.032002 0.050426 0.059743
vn -0.458606 -0.888191 -0.028241
v -0.006275 0.070232 0.058415
vn -0.458606 -0.888191 -0.028241
v 0.010983 0.064955 -0.055885
vn -0.973278 -0.229629 -0.000054
v 0.039218 0.041979 -0.103413
vn -0.973278 -0.229629 -0.000054
v 0.059317 -0.043212 -0.096372
vn -0.973278 -0.229629 -0.000054
v 0.069591 -0.086768 -0.052251
vn 0.113500 0.023181 -0.993267
v 0.170696 0.026124 -0.091621
vn 0.113500 0.023181 -0.993267
v 0.049857 -0.003117 -0.106112
vn 0.113500 0.023181 -0.993267
v 0.070757 0.039686 -0.102725
vn 1.000000 0.000000 0.000000
v 0.383770 -0.049085 0.048585
vn 1.000000 0.000000 0.000000
v 0.383770 -0.061358 -0.033204
vn 1.000000 0.000000 0.000000
v 0.383770 -0.028965 -0.054907
vn 0.133689 -0.346243 -0.928570
v 0.097545 -0.042864 -0.099880
vn 0.133689 -0.346243 -0.928570
v 0.176600 -0.043466 -0.088274
vn 0.133689 -0.346243 -0.928570
v 0.176603 -0.059685 -0.082226
vn 0.080944 0.695539 0.713914
v 0.039048 0.057501 0.085419
vn 0.080944 0.695539 0.713914
v 0.168580 0.044412 0.083485
vn 0.080944 0.695539 0.713914
v 0.383770 0.075002 0.029283
vn 1.000000 0.000000 0.000000
v 0.383770 0.041708 0.056772
vn 1.000000 0.000000 0.000000
v 0.383770 0.075003 -0.026751
vn 1.000000 0.000000 0.000000
v 0.383770 0.075002 0.029283
vn 0.231847 -0.656232 0.718057
v 0.141647 -0.074499 0.083867
vn 0.231847 -0.656232 0.718057
v 0.168182 -0.085523 0.065224
vn 0.231847 -0.656232 0.718057
v 0.274714 -0.039660 0.072741
vn 0.087635 -0.016652 0.996014
v 0.168580 0.044412 0.083485
vn 0.087635 -0.016652 0.996014
v 0.141647 -0.074499 0.083867
vn 0.087635 -0.016652 0.996014
v 0.274714 -0.039660 0.072741
vn 0.113893 0.632631 -0.766033
v 0.383770 0.075003 -0.026751
vn 0.113893 0.632631 -0.766033
v 0.383770 0.041572 -0.054360
vn 0.113893 0.632631 -0.766033
v 0.128502 0.039398 -0.094108
vn 1.000000 0.000000 0.000000
v 0.383770 0.041708 0.056772
vn 1.000000 0.000000 0.000000
v 0.383770 0.041572 -0.054360
vn 1.000000 0.000000 0.000000
v 0.383770 0.075003 -0.026751
vn 0.174577 -0.745996 -0.642661
v 0.176692 -0.093441 -0.046650
vn 0.174577 -0.745996 -0.642661
v 0.122715 -0.080129 -0.076766
vn 0.174577 -0.745996 -0.642661
v 0.275314 -0.067660 -0.049787
vn 0.188642 -0.546631 -0.815849
v 0.176603 -0.059685 -0.082226
vn 0.188642 -0.546631 -0.815849
v 0.383770 -0.028965 -0.054907
vn 0.188642 -0.546631 -0.815849
v 0.383770 -0.061358 -0.033204
vn -0.974390 -0.153613 0.164217
v 0.039048 0.042211 0.071115
vn -0.974390 -0.153613 0.164217
v 0.039048 0.057501 0.085419
vn -0.974390 -0.153613 0.164217
v 0.031251 0.078473 0.058769
vn 0.047988 0.831240 0.553838
v 0.039048 0.057501 0.085419
vn 0.047988 0.831240 0.553838
v 0.383770 0.075002 0.029283
vn 0.047988 0.831240 0.553838
v 0.075696 0.075545 0.055163
vn -0.973274 -0.229646 -0.000021
v 0.039218 0.041979 -0.103413
vn -0.973274 -0.229646 -0.000021
v 0.069802 -0.087655 0.031636
vn -0.973274 -0.229646 -0.000021
v 0.064201 -0.063923 0.087917
vn -0.392570 -0.860798 0.323907
v 0.069802 -0.087655 0.031636
vn -0.392570 -0.860798 0.323907
v 0.108075 -0.100220 0.044630
vn -0.392570 -0.860798 0.323907
v 0.064201 -0.063923 0.087917
vn 0.158864 0.002154 -0.987298
v 0.237383 0.030321 -0.078333
vn 0.158864 0.002154 -0.987298
v 0.383770 -0.028965 -0.054907
vn 0.158864 0.002154 -0.987298
v 0.176600 -0.043466 -0.088274
vn 0.172730 -0.344122 -0.922900
v 0.176600 -0.043466 -0.088274
vn 0.172730 -0.344122 -0.922900
v 0.383770 -0.028965 -0.054907
vn 0.172730 -0.344122 -0.922900
v 0.176603 -0.059685 -0.082226
vn 0.071119 0.799202 -0.596840
v 0.080559 0.075521 -0.053571
vn 0.071119 0.799202 -0.596840
v 0.070757 0.039686 -0.102725
vn 0.071119 0.799202 -0.596840
v 0.039218 0.041979 -0.103413
vn 0.130504 -0.976696 0.170391
v 0.168182 -0.085523 0.065224
vn 0.130504 -0.976696 0.170391
v 0.238571 -0.080163 0.042034
vn 0.130504 -0.976696 0.170391
v 0.383770 -0.062048 0.034668
vn 1.000000 0.000000 0.000000
v 0.383770 -0.062048 0.034668
vn 1.000000 0.000000 0.000000
v 0.383770 -0.069850 0.001264
vn 1.000000 0.000000 0.000000
v 0.383770 -0.061358 -0.033204
vn -0.214799 -0.719583 -0.660350
v 0.059317 -0.043212 -0.096372
vn -0.214799 -0.719583 -0.660350
v 0.122715 -0.080129 -0.076766
vn -0.214799 -0.719583 -0.660350
v 0.069591 -0.086768 -0.052251
vn -0.106076 -0.877583 -0.467542
v 0.069591 -0.086768 -0.052251
vn -0.106076 -0.877583 -0.467542
v 0.122715 -0.080129 -0.076766
vn -0.106076 -0.877583 -0.467542
v 0.093495 -0.096628 -0.039168
vn 0.473744 -0.857130 -0.202225
v 0.172118 -0.101145 -0.024713
vn 0.473744 -0.857130 -0.202225
v 0.176692 -0.093441 -0.046650
vn 0.473744 -0.857130 -0.202225
v 0.238571 -0.080163 0.042034
vn 0.006463 -0.943911 -0.330136
v 0.093495 -0.096628 -0.039168
vn 0.006463 -0.943911 -0.330136
v 0.176692 -0.093441 -0.046650
vn 0.006463 -0.943911 -0.330136
v 0.172118 -0.101145 -0.024713
vn -0.973279 -0.229625 0.000001
v 0.039218 0.041979 -0.103413
vn -0.973279 -0.229625 0.000001
v 0.049857 -0.003117 -0.106112
vn -0.973279 -0.229625 0.000001
v 0.059317 -0.043212 -0.096372
vn -0.159532 0.176950 -0.971204
v 0.031738 0.078135 -0.056893
vn -0.159532 0.176950 -0.971204
v 0.038318 0.043189 -0.064341
vn -0.159532 0.176950 -0.971204
v 0.010983 0.064955 -0.055885
vn -0.983242 -0.181509 -0.017011
v 0.038318 0.043189 -0.064341
vn -0.983242 -0.181509 -0.017011
v 0.031738 0.078135 -0.056893
vn -0.983242 -0.181509 -0.017011
v 0.039218 0.041979 -0.103413
vn 0.103172 0.633275 0.767019
v 0.168580 0.044412 0.083485
vn 0.103172 0.633275 0.767019
v 0.383770 0.041708 0.056772
vn 0.103172 0.633275 0.767019
v 0.383770 0.075002 0.029283
vn 0.107578 0.008762 0.994158
v 0.332328 0.031602 0.065879
vn 0.107578 0.008762 0.994158
v 0.168580 0.044412 0.083485
vn 0.107578 0.008762 0.994158
v 0.274714 -0.039660 0.072741
vn -0.036413 0.123240 0.991709
v 0.031251 0.078473 0.058769
vn -0.036413 0.123240 0.991709
v -0.029791 0.088981 0.055222
vn -0.036413 0.123240 0.991709
v -0.006275 0.070232 0.058415
vn -1.000000 0.000000 0.000000
v -0.029791 0.074254 0.055222
vn -1.000000 0.000000 0.000000
v -0.029791 0.088981 0.055222
vn -1.000000 0.000000 0.000000
v -0.029791 0.088981 -0.052692
vn -0.851512 -0.004588 0.524314
v 0.039048 0.042211 0.071115
vn -0.851512 -0.004588 0.524314
v 0.031251 0.078473 0.058769
vn -0.851512 -0.004588 0.524314
v 0.032002 0.050426 0.059743
vn -0.016941 0.034243 0.999270
v 0.031251 0.078473 0.058769
vn -0.016941 0.034243 0.999270
v -0.006275 0.070232 0.058415
vn -0.016941 0.034243 0.999270
v 0.032002 0.050426 0.059743
vn -0.068122 0.000000 -0.997677
v -0.029791 0.088981 -0.052692
vn -0.068122 0.000000 -0.997677
v 0.031738 0.078135 -0.056893
vn -0.068122 0.000000 -0.997677
v -0.029791 0.074254 -0.052692
vn -1.000000 0.000000 0.000000
v -0.029791 0.074254 0.055222
vn -1.000000 0.000000 0.000000
v -0.029791 0.088981 -0.052692
vn -1.000000 0.000000 0.000000
v -0.029791 0.074254 -0.052692
vn 0.235304 -0.933169 -0.271714
v 0.176692 -0.093441 -0.046650
vn 0.235304 -0.933169 -0.271714
v 0.275314 -0.067660 -0.049787
vn 0.235304 -0.933169 -0.271714
v 0.260847 -0.077384 -0.028919
vn 0.183503 -0.982833 0.019109
v 0.176692 -0.093441 -0.046650
vn 0.183503 -0.982833 0.019109
v 0.260847 -0.077384 -0.028919
vn 0.183503 -0.982833 0.019109
v 0.238571 -0.080163 0.042034
vn -0.026528 -0.998917 -0.038212
v 0.093495 -0.096628 -0.039168
vn -0.026528 -0.998917 -0.038212
v 0.162811 -0.101352 0.036205
vn -0.026528 -0.998917 -0.038212
v 0.108075 -0.100220 0.044630
vn -0.394796 -0.918301 0.029322
v 0.069591 -0.086768 -0.052251
vn -0.394796 -0.918301 0.029322
v 0.093495 -0.096628 -0.039168
vn -0.394796 -0.918301 0.029322
v 0.108075 -0.100220 0.044630
vn -0.078480 -0.801631 0.592645
v 0.064201 -0.063923 0.087917
vn -0.078480 -0.801631 0.592645
v 0.108075 -0.100220 0.044630
vn -0.078480 -0.801631 0.592645
v 0.141647 -0.074499 0.083867
vn 0.060820 -0.857840 0.510305
v 0.108075 -0.100220 0.044630
vn 0.060820 -0.857840 0.510305
v 0.162811 -0.101352 0.036205
vn 0.060820 -0.857840 0.510305
v 0.141647 -0.074499 0.083867
vn 0.065959 0.997819 0.002735
v 0.031251 0.078473 0.058769
vn 0.065959 0.997819 0.002735
v 0.075696 0.075545 0.055163
vn 0.065959 0.997819 0.002735
v 0.080559 0.075521 -0.053571
vn -0.070239 0.034364 -0.996938
v 0.031738 0.078135 -0.056893
vn -0.070239 0.034364 -0.996938
v 0.010983 0.064955 -0.055885
vn -0.070239 0.034364 -0.996938
v -0.029791 0.074254 -0.052692
vn -0.221472 -0.975098 0.011576
v 0.010983 0.064955 -0.055885
vn -0.221472 -0.975098 0.011576
v -0.006275 0.070232 0.058415
vn -0.221472 -0.975098 0.011576
v -0.029791 0.074254 -0.052692
vn -0.070675 -0.559833 -0.825586
v 0.059317 -0.043212 -0.096372
vn -0.070675 -0.559833 -0.825586
v 0.097545 -0.042864 -0.099880
vn -0.070675 -0.559833 -0.825586
v 0.122715 -0.080129 -0.076766
vn -0.086088 -0.254309 -0.963284
v 0.059317 -0.043212 -0.096372
vn -0.086088 -0.254309 -0.963284
v 0.049857 -0.003117 -0.106112
vn -0.086088 -0.254309 -0.963284
v 0.097545 -0.042864 -0.099880
vn 0.266477 -0.963114 0.037446
v 0.172118 -0.101145 -0.024713
vn 0.266477 -0.963114 0.037446
v 0.238571 -0.080163 0.042034
vn 0.266477 -0.963114 0.037446
v 0.162811 -0.101352 0.036205
vn 0.143157 0.277019 -0.950140
v 0.070757 0.039686 -0.102725
vn 0.143157 0.277019 -0.950140
v 0.128502 0.039398 -0.094108
vn 0.143157 0.277019 -0.950140
v 0.170696 0.026124 -0.091621
vn 0.151864 0.115627 -0.981615
v 0.128502 0.039398 -0.094108
vn 0.151864 0.115627 -0.981615
v 0.383770 0.041572 -0.054360
vn 0.151864 0.115627 -0.981615
v 0.237383 0.030321 -0.078333
vn 0.053642 0.998557 -0.002690
v 0.080559 0.075521 -0.053571
vn 0.053642 0.998557 -0.002690
v 0.031738 0.078135 -0.056893
vn 0.053642 0.998557 -0.002690
v 0.031251 0.078473 0.058769
vn 0.083500 0.793270 -0.603117
v 0.080559 0.075521 -0.053571
vn 0.083500 0.793270 -0.603117
v 0.039218 0.041979 -0.103413
vn 0.083500 0.793270 -0.603117
v 0.031738 0.078135 -0.056893
vn 0.092596 -0.966793 -0.238194
v 0.275314 -0.067660 -0.049787
vn 0.092596 -0.966793 -0.238194
v 0.383770 -0.061358 -0.033204
vn 0.092596 -0.966793 -0.238194
v 0.383770 -0.069850 0.001264
vn 0.139033 -0.776915 -0.614063
v 0.275314 -0.067660 -0.049787
vn 0.139033 -0.776915 -0.614063
v 0.176603 -0.059685 -0.082226
vn 0.139033 -0.776915 -0.614063
v 0.383770 -0.061358 -0.033204
vn 1.000000 0.000000 0.000000
v 0.383770 -0.049085 0.048585
vn 1.000000 0.000000 0.000000
v 0.383770 -0.062048 0.034668
vn 1.000000 0.000000 0.000000
v 0.383770 -0.061358 -0.033204
vn 0.173608 -0.720648 0.671213
v 0.168182 -0.085523 0.065224
vn 0.173608 -0.720648 0.671213
v 0.383770 -0.062048 0.034668
vn 0.173608 -0.720648 0.671213
v 0.383770 -0.049085 0.048585
vn 0.133157 -0.012221 0.991020
v 0.274714 -0.039660 0.072741
vn 0.133157 -0.012221 0.991020
v 0.383770 -0.022463 0.058300
vn 0.133157 -0.012221 0.991020
v 0.332328 0.031602 0.065879
vn 0.175680 -0.337475 0.924796
v 0.274714 -0.039660 0.072741
vn 0.175680 -0.337475 0.924796
v 0.383770 -0.049085 0.048585
vn 0.175680 -0.337475 0.924796
v 0.383770 -0.022463 0.058300
vn 0.093122 -0.478645 -0.873056
v 0.097545 -0.042864 -0.099880
vn 0.093122 -0.478645 -0.873056
v 0.176603 -0.059685 -0.082226
vn 0.093122 -0.478645 -0.873056
v 0.122715 -0.080129 -0.076766
vn 0.181884 -0.671328 -0.718496
v 0.122715 -0.080129 -0.076766
vn 0.181884 -0.671328 -0.718496
v 0.176603 -0.059685 -0.082226
vn 0.181884 -0.671328 -0.718496
v 0.275314 -0.067660 -0.049787
vn -0.024984 -0.875677 0.482251
v 0.162811 -0.101352 0.036205
vn -0.024984 -0.875677 0.482251
v 0.168182 -0.085523 0.065224
vn -0.024984 -0.875677 0.482251
v 0.141647 -0.074499 0.083867
vn 0.210767 -0.874051 0.437736
v 0.162811 -0.101352 0.036205
vn 0.210767 -0.874051 0.437736
v 0.238571 -0.080163 0.042034
vn 0.210767 -0.874051 0.437736
v 0.168182 -0.085523 0.065224
vn 0.121426 -0.009926 -0.992551
v 0.170696 0.026124 -0.091621
vn 0.121426 -0.009926 -0.992551
v 0.097545 -0.042864 -0.099880
vn 0.121426 -0.009926 -0.992551
v 0.049857 -0.003117 -0.106112
vn 0.026554 0.065968 -0.997468
v 0.039218 0.041979 -0.103413
vn 0.026554 0.065968 -0.997468
v 0.070757 0.039686 -0.102725
vn 0.026554 0.065968 -0.997468
v 0.049857 -0.003117 -0.106112
vn -0.168587 -0.985687 0.000000
v -0.006275 0.070232 0.058415
vn -0.168587 -0.985687 0.000000
v -0.029791 0.074254 0.055222
vn -0.168587 -0.985687 0.000000
v -0.029791 0.074254 -0.052692
vn -0.134557 0.000000 0.990906
v -0.029791 0.088981 0.055222
vn -0.134557 0.000000 0.990906
v -0.029791 0.074254 0.055222
vn -0.134557 0.000000 0.990906
v -0.006275 0.070232 0.058415
vn 0.162661 0.343747 -0.924867
v 0.128502 0.039398 -0.094108
vn 0.162661 0.343747 -0.924867
v 0.237383 0.030321 -0.078333
vn 0.162661 0.343747 -0.924867
v 0.170696 0.026124 -0.091621
vn 0.197175 -0.030402 -0.979897
v 0.170696 0.026124 -0.091621
vn 0.197175 -0.030402 -0.979897
v 0.237383 0.030321 -0.078333
vn 0.197175 -0.030402 -0.979897
v 0.176600 -0.043466 -0.088274
vn 0.003832 -0.973780 0.227458
v 0.260847 -0.077384 -0.028919
vn 0.003832 -0.973780 0.227458
v 0.383770 -0.069850 0.001264
vn 0.003832 -0.973780 0.227458
v 0.383770 -0.062048 0.034668
vn 0.139802 -0.931085 -0.336950
v 0.275314 -0.067660 -0.049787
vn 0.139802 -0.931085 -0.336950
v 0.383770 -0.069850 0.001264
vn 0.139802 -0.931085 -0.336950
v 0.260847 -0.077384 -0.028919
vn 0.100867 0.795979 0.596861
v 0.039048 0.057501 0.085419
vn 0.100867 0.795979 0.596861
v 0.075696 0.075545 0.055163
vn 0.100867 0.795979 0.596861
v 0.031251 0.078473 0.058769
vn -0.807618 -0.589706 0.000000
v 0.039048 0.042211 0.071115
vn -0.807618 -0.589706 0.000000
v 0.039218 0.041979 -0.103413
vn -0.807618 -0.589706 0.000000
v 0.039218 0.041979 0.090464
vn -0.999930 -0.008086 0.008644
v 0.039218 0.041979 0.090464
vn -0.999930 -0.008086 0.008644
v 0.039048 0.057501 0.085419
vn -0.999930 -0.008086 0.008644
v 0.039048 0.042211 0.071115
vn 0.093288 0.795582 -0.598621
v 0.128502 0.039398 -0.094108
vn 0.093288 0.795582 -0.598621
v 0.070757 0.039686 -0.102725
vn 0.093288 0.795582 -0.598621
v 0.080559 0.075521 -0.053571
vn 0.122496 0.243452 0.962147
v 0.383770 0.041708 0.056772
vn 0.122496 0.243452 0.962147
v 0.168580 0.044412 0.083485
vn 0.122496 0.243452 0.962147
v 0.332328 0.031602 0.065879
vn 0.169794 0.023455 0.985200
v 0.332328 0.031602 0.065879
vn 0.169794 0.023455 0.985200
v 0.383770 -0.022463 0.058300
vn 0.169794 0.023455 0.985200
v 0.383770 0.041708 0.056772
vn 0.050581 -0.012084 0.998647
v 0.039218 0.041979 0.090464
vn 0.050581 -0.012084 0.998647
v 0.064201 -0.063923 0.087917
vn 0.050581 -0.012084 0.998647
v 0.141647 -0.074499 0.083867
# 300 vertices, 0 vertices normals

f 1//1 2//2 3//3
f 4//4 5//5 6//6
f 7//7 8//8 9//9
f 10//10 11//11 12//12
f 13//13 14//14 15//15
f 16//16 17//17 18//18
f 19//19 20//20 21//21
f 22//22 23//23 24//24
f 25//25 26//26 27//27
f 28//28 29//29 30//30
f 31//31 32//32 33//33
f 34//34 35//35 36//36
f 37//37 38//38 39//39
f 40//40 41//41 42//42
f 43//43 44//44 45//45
f 46//46 47//47 48//48
f 49//49 50//50 51//51
f 52//52 53//53 54//54
f 55//55 56//56 57//57
f 58//58 59//59 60//60
f 61//61 62//62 63//63
f 64//64 65//65 66//66
f 67//67 68//68 69//69
f 70//70 71//71 72//72
f 73//73 74//74 75//75
f 76//76 77//77 78//78
f 79//79 80//80 81//81
f 82//82 83//83 84//84
f 85//85 86//86 87//87
f 88//88 89//89 90//90
f 91//91 92//92 93//93
f 94//94 95//95 96//96
f 97//97 98//98 99//99
f 100//100 101//101 102//102
f 103//103 104//104 105//105
f 106//106 107//107 108//108
f 109//109 110//110 111//111
f 112//112 113//113 114//114
f 115//115 116//116 117//117
f 118//118 119//119 120//120
f 121//121 122//122 123//123
f 124//124 125//125 126//126
f 127//127 128//128 129//129
f 130//130 131//131 132//132
f 133//133 134//134 135//135
f 136//136 137//137 138//138
f 139//139 140//140 141//141
f 142//142 143//143 144//144
f 145//145 146//146 147//147
f 148//148 149//149 150//150
f 151//151 152//152 153//153
f 154//154 155//155 156//156
f 157//157 158//158 159//159
f 160//160 161//161 162//162
f 163//163 164//164 165//165
f 166//166 167//167 168//168
f 169//169 170//170 171//171
f 172//172 173//173 174//174
f 175//175 176//176 177//177
f 178//178 179//179 180//180
f 181//181 182//182 183//183
f 184//184 185//185 186//186
f 187//187 188//188 189//189
f 190//190 191//191 192//192
f 193//193 194//194 195//195
f 196//196 197//197 198//198
f 199//199 200//200 201//201
f 202//202 203//203 204//204
f 205//205 206//206 207//207
f 208//208 209//209 210//210
f 211//211 212//212 213//213
f 214//214 215//215 216//216
f 217//217 218//218 219//219
f 220//220 221//221 222//222
f 223//223 224//224 225//225
f 226//226 227//227 228//228
f 229//229 230//230 231//231
f 232//232 233//233 234//234
f 235//235 236//236 237//237
f 238//238 239//239 240//240
f 241//241 242//242 243//243
f 244//244 245//245 246//246
f 247//247 248//248 249//249
f 250//250 251//251 252//252
f 253//253 254//254 255//255
f 256//256 257//257 258//258
f 259//259 260//260 261//261
f 262//262 263//263 264//264
f 265//265 266//266 267//267
f 268//268 269//269 270//270
f 271//271 272//272 273//273
f 274//274 275//275 276//276
f 277//277 278//278 279//279
f 280//280 281//281 282//282
f 283//283 284//284 285//285
f 286//286 287//287 288//288
f 289//289 290//290 291//291
f 292//292 293//293 294//294
f 295//295 296//296 297//297
f 298//298 299//299 300//300
# 100 faces, 0 coords texture

# End of File