####
#
# OBJ File Generated by Meshlab
#
####
# Object nj1.obj
#
# Vertices: 774
# Faces: 258
#
####
vn -0.802686 -0.093551 -0.589020
v 0.020509 0.012896 -0.012414
vn -0.802686 -0.093551 -0.589020
v 0.025276 0.019266 -0.019923
vn -0.802686 -0.093551 -0.589020
v 0.028972 -0.000617 -0.021801
vn -0.072200 0.266247 -0.961197
v 0.011579 0.025483 -0.025854
vn -0.072200 0.266247 -0.961197
v -0.016184 0.021913 -0.024757
vn -0.072200 0.266247 -0.961197
v 0.038800 0.036466 -0.024856
vn -0.041067 -0.018562 0.998984
v 0.044167 0.000536 -0.013128
vn -0.041067 -0.018562 0.998984
v 0.028779 0.033479 -0.013149
vn -0.041067 -0.018562 0.998984
v 0.027050 0.007112 -0.013710
vn -0.272023 0.459204 -0.845657
v 0.100954 0.049690 -0.006198
vn -0.272023 0.459204 -0.845657
v 0.052892 0.012874 -0.010729
vn -0.272023 0.459204 -0.845657
v 0.046941 0.025325 -0.002054
vn -0.885534 -0.413517 0.211740
v 0.028779 0.033479 -0.013149
vn -0.885534 -0.413517 0.211740
v 0.044167 0.000536 -0.013128
vn -0.885534 -0.413517 0.211740
v 0.037559 0.028409 0.013671
vn -0.491644 0.865351 -0.097232
v 0.086824 0.055725 0.007685
vn -0.491644 0.865351 -0.097232
v 0.074539 0.046747 -0.010108
vn -0.491644 0.865351 -0.097232
v 0.037559 0.028409 0.013671
vn -0.099402 -0.012808 -0.994965
v 0.001775 -0.003806 -0.014000
vn -0.099402 -0.012808 -0.994965
v 0.000366 0.016646 -0.014123
vn -0.099402 -0.012808 -0.994965
v 0.018876 -0.002245 -0.015729
vn 0.101638 -0.026445 -0.994470
v -0.001775 0.003806 -0.014000
vn 0.101638 -0.026445 -0.994470
v -0.018782 0.004304 -0.015751
vn 0.101638 -0.026445 -0.994470
v 0.000366 0.016646 -0.014123
vn 0.114859 -0.965330 -0.234404
v 0.001102 0.021722 -0.015500
vn 0.114859 -0.965330 -0.234404
v -0.016184 0.021913 -0.024757
vn 0.114859 -0.965330 -0.234404
v 0.011579 0.025483 -0.025854
vn -0.956879 0.016298 -0.290027
v 0.100954 0.049690 -0.006198
vn -0.956879 0.016298 -0.290027
v 0.104000 0.064697 -0.015405
vn -0.956879 0.016298 -0.290027
v 0.104000 0.037630 -0.016926
vn 0.875982 -0.279121 0.393380
v -0.001033 -0.026553 -0.010097
vn 0.875982 -0.279121 0.393380
v 0.005831 -0.026845 -0.025589
vn 0.875982 -0.279121 0.393380
v 0.002936 -0.021715 -0.015504
vn 0.612871 -0.790164 -0.005468
v 0.018371 -0.020523 -0.014033
vn 0.612871 -0.790164 -0.005468
v 0.016689 -0.021749 -0.025414
vn 0.612871 -0.790164 -0.005468
v 0.052868 0.006309 -0.024965
vn -0.988215 -0.151970 -0.018330
v 0.101982 0.049297 0.004543
vn -0.988215 -0.151970 -0.018330
v 0.105839 0.024571 0.001622
vn -0.988215 -0.151970 -0.018330
v 0.104000 0.034998 0.014294
vn -0.891785 -0.405127 0.201473
v 0.044167 0.000536 -0.013128
vn -0.891785 -0.405127 0.201473
v 0.046126 0.007515 0.009578
vn -0.891785 -0.405127 0.201473
v 0.037559 0.028409 0.013671
vn 0.000000 0.000000 1.000000
v -0.017244 0.015421 -0.009000
vn 0.000000 0.000000 1.000000
v -0.017621 0.006414 -0.009000
vn 0.000000 0.000000 1.000000
v 0.001104 0.020245 -0.009000
vn 0.092148 -0.011560 -0.995678
v -0.014581 0.016139 -0.015500
vn 0.092148 -0.011560 -0.995678
v 0.000366 0.016646 -0.014123
vn 0.092148 -0.011560 -0.995678
v -0.018782 0.004304 -0.015751
vn 0.608482 -0.793540 -0.006693
v 0.100954 0.049690 -0.006198
vn 0.608482 -0.793540 -0.006693
v 0.046126 0.007515 0.009578
vn 0.608482 -0.793540 -0.006693
v 0.052892 0.012874 -0.010729
vn 0.997694 0.011766 -0.066841
v 0.107762 0.059203 -0.006593
vn 0.997694 0.011766 -0.066841
v 0.107000 0.044211 -0.020609
vn 0.997694 0.011766 -0.066841
v 0.107000 0.068294 -0.016370
vn -0.985033 0.158741 -0.067161
v 0.100954 0.049690 -0.006198
vn -0.985033 0.158741 -0.067161
v 0.102275 0.058804 -0.004031
vn -0.985033 0.158741 -0.067161
v 0.104000 0.064697 -0.015405
vn 0.709965 0.650462 -0.269905
v -0.021172 -0.012923 -0.014447
vn 0.709965 0.650462 -0.269905
v -0.015561 -0.017701 -0.011203
vn 0.709965 0.650462 -0.269905
v -0.019581 -0.018908 -0.024684
vn 0.328254 -0.254608 0.909628
v -0.001775 0.003806 -0.008000
vn 0.328254 -0.254608 0.909628
v 0.007143 0.019673 -0.006777
vn 0.328254 -0.254608 0.909628
v -0.015693 -0.003985 -0.005158
vn -0.194024 0.136420 0.971465
v 0.001775 -0.003806 -0.008000
vn -0.194024 0.136420 0.971465
v -0.000305 -0.016755 -0.006597
vn -0.194024 0.136420 0.971465
v 0.015430 0.000509 -0.005879
vn 0.389965 0.525322 0.756283
v -0.001033 -0.026553 -0.010097
vn 0.389965 0.525322 0.756283
v 0.002936 -0.021715 -0.015504
vn 0.389965 0.525322 0.756283
v -0.002773 -0.019631 -0.014008
vn 0.888932 0.415362 -0.193065
v 0.038800 0.036466 -0.024856
vn 0.888932 0.415362 -0.193065
v 0.052892 0.012874 -0.010729
vn 0.888932 0.415362 -0.193065
v 0.052868 0.006309 -0.024965
vn 0.891599 -0.411779 0.188389
v 0.046126 0.007515 0.009578
vn 0.891599 -0.411779 0.188389
v 0.052868 0.006309 -0.024965
vn 0.891599 -0.411779 0.188389
v 0.052892 0.012874 -0.010729
vn -0.332560 0.729071 -0.598213
v 0.017431 -0.013279 -0.015504
vn -0.332560 0.729071 -0.598213
v 0.016689 -0.021749 -0.025414
vn -0.332560 0.729071 -0.598213
v 0.005831 -0.026845 -0.025589
vn 0.306771 -0.950076 0.056988
v -0.001033 -0.026553 -0.010097
vn 0.306771 -0.950076 0.056988
v 0.016689 -0.021749 -0.025414
vn 0.306771 -0.950076 0.056988
v 0.018371 -0.020523 -0.014033
vn -0.983343 -0.015270 0.181117
v 0.101982 0.049297 0.004543
vn -0.983343 -0.015270 0.181117
v 0.104000 0.034998 0.014294
vn -0.983343 -0.015270 0.181117
v 0.104000 0.066218 0.016926
vn -0.189160 -0.845904 -0.498664
v 0.013736 0.020206 -0.017720
vn -0.189160 -0.845904 -0.498664
v 0.001102 0.021722 -0.015500
vn -0.189160 -0.845904 -0.498664
v 0.011579 0.025483 -0.025854
vn 0.566855 0.570131 0.594664
v 0.006233 0.029104 -0.014951
vn 0.566855 0.570131 0.594664
v 0.007143 0.019673 -0.006777
vn 0.566855 0.570131 0.594664
v 0.027050 0.007112 -0.013710
vn -0.165396 -0.846797 -0.505548
v 0.013736 0.020206 -0.017720
vn -0.165396 -0.846797 -0.505548
v 0.011579 0.025483 -0.025854
vn -0.165396 -0.846797 -0.505548
v 0.025276 0.019266 -0.019923
vn -0.255724 0.966354 0.027673
v 0.028779 0.033479 -0.013149
vn -0.255724 0.966354 0.027673
v 0.038800 0.036466 -0.024856
vn -0.255724 0.966354 0.027673
v -0.016184 0.021913 -0.024757
vn -0.054626 0.977712 0.202721
v 0.028779 0.033479 -0.013149
vn -0.054626 0.977712 0.202721
v 0.037559 0.028409 0.013671
vn -0.054626 0.977712 0.202721
v 0.038800 0.036466 -0.024856
vn 0.183057 -0.116196 0.976211
v 0.037559 0.028409 0.013671
vn 0.183057 -0.116196 0.976211
v 0.046126 0.007515 0.009578
vn 0.183057 -0.116196 0.976211
v 0.086824 0.055725 0.007685
vn -0.257391 -0.308060 0.915887
v -0.000305 -0.016755 -0.006597
vn -0.257391 -0.308060 0.915887
v -0.015561 -0.017701 -0.011203
vn -0.257391 -0.308060 0.915887
v -0.001033 -0.026553 -0.010097
vn 0.435068 -0.748608 -0.500302
v 0.046941 0.025325 -0.002054
vn 0.435068 -0.748608 -0.500302
v 0.074539 0.046747 -0.010108
vn 0.435068 -0.748608 -0.500302
v 0.102275 0.058804 -0.004031
vn -0.087794 0.010755 -0.996081
v 0.014581 -0.016139 -0.015500
vn -0.087794 0.010755 -0.996081
v -0.002773 -0.019631 -0.014008
vn -0.087794 0.010755 -0.996081
v 0.018876 -0.002245 -0.015729
vn -0.769833 0.512525 -0.380363
v 0.017431 -0.013279 -0.015504
vn -0.769833 0.512525 -0.380363
v 0.028972 -0.000617 -0.021801
vn -0.769833 0.512525 -0.380363
v 0.016689 -0.021749 -0.025414
vn 0.000000 0.000000 1.000000
v 0.017244 -0.015421 -0.009000
vn 0.000000 0.000000 1.000000
v 0.017621 -0.006414 -0.009000
vn 0.000000 0.000000 1.000000
v -0.001104 -0.020245 -0.009000
vn -0.034308 -0.000932 0.999411
v 0.018371 -0.020523 -0.014033
vn -0.034308 -0.000932 0.999411
v 0.044167 0.000536 -0.013128
vn -0.034308 -0.000932 0.999411
v 0.027050 0.007112 -0.013710
vn -0.549210 0.306259 -0.777544
v -0.021795 0.018231 -0.022244
vn -0.549210 0.306259 -0.777544
v -0.016184 0.021913 -0.024757
vn -0.549210 0.306259 -0.777544
v -0.025403 0.002225 -0.026000
vn -0.689632 0.123499 -0.713552
v -0.021479 0.010923 -0.012000
vn -0.689632 0.123499 -0.713552
v -0.017431 0.013279 -0.015504
vn -0.689632 0.123499 -0.713552
v -0.018782 0.004304 -0.015751
vn -0.925957 -0.362717 0.105070
v -0.017446 -0.021258 -0.013984
vn -0.925957 -0.362717 0.105070
v -0.026330 0.002341 -0.010810
vn -0.925957 -0.362717 0.105070
v -0.019581 -0.018908 -0.024684
vn 0.686708 -0.709379 0.158788
v 0.052868 0.006309 -0.024965
vn 0.686708 -0.709379 0.158788
v 0.046126 0.007515 0.009578
vn 0.686708 -0.709379 0.158788
v 0.044167 0.000536 -0.013128
vn 0.628336 -0.773319 0.084689
v 0.044167 0.000536 -0.013128
vn 0.628336 -0.773319 0.084689
v 0.018371 -0.020523 -0.014033
vn 0.628336 -0.773319 0.084689
v 0.052868 0.006309 -0.024965
vn 0.102323 -0.004008 -0.994743
v -0.001775 0.003806 -0.014000
vn 0.102323 -0.004008 -0.994743
v -0.002773 -0.019631 -0.014008
vn 0.102323 -0.004008 -0.994743
v -0.018782 0.004304 -0.015751
vn -0.103250 0.030187 -0.994197
v 0.001775 -0.003806 -0.014000
vn -0.103250 0.030187 -0.994197
v 0.018876 -0.002245 -0.015729
vn -0.103250 0.030187 -0.994197
v -0.002773 -0.019631 -0.014008
vn -0.987971 0.131178 -0.081886
v 0.102275 0.058804 -0.004031
vn -0.987971 0.131178 -0.081886
v 0.104924 0.078961 -0.003704
vn -0.987971 0.131178 -0.081886
v 0.104000 0.064697 -0.015405
vn -0.708404 0.582589 -0.398439
v 0.009088 0.016072 -0.015500
vn -0.708404 0.582589 -0.398439
v 0.007143 0.019673 -0.006777
vn -0.708404 0.582589 -0.398439
v 0.013736 0.020206 -0.017720
vn 0.290207 0.011032 0.956900
v 0.107000 0.035554 0.016370
vn 0.290207 0.011032 0.956900
v 0.108954 0.058382 0.015514
vn 0.290207 0.011032 0.956900
v 0.104000 0.066218 0.016926
vn 0.995623 0.051166 -0.078216
v 0.108954 0.058382 0.015514
vn 0.995623 0.051166 -0.078216
v 0.107220 0.068407 0.000000
vn 0.995623 0.051166 -0.078216
v 0.106707 0.078381 0.000000
vn -1.000000 0.000000 0.000000
v 0.104000 0.044970 0.018776
vn -1.000000 0.000000 0.000000
v 0.104000 0.066218 0.016926
vn -1.000000 0.000000 0.000000
v 0.104000 0.034998 0.014294
vn 0.651940 0.013914 0.758143
v 0.104000 0.044970 0.018776
vn 0.651940 0.013914 0.758143
v 0.107000 0.035554 0.016370
vn 0.651940 0.013914 0.758143
v 0.104000 0.059076 0.018518
vn 0.961241 -0.253956 -0.107344
v -0.017431 0.013279 -0.015504
vn 0.961241 -0.253956 -0.107344
v -0.021715 -0.002936 -0.015504
vn 0.961241 -0.253956 -0.107344
v -0.016184 0.021913 -0.024757
vn -0.457544 0.271723 0.846652
v 0.006233 0.029104 -0.014951
vn -0.457544 0.271723 0.846652
v -0.016184 0.021913 -0.024757
vn -0.457544 0.271723 0.846652
v 0.000366 0.016646 -0.014123
vn 0.684984 -0.104376 -0.721043
v 0.021479 -0.010923 -0.012000
vn 0.684984 -0.104376 -0.721043
v 0.017431 -0.013279 -0.015504
vn 0.684984 -0.104376 -0.721043
v 0.018876 -0.002245 -0.015729
vn 0.999272 -0.033132 -0.018903
v 0.107762 0.059203 -0.006593
vn 0.999272 -0.033132 -0.018903
v 0.107000 0.038152 -0.009989
vn 0.999272 -0.033132 -0.018903
v 0.107000 0.044211 -0.020609
vn -0.483290 -0.075964 -0.872158
v 0.104000 0.058878 -0.018776
vn -0.483290 -0.075964 -0.872158
v 0.106473 0.051961 -0.019544
vn -0.483290 -0.075964 -0.872158
v 0.104000 0.037630 -0.016926
vn 0.238909 0.168350 -0.956337
v 0.104000 0.058878 -0.018776
vn 0.238909 0.168350 -0.956337
v 0.107000 0.068294 -0.016370
vn 0.238909 0.168350 -0.956337
v 0.107000 0.044211 -0.020609
vn -0.215967 0.627491 0.748073
v 0.001104 0.020245 -0.009000
vn -0.215967 0.627491 0.748073
v 0.007143 0.019673 -0.006777
vn -0.215967 0.627491 0.748073
v 0.006233 0.029104 -0.014951
vn -0.285984 0.387187 0.876527
v 0.001104 0.020245 -0.009000
vn -0.285984 0.387187 0.876527
v -0.017621 0.006414 -0.009000
vn -0.285984 0.387187 0.876527
v 0.007143 0.019673 -0.006777
vn 0.945949 0.017213 -0.323859
v -0.021715 -0.002936 -0.015504
vn 0.945949 0.017213 -0.323859
v -0.021172 -0.012923 -0.014447
vn 0.945949 0.017213 -0.323859
v -0.025403 0.002225 -0.026000
vn 0.815054 -0.352626 -0.459719
v -0.021715 -0.002936 -0.015504
vn 0.815054 -0.352626 -0.459719
v -0.025403 0.002225 -0.026000
vn 0.815054 -0.352626 -0.459719
v -0.016184 0.021913 -0.024757
vn 0.207914 -0.829531 -0.518315
v -0.010948 -0.014640 -0.014251
vn 0.207914 -0.829531 -0.518315
v -0.000305 -0.016755 -0.006597
vn 0.207914 -0.829531 -0.518315
v -0.015561 -0.017701 -0.011203
vn 0.121318 0.984797 -0.124325
v -0.015561 -0.017701 -0.011203
vn 0.121318 0.984797 -0.124325
v -0.002773 -0.019631 -0.014008
vn 0.121318 0.984797 -0.124325
v -0.019581 -0.018908 -0.024684
vn 0.902962 0.083528 -0.421524
v -0.001104 -0.020245 -0.009000
vn 0.902962 0.083528 -0.421524
v -0.000305 -0.016755 -0.006597
vn 0.902962 0.083528 -0.421524
v -0.001033 -0.026553 -0.010097
vn 0.426306 -0.577164 0.696523
v -0.001104 -0.020245 -0.009000
vn 0.426306 -0.577164 0.696523
v 0.017621 -0.006414 -0.009000
vn 0.426306 -0.577164 0.696523
v -0.000305 -0.016755 -0.006597
vn -0.207350 0.008684 0.978228
v -0.017244 0.015421 -0.009000
vn -0.207350 0.008684 0.978228
v -0.026330 0.002341 -0.010810
vn -0.207350 0.008684 0.978228
v -0.017621 0.006414 -0.009000
vn 0.998039 0.051290 -0.035869
v 0.107000 0.065696 -0.009989
vn 0.998039 0.051290 -0.035869
v 0.106707 0.078381 0.000000
vn 0.998039 0.051290 -0.035869
v 0.107220 0.068407 0.000000
vn 0.583641 0.665667 -0.465028
v 0.105000 0.065299 -0.023166
vn 0.583641 0.665667 -0.465028
v 0.104924 0.078961 -0.003704
vn 0.583641 0.665667 -0.465028
v 0.107000 0.068294 -0.016370
vn -0.189885 -0.685865 -0.702519
v 0.020509 0.012896 -0.012414
vn -0.189885 -0.685865 -0.702519
v 0.013736 0.020206 -0.017720
vn -0.189885 -0.685865 -0.702519
v 0.025276 0.019266 -0.019923
vn 0.998039 -0.051290 0.035869
v 0.107000 0.038152 0.009989
vn 0.998039 -0.051290 0.035869
v 0.106707 0.025467 0.000000
vn 0.998039 -0.051290 0.035869
v 0.107220 0.035441 0.000000
vn -0.890947 0.045786 -0.451793
v 0.105839 0.024571 0.001622
vn -0.890947 0.045786 -0.451793
v 0.107220 0.035441 0.000000
vn -0.890947 0.045786 -0.451793
v 0.106707 0.025467 0.000000
vn -0.076441 -0.218907 -0.972747
v 0.025276 0.019266 -0.019923
vn -0.076441 -0.218907 -0.972747
v 0.038800 0.036466 -0.024856
vn -0.076441 -0.218907 -0.972747
v 0.043058 0.015901 -0.020563
vn -0.154331 0.931252 -0.330077
v 0.006233 0.029104 -0.014951
vn -0.154331 0.931252 -0.330077
v 0.028779 0.033479 -0.013149
vn -0.154331 0.931252 -0.330077
v -0.016184 0.021913 -0.024757
vn -0.076535 -0.016193 0.996935
v 0.028779 0.033479 -0.013149
vn -0.076535 -0.016193 0.996935
v 0.006233 0.029104 -0.014951
vn -0.076535 -0.016193 0.996935
v 0.027050 0.007112 -0.013710
vn 0.413653 -0.888182 0.200060
v -0.001033 -0.026553 -0.010097
vn 0.413653 -0.888182 0.200060
v 0.005831 -0.026845 -0.025589
vn 0.413653 -0.888182 0.200060
v 0.016689 -0.021749 -0.025414
vn -0.269907 -0.950349 -0.154876
v -0.001033 -0.026553 -0.010097
vn -0.269907 -0.950349 -0.154876
v -0.017446 -0.021258 -0.013984
vn -0.269907 -0.950349 -0.154876
v -0.019581 -0.018908 -0.024684
vn -0.597790 0.751514 -0.279058
v -0.001033 -0.026553 -0.010097
vn -0.597790 0.751514 -0.279058
v 0.014581 -0.016139 -0.015500
vn -0.597790 0.751514 -0.279058
v 0.005831 -0.026845 -0.025589
vn -0.597595 0.659164 -0.456490
v 0.006954 -0.018597 -0.009065
vn -0.597595 0.659164 -0.456490
v 0.014581 -0.016139 -0.015500
vn -0.597595 0.659164 -0.456490
v -0.001033 -0.026553 -0.010097
vn 0.989216 -0.134389 -0.058232
v 0.105839 0.024571 0.001622
vn 0.989216 -0.134389 -0.058232
v 0.107000 0.038152 -0.009989
vn 0.989216 -0.134389 -0.058232
v 0.107220 0.035441 0.000000
vn -0.696932 -0.617075 -0.365381
v 0.105043 0.041747 -0.025869
vn -0.696932 -0.617075 -0.365381
v 0.105839 0.024571 0.001622
vn -0.696932 -0.617075 -0.365381
v 0.104000 0.037630 -0.016926
vn 0.959026 -0.226983 -0.169552
v 0.105839 0.024571 0.001622
vn 0.959026 -0.226983 -0.169552
v 0.105043 0.041747 -0.025869
vn 0.959026 -0.226983 -0.169552
v 0.107000 0.038152 -0.009989
vn -0.678061 -0.316032 0.663594
v 0.104000 0.058878 -0.018776
vn -0.678061 -0.316032 0.663594
v 0.105043 0.041747 -0.025869
vn -0.678061 -0.316032 0.663594
v 0.106473 0.051961 -0.019544
vn 0.510527 -0.807004 -0.296827
v -0.006954 0.018597 -0.009065
vn 0.510527 -0.807004 -0.296827
v -0.014581 0.016139 -0.015500
vn 0.510527 -0.807004 -0.296827
v 0.006233 0.029104 -0.014951
vn 0.459643 -0.715606 -0.525962
v 0.006233 0.029104 -0.014951
vn 0.459643 -0.715606 -0.525962
v -0.014581 0.016139 -0.015500
vn 0.459643 -0.715606 -0.525962
v -0.016184 0.021913 -0.024757
vn 0.469196 -0.019650 0.882875
v 0.017244 -0.015421 -0.009000
vn 0.469196 -0.019650 0.882875
v 0.027050 0.007112 -0.013710
vn 0.469196 -0.019650 0.882875
v 0.017621 -0.006414 -0.009000
vn -0.397616 -0.231048 0.887986
v -0.015561 -0.017701 -0.011203
vn -0.397616 -0.231048 0.887986
v -0.012954 -0.013722 -0.009000
vn -0.397616 -0.231048 0.887986
v -0.026330 0.002341 -0.010810
vn -0.552313 -0.311916 0.773084
v -0.015561 -0.017701 -0.011203
vn -0.552313 -0.311916 0.773084
v -0.026330 0.002341 -0.010810
vn -0.552313 -0.311916 0.773084
v -0.017446 -0.021258 -0.013984
vn 0.997286 -0.068187 -0.027763
v 0.105839 0.024571 0.001622
vn 0.997286 -0.068187 -0.027763
v 0.107000 0.038152 0.009989
vn 0.997286 -0.068187 -0.027763
v 0.107000 0.035554 0.016370
vn 0.876239 0.475074 -0.080685
v 0.052892 0.012874 -0.010729
vn 0.876239 0.475074 -0.080685
v 0.038800 0.036466 -0.024856
vn 0.876239 0.475074 -0.080685
v 0.046941 0.025325 -0.002054
vn -0.123674 -0.006958 0.992299
v -0.001775 0.003806 -0.008000
vn -0.123674 -0.006958 0.992299
v 0.015430 0.000509 -0.005879
vn -0.123674 -0.006958 0.992299
v 0.007143 0.019673 -0.006777
vn -0.205220 0.279644 -0.937915
v 0.028972 -0.000617 -0.021801
vn -0.205220 0.279644 -0.937915
v 0.052868 0.006309 -0.024965
vn -0.205220 0.279644 -0.937915
v 0.016689 -0.021749 -0.025414
vn -0.607911 -0.280899 -0.742658
v 0.043058 0.015901 -0.020563
vn -0.607911 -0.280899 -0.742658
v 0.038800 0.036466 -0.024856
vn -0.607911 -0.280899 -0.742658
v 0.052868 0.006309 -0.024965
vn 0.994267 0.094472 -0.050078
v 0.107220 0.068407 0.000000
vn 0.994267 0.094472 -0.050078
v 0.108954 0.058382 0.015514
vn 0.994267 0.094472 -0.050078
v 0.107762 0.059203 -0.006593
vn -0.348098 0.911383 -0.219566
v 0.102275 0.058804 -0.004031
vn -0.348098 0.911383 -0.219566
v 0.074539 0.046747 -0.010108
vn -0.348098 0.911383 -0.219566
v 0.086824 0.055725 0.007685
vn 0.966869 0.064908 0.246883
v 0.105000 0.065299 0.023166
vn 0.966869 0.064908 0.246883
v 0.105020 0.051893 0.026611
vn 0.966869 0.064908 0.246883
v 0.107000 0.051924 0.018850
vn -0.991882 0.002333 0.127138
v 0.104000 0.044970 0.018776
vn -0.991882 0.002333 0.127138
v 0.105020 0.051893 0.026611
vn -0.991882 0.002333 0.127138
v 0.104000 0.059076 0.018518
vn 0.966982 -0.065083 0.246394
v 0.105020 0.051893 0.026611
vn 0.966982 -0.065083 0.246394
v 0.105000 0.038549 0.023166
vn 0.966982 -0.065083 0.246394
v 0.107000 0.051924 0.018850
vn -0.985513 -0.040970 0.164574
v 0.104000 0.044970 0.018776
vn -0.985513 -0.040970 0.164574
v 0.105000 0.038549 0.023166
vn -0.985513 -0.040970 0.164574
v 0.105020 0.051893 0.026611
vn 0.611516 -0.156191 0.775662
v 0.015430 0.000509 -0.005879
vn 0.611516 -0.156191 0.775662
v 0.017621 -0.006414 -0.009000
vn 0.611516 -0.156191 0.775662
v 0.027050 0.007112 -0.013710
vn -0.610133 -0.433327 0.663299
v -0.015693 -0.003985 -0.005158
vn -0.610133 -0.433327 0.663299
v -0.026330 0.002341 -0.010810
vn -0.610133 -0.433327 0.663299
v -0.012954 -0.013722 -0.009000
vn 0.994633 0.092220 -0.046905
v 0.107000 0.065696 -0.009989
vn 0.994633 0.092220 -0.046905
v 0.107220 0.068407 0.000000
vn 0.994633 0.092220 -0.046905
v 0.107762 0.059203 -0.006593
vn -0.195190 -0.230399 -0.953319
v 0.000366 0.016646 -0.014123
vn -0.195190 -0.230399 -0.953319
v 0.001102 0.021722 -0.015500
vn -0.195190 -0.230399 -0.953319
v 0.013736 0.020206 -0.017720
vn -0.498218 -0.683028 0.534089
v 0.020509 0.012896 -0.012414
vn -0.498218 -0.683028 0.534089
v 0.028972 -0.000617 -0.021801
vn -0.498218 -0.683028 0.534089
v 0.027050 0.007112 -0.013710
vn 0.454470 -0.069270 -0.888065
v -0.021172 -0.012923 -0.014447
vn 0.454470 -0.069270 -0.888065
v -0.021715 -0.002936 -0.015504
vn 0.454470 -0.069270 -0.888065
v -0.015561 -0.017701 -0.011203
vn 0.591797 -0.801493 -0.085941
v 0.101982 0.049297 0.004543
vn 0.591797 -0.801493 -0.085941
v 0.046126 0.007515 0.009578
vn 0.591797 -0.801493 -0.085941
v 0.100954 0.049690 -0.006198
vn -0.265221 -0.417512 0.869104
v -0.015693 -0.003985 -0.005158
vn -0.265221 -0.417512 0.869104
v -0.012954 -0.013722 -0.009000
vn -0.265221 -0.417512 0.869104
v -0.000305 -0.016755 -0.006597
vn 0.159242 0.081008 0.983910
v 0.001775 -0.003806 -0.008000
vn 0.159242 0.081008 0.983910
v -0.015693 -0.003985 -0.005158
vn 0.159242 0.081008 0.983910
v -0.000305 -0.016755 -0.006597
vn 0.535691 -0.027530 -0.843965
v 0.104000 0.029848 -0.001861
vn 0.535691 -0.027530 -0.843965
v 0.107220 0.035441 0.000000
vn 0.535691 -0.027530 -0.843965
v 0.106707 0.025467 0.000000
vn -0.535691 0.027530 0.843965
v 0.104000 0.029848 -0.001861
vn -0.535691 0.027530 0.843965
v 0.106707 0.025467 0.000000
vn -0.535691 0.027530 0.843965
v 0.107220 0.035441 0.000000
vn 0.000687 0.000320 -1.000000
v -0.001775 0.003806 -0.014000
vn 0.000687 0.000320 -1.000000
v 0.001775 -0.003806 -0.014000
vn 0.000687 0.000320 -1.000000
v -0.002773 -0.019631 -0.014008
vn -0.015076 -0.007030 -0.999862
v 0.001775 -0.003806 -0.014000
vn -0.015076 -0.007030 -0.999862
v -0.001775 0.003806 -0.014000
vn -0.015076 -0.007030 -0.999862
v 0.000366 0.016646 -0.014123
vn -0.133903 -0.062440 0.989025
v -0.001775 0.003806 -0.008000
vn -0.133903 -0.062440 0.989025
v 0.001775 -0.003806 -0.008000
vn -0.133903 -0.062440 0.989025
v 0.015430 0.000509 -0.005879
vn 0.159392 0.074326 0.984413
v 0.001775 -0.003806 -0.008000
vn 0.159392 0.074326 0.984413
v -0.001775 0.003806 -0.008000
vn 0.159392 0.074326 0.984413
v -0.015693 -0.003985 -0.005158
vn -0.186854 0.252769 -0.949312
v 0.100954 0.049690 -0.006198
vn -0.186854 0.252769 -0.949312
v 0.046941 0.025325 -0.002054
vn -0.186854 0.252769 -0.949312
v 0.102275 0.058804 -0.004031
vn -0.099063 -0.382154 -0.918774
v 0.013736 0.020206 -0.017720
vn -0.099063 -0.382154 -0.918774
v 0.027050 0.007112 -0.013710
vn -0.099063 -0.382154 -0.918774
v 0.009088 0.016072 -0.015500
vn 0.301386 0.172747 -0.937723
v 0.009088 0.016072 -0.015500
vn 0.301386 0.172747 -0.937723
v 0.020509 0.012896 -0.012414
vn 0.301386 0.172747 -0.937723
v 0.018876 -0.002245 -0.015729
vn -0.358338 -0.570698 0.738849
v 0.009088 0.016072 -0.015500
vn -0.358338 -0.570698 0.738849
v 0.027050 0.007112 -0.013710
vn -0.358338 -0.570698 0.738849
v 0.020509 0.012896 -0.012414
vn -0.166692 -0.980097 0.107813
v -0.010948 -0.014640 -0.014251
vn -0.166692 -0.980097 0.107813
v -0.012954 -0.013722 -0.009000
vn -0.166692 -0.980097 0.107813
v -0.021172 -0.012923 -0.014447
vn -0.670680 0.643542 -0.368839
v -0.015561 -0.017701 -0.011203
vn -0.670680 0.643542 -0.368839
v -0.012954 -0.013722 -0.009000
vn -0.670680 0.643542 -0.368839
v -0.010948 -0.014640 -0.014251
vn -0.897929 0.391309 0.201496
v 0.105000 0.065299 0.023166
vn -0.897929 0.391309 0.201496
v 0.104924 0.078961 -0.003704
vn -0.897929 0.391309 0.201496
v 0.104000 0.066218 0.016926
vn -0.839489 -0.540592 0.054943
v 0.105000 0.065299 0.023166
vn -0.839489 -0.540592 0.054943
v 0.104000 0.066218 0.016926
vn -0.839489 -0.540592 0.054943
v 0.108954 0.058382 0.015514
vn 0.770813 0.297116 -0.563533
v 0.104000 0.059076 0.018518
vn 0.770813 0.297116 -0.563533
v 0.105000 0.065299 0.023166
vn 0.770813 0.297116 -0.563533
v 0.107000 0.051924 0.018850
vn -0.986427 0.039448 0.159393
v 0.104000 0.059076 0.018518
vn -0.986427 0.039448 0.159393
v 0.105020 0.051893 0.026611
vn -0.986427 0.039448 0.159393
v 0.105000 0.065299 0.023166
vn 0.816824 0.233438 0.527546
v 0.104000 0.058878 -0.018776
vn 0.816824 0.233438 0.527546
v 0.106473 0.051961 -0.019544
vn 0.816824 0.233438 0.527546
v 0.105000 0.065299 -0.023166
vn 0.951171 -0.260893 -0.164949
v 0.104000 0.058878 -0.018776
vn 0.951171 -0.260893 -0.164949
v 0.105000 0.065299 -0.023166
vn 0.951171 -0.260893 -0.164949
v 0.107000 0.068294 -0.016370
vn -0.980941 0.157217 -0.114186
v 0.104924 0.078961 -0.003704
vn -0.980941 0.157217 -0.114186
v 0.105000 0.065299 -0.023166
vn -0.980941 0.157217 -0.114186
v 0.104000 0.064697 -0.015405
vn -0.980869 0.020406 -0.193597
v 0.104000 0.058878 -0.018776
vn -0.980869 0.020406 -0.193597
v 0.105000 0.065299 -0.023166
vn -0.980869 0.020406 -0.193597
v 0.105043 0.041747 -0.025869
vn 0.161927 -0.098136 0.981911
v 0.101982 0.049297 0.004543
vn 0.161927 -0.098136 0.981911
v 0.086824 0.055725 0.007685
vn 0.161927 -0.098136 0.981911
v 0.046126 0.007515 0.009578
vn 0.048028 -0.175759 0.983261
v 0.017244 -0.015421 -0.009000
vn 0.048028 -0.175759 0.983261
v 0.006954 -0.018597 -0.009065
vn 0.048028 -0.175759 0.983261
v -0.001033 -0.026553 -0.010097
vn 0.844008 -0.270497 0.463122
v 0.018371 -0.020523 -0.014033
vn 0.844008 -0.270497 0.463122
v 0.027050 0.007112 -0.013710
vn 0.844008 -0.270497 0.463122
v 0.017244 -0.015421 -0.009000
vn -0.340443 0.922490 0.181963
v 0.074539 0.046747 -0.010108
vn -0.340443 0.922490 0.181963
v 0.038800 0.036466 -0.024856
vn -0.340443 0.922490 0.181963
v 0.037559 0.028409 0.013671
vn 0.426493 -0.743253 -0.515440
v 0.038800 0.036466 -0.024856
vn 0.426493 -0.743253 -0.515440
v 0.074539 0.046747 -0.010108
vn 0.426493 -0.743253 -0.515440
v 0.046941 0.025325 -0.002054
vn -0.970535 0.233101 -0.061040
v -0.026330 0.002341 -0.010810
vn -0.970535 0.233101 -0.061040
v -0.021795 0.018231 -0.022244
vn -0.970535 0.233101 -0.061040
v -0.025403 0.002225 -0.026000
vn -0.784998 0.493524 0.374448
v -0.021795 0.018231 -0.022244
vn -0.784998 0.493524 0.374448
v -0.026330 0.002341 -0.010810
vn -0.784998 0.493524 0.374448
v -0.017244 0.015421 -0.009000
vn -0.132950 -0.062031 -0.989180
v -0.026330 0.002341 -0.010810
vn -0.132950 -0.062031 -0.989180
v -0.021479 0.010923 -0.012000
vn -0.132950 -0.062031 -0.989180
v -0.017988 0.003442 -0.012000
vn -0.902186 -0.420939 0.094187
v -0.021479 0.010923 -0.012000
vn -0.902186 -0.420939 0.094187
v -0.018782 0.004304 -0.015751
vn -0.902186 -0.420939 0.094187
v -0.017988 0.003442 -0.012000
vn 0.854940 0.398895 0.331603
v 0.021479 -0.010923 -0.012000
vn 0.854940 0.398895 0.331603
v 0.018876 -0.002245 -0.015729
vn 0.854940 0.398895 0.331603
v 0.017988 -0.003442 -0.012000
vn 0.901188 0.420473 0.105181
v 0.015430 0.000509 -0.005879
vn 0.901188 0.420473 0.105181
v 0.021479 -0.010923 -0.012000
vn 0.901188 0.420473 0.105181
v 0.017988 -0.003442 -0.012000
vn -0.299913 -0.947013 -0.114973
v -0.001033 -0.026553 -0.010097
vn -0.299913 -0.947013 -0.114973
v -0.019581 -0.018908 -0.024684
vn -0.299913 -0.947013 -0.114973
v 0.005831 -0.026845 -0.025589
vn 0.266587 0.894392 -0.359159
v -0.002773 -0.019631 -0.014008
vn 0.266587 0.894392 -0.359159
v 0.005831 -0.026845 -0.025589
vn 0.266587 0.894392 -0.359159
v -0.019581 -0.018908 -0.024684
vn 0.358368 -0.859027 0.365574
v 0.028972 -0.000617 -0.021801
vn 0.358368 -0.859027 0.365574
v 0.015430 0.000509 -0.005879
vn 0.358368 -0.859027 0.365574
v 0.018876 -0.002245 -0.015729
vn 0.943522 0.175548 0.280980
v 0.017988 -0.003442 -0.012000
vn 0.943522 0.175548 0.280980
v 0.018876 -0.002245 -0.015729
vn 0.943522 0.175548 0.280980
v 0.015430 0.000509 -0.005879
vn -0.092979 0.965902 0.241636
v -0.017988 0.003442 -0.012000
vn -0.092979 0.965902 0.241636
v -0.018782 0.004304 -0.015751
vn -0.092979 0.965902 0.241636
v -0.026330 0.002341 -0.010810
vn -0.572878 0.204920 -0.793611
v -0.021715 -0.002936 -0.015504
vn -0.572878 0.204920 -0.793611
v -0.026330 0.002341 -0.010810
vn -0.572878 0.204920 -0.793611
v -0.018782 0.004304 -0.015751
vn 0.054829 -0.056307 -0.996907
v -0.010948 -0.014640 -0.014251
vn 0.054829 -0.056307 -0.996907
v -0.021715 -0.002936 -0.015504
vn 0.054829 -0.056307 -0.996907
v -0.018782 0.004304 -0.015751
vn -0.816672 -0.498130 0.291399
v 0.105839 0.024571 0.001622
vn -0.816672 -0.498130 0.291399
v 0.105000 0.038549 0.023166
vn -0.816672 -0.498130 0.291399
v 0.104000 0.034998 0.014294
vn 0.951171 0.260893 0.164949
v 0.104000 0.044970 0.018776
vn 0.951171 0.260893 0.164949
v 0.105000 0.038549 0.023166
vn 0.951171 0.260893 0.164949
v 0.107000 0.035554 0.016370
vn 0.558971 -0.685507 0.466509
v 0.105000 0.038549 0.023166
vn 0.558971 -0.685507 0.466509
v 0.105839 0.024571 0.001622
vn 0.558971 -0.685507 0.466509
v 0.107000 0.035554 0.016370
vn -0.988837 -0.061091 0.135898
v 0.104000 0.044970 0.018776
vn -0.988837 -0.061091 0.135898
v 0.104000 0.034998 0.014294
vn -0.988837 -0.061091 0.135898
v 0.105000 0.038549 0.023166
vn -0.988899 0.115157 0.093902
v 0.102275 0.058804 -0.004031
vn -0.988899 0.115157 0.093902
v 0.101982 0.049297 0.004543
vn -0.988899 0.115157 0.093902
v 0.104000 0.071848 -0.001861
vn -0.197976 0.656295 0.728067
v -0.017244 0.015421 -0.009000
vn -0.197976 0.656295 0.728067
v -0.006954 0.018597 -0.009065
vn -0.197976 0.656295 0.728067
v 0.006233 0.029104 -0.014951
vn -0.414164 0.851007 0.322886
v -0.021795 0.018231 -0.022244
vn -0.414164 0.851007 0.322886
v -0.017244 0.015421 -0.009000
vn -0.414164 0.851007 0.322886
v 0.006233 0.029104 -0.014951
vn 0.719803 -0.321621 0.615177
v -0.021479 0.010923 -0.012000
vn 0.719803 -0.321621 0.615177
v -0.026330 0.002341 -0.010810
vn 0.719803 -0.321621 0.615177
v -0.017431 0.013279 -0.015504
vn 0.607610 -0.160528 0.777844
v -0.026330 0.002341 -0.010810
vn 0.607610 -0.160528 0.777844
v -0.021715 -0.002936 -0.015504
vn 0.607610 -0.160528 0.777844
v -0.017431 0.013279 -0.015504
vn -0.319601 -0.573129 0.754572
v 0.021479 -0.010923 -0.012000
vn -0.319601 -0.573129 0.754572
v 0.015430 0.000509 -0.005879
vn -0.319601 -0.573129 0.754572
v 0.017431 -0.013279 -0.015504
vn -0.706416 0.333346 -0.624385
v 0.015430 0.000509 -0.005879
vn -0.706416 0.333346 -0.624385
v 0.028972 -0.000617 -0.021801
vn -0.706416 0.333346 -0.624385
v 0.017431 -0.013279 -0.015504
vn -0.522958 0.191035 -0.830675
v 0.000366 0.016646 -0.014123
vn -0.522958 0.191035 -0.830675
v -0.006954 0.018597 -0.009065
vn -0.522958 0.191035 -0.830675
v 0.006233 0.029104 -0.014951
vn 0.453756 -0.349199 -0.819857
v -0.002773 -0.019631 -0.014008
vn 0.453756 -0.349199 -0.819857
v 0.006954 -0.018597 -0.009065
vn 0.453756 -0.349199 -0.819857
v -0.001033 -0.026553 -0.010097
vn -0.985849 0.162767 -0.040096
v 0.106473 0.051961 -0.019544
vn -0.985849 0.162767 -0.040096
v 0.105043 0.041747 -0.025869
vn -0.985849 0.162767 -0.040096
v 0.104000 0.037630 -0.016926
vn -0.089955 -0.141567 0.985833
v 0.104000 0.058878 -0.018776
vn -0.089955 -0.141567 0.985833
v 0.107000 0.044211 -0.020609
vn -0.089955 -0.141567 0.985833
v 0.106473 0.051961 -0.019544
vn -0.987190 -0.131961 0.089675
v 0.100954 0.049690 -0.006198
vn -0.987190 -0.131961 0.089675
v 0.104000 0.029848 -0.001861
vn -0.987190 -0.131961 0.089675
v 0.101982 0.049297 0.004543
vn 0.448259 0.234280 0.862657
v 0.007143 0.019673 -0.006777
vn 0.448259 0.234280 0.862657
v 0.015430 0.000509 -0.005879
vn 0.448259 0.234280 0.862657
v 0.027050 0.007112 -0.013710
vn -0.855308 0.254157 0.451500
v 0.106707 0.078381 0.000000
vn -0.855308 0.254157 0.451500
v 0.104924 0.078961 -0.003704
vn -0.855308 0.254157 0.451500
v 0.108954 0.058382 0.015514
vn 0.924817 0.340143 0.170341
v 0.108954 0.058382 0.015514
vn 0.924817 0.340143 0.170341
v 0.104924 0.078961 -0.003704
vn 0.924817 0.340143 0.170341
v 0.105000 0.065299 0.023166
vn 0.995626 -0.086531 -0.035232
v 0.107000 0.035554 0.016370
vn 0.995626 -0.086531 -0.035232
v 0.107000 0.038152 0.009989
vn 0.995626 -0.086531 -0.035232
v 0.108954 0.058382 0.015514
vn 0.992590 -0.109973 0.051678
v 0.107000 0.038152 0.009989
vn 0.992590 -0.109973 0.051678
v 0.107220 0.035441 0.000000
vn 0.992590 -0.109973 0.051678
v 0.108954 0.058382 0.015514
vn -0.003992 0.214233 -0.976774
v 0.018876 -0.002245 -0.015729
vn -0.003992 0.214233 -0.976774
v 0.020509 0.012896 -0.012414
vn -0.003992 0.214233 -0.976774
v 0.027050 0.007112 -0.013710
vn -0.241705 0.296542 0.923927
v -0.015693 -0.003985 -0.005158
vn -0.241705 0.296542 0.923927
v 0.007143 0.019673 -0.006777
vn -0.241705 0.296542 0.923927
v -0.017621 0.006414 -0.009000
vn -0.317665 0.276231 0.907075
v -0.015693 -0.003985 -0.005158
vn -0.317665 0.276231 0.907075
v -0.017621 0.006414 -0.009000
vn -0.317665 0.276231 0.907075
v -0.026330 0.002341 -0.010810
vn 0.300462 -0.311381 0.901534
v 0.015430 0.000509 -0.005879
vn 0.300462 -0.311381 0.901534
v -0.000305 -0.016755 -0.006597
vn 0.300462 -0.311381 0.901534
v 0.017621 -0.006414 -0.009000
vn -0.791928 0.530365 0.302595
v 0.104000 0.037630 -0.016926
vn -0.791928 0.530365 0.302595
v 0.107000 0.038152 -0.009989
vn -0.791928 0.530365 0.302595
v 0.107000 0.044211 -0.020609
vn 0.791928 -0.530365 -0.302595
v 0.104000 0.037630 -0.016926
vn 0.791928 -0.530365 -0.302595
v 0.107000 0.044211 -0.020609
vn 0.791928 -0.530365 -0.302595
v 0.107000 0.038152 -0.009989
vn 0.962192 0.032801 -0.270391
v 0.105043 0.041747 -0.025869
vn 0.962192 0.032801 -0.270391
v 0.105000 0.065299 -0.023166
vn 0.962192 0.032801 -0.270391
v 0.106473 0.051961 -0.019544
vn 0.726653 -0.306992 -0.614599
v 0.104000 0.044970 0.018776
vn 0.726653 -0.306992 -0.614599
v 0.107000 0.051924 0.018850
vn 0.726653 -0.306992 -0.614599
v 0.105000 0.038549 0.023166
vn 0.066888 -0.018308 -0.997593
v 0.104000 0.044970 0.018776
vn 0.066888 -0.018308 -0.997593
v 0.104000 0.059076 0.018518
vn 0.066888 -0.018308 -0.997593
v 0.107000 0.051924 0.018850
vn 0.985897 -0.036410 -0.163347
v 0.104000 0.059076 0.018518
vn 0.985897 -0.036410 -0.163347
v 0.104000 0.066218 0.016926
vn 0.985897 -0.036410 -0.163347
v 0.105000 0.065299 0.023166
vn -0.985897 0.036410 0.163347
v 0.104000 0.059076 0.018518
vn -0.985897 0.036410 0.163347
v 0.105000 0.065299 0.023166
vn -0.985897 0.036410 0.163347
v 0.104000 0.066218 0.016926
vn 0.923342 0.083538 0.374780
v 0.104000 0.059076 0.018518
vn 0.923342 0.083538 0.374780
v 0.107000 0.035554 0.016370
vn 0.923342 0.083538 0.374780
v 0.104000 0.066218 0.016926
vn -1.000000 0.000000 0.000000
v 0.104000 0.044970 0.018776
vn -1.000000 0.000000 0.000000
v 0.104000 0.059076 0.018518
vn -1.000000 0.000000 0.000000
v 0.104000 0.066218 0.016926
vn -0.989999 0.070729 -0.122065
v 0.104000 0.058878 -0.018776
vn -0.989999 0.070729 -0.122065
v 0.104000 0.064697 -0.015405
vn -0.989999 0.070729 -0.122065
v 0.105000 0.065299 -0.023166
vn -1.000000 0.000000 0.000000
v 0.104000 0.058878 -0.018776
vn -1.000000 0.000000 0.000000
v 0.104000 0.037630 -0.016926
vn -1.000000 0.000000 0.000000
v 0.104000 0.064697 -0.015405
vn 0.336745 -0.622508 0.706461
v 0.018371 -0.020523 -0.014033
vn 0.336745 -0.622508 0.706461
v 0.017244 -0.015421 -0.009000
vn 0.336745 -0.622508 0.706461
v -0.001033 -0.026553 -0.010097
vn 0.091104 0.630396 0.770909
v -0.010948 -0.014640 -0.014251
vn 0.091104 0.630396 0.770909
v -0.021172 -0.012923 -0.014447
vn 0.091104 0.630396 0.770909
v -0.015561 -0.017701 -0.011203
vn 0.556332 0.092636 -0.825780
v -0.021172 -0.012923 -0.014447
vn 0.556332 0.092636 -0.825780
v -0.012954 -0.013722 -0.009000
vn 0.556332 0.092636 -0.825780
v -0.015561 -0.017701 -0.011203
vn -0.252985 -0.336383 0.907108
v -0.012954 -0.013722 -0.009000
vn -0.252985 -0.336383 0.907108
v -0.015561 -0.017701 -0.011203
vn -0.252985 -0.336383 0.907108
v -0.000305 -0.016755 -0.006597
vn 0.874050 0.312870 -0.371684
v 0.104924 0.078961 -0.003704
vn 0.874050 0.312870 -0.371684
v 0.106707 0.078381 0.000000
vn 0.874050 0.312870 -0.371684
v 0.107000 0.065696 -0.009989
vn 0.198553 -0.411290 -0.889616
v 0.025276 0.019266 -0.019923
vn 0.198553 -0.411290 -0.889616
v 0.011579 0.025483 -0.025854
vn 0.198553 -0.411290 -0.889616
v 0.038800 0.036466 -0.024856
vn 0.036009 -0.136961 0.989922
v 0.017244 -0.015421 -0.009000
vn 0.036009 -0.136961 0.989922
v -0.001104 -0.020245 -0.009000
vn 0.036009 -0.136961 0.989922
v 0.006954 -0.018597 -0.009065
vn -0.195519 0.963424 0.183267
v -0.002773 -0.019631 -0.014008
vn -0.195519 0.963424 0.183267
v -0.001104 -0.020245 -0.009000
vn -0.195519 0.963424 0.183267
v 0.006954 -0.018597 -0.009065
vn 0.191778 -0.924902 0.328294
v 0.002936 -0.021715 -0.015504
vn 0.191778 -0.924902 0.328294
v 0.006954 -0.018597 -0.009065
vn 0.191778 -0.924902 0.328294
v -0.001104 -0.020245 -0.009000
vn 0.042869 -0.170725 0.984386
v 0.006954 -0.018597 -0.009065
vn 0.042869 -0.170725 0.984386
v -0.001104 -0.020245 -0.009000
vn 0.042869 -0.170725 0.984386
v -0.001033 -0.026553 -0.010097
vn -0.162848 0.818202 -0.551385
v 0.000366 0.016646 -0.014123
vn -0.162848 0.818202 -0.551385
v -0.006954 0.018597 -0.009065
vn -0.162848 0.818202 -0.551385
v 0.001104 0.020245 -0.009000
vn -0.036009 0.136961 0.989922
v -0.017244 0.015421 -0.009000
vn -0.036009 0.136961 0.989922
v 0.001104 0.020245 -0.009000
vn -0.036009 0.136961 0.989922
v -0.006954 0.018597 -0.009065
vn -0.129773 0.603541 0.786701
v -0.006954 0.018597 -0.009065
vn -0.129773 0.603541 0.786701
v 0.001104 0.020245 -0.009000
vn -0.129773 0.603541 0.786701
v 0.006233 0.029104 -0.014951
vn 0.197232 -0.955958 -0.217357
v 0.001102 0.021722 -0.015500
vn 0.197232 -0.955958 -0.217357
v 0.001104 0.020245 -0.009000
vn 0.197232 -0.955958 -0.217357
v -0.006954 0.018597 -0.009065
vn 0.397100 -0.850019 -0.346092
v 0.104000 0.034998 0.014294
vn 0.397100 -0.850019 -0.346092
v 0.107000 0.038152 0.009989
vn 0.397100 -0.850019 -0.346092
v 0.107000 0.035554 0.016370
vn -0.397100 0.850019 0.346092
v 0.104000 0.034998 0.014294
vn -0.397100 0.850019 0.346092
v 0.107000 0.035554 0.016370
vn -0.397100 0.850019 0.346092
v 0.107000 0.038152 0.009989
vn -0.692727 0.690704 -0.207502
v -0.017431 0.013279 -0.015504
vn -0.692727 0.690704 -0.207502
v -0.017244 0.015421 -0.009000
vn -0.692727 0.690704 -0.207502
v -0.014581 0.016139 -0.015500
vn 0.692727 -0.690704 0.207502
v -0.017431 0.013279 -0.015504
vn 0.692727 -0.690704 0.207502
v -0.014581 0.016139 -0.015500
vn 0.692727 -0.690704 0.207502
v -0.017244 0.015421 -0.009000
vn 0.617564 -0.614864 -0.490466
v -0.014581 0.016139 -0.015500
vn 0.617564 -0.614864 -0.490466
v -0.017431 0.013279 -0.015504
vn 0.617564 -0.614864 -0.490466
v -0.016184 0.021913 -0.024757
vn -0.031012 0.032235 -0.998999
v -0.017431 0.013279 -0.015504
vn -0.031012 0.032235 -0.998999
v -0.014581 0.016139 -0.015500
vn -0.031012 0.032235 -0.998999
v -0.018782 0.004304 -0.015751
vn -0.702032 0.699524 -0.133481
v 0.014581 -0.016139 -0.015500
vn -0.702032 0.699524 -0.133481
v 0.017431 -0.013279 -0.015504
vn -0.702032 0.699524 -0.133481
v 0.005831 -0.026845 -0.025589
vn 0.692728 -0.690703 -0.207502
v 0.017431 -0.013279 -0.015504
vn 0.692728 -0.690703 -0.207502
v 0.017244 -0.015421 -0.009000
vn 0.692728 -0.690703 -0.207502
v 0.014581 -0.016139 -0.015500
vn 0.021987 -0.023241 -0.999488
v 0.017431 -0.013279 -0.015504
vn 0.021987 -0.023241 -0.999488
v 0.014581 -0.016139 -0.015500
vn 0.021987 -0.023241 -0.999488
v 0.018876 -0.002245 -0.015729
vn -0.692728 0.690703 0.207502
v 0.017431 -0.013279 -0.015504
vn -0.692728 0.690703 0.207502
v 0.014581 -0.016139 -0.015500
vn -0.692728 0.690703 0.207502
v 0.017244 -0.015421 -0.009000
vn 0.906308 0.422618 0.000000
v -0.001775 0.003806 -0.014000
vn 0.906308 0.422618 0.000000
v -0.001775 0.003806 -0.008000
vn 0.906308 0.422618 0.000000
v 0.001775 -0.003806 -0.008000
vn -0.906308 -0.422618 0.000000
v 0.001775 -0.003806 -0.014000
vn -0.906308 -0.422618 0.000000
v -0.001775 0.003806 -0.008000
vn -0.906308 -0.422618 0.000000
v -0.001775 0.003806 -0.014000
vn -0.906308 -0.422618 0.000000
v 0.001775 -0.003806 -0.014000
vn -0.906308 -0.422618 0.000000
v 0.001775 -0.003806 -0.008000
vn -0.906308 -0.422618 0.000000
v -0.001775 0.003806 -0.008000
vn 0.906308 0.422618 0.000000
v -0.001775 0.003806 -0.014000
vn 0.906308 0.422618 0.000000
v 0.001775 -0.003806 -0.008000
vn 0.906308 0.422618 0.000000
v 0.001775 -0.003806 -0.014000
vn 0.223980 0.893144 -0.390034
v 0.005831 -0.026845 -0.025589
vn 0.223980 0.893144 -0.390034
v -0.002773 -0.019631 -0.014008
vn 0.223980 0.893144 -0.390034
v 0.002936 -0.021715 -0.015504
vn -0.343219 -0.939255 -0.000844
v 0.002936 -0.021715 -0.015504
vn -0.343219 -0.939255 -0.000844
v -0.001104 -0.020245 -0.009000
vn -0.343219 -0.939255 -0.000844
v -0.002773 -0.019631 -0.014008
vn 0.172079 0.840168 -0.514302
v -0.002773 -0.019631 -0.014008
vn 0.172079 0.840168 -0.514302
v 0.006954 -0.018597 -0.009065
vn 0.172079 0.840168 -0.514302
v 0.002936 -0.021715 -0.015504
vn 0.448706 -0.294002 -0.843934
v -0.016184 0.021913 -0.024757
vn 0.448706 -0.294002 -0.843934
v 0.001102 0.021722 -0.015500
vn 0.448706 -0.294002 -0.843934
v 0.000366 0.016646 -0.014123
vn -0.987666 0.152601 0.035059
v 0.000366 0.016646 -0.014123
vn -0.987666 0.152601 0.035059
v 0.001104 0.020245 -0.009000
vn -0.987666 0.152601 0.035059
v 0.001102 0.021722 -0.015500
vn 0.586975 0.131716 0.798819
v 0.001102 0.021722 -0.015500
vn 0.586975 0.131716 0.798819
v -0.006954 0.018597 -0.009065
vn 0.586975 0.131716 0.798819
v 0.000366 0.016646 -0.014123
vn 0.924539 -0.331002 -0.188851
v 0.105043 0.041747 -0.025869
vn 0.924539 -0.331002 -0.188851
v 0.107000 0.044211 -0.020609
vn 0.924539 -0.331002 -0.188851
v 0.107000 0.038152 -0.009989
vn 0.911903 0.116146 -0.393628
v 0.107000 0.044211 -0.020609
vn 0.911903 0.116146 -0.393628
v 0.105043 0.041747 -0.025869
vn 0.911903 0.116146 -0.393628
v 0.106473 0.051961 -0.019544
vn 0.997749 -0.038094 -0.055188
v 0.108954 0.058382 0.015514
vn 0.997749 -0.038094 -0.055188
v 0.107220 0.035441 0.000000
vn 0.997749 -0.038094 -0.055188
v 0.107762 0.059203 -0.006593
vn -0.194820 0.237496 -0.951652
v 0.043058 0.015901 -0.020563
vn -0.194820 0.237496 -0.951652
v 0.052868 0.006309 -0.024965
vn -0.194820 0.237496 -0.951652
v 0.028972 -0.000617 -0.021801
vn -0.018691 0.090614 -0.995711
v 0.043058 0.015901 -0.020563
vn -0.018691 0.090614 -0.995711
v 0.028972 -0.000617 -0.021801
vn -0.018691 0.090614 -0.995711
v 0.025276 0.019266 -0.019923
vn 0.399803 0.607031 0.686783
v 0.101982 0.049297 0.004543
vn 0.399803 0.607031 0.686783
v 0.102275 0.058804 -0.004031
vn 0.399803 0.607031 0.686783
v 0.086824 0.055725 0.007685
vn -0.024925 -0.089192 -0.995702
v -0.010948 -0.014640 -0.014251
vn -0.024925 -0.089192 -0.995702
v -0.018782 0.004304 -0.015751
vn -0.024925 -0.089192 -0.995702
v -0.002773 -0.019631 -0.014008
vn -0.160281 -0.073363 -0.984341
v 0.018876 -0.002245 -0.015729
vn -0.160281 -0.073363 -0.984341
v 0.000366 0.016646 -0.014123
vn -0.160281 -0.073363 -0.984341
v 0.009088 0.016072 -0.015500
vn -0.414130 0.851160 0.322527
v -0.021795 0.018231 -0.022244
vn -0.414130 0.851160 0.322527
v 0.006233 0.029104 -0.014951
vn -0.414130 0.851160 0.322527
v -0.016184 0.021913 -0.024757
vn -0.521611 -0.026806 0.852762
v 0.104000 0.071848 -0.001861
vn -0.521611 -0.026806 0.852762
v 0.107220 0.068407 0.000000
vn -0.521611 -0.026806 0.852762
v 0.106707 0.078381 0.000000
vn 0.521611 0.026806 -0.852762
v 0.104000 0.071848 -0.001861
vn 0.521611 0.026806 -0.852762
v 0.106707 0.078381 0.000000
vn 0.521611 0.026806 -0.852762
v 0.107220 0.068407 0.000000
vn -0.800800 -0.373634 0.468099
v -0.021479 0.010923 -0.012000
vn -0.800800 -0.373634 0.468099
v -0.017988 0.003442 -0.012000
vn -0.800800 -0.373634 0.468099
v -0.017621 0.006414 -0.009000
vn 0.800800 0.373634 -0.468099
v -0.017988 0.003442 -0.012000
vn 0.800800 0.373634 -0.468099
v -0.021479 0.010923 -0.012000
vn 0.800800 0.373634 -0.468099
v -0.017621 0.006414 -0.009000
vn -0.800800 -0.373635 -0.468100
v 0.017988 -0.003442 -0.012000
vn -0.800800 -0.373635 -0.468100
v 0.021479 -0.010923 -0.012000
vn -0.800800 -0.373635 -0.468100
v 0.017621 -0.006414 -0.009000
vn 0.800800 0.373635 0.468100
v 0.021479 -0.010923 -0.012000
vn 0.800800 0.373635 0.468100
v 0.017988 -0.003442 -0.012000
vn 0.800800 0.373635 0.468100
v 0.017621 -0.006414 -0.009000
vn 0.056646 0.924276 -0.377499
v -0.002773 -0.019631 -0.014008
vn 0.056646 0.924276 -0.377499
v -0.015561 -0.017701 -0.011203
vn 0.056646 0.924276 -0.377499
v -0.000305 -0.016755 -0.006597
vn -0.474639 -0.755710 0.451242
v -0.010948 -0.014640 -0.014251
vn -0.474639 -0.755710 0.451242
v -0.002773 -0.019631 -0.014008
vn -0.474639 -0.755710 0.451242
v -0.000305 -0.016755 -0.006597
vn 0.286919 -0.949545 0.126655
v 0.000366 0.016646 -0.014123
vn 0.286919 -0.949545 0.126655
v 0.013736 0.020206 -0.017720
vn 0.286919 -0.949545 0.126655
v 0.007143 0.019673 -0.006777
vn 0.000521 0.924377 -0.381481
v 0.009088 0.016072 -0.015500
vn 0.000521 0.924377 -0.381481
v 0.000366 0.016646 -0.014123
vn 0.000521 0.924377 -0.381481
v 0.007143 0.019673 -0.006777
vn 0.902101 -0.279636 0.328659
v 0.105839 0.024571 0.001622
vn 0.902101 -0.279636 0.328659
v 0.106707 0.025467 0.000000
vn 0.902101 -0.279636 0.328659
v 0.107000 0.038152 0.009989
vn -0.961623 -0.268466 -0.056634
v -0.026330 0.002341 -0.010810
vn -0.961623 -0.268466 -0.056634
v -0.025403 0.002225 -0.026000
vn -0.961623 -0.268466 -0.056634
v -0.019581 -0.018908 -0.024684
vn 0.964149 0.265308 -0.005247
v -0.021172 -0.012923 -0.014447
vn 0.964149 0.265308 -0.005247
v -0.019581 -0.018908 -0.024684
vn 0.964149 0.265308 -0.005247
v -0.025403 0.002225 -0.026000
vn -0.991470 0.130223 0.005384
v 0.102275 0.058804 -0.004031
vn -0.991470 0.130223 0.005384
v 0.104000 0.071848 -0.001861
vn -0.991470 0.130223 0.005384
v 0.104924 0.078961 -0.003704
vn -0.955450 -0.176929 0.236244
v 0.101982 0.049297 0.004543
vn -0.955450 -0.176929 0.236244
v 0.104000 0.029848 -0.001861
vn -0.955450 -0.176929 0.236244
v 0.105839 0.024571 0.001622
vn 0.999047 -0.031260 -0.030455
v 0.107000 0.038152 -0.009989
vn 0.999047 -0.031260 -0.030455
v 0.107762 0.059203 -0.006593
vn 0.999047 -0.031260 -0.030455
v 0.107220 0.035441 0.000000
vn -0.994368 0.104123 0.019772
v 0.101982 0.049297 0.004543
vn -0.994368 0.104123 0.019772
v 0.104000 0.066218 0.016926
vn -0.994368 0.104123 0.019772
v 0.104924 0.078961 -0.003704
vn -0.503319 0.277426 0.818355
v 0.101982 0.049297 0.004543
vn -0.503319 0.277426 0.818355
v 0.104924 0.078961 -0.003704
vn -0.503319 0.277426 0.818355
v 0.104000 0.071848 -0.001861
vn 0.913612 0.052129 -0.403231
v 0.100954 0.049690 -0.006198
vn 0.913612 0.052129 -0.403231
v 0.105839 0.024571 0.001622
vn 0.913612 0.052129 -0.403231
v 0.104000 0.029848 -0.001861
vn -0.977648 -0.204855 -0.047325
v 0.100954 0.049690 -0.006198
vn -0.977648 -0.204855 -0.047325
v 0.104000 0.037630 -0.016926
vn -0.977648 -0.204855 -0.047325
v 0.105839 0.024571 0.001622
vn -0.489096 0.569736 -0.660444
v 0.027050 0.007112 -0.013710
vn -0.489096 0.569736 -0.660444
v 0.028972 -0.000617 -0.021801
vn -0.489096 0.569736 -0.660444
v 0.018876 -0.002245 -0.015729
vn -0.317377 -0.384778 -0.866728
v -0.015561 -0.017701 -0.011203
vn -0.317377 -0.384778 -0.866728
v -0.021715 -0.002936 -0.015504
vn -0.317377 -0.384778 -0.866728
v -0.010948 -0.014640 -0.014251
vn 0.001360 0.933632 -0.358231
v -0.006954 0.018597 -0.009065
vn 0.001360 0.933632 -0.358231
v 0.000366 0.016646 -0.014123
vn 0.001360 0.933632 -0.358231
v -0.014581 0.016139 -0.015500
vn 0.182029 -0.970977 -0.155142
v 0.006954 -0.018597 -0.009065
vn 0.182029 -0.970977 -0.155142
v -0.002773 -0.019631 -0.014008
vn 0.182029 -0.970977 -0.155142
v 0.014581 -0.016139 -0.015500
vn 0.584687 0.713031 0.386946
v 0.013736 0.020206 -0.017720
vn 0.584687 0.713031 0.386946
v 0.007143 0.019673 -0.006777
vn 0.584687 0.713031 0.386946
v 0.027050 0.007112 -0.013710
vn -0.527825 -0.433304 -0.730512
v 0.020509 0.012896 -0.012414
vn -0.527825 -0.433304 -0.730512
v 0.027050 0.007112 -0.013710
vn -0.527825 -0.433304 -0.730512
v 0.007143 0.019673 -0.006777
vn -0.342341 -0.459521 0.819539
v -0.017446 -0.021258 -0.013984
vn -0.342341 -0.459521 0.819539
v -0.001033 -0.026553 -0.010097
vn -0.342341 -0.459521 0.819539
v -0.015561 -0.017701 -0.011203
vn -0.538434 -0.761223 -0.361425
v 0.013736 0.020206 -0.017720
vn -0.538434 -0.761223 -0.361425
v 0.020509 0.012896 -0.012414
vn -0.538434 -0.761223 -0.361425
v 0.007143 0.019673 -0.006777
vn -0.703248 0.658458 0.268096
v 0.104000 0.064697 -0.015405
vn -0.703248 0.658458 0.268096
v 0.107000 0.065696 -0.009989
vn -0.703248 0.658458 0.268096
v 0.107000 0.068294 -0.016370
vn 0.703248 -0.658458 -0.268096
v 0.104000 0.064697 -0.015405
vn 0.703248 -0.658458 -0.268096
v 0.107000 0.068294 -0.016370
vn 0.703248 -0.658458 -0.268096
v 0.107000 0.065696 -0.009989
vn 0.987281 0.147247 0.059953
v 0.107762 0.059203 -0.006593
vn 0.987281 0.147247 0.059953
v 0.107000 0.068294 -0.016370
vn 0.987281 0.147247 0.059953
v 0.107000 0.065696 -0.009989
vn 0.990119 0.129876 0.052880
v 0.104924 0.078961 -0.003704
vn 0.990119 0.129876 0.052880
v 0.107000 0.065696 -0.009989
vn 0.990119 0.129876 0.052880
v 0.107000 0.068294 -0.016370
# 774 vertices, 0 vertices normals

f 1//1 2//2 3//3
f 4//4 5//5 6//6
f 7//7 8//8 9//9
f 10//10 11//11 12//12
f 13//13 14//14 15//15
f 16//16 17//17 18//18
f 19//19 20//20 21//21
f 22//22 23//23 24//24
f 25//25 26//26 27//27
f 28//28 29//29 30//30
f 31//31 32//32 33//33
f 34//34 35//35 36//36
f 37//37 38//38 39//39
f 40//40 41//41 42//42
f 43//43 44//44 45//45
f 46//46 47//47 48//48
f 49//49 50//50 51//51
f 52//52 53//53 54//54
f 55//55 56//56 57//57
f 58//58 59//59 60//60
f 61//61 62//62 63//63
f 64//64 65//65 66//66
f 67//67 68//68 69//69
f 70//70 71//71 72//72
f 73//73 74//74 75//75
f 76//76 77//77 78//78
f 79//79 80//80 81//81
f 82//82 83//83 84//84
f 85//85 86//86 87//87
f 88//88 89//89 90//90
f 91//91 92//92 93//93
f 94//94 95//95 96//96
f 97//97 98//98 99//99
f 100//100 101//101 102//102
f 103//103 104//104 105//105
f 106//106 107//107 108//108
f 109//109 110//110 111//111
f 112//112 113//113 114//114
f 115//115 116//116 117//117
f 118//118 119//119 120//120
f 121//121 122//122 123//123
f 124//124 125//125 126//126
f 127//127 128//128 129//129
f 130//130 131//131 132//132
f 133//133 134//134 135//135
f 136//136 137//137 138//138
f 139//139 140//140 141//141
f 142//142 143//143 144//144
f 145//145 146//146 147//147
f 148//148 149//149 150//150
f 151//151 152//152 153//153
f 154//154 155//155 156//156
f 157//157 158//158 159//159
f 160//160 161//161 162//162
f 163//163 164//164 165//165
f 166//166 167//167 168//168
f 169//169 170//170 171//171
f 172//172 173//173 174//174
f 175//175 176//176 177//177
f 178//178 179//179 180//180
f 181//181 182//182 183//183
f 184//184 185//185 186//186
f 187//187 188//188 189//189
f 190//190 191//191 192//192
f 193//193 194//194 195//195
f 196//196 197//197 198//198
f 199//199 200//200 201//201
f 202//202 203//203 204//204
f 205//205 206//206 207//207
f 208//208 209//209 210//210
f 211//211 212//212 213//213
f 214//214 215//215 216//216
f 217//217 218//218 219//219
f 220//220 221//221 222//222
f 223//223 224//224 225//225
f 226//226 227//227 228//228
f 229//229 230//230 231//231
f 232//232 233//233 234//234
f 235//235 236//236 237//237
f 238//238 239//239 240//240
f 241//241 242//242 243//243
f 244//244 245//245 246//246
f 247//247 248//248 249//249
f 250//250 251//251 252//252
f 253//253 254//254 255//255
f 256//256 257//257 258//258
f 259//259 260//260 261//261
f 262//262 263//263 264//264
f 265//265 266//266 267//267
f 268//268 269//269 270//270
f 271//271 272//272 273//273
f 274//274 275//275 276//276
f 277//277 278//278 279//279
f 280//280 281//281 282//282
f 283//283 284//284 285//285
f 286//286 287//287 288//288
f 289//289 290//290 291//291
f 292//292 293//293 294//294
f 295//295 296//296 297//297
f 298//298 299//299 300//300
f 301//301 302//302 303//303
f 304//304 305//305 306//306
f 307//307 308//308 309//309
f 310//310 311//311 312//312
f 313//313 314//314 315//315
f 316//316 317//317 318//318
f 319//319 320//320 321//321
f 322//322 323//323 324//324
f 325//325 326//326 327//327
f 328//328 329//329 330//330
f 331//331 332//332 333//333
f 334//334 335//335 336//336
f 337//337 338//338 339//339
f 340//340 341//341 342//342
f 343//343 344//344 345//345
f 346//346 347//347 348//348
f 349//349 350//350 351//351
f 352//352 353//353 354//354
f 355//355 356//356 357//357
f 358//358 359//359 360//360
f 361//361 362//362 363//363
f 364//364 365//365 366//366
f 367//367 368//368 369//369
f 370//370 371//371 372//372
f 373//373 374//374 375//375
f 376//376 377//377 378//378
f 379//379 380//380 381//381
f 382//382 383//383 384//384
f 385//385 386//386 387//387
f 388//388 389//389 390//390
f 391//391 392//392 393//393
f 394//394 395//395 396//396
f 397//397 398//398 399//399
f 400//400 401//401 402//402
f 403//403 404//404 405//405
f 406//406 407//407 408//408
f 409//409 410//410 411//411
f 412//412 413//413 414//414
f 415//415 416//416 417//417
f 418//418 419//419 420//420
f 421//421 422//422 423//423
f 424//424 425//425 426//426
f 427//427 428//428 429//429
f 430//430 431//431 432//432
f 433//433 434//434 435//435
f 436//436 437//437 438//438
f 439//439 440//440 441//441
f 442//442 443//443 444//444
f 445//445 446//446 447//447
f 448//448 449//449 450//450
f 451//451 452//452 453//453
f 454//454 455//455 456//456
f 457//457 458//458 459//459
f 460//460 461//461 462//462
f 463//463 464//464 465//465
f 466//466 467//467 468//468
f 469//469 470//470 471//471
f 472//472 473//473 474//474
f 475//475 476//476 477//477
f 478//478 479//479 480//480
f 481//481 482//482 483//483
f 484//484 485//485 486//486
f 487//487 488//488 489//489
f 490//490 491//491 492//492
f 493//493 494//494 495//495
f 496//496 497//497 498//498
f 499//499 500//500 501//501
f 502//502 503//503 504//504
f 505//505 506//506 507//507
f 508//508 509//509 510//510
f 511//511 512//512 513//513
f 514//514 515//515 516//516
f 517//517 518//518 519//519
f 520//520 521//521 522//522
f 523//523 524//524 525//525
f 526//526 527//527 528//528
f 529//529 530//530 531//531
f 532//532 533//533 534//534
f 535//535 536//536 537//537
f 538//538 539//539 540//540
f 541//541 542//542 543//543
f 544//544 545//545 546//546
f 547//547 548//548 549//549
f 550//550 551//551 552//552
f 553//553 554//554 555//555
f 556//556 557//557 558//558
f 559//559 560//560 561//561
f 562//562 563//563 564//564
f 565//565 566//566 567//567
f 568//568 569//569 570//570
f 571//571 572//572 573//573
f 574//574 575//575 576//576
f 577//577 578//578 579//579
f 580//580 581//581 582//582
f 583//583 584//584 585//585
f 586//586 587//587 588//588
f 589//589 590//590 591//591
f 592//592 593//593 594//594
f 595//595 596//596 597//597
f 598//598 599//599 600//600
f 601//601 602//602 603//603
f 604//604 605//605 606//606
f 607//607 608//608 609//609
f 610//610 611//611 612//612
f 613//613 614//614 615//615
f 616//616 617//617 618//618
f 619//619 620//620 621//621
f 622//622 623//623 624//624
f 625//625 626//626 627//627
f 628//628 629//629 630//630
f 631//631 632//632 633//633
f 634//634 635//635 636//636
f 637//637 638//638 639//639
f 640//640 641//641 642//642
f 643//643 644//644 645//645
f 646//646 647//647 648//648
f 649//649 650//650 651//651
f 652//652 653//653 654//654
f 655//655 656//656 657//657
f 658//658 659//659 660//660
f 661//661 662//662 663//663
f 664//664 665//665 666//666
f 667//667 668//668 669//669
f 670//670 671//671 672//672
f 673//673 674//674 675//675
f 676//676 677//677 678//678
f 679//679 680//680 681//681
f 682//682 683//683 684//684
f 685//685 686//686 687//687
f 688//688 689//689 690//690
f 691//691 692//692 693//693
f 694//694 695//695 696//696
f 697//697 698//698 699//699
f 700//700 701//701 702//702
f 703//703 704//704 705//705
f 706//706 707//707 708//708
f 709//709 710//710 711//711
f 712//712 713//713 714//714
f 715//715 716//716 717//717
f 718//718 719//719 720//720
f 721//721 722//722 723//723
f 724//724 725//725 726//726
f 727//727 728//728 729//729
f 730//730 731//731 732//732
f 733//733 734//734 735//735
f 736//736 737//737 738//738
f 739//739 740//740 741//741
f 742//742 743//743 744//744
f 745//745 746//746 747//747
f 748//748 749//749 750//750
f 751//751 752//752 753//753
f 754//754 755//755 756//756
f 757//757 758//758 759//759
f 760//760 761//761 762//762
f 763//763 764//764 765//765
f 766//766 767//767 768//768
f 769//769 770//770 771//771
f 772//772 773//773 774//774
# 258 faces, 0 coords texture

# End of File