####
#
# OBJ File Generated by Meshlab
#
####
# Object ssf1_Right.obj
#
# Vertices: 402
# Faces: 134
#
####
vn 0.338494 0.721599 0.603917
v 0.045252 -0.006772 -0.028660
vn 0.338494 0.721599 0.603917
v 0.028992 -0.006358 -0.020041
vn 0.338494 0.721599 0.603917
v 0.041685 -0.009679 -0.023187
vn 0.016097 0.974344 -0.224487
v 0.036186 0.005913 -0.019721
vn 0.016097 0.974344 -0.224487
v 0.005870 0.005054 -0.025623
vn 0.016097 0.974344 -0.224487
v 0.009817 0.006032 -0.021094
vn 0.633637 -0.770773 -0.066428
v 0.027660 -0.001701 -0.012704
vn 0.633637 -0.770773 -0.066428
v 0.030850 0.002221 -0.027784
vn 0.633637 -0.770773 -0.066428
v 0.036186 0.005913 -0.019721
vn 0.004502 0.999990 0.000490
v 0.036186 0.005913 -0.019721
vn 0.004502 0.999990 0.000490
v 0.009817 0.006032 -0.021094
vn 0.004502 0.999990 0.000490
v 0.007776 0.006032 -0.002364
vn -0.326184 0.626339 -0.708028
v 0.026034 -0.005046 -0.014915
vn -0.326184 0.626339 -0.708028
v 0.013646 0.000752 -0.004079
vn -0.326184 0.626339 -0.708028
v 0.027660 -0.001701 -0.012704
vn 0.222713 -0.953938 -0.201000
v 0.022638 -0.000762 -0.022724
vn 0.222713 -0.953938 -0.201000
v 0.030850 0.002221 -0.027784
vn 0.222713 -0.953938 -0.201000
v 0.027660 -0.001701 -0.012704
vn -0.758939 -0.098461 0.643675
v 0.022290 -0.011142 -0.019434
vn -0.758939 -0.098461 0.643675
v 0.012057 -0.002325 -0.030150
vn -0.758939 -0.098461 0.643675
v 0.021686 -0.015928 -0.020878
vn -0.406723 0.459828 -0.789389
v 0.045252 -0.006772 -0.028660
vn -0.406723 0.459828 -0.789389
v 0.038186 -0.010895 -0.027421
vn -0.406723 0.459828 -0.789389
v 0.028992 -0.006358 -0.020041
vn 0.984649 -0.051163 -0.166878
v 0.028992 -0.006358 -0.020041
vn 0.984649 -0.051163 -0.166878
v 0.024925 -0.021042 -0.039536
vn 0.984649 -0.051163 -0.166878
v 0.025732 -0.010895 -0.037888
vn -0.553195 -0.699724 -0.452065
v 0.012057 -0.002325 -0.030150
vn -0.553195 -0.699724 -0.452065
v 0.033609 -0.009310 -0.045712
vn -0.553195 -0.699724 -0.452065
v 0.021686 -0.015928 -0.020878
vn 0.633743 -0.673368 -0.380717
v 0.022638 -0.000762 -0.022724
vn 0.633743 -0.673368 -0.380717
v 0.027660 -0.001701 -0.012704
vn 0.633743 -0.673368 -0.380717
v 0.010192 -0.006537 -0.033228
vn 0.312473 -0.908834 0.276371
v 0.021221 -0.000762 -0.026708
vn 0.312473 -0.908834 0.276371
v 0.010192 -0.006537 -0.033228
vn 0.312473 -0.908834 0.276371
v 0.030850 0.002221 -0.027784
vn -0.961643 0.270362 0.046337
v 0.010192 -0.006537 -0.033228
vn -0.961643 0.270362 0.046337
v 0.007861 -0.015585 -0.028814
vn -0.961643 0.270362 0.046337
v 0.013646 0.000752 -0.004079
vn 0.010438 0.993431 0.113952
v 0.008956 0.000000 -0.019659
vn 0.010438 0.993431 0.113952
v 0.002989 -0.001905 -0.002501
vn 0.010438 0.993431 0.113952
v 0.013144 0.000000 -0.020042
vn 0.721051 -0.181681 0.668639
v 0.033609 -0.009310 -0.045712
vn 0.721051 -0.181681 0.668639
v 0.027992 -0.009679 -0.039756
vn 0.721051 -0.181681 0.668639
v 0.024925 -0.021042 -0.039536
vn -0.093400 0.992589 0.077746
v 0.008956 0.000000 -0.019659
vn -0.093400 0.992589 0.077746
v 0.005369 0.000000 -0.023968
vn -0.093400 0.992589 0.077746
v 0.002989 -0.001905 -0.002501
vn 0.738516 -0.272577 -0.616681
v 0.026034 -0.005046 -0.014915
vn 0.738516 -0.272577 -0.616681
v 0.024711 -0.016880 -0.011268
vn 0.738516 -0.272577 -0.616681
v 0.010192 -0.006537 -0.033228
vn 0.503182 -0.633148 0.588159
v 0.027660 -0.001701 -0.012704
vn 0.503182 -0.633148 0.588159
v 0.024191 -0.000998 -0.008980
vn 0.503182 -0.633148 0.588159
v 0.026034 -0.005046 -0.014915
vn 0.140796 -0.796963 0.587390
v 0.026034 -0.005046 -0.014915
vn 0.140796 -0.796963 0.587390
v 0.024191 -0.000998 -0.008980
vn 0.140796 -0.796963 0.587390
v 0.013646 0.000752 -0.004079
vn -0.258894 -0.727929 0.634896
v 0.004918 0.000000 0.000470
vn -0.258894 -0.727929 0.634896
v 0.002989 -0.001905 -0.002501
vn -0.258894 -0.727929 0.634896
v 0.009855 -0.000620 0.001773
vn 0.952421 0.220043 -0.210892
v 0.009855 -0.000620 0.001773
vn 0.952421 0.220043 -0.210892
v 0.009711 -0.005951 -0.004441
vn 0.952421 0.220043 -0.210892
v 0.007679 -0.006532 -0.014226
vn -0.231980 -0.763727 0.602417
v 0.002989 -0.001905 -0.002501
vn -0.231980 -0.763727 0.602417
v 0.011376 -0.002286 0.000246
vn -0.231980 -0.763727 0.602417
v 0.009855 -0.000620 0.001773
vn 0.542170 -0.817855 -0.192784
v 0.021221 -0.000762 -0.026708
vn 0.542170 -0.817855 -0.192784
v 0.022638 -0.000762 -0.022724
vn 0.542170 -0.817855 -0.192784
v 0.010192 -0.006537 -0.033228
vn 0.284133 -0.953447 -0.101031
v 0.022638 -0.000762 -0.022724
vn 0.284133 -0.953447 -0.101031
v 0.021221 -0.000762 -0.026708
vn 0.284133 -0.953447 -0.101031
v 0.030850 0.002221 -0.027784
vn -0.510051 0.835467 -0.204556
v 0.002989 -0.001905 -0.002501
vn -0.510051 0.835467 -0.204556
v 0.004918 0.000000 0.000470
vn -0.510051 0.835467 -0.204556
v 0.013144 0.000000 -0.020042
vn -0.010674 -0.163124 -0.986548
v 0.011535 0.000000 -0.024034
vn -0.010674 -0.163124 -0.986548
v 0.007749 -0.003969 -0.023337
vn -0.010674 -0.163124 -0.986548
v 0.005369 0.000000 -0.023968
vn -0.224808 -0.948989 0.221093
v 0.024925 -0.021042 -0.039536
vn -0.224808 -0.948989 0.221093
v 0.029379 -0.018654 -0.024756
vn -0.224808 -0.948989 0.221093
v 0.021686 -0.015928 -0.020878
vn -0.751797 -0.643751 0.142780
v 0.005870 0.005054 -0.025623
vn -0.751797 -0.643751 0.142780
v 0.009536 0.001575 -0.022008
vn -0.751797 -0.643751 0.142780
v 0.013646 0.000752 -0.004079
vn -0.923361 -0.380050 0.054463
v 0.007609 0.001575 -0.020416
vn -0.923361 -0.380050 0.054463
v 0.005870 0.005054 -0.025623
vn -0.923361 -0.380050 0.054463
v 0.010192 -0.006537 -0.033228
vn -0.991771 -0.124076 -0.031545
v 0.005870 0.005054 -0.025623
vn -0.991771 -0.124076 -0.031545
v 0.005486 0.001456 0.000606
vn -0.991771 -0.124076 -0.031545
v 0.004995 0.005232 0.001177
vn 0.436612 0.451569 0.778111
v 0.036186 0.005913 -0.019721
vn 0.436612 0.451569 0.778111
v 0.013646 0.000752 -0.004079
vn 0.436612 0.451569 0.778111
v 0.024191 -0.000998 -0.008980
vn -0.619985 0.007735 -0.784575
v 0.028992 -0.006358 -0.020041
vn -0.619985 0.007735 -0.784575
v 0.035925 -0.009679 -0.025553
vn -0.619985 0.007735 -0.784575
v 0.027624 -0.015770 -0.019053
vn 0.518512 -0.838860 0.165710
v 0.027624 -0.015770 -0.019053
vn 0.518512 -0.838860 0.165710
v 0.038186 -0.010895 -0.027421
vn 0.518512 -0.838860 0.165710
v 0.045252 -0.006772 -0.028660
vn 0.223391 -0.962976 0.150909
v 0.028992 -0.006358 -0.020041
vn 0.223391 -0.962976 0.150909
v 0.027992 -0.009679 -0.039756
vn 0.223391 -0.962976 0.150909
v 0.033609 -0.009310 -0.045712
vn -0.984311 -0.104328 -0.142297
v 0.021686 -0.015928 -0.020878
vn -0.984311 -0.104328 -0.142297
v 0.024493 -0.010895 -0.043990
vn -0.984311 -0.104328 -0.142297
v 0.024925 -0.021042 -0.039536
vn -0.101635 -0.403490 -0.909322
v 0.033609 -0.009310 -0.045712
vn -0.101635 -0.403490 -0.909322
v 0.024925 -0.021042 -0.039536
vn -0.101635 -0.403490 -0.909322
v 0.024493 -0.010895 -0.043990
vn 0.062673 -0.134347 0.988950
v 0.021686 -0.015928 -0.020878
vn 0.062673 -0.134347 0.988950
v 0.039424 -0.010895 -0.021319
vn 0.062673 -0.134347 0.988950
v 0.028992 -0.006358 -0.020041
vn 0.247970 -0.913165 -0.323483
v 0.021686 -0.015928 -0.020878
vn 0.247970 -0.913165 -0.323483
v 0.045252 -0.006772 -0.028660
vn 0.247970 -0.913165 -0.323483
v 0.041685 -0.009679 -0.023187
vn -0.839220 -0.525541 -0.139706
v 0.005369 0.000000 -0.023968
vn -0.839220 -0.525541 -0.139706
v 0.007749 -0.003969 -0.023337
vn -0.839220 -0.525541 -0.139706
v 0.002989 -0.001905 -0.002501
vn 0.303075 -0.310193 0.901069
v 0.022290 -0.011142 -0.019434
vn 0.303075 -0.310193 0.901069
v 0.021686 -0.015928 -0.020878
vn 0.303075 -0.310193 0.901069
v 0.028992 -0.006358 -0.020041
vn -0.214822 0.728510 0.650480
v 0.012057 -0.002325 -0.030150
vn -0.214822 0.728510 0.650480
v 0.023425 -0.009768 -0.018061
vn -0.214822 0.728510 0.650480
v 0.028992 -0.006358 -0.020041
vn -0.510665 0.859489 -0.022349
v 0.005870 0.005054 -0.025623
vn -0.510665 0.859489 -0.022349
v 0.004995 0.005232 0.001177
vn -0.510665 0.859489 -0.022349
v 0.007328 0.006032 -0.021331
vn 0.020447 -0.998977 0.040336
v 0.005870 0.005054 -0.025623
vn 0.020447 -0.998977 0.040336
v 0.036186 0.005913 -0.019721
vn 0.020447 -0.998977 0.040336
v 0.007776 0.006032 -0.002364
vn -0.501342 -0.280239 -0.818610
v 0.005486 0.001456 0.000606
vn -0.501342 -0.280239 -0.818610
v 0.007776 0.006032 -0.002364
vn -0.501342 -0.280239 -0.818610
v 0.036186 0.005913 -0.019721
vn 0.494201 -0.141340 0.857781
v 0.029379 -0.018654 -0.024756
vn 0.494201 -0.141340 0.857781
v 0.027422 -0.012681 -0.022644
vn 0.494201 -0.141340 0.857781
v 0.022290 -0.011142 -0.019434
vn -0.093741 -0.359007 0.928615
v 0.028992 -0.006358 -0.020041
vn -0.093741 -0.359007 0.928615
v 0.027422 -0.012681 -0.022644
vn -0.093741 -0.359007 0.928615
v 0.029379 -0.018654 -0.024756
vn -0.759480 -0.018940 -0.650254
v 0.027422 -0.012681 -0.022644
vn -0.759480 -0.018940 -0.650254
v 0.029379 -0.018654 -0.024756
vn -0.759480 -0.018940 -0.650254
v 0.023425 -0.009768 -0.018061
vn -0.172238 0.856639 0.486317
v 0.027624 -0.015770 -0.019053
vn -0.172238 0.856639 0.486317
v 0.045252 -0.006772 -0.028660
vn -0.172238 0.856639 0.486317
v 0.021686 -0.015928 -0.020878
vn -0.694395 -0.124839 0.708682
v 0.024191 -0.000998 -0.008980
vn -0.694395 -0.124839 0.708682
v 0.019157 -0.008591 -0.015251
vn -0.694395 -0.124839 0.708682
v 0.024711 -0.016880 -0.011268
vn -0.759642 -0.032715 0.649518
v 0.007861 -0.015585 -0.028814
vn -0.759642 -0.032715 0.649518
v 0.019157 -0.008591 -0.015251
vn -0.759642 -0.032715 0.649518
v 0.024191 -0.000998 -0.008980
vn -0.256636 -0.655365 -0.710377
v 0.011376 -0.002286 0.000246
vn -0.256636 -0.655365 -0.710377
v 0.004918 0.000000 0.000470
vn -0.256636 -0.655365 -0.710377
v 0.010172 0.000000 -0.001428
vn -0.253028 0.481389 0.839191
v 0.011376 -0.002286 0.000246
vn -0.253028 0.481389 0.839191
v 0.010172 0.000000 -0.001428
vn -0.253028 0.481389 0.839191
v 0.002989 -0.001905 -0.002501
vn 0.266451 0.961808 -0.062680
v 0.028992 -0.006358 -0.020041
vn 0.266451 0.961808 -0.062680
v 0.033609 -0.009310 -0.045712
vn 0.266451 0.961808 -0.062680
v 0.012057 -0.002325 -0.030150
vn -0.855575 -0.496573 -0.146312
v 0.002989 -0.001905 -0.002501
vn -0.855575 -0.496573 -0.146312
v 0.007749 -0.003969 -0.023337
vn -0.855575 -0.496573 -0.146312
v 0.007679 -0.006532 -0.014226
vn -0.270526 0.868273 -0.415833
v 0.027660 -0.001701 -0.012704
vn -0.270526 0.868273 -0.415833
v 0.007861 -0.015585 -0.028814
vn -0.270526 0.868273 -0.415833
v 0.024191 -0.000998 -0.008980
vn 0.170015 -0.840108 0.515086
v 0.027660 -0.001701 -0.012704
vn 0.170015 -0.840108 0.515086
v 0.013646 0.000752 -0.004079
vn 0.170015 -0.840108 0.515086
v 0.007861 -0.015585 -0.028814
vn 0.621072 -0.742677 -0.250401
v 0.013144 0.000000 -0.020042
vn 0.621072 -0.742677 -0.250401
v 0.007679 -0.006532 -0.014226
vn 0.621072 -0.742677 -0.250401
v 0.011535 0.000000 -0.024034
vn 0.693527 -0.694898 -0.190098
v 0.011535 0.000000 -0.024034
vn 0.693527 -0.694898 -0.190098
v 0.007679 -0.006532 -0.014226
vn 0.693527 -0.694898 -0.190098
v 0.007749 -0.003969 -0.023337
vn -0.685250 0.457989 0.566284
v 0.021221 0.002045 -0.026708
vn -0.685250 0.457989 0.566284
v 0.022638 -0.000762 -0.022724
vn -0.685250 0.457989 0.566284
v 0.024088 0.002045 -0.023239
vn 0.685250 -0.457989 -0.566284
v 0.021221 0.002045 -0.026708
vn 0.685250 -0.457989 -0.566284
v 0.024088 0.002045 -0.023239
vn 0.685250 -0.457989 -0.566284
v 0.022638 -0.000762 -0.022724
vn 0.723296 0.338175 -0.602064
v 0.007749 -0.003969 -0.023337
vn 0.723296 0.338175 -0.602064
v 0.005369 0.000000 -0.023968
vn 0.723296 0.338175 -0.602064
v 0.008956 0.000000 -0.019659
vn -0.836266 -0.526115 -0.154472
v 0.007679 -0.006532 -0.014226
vn -0.836266 -0.526115 -0.154472
v 0.005369 0.000000 -0.023968
vn -0.836266 -0.526115 -0.154472
v 0.007749 -0.003969 -0.023337
vn -0.043670 0.995884 0.079419
v 0.036186 0.005913 -0.019721
vn -0.043670 0.995884 0.079419
v 0.026307 0.005966 -0.025811
vn -0.043670 0.995884 0.079419
v 0.005870 0.005054 -0.025623
vn 0.357733 0.736557 -0.574031
v 0.036186 0.005913 -0.019721
vn 0.357733 0.736557 -0.574031
v 0.030850 0.002221 -0.027784
vn 0.357733 0.736557 -0.574031
v 0.026307 0.005966 -0.025811
vn 0.911959 -0.210456 -0.352191
v 0.026034 -0.005046 -0.014915
vn 0.911959 -0.210456 -0.352191
v 0.027660 -0.001701 -0.012704
vn 0.911959 -0.210456 -0.352191
v 0.024711 -0.016880 -0.011268
vn 0.170730 0.745826 -0.643890
v 0.011376 -0.002286 0.000246
vn 0.170730 0.745826 -0.643890
v 0.009711 -0.005951 -0.004441
vn 0.170730 0.745826 -0.643890
v 0.009855 -0.000620 0.001773
vn 0.493406 0.309219 0.812978
v 0.036186 0.005913 -0.019721
vn 0.493406 0.309219 0.812978
v 0.005486 0.001456 0.000606
vn 0.493406 0.309219 0.812978
v 0.013646 0.000752 -0.004079
vn 0.940201 0.147322 -0.307114
v 0.028992 -0.006358 -0.020041
vn 0.940201 0.147322 -0.307114
v 0.029379 -0.018654 -0.024756
vn 0.940201 0.147322 -0.307114
v 0.024925 -0.021042 -0.039536
vn -0.010592 0.545795 -0.837852
v 0.005870 0.005054 -0.025623
vn -0.010592 0.545795 -0.837852
v 0.030850 0.002221 -0.027784
vn -0.010592 0.545795 -0.837852
v 0.010192 -0.006537 -0.033228
vn 0.242979 0.887486 0.391574
v 0.004995 0.005232 0.001177
vn 0.242979 0.887486 0.391574
v 0.036186 0.005913 -0.019721
vn 0.242979 0.887486 0.391574
v 0.007776 0.006032 -0.002364
vn -0.316919 0.947824 -0.034519
v 0.004995 0.005232 0.001177
vn -0.316919 0.947824 -0.034519
v 0.007776 0.006032 -0.002364
vn -0.316919 0.947824 -0.034519
v 0.009817 0.006032 -0.021094
vn 0.017093 -0.555075 -0.831625
v 0.024088 0.002045 -0.023239
vn 0.017093 -0.555075 -0.831625
v 0.005870 0.005054 -0.025623
vn 0.017093 -0.555075 -0.831625
v 0.026307 0.005966 -0.025811
vn 0.006015 0.831225 0.555903
v 0.007679 -0.006532 -0.014226
vn 0.006015 0.831225 0.555903
v 0.011535 0.000000 -0.024034
vn 0.006015 0.831225 0.555903
v 0.005369 0.000000 -0.023968
vn 0.000000 1.000000 0.000000
v 0.013144 0.000000 -0.020042
vn 0.000000 1.000000 0.000000
v 0.011535 0.000000 -0.024034
vn 0.000000 1.000000 0.000000
v 0.008956 0.000000 -0.019659
vn -0.918632 -0.343759 0.194793
v 0.013646 0.000752 -0.004079
vn -0.918632 -0.343759 0.194793
v 0.009536 0.001575 -0.022008
vn -0.918632 -0.343759 0.194793
v 0.010192 -0.006537 -0.033228
vn 0.806752 -0.581467 0.105105
v 0.009855 -0.000620 0.001773
vn 0.806752 -0.581467 0.105105
v 0.007679 -0.006532 -0.014226
vn 0.806752 -0.581467 0.105105
v 0.013144 0.000000 -0.020042
vn 0.070988 0.977931 0.196497
v 0.009855 -0.000620 0.001773
vn 0.070988 0.977931 0.196497
v 0.010172 0.000000 -0.001428
vn 0.070988 0.977931 0.196497
v 0.004918 0.000000 0.000470
vn -0.110216 0.355415 -0.928188
v 0.026307 0.005966 -0.025811
vn -0.110216 0.355415 -0.928188
v 0.030850 0.002221 -0.027784
vn -0.110216 0.355415 -0.928188
v 0.021221 0.002045 -0.026708
vn -0.586165 0.649435 0.484401
v 0.021221 0.002045 -0.026708
vn -0.586165 0.649435 0.484401
v 0.024088 0.002045 -0.023239
vn -0.586165 0.649435 0.484401
v 0.026307 0.005966 -0.025811
vn 0.239756 0.739018 -0.629579
v 0.011376 -0.002286 0.000246
vn 0.239756 0.739018 -0.629579
v 0.002989 -0.001905 -0.002501
vn 0.239756 0.739018 -0.629579
v 0.004918 0.000000 0.000470
vn 0.164261 -0.875377 0.454680
v 0.002989 -0.001905 -0.002501
vn 0.164261 -0.875377 0.454680
v 0.010172 0.000000 -0.001428
vn 0.164261 -0.875377 0.454680
v 0.004918 0.000000 0.000470
vn 0.620221 -0.467185 -0.630130
v 0.007861 -0.015585 -0.028814
vn 0.620221 -0.467185 -0.630130
v 0.010192 -0.006537 -0.033228
vn 0.620221 -0.467185 -0.630130
v 0.024711 -0.016880 -0.011268
vn -0.477518 -0.865627 0.150553
v 0.007679 -0.006532 -0.014226
vn -0.477518 -0.865627 0.150553
v 0.009711 -0.005951 -0.004441
vn -0.477518 -0.865627 0.150553
v 0.002989 -0.001905 -0.002501
vn -0.105939 -0.900118 0.422569
v 0.027624 -0.015770 -0.019053
vn -0.105939 -0.900118 0.422569
v 0.021686 -0.015928 -0.020878
vn -0.105939 -0.900118 0.422569
v 0.029379 -0.018654 -0.024756
vn -0.743420 -0.052379 0.666771
v 0.022290 -0.011142 -0.019434
vn -0.743420 -0.052379 0.666771
v 0.023425 -0.009768 -0.018061
vn -0.743420 -0.052379 0.666771
v 0.012057 -0.002325 -0.030150
vn 0.123413 0.648597 -0.751060
v 0.029379 -0.018654 -0.024756
vn 0.123413 0.648597 -0.751060
v 0.022290 -0.011142 -0.019434
vn 0.123413 0.648597 -0.751060
v 0.023425 -0.009768 -0.018061
vn 0.573007 -0.765545 0.292581
v 0.028992 -0.006358 -0.020041
vn 0.573007 -0.765545 0.292581
v 0.023425 -0.009768 -0.018061
vn 0.573007 -0.765545 0.292581
v 0.022290 -0.011142 -0.019434
vn 0.163756 -0.761682 0.626916
v 0.027422 -0.012681 -0.022644
vn 0.163756 -0.761682 0.626916
v 0.023425 -0.009768 -0.018061
vn 0.163756 -0.761682 0.626916
v 0.022290 -0.011142 -0.019434
vn 0.016792 -0.999763 -0.013877
v 0.021221 0.002045 -0.026708
vn 0.016792 -0.999763 -0.013877
v 0.030850 0.002221 -0.027784
vn 0.016792 -0.999763 -0.013877
v 0.024088 0.002045 -0.023239
vn 0.129283 0.964598 0.229863
v 0.030850 0.002221 -0.027784
vn 0.129283 0.964598 0.229863
v 0.005870 0.005054 -0.025623
vn 0.129283 0.964598 0.229863
v 0.024088 0.002045 -0.023239
vn 0.942208 0.000000 -0.335028
v 0.021221 0.002045 -0.026708
vn 0.942208 0.000000 -0.335028
v 0.022638 -0.000762 -0.022724
vn 0.942208 0.000000 -0.335028
v 0.021221 -0.000762 -0.026708
vn -0.942208 0.000000 0.335028
v 0.021221 0.002045 -0.026708
vn -0.942208 0.000000 0.335028
v 0.021221 -0.000762 -0.026708
vn -0.942208 0.000000 0.335028
v 0.022638 -0.000762 -0.022724
vn 0.953066 0.253997 0.164774
v 0.027624 -0.015770 -0.019053
vn 0.953066 0.253997 0.164774
v 0.029379 -0.018654 -0.024756
vn 0.953066 0.253997 0.164774
v 0.027422 -0.012681 -0.022644
vn 0.967932 -0.160909 -0.192916
v 0.028992 -0.006358 -0.020041
vn 0.967932 -0.160909 -0.192916
v 0.027624 -0.015770 -0.019053
vn 0.967932 -0.160909 -0.192916
v 0.027422 -0.012681 -0.022644
vn 0.556654 -0.053174 0.829041
v 0.004995 0.005232 0.001177
vn 0.556654 -0.053174 0.829041
v 0.005486 0.001456 0.000606
vn 0.556654 -0.053174 0.829041
v 0.036186 0.005913 -0.019721
vn -0.054292 0.989366 0.134935
v 0.005486 0.001456 0.000606
vn -0.054292 0.989366 0.134935
v 0.036186 0.005913 -0.019721
vn -0.054292 0.989366 0.134935
v 0.005870 0.005054 -0.025623
vn 0.879078 -0.473818 -0.052130
v 0.005870 0.005054 -0.025623
vn 0.879078 -0.473818 -0.052130
v 0.007776 0.006032 -0.002364
vn 0.879078 -0.473818 -0.052130
v 0.005486 0.001456 0.000606
vn 0.254369 -0.921991 -0.291939
v 0.021686 -0.015928 -0.020878
vn 0.254369 -0.921991 -0.291939
v 0.041685 -0.009679 -0.023187
vn 0.254369 -0.921991 -0.291939
v 0.039424 -0.010895 -0.021319
vn 0.161536 -0.905111 -0.393294
v 0.035925 -0.009679 -0.025553
vn 0.161536 -0.905111 -0.393294
v 0.041685 -0.009679 -0.023187
vn 0.161536 -0.905111 -0.393294
v 0.039424 -0.010895 -0.021319
vn 0.333870 0.552732 0.763557
v 0.028992 -0.006358 -0.020041
vn 0.333870 0.552732 0.763557
v 0.039424 -0.010895 -0.021319
vn 0.333870 0.552732 0.763557
v 0.041685 -0.009679 -0.023187
vn -0.416685 0.905111 0.084543
v 0.038186 -0.010895 -0.027421
vn -0.416685 0.905111 0.084543
v 0.039424 -0.010895 -0.021319
vn -0.416685 0.905111 0.084543
v 0.041685 -0.009679 -0.023187
vn -0.192142 0.973908 -0.120765
v 0.033609 -0.009310 -0.045712
vn -0.192142 0.973908 -0.120765
v 0.024493 -0.010895 -0.043990
vn -0.192142 0.973908 -0.120765
v 0.027992 -0.009679 -0.039756
vn 0.165054 -0.985716 -0.033488
v 0.024493 -0.010895 -0.043990
vn 0.165054 -0.985716 -0.033488
v 0.033609 -0.009310 -0.045712
vn 0.165054 -0.985716 -0.033488
v 0.025732 -0.010895 -0.037888
vn -0.132003 0.971761 0.195594
v 0.021686 -0.015928 -0.020878
vn -0.132003 0.971761 0.195594
v 0.033609 -0.009310 -0.045712
vn -0.132003 0.971761 0.195594
v 0.024493 -0.010895 -0.043990
vn -0.628278 0.026548 -0.777536
v 0.027624 -0.015770 -0.019053
vn -0.628278 0.026548 -0.777536
v 0.035925 -0.009679 -0.025553
vn -0.628278 0.026548 -0.777536
v 0.038186 -0.010895 -0.027421
vn 0.427835 -0.427979 0.796110
v 0.028992 -0.006358 -0.020041
vn 0.427835 -0.427979 0.796110
v 0.038186 -0.010895 -0.027421
vn 0.427835 -0.427979 0.796110
v 0.035925 -0.009679 -0.025553
vn 0.416686 0.905111 -0.084543
v 0.038186 -0.010895 -0.027421
vn 0.416686 0.905111 -0.084543
v 0.035925 -0.009679 -0.025553
vn 0.416686 0.905111 -0.084543
v 0.039424 -0.010895 -0.021319
vn -0.161536 -0.905111 0.393294
v 0.035925 -0.009679 -0.025553
vn -0.161536 -0.905111 0.393294
v 0.038186 -0.010895 -0.027421
vn -0.161536 -0.905111 0.393294
v 0.041685 -0.009679 -0.023187
vn 0.541248 -0.833244 0.112938
v 0.028992 -0.006358 -0.020041
vn 0.541248 -0.833244 0.112938
v 0.025732 -0.010895 -0.037888
vn 0.541248 -0.833244 0.112938
v 0.027992 -0.009679 -0.039756
vn 0.699641 -0.317613 0.640019
v 0.033609 -0.009310 -0.045712
vn 0.699641 -0.317613 0.640019
v 0.027992 -0.009679 -0.039756
vn 0.699641 -0.317613 0.640019
v 0.025732 -0.010895 -0.037888
vn 0.680415 -0.169853 0.712871
v 0.024925 -0.021042 -0.039536
vn 0.680415 -0.169853 0.712871
v 0.027992 -0.009679 -0.039756
vn 0.680415 -0.169853 0.712871
v 0.025732 -0.010895 -0.037888
vn -0.416685 0.905111 0.084543
v 0.024493 -0.010895 -0.043990
vn -0.416685 0.905111 0.084543
v 0.025732 -0.010895 -0.037888
vn -0.416685 0.905111 0.084543
v 0.027992 -0.009679 -0.039756
vn 0.447150 -0.712236 0.541088
v 0.009536 0.001575 -0.022008
vn 0.447150 -0.712236 0.541088
v 0.007609 0.001575 -0.020416
vn 0.447150 -0.712236 0.541088
v 0.010192 -0.006537 -0.033228
vn -0.624862 0.194448 -0.756133
v 0.007609 0.001575 -0.020416
vn -0.624862 0.194448 -0.756133
v 0.009817 0.006032 -0.021094
vn -0.624862 0.194448 -0.756133
v 0.009536 0.001575 -0.022008
vn 0.357999 0.827144 0.433208
v 0.007609 0.001575 -0.020416
vn 0.357999 0.827144 0.433208
v 0.009536 0.001575 -0.022008
vn 0.357999 0.827144 0.433208
v 0.005870 0.005054 -0.025623
vn 0.624862 -0.194448 0.756133
v 0.009536 0.001575 -0.022008
vn 0.624862 -0.194448 0.756133
v 0.009817 0.006032 -0.021094
vn 0.624862 -0.194448 0.756133
v 0.007609 0.001575 -0.020416
vn 0.751791 0.068042 -0.655881
v 0.027660 -0.001701 -0.012704
vn 0.751791 0.068042 -0.655881
v 0.026034 -0.005046 -0.014915
vn 0.751791 0.068042 -0.655881
v 0.010192 -0.006537 -0.033228
vn -0.442166 -0.334914 0.832059
v 0.027660 -0.001701 -0.012704
vn -0.442166 -0.334914 0.832059
v 0.007861 -0.015585 -0.028814
vn -0.442166 -0.334914 0.832059
v 0.026034 -0.005046 -0.014915
vn -0.284291 0.620864 -0.730552
v 0.026034 -0.005046 -0.014915
vn -0.284291 0.620864 -0.730552
v 0.019157 -0.008591 -0.015251
vn -0.284291 0.620864 -0.730552
v 0.027660 -0.001701 -0.012704
vn -0.245479 -0.719400 0.649772
v 0.011376 -0.002286 0.000246
vn -0.245479 -0.719400 0.649772
v 0.002989 -0.001905 -0.002501
vn -0.245479 -0.719400 0.649772
v 0.009711 -0.005951 -0.004441
vn -0.453542 0.887637 -0.080000
v 0.026034 -0.005046 -0.014915
vn -0.453542 0.887637 -0.080000
v 0.007861 -0.015585 -0.028814
vn -0.453542 0.887637 -0.080000
v 0.019157 -0.008591 -0.015251
vn 0.649759 -0.743605 -0.157685
v 0.027660 -0.001701 -0.012704
vn 0.649759 -0.743605 -0.157685
v 0.019157 -0.008591 -0.015251
vn 0.649759 -0.743605 -0.157685
v 0.007861 -0.015585 -0.028814
vn -0.718196 -0.155401 0.678266
v 0.019157 -0.008591 -0.015251
vn -0.718196 -0.155401 0.678266
v 0.007861 -0.015585 -0.028814
vn -0.718196 -0.155401 0.678266
v 0.024711 -0.016880 -0.011268
vn 0.722545 -0.075338 0.687207
v 0.024711 -0.016880 -0.011268
vn 0.722545 -0.075338 0.687207
v 0.027660 -0.001701 -0.012704
vn 0.722545 -0.075338 0.687207
v 0.024191 -0.000998 -0.008980
vn 0.707611 -0.157552 0.688813
v 0.027660 -0.001701 -0.012704
vn 0.707611 -0.157552 0.688813
v 0.036186 0.005913 -0.019721
vn 0.707611 -0.157552 0.688813
v 0.024191 -0.000998 -0.008980
vn -0.003347 0.999374 0.035215
v 0.004995 0.005232 0.001177
vn -0.003347 0.999374 0.035215
v 0.009817 0.006032 -0.021094
vn -0.003347 0.999374 0.035215
v 0.007328 0.006032 -0.021331
vn 0.021785 0.973139 -0.229184
v 0.005870 0.005054 -0.025623
vn 0.021785 0.973139 -0.229184
v 0.007328 0.006032 -0.021331
vn 0.021785 0.973139 -0.229184
v 0.009817 0.006032 -0.021094
vn 0.092823 -0.194448 -0.976511
v 0.007609 0.001575 -0.020416
vn 0.092823 -0.194448 -0.976511
v 0.007328 0.006032 -0.021331
vn 0.092823 -0.194448 -0.976511
v 0.009817 0.006032 -0.021094
vn -0.092823 0.194448 0.976511
v 0.007609 0.001575 -0.020416
vn -0.092823 0.194448 0.976511
v 0.009817 0.006032 -0.021094
vn -0.092823 0.194448 0.976511
v 0.007328 0.006032 -0.021331
vn 0.943471 0.295245 0.150640
v 0.009855 -0.000620 0.001773
vn 0.943471 0.295245 0.150640
v 0.013144 0.000000 -0.020042
vn 0.943471 0.295245 0.150640
v 0.010172 0.000000 -0.001428
vn 0.000000 1.000000 0.000000
v 0.013144 0.000000 -0.020042
vn 0.000000 1.000000 0.000000
v 0.004918 0.000000 0.000470
vn 0.000000 1.000000 0.000000
v 0.010172 0.000000 -0.001428
vn -0.162675 -0.977200 -0.136444
v 0.005486 0.001456 0.000606
vn -0.162675 -0.977200 -0.136444
v 0.005870 0.005054 -0.025623
vn -0.162675 -0.977200 -0.136444
v 0.013646 0.000752 -0.004079
vn 0.969139 -0.239161 -0.059766
v 0.007679 -0.006532 -0.014226
vn 0.969139 -0.239161 -0.059766
v 0.007749 -0.003969 -0.023337
vn 0.969139 -0.239161 -0.059766
v 0.008956 0.000000 -0.019659
vn -0.834958 -0.246165 -0.492187
v 0.007679 -0.006532 -0.014226
vn -0.834958 -0.246165 -0.492187
v 0.008956 0.000000 -0.019659
vn -0.834958 -0.246165 -0.492187
v 0.011535 0.000000 -0.024034
# 402 vertices, 0 vertices normals

f 1//1 2//2 3//3
f 4//4 5//5 6//6
f 7//7 8//8 9//9
f 10//10 11//11 12//12
f 13//13 14//14 15//15
f 16//16 17//17 18//18
f 19//19 20//20 21//21
f 22//22 23//23 24//24
f 25//25 26//26 27//27
f 28//28 29//29 30//30
f 31//31 32//32 33//33
f 34//34 35//35 36//36
f 37//37 38//38 39//39
f 40//40 41//41 42//42
f 43//43 44//44 45//45
f 46//46 47//47 48//48
f 49//49 50//50 51//51
f 52//52 53//53 54//54
f 55//55 56//56 57//57
f 58//58 59//59 60//60
f 61//61 62//62 63//63
f 64//64 65//65 66//66
f 67//67 68//68 69//69
f 70//70 71//71 72//72
f 73//73 74//74 75//75
f 76//76 77//77 78//78
f 79//79 80//80 81//81
f 82//82 83//83 84//84
f 85//85 86//86 87//87
f 88//88 89//89 90//90
f 91//91 92//92 93//93
f 94//94 95//95 96//96
f 97//97 98//98 99//99
f 100//100 101//101 102//102
f 103//103 104//104 105//105
f 106//106 107//107 108//108
f 109//109 110//110 111//111
f 112//112 113//113 114//114
f 115//115 116//116 117//117
f 118//118 119//119 120//120
f 121//121 122//122 123//123
f 124//124 125//125 126//126
f 127//127 128//128 129//129
f 130//130 131//131 132//132
f 133//133 134//134 135//135
f 136//136 137//137 138//138
f 139//139 140//140 141//141
f 142//142 143//143 144//144
f 145//145 146//146 147//147
f 148//148 149//149 150//150
f 151//151 152//152 153//153
f 154//154 155//155 156//156
f 157//157 158//158 159//159
f 160//160 161//161 162//162
f 163//163 164//164 165//165
f 166//166 167//167 168//168
f 169//169 170//170 171//171
f 172//172 173//173 174//174
f 175//175 176//176 177//177
f 178//178 179//179 180//180
f 181//181 182//182 183//183
f 184//184 185//185 186//186
f 187//187 188//188 189//189
f 190//190 191//191 192//192
f 193//193 194//194 195//195
f 196//196 197//197 198//198
f 199//199 200//200 201//201
f 202//202 203//203 204//204
f 205//205 206//206 207//207
f 208//208 209//209 210//210
f 211//211 212//212 213//213
f 214//214 215//215 216//216
f 217//217 218//218 219//219
f 220//220 221//221 222//222
f 223//223 224//224 225//225
f 226//226 227//227 228//228
f 229//229 230//230 231//231
f 232//232 233//233 234//234
f 235//235 236//236 237//237
f 238//238 239//239 240//240
f 241//241 242//242 243//243
f 244//244 245//245 246//246
f 247//247 248//248 249//249
f 250//250 251//251 252//252
f 253//253 254//254 255//255
f 256//256 257//257 258//258
f 259//259 260//260 261//261
f 262//262 263//263 264//264
f 265//265 266//266 267//267
f 268//268 269//269 270//270
f 271//271 272//272 273//273
f 274//274 275//275 276//276
f 277//277 278//278 279//279
f 280//280 281//281 282//282
f 283//283 284//284 285//285
f 286//286 287//287 288//288
f 289//289 290//290 291//291
f 292//292 293//293 294//294
f 295//295 296//296 297//297
f 298//298 299//299 300//300
f 301//301 302//302 303//303
f 304//304 305//305 306//306
f 307//307 308//308 309//309
f 310//310 311//311 312//312
f 313//313 314//314 315//315
f 316//316 317//317 318//318
f 319//319 320//320 321//321
f 322//322 323//323 324//324
f 325//325 326//326 327//327
f 328//328 329//329 330//330
f 331//331 332//332 333//333
f 334//334 335//335 336//336
f 337//337 338//338 339//339
f 340//340 341//341 342//342
f 343//343 344//344 345//345
f 346//346 347//347 348//348
f 349//349 350//350 351//351
f 352//352 353//353 354//354
f 355//355 356//356 357//357
f 358//358 359//359 360//360
f 361//361 362//362 363//363
f 364//364 365//365 366//366
f 367//367 368//368 369//369
f 370//370 371//371 372//372
f 373//373 374//374 375//375
f 376//376 377//377 378//378
f 379//379 380//380 381//381
f 382//382 383//383 384//384
f 385//385 386//386 387//387
f 388//388 389//389 390//390
f 391//391 392//392 393//393
f 394//394 395//395 396//396
f 397//397 398//398 399//399
f 400//400 401//401 402//402
# 134 faces, 0 coords texture

# End of File