####
#
# OBJ File Generated by Meshlab
#
####
# Object ssf2_Right.obj
#
# Vertices: 552
# Faces: 184
#
####
vn -0.999284 -0.016851 0.033882
v 0.006295 0.010870 0.055001
vn -0.999284 -0.016851 0.033882
v 0.005987 0.031047 0.055950
vn -0.999284 -0.016851 0.033882
v 0.005982 0.030022 0.055278
vn 0.993881 0.010001 0.110002
v 0.006295 0.010870 0.055001
vn 0.993881 0.010001 0.110002
v 0.008053 0.020320 0.038258
vn 0.993881 0.010001 0.110002
v 0.005987 0.031047 0.055950
vn -0.999819 -0.014695 -0.012122
v 0.006415 0.010712 0.045279
vn -0.999819 -0.014695 -0.012122
v 0.006295 0.010870 0.055001
vn -0.999819 -0.014695 -0.012122
v 0.005987 0.031047 0.055950
vn 0.998672 0.033441 -0.039201
v 0.006231 0.021940 0.050169
vn 0.998672 0.033441 -0.039201
v 0.006415 0.010712 0.045279
vn 0.998672 0.033441 -0.039201
v 0.005733 0.029913 0.044265
vn -0.869911 0.088327 0.485234
v -0.004962 0.043636 0.060654
vn -0.869911 0.088327 0.485234
v -0.007099 0.029408 0.059414
vn -0.869911 0.088327 0.485234
v -0.008422 0.013588 0.059922
vn -0.577103 0.022045 -0.816374
v -0.004633 0.028023 0.057633
vn -0.577103 0.022045 -0.816374
v -0.008422 0.013588 0.059922
vn -0.577103 0.022045 -0.816374
v -0.007099 0.029408 0.059414
vn 0.594292 -0.140685 0.791849
v -0.004962 0.043636 0.060654
vn 0.594292 -0.140685 0.791849
v -0.008833 0.006788 0.057013
vn 0.594292 -0.140685 0.791849
v -0.004633 0.028023 0.057633
vn -0.565382 -0.040749 -0.823822
v -0.004697 0.006420 0.040941
vn -0.565382 -0.040749 -0.823822
v -0.007163 0.028647 0.041533
vn -0.565382 -0.040749 -0.823822
v -0.004569 0.042735 0.039056
vn 0.805888 -0.033519 -0.591119
v -0.000256 0.019206 0.046271
vn 0.805888 -0.033519 -0.591119
v -0.004697 0.006420 0.040941
vn 0.805888 -0.033519 -0.591119
v -0.004569 0.042735 0.039056
vn 0.766303 0.003252 0.642471
v 0.002080 0.013877 0.060014
vn 0.766303 0.003252 0.642471
v 0.006295 0.010870 0.055001
vn 0.766303 0.003252 0.642471
v 0.005982 0.030022 0.055278
vn -0.759735 -0.003033 -0.650226
v 0.006295 0.010870 0.055001
vn -0.759735 -0.003033 -0.650226
v 0.002136 0.026949 0.059786
vn -0.759735 -0.003033 -0.650226
v 0.005982 0.030022 0.055278
vn -0.299424 -0.293385 0.907893
v 0.004278 0.032150 0.061906
vn -0.299424 -0.293385 0.907893
v -0.001375 0.037306 0.061708
vn -0.299424 -0.293385 0.907893
v -0.004633 0.028023 0.057633
vn -0.767646 -0.007877 -0.640826
v 0.006295 0.010870 0.055001
vn -0.767646 -0.007877 -0.640826
v 0.002080 0.013877 0.060014
vn -0.767646 -0.007877 -0.640826
v 0.002136 0.026949 0.059786
vn 0.016431 0.053678 0.998423
v -0.000718 0.015641 0.062843
vn 0.016431 0.053678 0.998423
v 0.005603 0.010316 0.063025
vn 0.016431 0.053678 0.998423
v 0.004300 0.028931 0.062046
vn 0.757997 0.008116 0.652207
v 0.002136 0.026949 0.059786
vn 0.757997 0.008116 0.652207
v 0.002080 0.013877 0.060014
vn 0.757997 0.008116 0.652207
v 0.005982 0.030022 0.055278
vn 0.755021 -0.011165 -0.655605
v 0.006415 0.010712 0.045279
vn 0.755021 -0.011165 -0.655605
v 0.002086 0.013811 0.040241
vn 0.755021 -0.011165 -0.655605
v 0.002130 0.027403 0.040060
vn -0.756108 0.007691 0.654402
v 0.002086 0.013811 0.040241
vn -0.756108 0.007691 0.654402
v 0.006415 0.010712 0.045279
vn -0.756108 0.007691 0.654402
v 0.005733 0.029913 0.044265
vn 0.586744 -0.694099 -0.417083
v -0.004697 0.006420 0.040941
vn 0.586744 -0.694099 -0.417083
v 0.004571 0.004285 0.057531
vn 0.586744 -0.694099 -0.417083
v -0.000862 0.000526 0.056144
vn -0.081980 -0.238676 0.967633
v -0.000862 0.000526 0.056144
vn -0.081980 -0.238676 0.967633
v 0.004571 0.004285 0.057531
vn -0.081980 -0.238676 0.967633
v -0.008833 0.006788 0.057013
vn -0.927705 0.192821 -0.319662
v -0.004633 0.028023 0.057633
vn -0.927705 0.192821 -0.319662
v -0.008833 0.006788 0.057013
vn -0.927705 0.192821 -0.319662
v -0.008422 0.013588 0.059922
vn 0.884578 0.432848 0.173679
v 0.005987 0.031047 0.055950
vn 0.884578 0.432848 0.173679
v 0.004278 0.032150 0.061906
vn 0.884578 0.432848 0.173679
v 0.005710 0.029919 0.060172
vn -0.009356 -0.378760 -0.925448
v 0.006083 0.041848 0.057200
vn -0.009356 -0.378760 -0.925448
v 0.000758 0.038895 0.058462
vn -0.009356 -0.378760 -0.925448
v -0.004508 0.042205 0.057161
vn -0.445529 0.035962 0.894545
v 0.004278 0.032150 0.061906
vn -0.445529 0.035962 0.894545
v -0.004633 0.028023 0.057633
vn -0.445529 0.035962 0.894545
v 0.004300 0.028931 0.062046
vn 0.640974 -0.750982 -0.158676
v 0.002136 0.026949 0.059786
vn 0.640974 -0.750982 -0.158676
v 0.005987 0.031047 0.055950
vn 0.640974 -0.750982 -0.158676
v 0.005710 0.029919 0.060172
vn -0.447103 0.062339 0.892307
v -0.004633 0.028023 0.057633
vn -0.447103 0.062339 0.892307
v -0.008833 0.006788 0.057013
vn -0.447103 0.062339 0.892307
v 0.004300 0.028931 0.062046
vn 0.933098 0.283580 0.221156
v 0.008053 0.020320 0.038258
vn 0.933098 0.283580 0.221156
v 0.000690 0.043969 0.039002
vn 0.933098 0.283580 0.221156
v -0.000083 0.043625 0.042703
vn -0.047836 0.053178 -0.997439
v -0.004697 0.006420 0.040941
vn -0.047836 0.053178 -0.997439
v -0.008401 0.013838 0.041514
vn -0.047836 0.053178 -0.997439
v -0.000083 0.043625 0.042703
vn -0.525061 -0.165621 0.834794
v -0.005844 0.012811 0.041487
vn -0.525061 -0.165621 0.834794
v -0.004697 0.006420 0.040941
vn -0.525061 -0.165621 0.834794
v -0.000256 0.019206 0.046271
vn 0.921102 0.194137 -0.337464
v -0.005844 0.012811 0.041487
vn 0.921102 0.194137 -0.337464
v -0.002792 0.012884 0.049861
vn 0.921102 0.194137 -0.337464
v -0.004697 0.006420 0.040941
vn -0.160436 0.094363 -0.982525
v -0.002572 0.023697 0.040318
vn -0.160436 0.094363 -0.982525
v 0.005539 0.029799 0.039579
vn -0.160436 0.094363 -0.982525
v 0.008053 0.020320 0.038258
vn 0.579532 -0.812882 0.058018
v 0.002130 0.027403 0.040060
vn 0.579532 -0.812882 0.058018
v -0.002962 0.023619 0.037913
vn 0.579532 -0.812882 0.058018
v 0.005539 0.029799 0.039579
vn -0.762609 0.011072 0.646765
v 0.002086 0.013811 0.040241
vn -0.762609 0.011072 0.646765
v 0.005733 0.029913 0.044265
vn -0.762609 0.011072 0.646765
v 0.002130 0.027403 0.040060
vn 0.761491 -0.007169 -0.648136
v 0.006415 0.010712 0.045279
vn 0.761491 -0.007169 -0.648136
v 0.002130 0.027403 0.040060
vn 0.761491 -0.007169 -0.648136
v 0.005733 0.029913 0.044265
vn 0.645241 0.763979 -0.000002
v 0.006295 0.010870 0.055001
vn 0.645241 0.763979 -0.000002
v 0.006895 0.010363 0.061770
vn 0.645241 0.763979 -0.000002
v 0.006895 0.010364 0.038527
vn -0.670038 -0.742317 0.003823
v 0.006295 0.010870 0.055001
vn -0.670038 -0.742317 0.003823
v 0.006415 0.010712 0.045279
vn -0.670038 -0.742317 0.003823
v 0.006895 0.010363 0.061770
vn 0.587373 0.809271 0.008519
v 0.006295 0.010870 0.055001
vn 0.587373 0.809271 0.008519
v 0.002080 0.013877 0.060014
vn 0.587373 0.809271 0.008519
v 0.006895 0.010363 0.061770
vn -0.232588 0.302393 -0.924371
v 0.005987 0.031047 0.055950
vn -0.232588 0.302393 -0.924371
v 0.009569 0.002675 0.045767
vn -0.232588 0.302393 -0.924371
v -0.004633 0.028023 0.057633
vn -0.732489 0.615990 -0.289856
v -0.002792 0.012884 0.049861
vn -0.732489 0.615990 -0.289856
v 0.008053 0.020320 0.038258
vn -0.732489 0.615990 -0.289856
v -0.004697 0.006420 0.040941
vn -0.542463 -0.170617 0.822571
v -0.004962 0.043636 0.060654
vn -0.542463 -0.170617 0.822571
v -0.004633 0.028023 0.057633
vn -0.542463 -0.170617 0.822571
v -0.001375 0.037306 0.061708
vn -0.930496 0.366088 -0.012559
v -0.000256 0.019206 0.046271
vn -0.930496 0.366088 -0.012559
v -0.002792 0.012884 0.049861
vn -0.930496 0.366088 -0.012559
v -0.001470 0.016575 0.059589
vn -0.948910 -0.076632 -0.306101
v -0.004950 0.021842 0.060164
vn -0.948910 -0.076632 -0.306101
v -0.004633 0.028023 0.057633
vn -0.948910 -0.076632 -0.306101
v -0.000256 0.019206 0.046271
vn -0.442412 0.359061 0.821795
v -0.004950 0.021842 0.060164
vn -0.442412 0.359061 0.821795
v 0.004300 0.028931 0.062046
vn -0.442412 0.359061 0.821795
v -0.004633 0.028023 0.057633
vn 0.332389 0.528028 -0.781475
v 0.002136 0.026949 0.059786
vn 0.332389 0.528028 -0.781475
v -0.004633 0.028023 0.057633
vn 0.332389 0.528028 -0.781475
v 0.004300 0.028931 0.062046
vn -0.993535 -0.014638 -0.112582
v 0.006295 0.010870 0.055001
vn -0.993535 -0.014638 -0.112582
v 0.005982 0.030022 0.055278
vn -0.993535 -0.014638 -0.112582
v 0.008053 0.020320 0.038258
vn 0.992138 0.111238 0.057347
v 0.008053 0.020320 0.038258
vn 0.992138 0.111238 0.057347
v 0.005982 0.030022 0.055278
vn 0.992138 0.111238 0.057347
v 0.005710 0.029919 0.060172
vn 0.804670 0.579884 -0.127438
v -0.000862 0.000526 0.056144
vn 0.804670 0.579884 -0.127438
v 0.002352 -0.006987 0.042247
vn 0.804670 0.579884 -0.127438
v -0.003598 0.002040 0.045755
vn -0.999100 -0.034202 0.025080
v 0.006415 0.010712 0.045279
vn -0.999100 -0.034202 0.025080
v 0.005987 0.031047 0.055950
vn -0.999100 -0.034202 0.025080
v 0.005733 0.029913 0.044265
vn 0.963886 0.262234 -0.046438
v 0.005733 0.029913 0.044265
vn 0.963886 0.262234 -0.046438
v 0.005987 0.031047 0.055950
vn 0.963886 0.262234 -0.046438
v 0.008053 0.020320 0.038258
vn 0.998727 0.043256 -0.025951
v 0.006231 0.021940 0.050169
vn 0.998727 0.043256 -0.025951
v 0.005733 0.029913 0.044265
vn 0.998727 0.043256 -0.025951
v 0.005987 0.031047 0.055950
vn 0.963945 0.262069 -0.046152
v 0.008053 0.020320 0.038258
vn 0.963945 0.262069 -0.046152
v 0.005539 0.029799 0.039579
vn 0.963945 0.262069 -0.046152
v 0.005733 0.029913 0.044265
vn 0.574679 -0.818371 -0.003765
v 0.002130 0.027403 0.040060
vn 0.574679 -0.818371 -0.003765
v 0.005539 0.029799 0.039579
vn 0.574679 -0.818371 -0.003765
v 0.005733 0.029913 0.044265
vn 0.888614 0.235126 0.393802
v 0.008053 0.020320 0.038258
vn 0.888614 0.235126 0.393802
v -0.000083 0.043625 0.042703
vn 0.888614 0.235126 0.393802
v 0.000233 0.028385 0.051089
vn -0.881300 -0.340279 -0.327903
v -0.004633 0.028023 0.057633
vn -0.881300 -0.340279 -0.327903
v 0.009569 0.002675 0.045767
vn -0.881300 -0.340279 -0.327903
v 0.004571 0.004285 0.057531
vn 0.736893 -0.552995 0.388825
v 0.004571 0.004285 0.057531
vn 0.736893 -0.552995 0.388825
v 0.009569 0.002675 0.045767
vn 0.736893 -0.552995 0.388825
v 0.006895 0.010363 0.061770
vn 0.889178 0.242590 0.387959
v 0.009569 0.002675 0.045767
vn 0.889178 0.242590 0.387959
v 0.000233 0.028385 0.051089
vn 0.889178 0.242590 0.387959
v 0.007338 -0.003762 0.054906
vn 0.984179 -0.116564 0.133433
v -0.008833 0.006788 0.057013
vn 0.984179 -0.116564 0.133433
v -0.004962 0.043636 0.060654
vn 0.984179 -0.116564 0.133433
v -0.008422 0.013588 0.059922
vn -0.987012 -0.008408 0.160427
v -0.002572 0.023697 0.040318
vn -0.987012 -0.008408 0.160427
v -0.002962 0.023619 0.037913
vn -0.987012 -0.008408 0.160427
v -0.002962 0.017493 0.037592
vn -0.087487 0.052135 -0.994801
v -0.004569 0.042735 0.039056
vn -0.087487 0.052135 -0.994801
v -0.002962 0.023619 0.037913
vn -0.087487 0.052135 -0.994801
v -0.002962 0.017493 0.037592
vn 0.046926 0.052278 -0.997529
v -0.002962 0.023619 0.037913
vn 0.046926 0.052278 -0.997529
v 0.008053 0.020320 0.038258
vn 0.046926 0.052278 -0.997529
v -0.002962 0.017493 0.037592
vn 0.986918 -0.024544 -0.159342
v -0.002572 0.023697 0.040318
vn 0.986918 -0.024544 -0.159342
v -0.002794 0.017249 0.039937
vn 0.986918 -0.024544 -0.159342
v -0.002962 0.023619 0.037913
vn 0.582571 0.812779 -0.000515
v 0.002086 0.013811 0.040241
vn 0.582571 0.812779 -0.000515
v 0.006415 0.010712 0.045279
vn 0.582571 0.812779 -0.000515
v 0.006895 0.010364 0.038527
vn -0.587330 -0.809348 0.000000
v 0.006415 0.010712 0.045279
vn -0.587330 -0.809348 0.000000
v 0.006895 0.010364 0.038527
vn -0.587330 -0.809348 0.000000
v 0.006895 0.010363 0.061770
vn 0.514828 0.857260 -0.007616
v 0.006415 0.010712 0.045279
vn 0.514828 0.857260 -0.007616
v 0.006295 0.010870 0.055001
vn 0.514828 0.857260 -0.007616
v 0.006895 0.010364 0.038527
vn -0.885772 -0.175007 -0.429862
v 0.005539 0.029799 0.039579
vn -0.885772 -0.175007 -0.429862
v 0.008053 0.020320 0.038258
vn -0.885772 -0.175007 -0.429862
v 0.000233 0.028385 0.051089
vn -0.097912 0.048424 -0.994016
v 0.007338 -0.003762 0.054906
vn -0.097912 0.048424 -0.994016
v -0.008833 0.006788 0.057013
vn -0.097912 0.048424 -0.994016
v -0.004633 0.028023 0.057633
vn 0.999864 0.011083 0.012182
v 0.006231 0.021940 0.050169
vn 0.999864 0.011083 0.012182
v 0.006295 0.010870 0.055001
vn 0.999864 0.011083 0.012182
v 0.006415 0.010712 0.045279
vn 0.999704 0.014339 0.019644
v 0.006231 0.021940 0.050169
vn 0.999704 0.014339 0.019644
v 0.005987 0.031047 0.055950
vn 0.999704 0.014339 0.019644
v 0.006295 0.010870 0.055001
vn -0.105299 0.017734 0.994282
v -0.001470 0.016575 0.059589
vn -0.105299 0.017734 0.994282
v 0.002080 0.013877 0.060014
vn -0.105299 0.017734 0.994282
v 0.002136 0.026949 0.059786
vn 0.574319 0.816517 0.058803
v 0.002080 0.013877 0.060014
vn 0.574319 0.816517 0.058803
v -0.000718 0.015641 0.062843
vn 0.574319 0.816517 0.058803
v 0.006895 0.010363 0.061770
vn 0.355422 0.330197 -0.874440
v 0.002080 0.013877 0.060014
vn 0.355422 0.330197 -0.874440
v -0.001470 0.016575 0.059589
vn 0.355422 0.330197 -0.874440
v -0.004950 0.021842 0.060164
vn -0.357394 -0.760695 -0.541861
v 0.002080 0.013877 0.060014
vn -0.357394 -0.760695 -0.541861
v 0.006895 0.010363 0.061770
vn -0.357394 -0.760695 -0.541861
v -0.002034 0.016006 0.059738
vn -0.419742 -0.102338 -0.901856
v 0.000690 0.043969 0.039002
vn -0.419742 -0.102338 -0.901856
v 0.008053 0.020320 0.038258
vn -0.419742 -0.102338 -0.901856
v -0.003598 0.002040 0.045755
vn -0.748633 -0.053365 0.660834
v 0.004278 0.032150 0.061906
vn -0.748633 -0.053365 0.660834
v 0.002797 0.043184 0.061119
vn -0.748633 -0.053365 0.660834
v 0.000758 0.038895 0.058462
vn 0.958338 -0.041207 0.282648
v 0.005987 0.031047 0.055950
vn 0.958338 -0.041207 0.282648
v 0.006083 0.041848 0.057200
vn 0.958338 -0.041207 0.282648
v 0.004278 0.032150 0.061906
vn 0.782077 0.148159 0.605314
v 0.002797 0.043184 0.061119
vn 0.782077 0.148159 0.605314
v 0.004278 0.032150 0.061906
vn 0.782077 0.148159 0.605314
v 0.006083 0.041848 0.057200
vn 0.944497 0.328519 -0.000016
v 0.009569 0.002675 0.045767
vn 0.944497 0.328519 -0.000016
v 0.006895 0.010364 0.038527
vn 0.944497 0.328519 -0.000016
v 0.006895 0.010363 0.061770
vn -0.806150 -0.344879 0.480812
v 0.007338 -0.003762 0.054906
vn -0.806150 -0.344879 0.480812
v -0.004633 0.028023 0.057633
vn -0.806150 -0.344879 0.480812
v -0.002792 0.012884 0.049861
vn -0.296282 -0.320858 0.899593
v -0.008833 0.006788 0.057013
vn -0.296282 -0.320858 0.899593
v 0.005603 0.010316 0.063025
vn -0.296282 -0.320858 0.899593
v -0.000718 0.015641 0.062843
vn 0.576741 0.816560 -0.024480
v -0.002794 0.017249 0.039937
vn 0.576741 0.816560 -0.024480
v 0.002086 0.013811 0.040241
vn 0.576741 0.816560 -0.024480
v 0.006895 0.010364 0.038527
vn 0.100824 0.055229 -0.993370
v 0.002086 0.013811 0.040241
vn 0.100824 0.055229 -0.993370
v -0.002794 0.017249 0.039937
vn 0.100824 0.055229 -0.993370
v -0.002572 0.023697 0.040318
vn -0.585299 -0.810739 -0.011244
v 0.002086 0.013811 0.040241
vn -0.585299 -0.810739 -0.011244
v -0.002962 0.017493 0.037592
vn -0.585299 -0.810739 -0.011244
v 0.006895 0.010364 0.038527
vn 0.339767 0.087406 -0.936439
v -0.004697 0.006420 0.040941
vn 0.339767 0.087406 -0.936439
v 0.009569 0.002675 0.045767
vn 0.339767 0.087406 -0.936439
v 0.002352 -0.006987 0.042247
vn 0.583764 -0.799399 0.142059
v -0.004950 0.021842 0.060164
vn 0.583764 -0.799399 0.142059
v 0.002136 0.026949 0.059786
vn 0.583764 -0.799399 0.142059
v 0.004300 0.028931 0.062046
vn -0.040822 -0.017195 -0.999018
v 0.002080 0.013877 0.060014
vn -0.040822 -0.017195 -0.999018
v -0.004950 0.021842 0.060164
vn -0.040822 -0.017195 -0.999018
v 0.002136 0.026949 0.059786
vn 0.225325 -0.378944 -0.897569
v 0.002136 0.026949 0.059786
vn 0.225325 -0.378944 -0.897569
v -0.004950 0.021842 0.060164
vn 0.225325 -0.378944 -0.897569
v -0.004633 0.028023 0.057633
vn -0.944219 0.328635 -0.021209
v -0.001470 0.016575 0.059589
vn -0.944219 0.328635 -0.021209
v 0.002136 0.026949 0.059786
vn -0.944219 0.328635 -0.021209
v -0.000256 0.019206 0.046271
vn -0.677849 -0.138153 -0.722104
v -0.002792 0.012884 0.049861
vn -0.677849 -0.138153 -0.722104
v -0.000256 0.019206 0.046271
vn -0.677849 -0.138153 -0.722104
v 0.008053 0.020320 0.038258
vn 0.964492 -0.044073 -0.260410
v -0.004697 0.006420 0.040941
vn 0.964492 -0.044073 -0.260410
v -0.000862 0.000526 0.056144
vn 0.964492 -0.044073 -0.260410
v -0.003598 0.002040 0.045755
vn 0.032653 0.926429 -0.375051
v 0.006083 0.041848 0.057200
vn 0.032653 0.926429 -0.375051
v -0.004508 0.042205 0.057161
vn 0.032653 0.926429 -0.375051
v -0.004962 0.043636 0.060654
vn -0.991386 0.004409 -0.130899
v -0.004633 0.028023 0.057633
vn -0.991386 0.004409 -0.130899
v -0.004962 0.043636 0.060654
vn -0.991386 0.004409 -0.130899
v -0.004508 0.042205 0.057161
vn 0.462581 0.881752 -0.092366
v 0.002080 0.013877 0.060014
vn 0.462581 0.881752 -0.092366
v -0.002034 0.016006 0.059738
vn 0.462581 0.881752 -0.092366
v -0.000718 0.015641 0.062843
vn -0.839973 0.309895 -0.445434
v -0.004950 0.021842 0.060164
vn -0.839973 0.309895 -0.445434
v -0.002792 0.012884 0.049861
vn -0.839973 0.309895 -0.445434
v -0.008833 0.006788 0.057013
vn 0.933752 -0.175553 -0.311911
v -0.004950 0.021842 0.060164
vn 0.933752 -0.175553 -0.311911
v -0.008833 0.006788 0.057013
vn 0.933752 -0.175553 -0.311911
v -0.004633 0.028023 0.057633
vn -0.551257 -0.823034 0.136861
v -0.002034 0.016006 0.059738
vn -0.551257 -0.823034 0.136861
v 0.006895 0.010363 0.061770
vn -0.551257 -0.823034 0.136861
v -0.000718 0.015641 0.062843
vn -0.513813 0.610023 -0.603215
v -0.002572 0.023697 0.040318
vn -0.513813 0.610023 -0.603215
v 0.002130 0.027403 0.040060
vn -0.513813 0.610023 -0.603215
v 0.005539 0.029799 0.039579
vn -0.044398 -0.013161 -0.998927
v 0.002130 0.027403 0.040060
vn -0.044398 -0.013161 -0.998927
v 0.002086 0.013811 0.040241
vn -0.044398 -0.013161 -0.998927
v -0.002572 0.023697 0.040318
vn 0.614741 -0.785226 -0.074246
v 0.002130 0.027403 0.040060
vn 0.614741 -0.785226 -0.074246
v -0.002572 0.023697 0.040318
vn 0.614741 -0.785226 -0.074246
v -0.002962 0.023619 0.037913
vn 0.817304 -0.318930 0.479894
v 0.002136 0.026949 0.059786
vn 0.817304 -0.318930 0.479894
v 0.005982 0.030022 0.055278
vn 0.817304 -0.318930 0.479894
v 0.005987 0.031047 0.055950
vn 0.909950 -0.414718 -0.000026
v 0.006895 0.010364 0.038527
vn 0.909950 -0.414718 -0.000026
v 0.009467 0.016006 0.058526
vn 0.909950 -0.414718 -0.000026
v 0.006895 0.010363 0.061770
vn -0.947228 -0.078334 0.310844
v -0.000256 0.019206 0.046271
vn -0.947228 -0.078334 0.310844
v -0.004569 0.042735 0.039056
vn -0.947228 -0.078334 0.310844
v -0.002962 0.017493 0.037592
vn -0.227715 0.972791 0.042704
v -0.004569 0.042735 0.039056
vn -0.227715 0.972791 0.042704
v -0.000083 0.043625 0.042703
vn -0.227715 0.972791 0.042704
v 0.000690 0.043969 0.039002
vn -0.640312 0.245809 0.727722
v -0.000083 0.043625 0.042703
vn -0.640312 0.245809 0.727722
v -0.004569 0.042735 0.039056
vn -0.640312 0.245809 0.727722
v -0.007163 0.028647 0.041533
vn -0.225526 -0.153574 -0.962057
v -0.000862 0.000526 0.056144
vn -0.225526 -0.153574 -0.962057
v -0.008833 0.006788 0.057013
vn -0.225526 -0.153574 -0.962057
v 0.007338 -0.003762 0.054906
vn -0.521325 0.151504 -0.839802
v -0.004633 0.028023 0.057633
vn -0.521325 0.151504 -0.839802
v -0.007099 0.029408 0.059414
vn -0.521325 0.151504 -0.839802
v -0.004962 0.043636 0.060654
vn 0.988608 -0.117569 -0.093976
v 0.006895 0.010364 0.038527
vn 0.988608 -0.117569 -0.093976
v 0.008053 0.020320 0.038258
vn 0.988608 -0.117569 -0.093976
v 0.009467 0.016006 0.058526
vn -0.690636 -0.210625 0.691852
v -0.003598 0.002040 0.045755
vn -0.690636 -0.210625 0.691852
v 0.007338 -0.003762 0.054906
vn -0.690636 -0.210625 0.691852
v -0.002792 0.012884 0.049861
vn 0.040161 -0.821480 -0.568822
v -0.003598 0.002040 0.045755
vn 0.040161 -0.821480 -0.568822
v 0.009569 0.002675 0.045767
vn 0.040161 -0.821480 -0.568822
v 0.007338 -0.003762 0.054906
vn 0.965018 0.261930 -0.011561
v 0.008053 0.020320 0.038258
vn 0.965018 0.261930 -0.011561
v 0.005710 0.029919 0.060172
vn 0.965018 0.261930 -0.011561
v 0.009467 0.016006 0.058526
vn 0.700929 0.087457 0.707849
v 0.006895 0.010363 0.061770
vn 0.700929 0.087457 0.707849
v 0.009467 0.016006 0.058526
vn 0.700929 0.087457 0.707849
v 0.004300 0.028931 0.062046
vn 0.936295 0.237644 0.258605
v 0.000233 0.028385 0.051089
vn 0.936295 0.237644 0.258605
v 0.004571 0.004285 0.057531
vn 0.936295 0.237644 0.258605
v 0.007338 -0.003762 0.054906
vn 0.757059 -0.128132 -0.640659
v -0.005856 0.013790 0.040736
vn 0.757059 -0.128132 -0.640659
v -0.000256 0.019206 0.046271
vn 0.757059 -0.128132 -0.640659
v -0.003598 0.002040 0.045755
vn -0.937662 -0.059925 0.342343
v -0.005844 0.012811 0.041487
vn -0.937662 -0.059925 0.342343
v -0.003598 0.002040 0.045755
vn -0.937662 -0.059925 0.342343
v -0.002792 0.012884 0.049861
vn -0.823358 -0.393029 0.409403
v 0.004571 0.004285 0.057531
vn -0.823358 -0.393029 0.409403
v -0.004697 0.006420 0.040941
vn -0.823358 -0.393029 0.409403
v 0.002352 -0.006987 0.042247
vn 0.475787 -0.415281 -0.775351
v -0.004508 0.042205 0.057161
vn 0.475787 -0.415281 -0.775351
v 0.002797 0.043184 0.061119
vn 0.475787 -0.415281 -0.775351
v -0.001375 0.037306 0.061708
vn -0.729698 -0.287635 -0.620328
v 0.005987 0.031047 0.055950
vn -0.729698 -0.287635 -0.620328
v -0.001375 0.037306 0.061708
vn -0.729698 -0.287635 -0.620328
v 0.000758 0.038895 0.058462
vn 0.513843 0.587364 0.625275
v 0.004278 0.032150 0.061906
vn 0.513843 0.587364 0.625275
v 0.000758 0.038895 0.058462
vn 0.513843 0.587364 0.625275
v -0.001375 0.037306 0.061708
vn -0.051320 0.135536 0.989442
v -0.004962 0.043636 0.060654
vn -0.051320 0.135536 0.989442
v -0.001375 0.037306 0.061708
vn -0.051320 0.135536 0.989442
v 0.002797 0.043184 0.061119
vn 0.153386 -0.685356 -0.711870
v -0.004569 0.042735 0.039056
vn 0.153386 -0.685356 -0.711870
v 0.000690 0.043969 0.039002
vn 0.153386 -0.685356 -0.711870
v 0.000543 0.039592 0.043184
vn 0.343550 0.160519 0.925314
v 0.008053 0.020320 0.038258
vn 0.343550 0.160519 0.925314
v -0.004569 0.042735 0.039056
vn 0.343550 0.160519 0.925314
v -0.003598 0.002040 0.045755
vn -0.938986 -0.180566 -0.292746
v -0.000083 0.043625 0.042703
vn -0.938986 -0.180566 -0.292746
v 0.000543 0.039592 0.043184
vn -0.938986 -0.180566 -0.292746
v 0.000233 0.028385 0.051089
vn -0.999654 0.010613 -0.024077
v 0.000690 0.043969 0.039002
vn -0.999654 0.010613 -0.024077
v 0.000233 0.028385 0.051089
vn -0.999654 0.010613 -0.024077
v 0.000543 0.039592 0.043184
vn -0.253530 0.960108 0.117962
v -0.002794 0.017249 0.039937
vn -0.253530 0.960108 0.117962
v 0.008053 0.020320 0.038258
vn -0.253530 0.960108 0.117962
v -0.002962 0.017493 0.037592
vn -0.573514 -0.818023 -0.043829
v 0.002086 0.013811 0.040241
vn -0.573514 -0.818023 -0.043829
v -0.002794 0.017249 0.039937
vn -0.573514 -0.818023 -0.043829
v -0.002962 0.017493 0.037592
vn 0.997454 0.003732 -0.071214
v -0.002794 0.017249 0.039937
vn 0.997454 0.003732 -0.071214
v -0.002962 0.017493 0.037592
vn 0.997454 0.003732 -0.071214
v -0.002962 0.023619 0.037913
vn -0.996761 0.029886 0.074658
v -0.002572 0.023697 0.040318
vn -0.996761 0.029886 0.074658
v -0.002962 0.017493 0.037592
vn -0.996761 0.029886 0.074658
v -0.002794 0.017249 0.039937
vn -0.415767 -0.327729 0.848370
v -0.004508 0.042205 0.057161
vn -0.415767 -0.327729 0.848370
v 0.000758 0.038895 0.058462
vn -0.415767 -0.327729 0.848370
v 0.002797 0.043184 0.061119
vn -0.287895 0.112599 -0.951019
v 0.006083 0.041848 0.057200
vn -0.287895 0.112599 -0.951019
v 0.005987 0.031047 0.055950
vn -0.287895 0.112599 -0.951019
v 0.000758 0.038895 0.058462
vn -0.281221 0.959571 -0.011782
v 0.005733 0.029913 0.044265
vn -0.281221 0.959571 -0.011782
v 0.005539 0.029799 0.039579
vn -0.281221 0.959571 -0.011782
v 0.000233 0.028385 0.051089
vn -0.360297 0.929199 -0.082308
v 0.005733 0.029913 0.044265
vn -0.360297 0.929199 -0.082308
v 0.000233 0.028385 0.051089
vn -0.360297 0.929199 -0.082308
v 0.005987 0.031047 0.055950
vn -0.500176 0.105359 0.859491
v -0.003598 0.002040 0.045755
vn -0.500176 0.105359 0.859491
v -0.000083 0.043625 0.042703
vn -0.500176 0.105359 0.859491
v -0.008401 0.013838 0.041514
vn -0.884655 -0.427268 -0.186621
v -0.004697 0.006420 0.040941
vn -0.884655 -0.427268 -0.186621
v -0.003598 0.002040 0.045755
vn -0.884655 -0.427268 -0.186621
v -0.008401 0.013838 0.041514
vn -0.786960 0.230310 -0.572408
v 0.000233 0.028385 0.051089
vn -0.786960 0.230310 -0.572408
v -0.003598 0.002040 0.045755
vn -0.786960 0.230310 -0.572408
v -0.004633 0.028023 0.057633
vn 0.071897 0.960898 -0.267405
v 0.002797 0.043184 0.061119
vn 0.071897 0.960898 -0.267405
v 0.006083 0.041848 0.057200
vn 0.071897 0.960898 -0.267405
v -0.004962 0.043636 0.060654
vn 0.016163 -0.352946 0.935504
v 0.009569 0.002675 0.045767
vn 0.016163 -0.352946 0.935504
v -0.003598 0.002040 0.045755
vn 0.016163 -0.352946 0.935504
v 0.002352 -0.006987 0.042247
vn 0.523023 0.640032 0.562856
v 0.005603 0.010316 0.063025
vn 0.523023 0.640032 0.562856
v 0.006895 0.010363 0.061770
vn 0.523023 0.640032 0.562856
v -0.000718 0.015641 0.062843
vn -0.523023 -0.640032 -0.562856
v 0.005603 0.010316 0.063025
vn -0.523023 -0.640032 -0.562856
v -0.000718 0.015641 0.062843
vn -0.523023 -0.640032 -0.562856
v 0.006895 0.010363 0.061770
vn 0.692447 0.086146 0.716307
v 0.005603 0.010316 0.063025
vn 0.692447 0.086146 0.716307
v 0.006895 0.010363 0.061770
vn 0.692447 0.086146 0.716307
v 0.004300 0.028931 0.062046
vn -0.637663 0.770078 -0.019138
v 0.002136 0.026949 0.059786
vn -0.637663 0.770078 -0.019138
v 0.005710 0.029919 0.060172
vn -0.637663 0.770078 -0.019138
v 0.005982 0.030022 0.055278
vn -0.087763 -0.036267 0.995481
v -0.004697 0.006420 0.040941
vn -0.087763 -0.036267 0.995481
v -0.000083 0.043625 0.042703
vn -0.087763 -0.036267 0.995481
v -0.007163 0.028647 0.041533
vn -0.805485 -0.415020 0.423027
v 0.002352 -0.006987 0.042247
vn -0.805485 -0.415020 0.423027
v 0.007338 -0.003762 0.054906
vn -0.805485 -0.415020 0.423027
v 0.004571 0.004285 0.057531
vn 0.386734 0.845673 -0.367796
v -0.000862 0.000526 0.056144
vn 0.386734 0.845673 -0.367796
v 0.007338 -0.003762 0.054906
vn 0.386734 0.845673 -0.367796
v 0.002352 -0.006987 0.042247
vn -0.078145 -0.157890 0.984360
v 0.008053 0.020320 0.038258
vn -0.078145 -0.157890 0.984360
v 0.005539 0.029799 0.039579
vn -0.078145 -0.157890 0.984360
v -0.002962 0.023619 0.037913
vn 0.050361 0.063836 -0.996689
v 0.008053 0.020320 0.038258
vn 0.050361 0.063836 -0.996689
v -0.002962 0.023619 0.037913
vn 0.050361 0.063836 -0.996689
v -0.004569 0.042735 0.039056
vn 0.288283 0.954382 -0.077773
v -0.002962 0.023619 0.037913
vn 0.288283 0.954382 -0.077773
v -0.002572 0.023697 0.040318
vn 0.288283 0.954382 -0.077773
v 0.008053 0.020320 0.038258
vn -0.506309 -0.347227 0.789357
v 0.005987 0.031047 0.055950
vn -0.506309 -0.347227 0.789357
v 0.000233 0.028385 0.051089
vn -0.506309 -0.347227 0.789357
v 0.009569 0.002675 0.045767
vn 0.562849 -0.756224 0.333655
v 0.002136 0.026949 0.059786
vn 0.562849 -0.756224 0.333655
v -0.004950 0.021842 0.060164
vn 0.562849 -0.756224 0.333655
v -0.000256 0.019206 0.046271
vn -0.985891 0.119664 0.117043
v 0.000690 0.043969 0.039002
vn -0.985891 0.119664 0.117043
v -0.003598 0.002040 0.045755
vn -0.985891 0.119664 0.117043
v 0.000233 0.028385 0.051089
vn 0.074117 -0.669871 -0.738769
v 0.009569 0.002675 0.045767
vn 0.074117 -0.669871 -0.738769
v -0.004697 0.006420 0.040941
vn 0.074117 -0.669871 -0.738769
v 0.006895 0.010364 0.038527
vn 0.758381 0.129208 0.638876
v 0.005710 0.029919 0.060172
vn 0.758381 0.129208 0.638876
v 0.004300 0.028931 0.062046
vn 0.758381 0.129208 0.638876
v 0.009467 0.016006 0.058526
vn 0.632951 -0.771016 0.070056
v 0.002136 0.026949 0.059786
vn 0.632951 -0.771016 0.070056
v 0.005710 0.029919 0.060172
vn 0.632951 -0.771016 0.070056
v 0.004300 0.028931 0.062046
vn 0.790410 0.031979 0.611743
v 0.004278 0.032150 0.061906
vn 0.790410 0.031979 0.611743
v 0.004300 0.028931 0.062046
vn 0.790410 0.031979 0.611743
v 0.005710 0.029919 0.060172
vn 0.723455 0.657614 0.210135
v 0.005987 0.031047 0.055950
vn 0.723455 0.657614 0.210135
v -0.004508 0.042205 0.057161
vn 0.723455 0.657614 0.210135
v -0.001375 0.037306 0.061708
vn -0.147669 -0.031635 -0.988531
v -0.004633 0.028023 0.057633
vn -0.147669 -0.031635 -0.988531
v -0.004508 0.042205 0.057161
vn -0.147669 -0.031635 -0.988531
v 0.005987 0.031047 0.055950
vn -0.721745 0.673946 -0.157736
v -0.002034 0.016006 0.059738
vn -0.721745 0.673946 -0.157736
v -0.001470 0.016575 0.059589
vn -0.721745 0.673946 -0.157736
v -0.002792 0.012884 0.049861
vn -0.043770 -0.211072 -0.976490
v -0.002034 0.016006 0.059738
vn -0.043770 -0.211072 -0.976490
v -0.001470 0.016575 0.059589
vn -0.043770 -0.211072 -0.976490
v 0.002080 0.013877 0.060014
vn 0.043770 0.211072 0.976490
v -0.001470 0.016575 0.059589
vn 0.043770 0.211072 0.976490
v -0.002034 0.016006 0.059738
vn 0.043770 0.211072 0.976490
v 0.002080 0.013877 0.060014
vn -0.218255 -0.037860 -0.975157
v -0.004950 0.021842 0.060164
vn -0.218255 -0.037860 -0.975157
v -0.001470 0.016575 0.059589
vn -0.218255 -0.037860 -0.975157
v -0.002034 0.016006 0.059738
vn 0.759706 0.292042 0.580998
v 0.000233 0.028385 0.051089
vn 0.759706 0.292042 0.580998
v -0.004633 0.028023 0.057633
vn 0.759706 0.292042 0.580998
v 0.004571 0.004285 0.057531
vn 0.821332 -0.178279 0.541877
v -0.004633 0.028023 0.057633
vn 0.821332 -0.178279 0.541877
v -0.008833 0.006788 0.057013
vn 0.821332 -0.178279 0.541877
v -0.002792 0.012884 0.049861
vn -0.202884 -0.002843 -0.979199
v 0.006895 0.010364 0.038527
vn -0.202884 -0.002843 -0.979199
v -0.004697 0.006420 0.040941
vn -0.202884 -0.002843 -0.979199
v 0.008053 0.020320 0.038258
vn 0.069289 -0.034992 -0.996983
v -0.002962 0.017493 0.037592
vn 0.069289 -0.034992 -0.996983
v 0.008053 0.020320 0.038258
vn 0.069289 -0.034992 -0.996983
v 0.006895 0.010364 0.038527
vn 0.150355 0.009209 0.988589
v -0.002794 0.017249 0.039937
vn 0.150355 0.009209 0.988589
v 0.006895 0.010364 0.038527
vn 0.150355 0.009209 0.988589
v 0.008053 0.020320 0.038258
vn -0.187368 0.087648 0.978372
v -0.000083 0.043625 0.042703
vn -0.187368 0.087648 0.978372
v -0.003598 0.002040 0.045755
vn -0.187368 0.087648 0.978372
v 0.000543 0.039592 0.043184
vn 0.578452 -0.119031 -0.806985
v -0.004569 0.042735 0.039056
vn 0.578452 -0.119031 -0.806985
v 0.000543 0.039592 0.043184
vn 0.578452 -0.119031 -0.806985
v -0.003598 0.002040 0.045755
vn 0.563239 0.027590 -0.825833
v -0.004950 0.021842 0.060164
vn 0.563239 0.027590 -0.825833
v -0.000718 0.015641 0.062843
vn 0.563239 0.027590 -0.825833
v -0.008833 0.006788 0.057013
vn -0.792172 0.468669 0.390913
v -0.002034 0.016006 0.059738
vn -0.792172 0.468669 0.390913
v -0.008833 0.006788 0.057013
vn -0.792172 0.468669 0.390913
v -0.000718 0.015641 0.062843
vn -0.757804 0.320213 0.568504
v -0.008833 0.006788 0.057013
vn -0.757804 0.320213 0.568504
v -0.000718 0.015641 0.062843
vn -0.757804 0.320213 0.568504
v 0.004300 0.028931 0.062046
vn 0.861892 -0.182018 0.473298
v -0.004633 0.028023 0.057633
vn 0.861892 -0.182018 0.473298
v -0.003598 0.002040 0.045755
vn 0.861892 -0.182018 0.473298
v -0.000256 0.019206 0.046271
vn 0.240370 -0.963809 0.115298
v -0.002962 0.017493 0.037592
vn 0.240370 -0.963809 0.115298
v 0.008053 0.020320 0.038258
vn 0.240370 -0.963809 0.115298
v -0.000256 0.019206 0.046271
vn -0.133517 0.780182 0.611138
v -0.003318 0.029517 0.041262
vn -0.133517 0.780182 0.611138
v -0.007163 0.028647 0.041533
vn -0.133517 0.780182 0.611138
v -0.003376 0.028818 0.042142
vn 0.133517 -0.780182 -0.611138
v -0.003376 0.028818 0.042142
vn 0.133517 -0.780182 -0.611138
v -0.007163 0.028647 0.041533
vn 0.133517 -0.780182 -0.611138
v -0.003318 0.029517 0.041262
vn -0.122608 -0.772997 -0.622449
v -0.003376 0.028818 0.059414
vn -0.122608 -0.772997 -0.622449
v -0.007099 0.029408 0.059414
vn -0.122608 -0.772997 -0.622449
v -0.003318 0.029517 0.058534
vn 0.122608 0.772997 0.622449
v -0.003318 0.029517 0.058534
vn 0.122608 0.772997 0.622449
v -0.007099 0.029408 0.059414
vn 0.122608 0.772997 0.622449
v -0.003376 0.028818 0.059414
vn 0.159366 -0.013327 0.987130
v -0.004635 0.013759 0.059313
vn 0.159366 -0.013327 0.987130
v -0.008422 0.013588 0.059922
vn 0.159366 -0.013327 0.987130
v -0.004739 0.012514 0.059313
vn -0.159366 0.013327 -0.987130
v -0.004739 0.012514 0.059313
vn -0.159366 0.013327 -0.987130
v -0.008422 0.013588 0.059922
vn -0.159366 0.013327 -0.987130
v -0.004635 0.013759 0.059313
vn -0.131774 -0.532650 0.836014
v -0.008833 0.006788 0.057013
vn -0.131774 -0.532650 0.836014
v 0.004571 0.004285 0.057531
vn -0.131774 -0.532650 0.836014
v 0.006895 0.010363 0.061770
vn 0.177247 -0.973337 0.145595
v -0.008833 0.006788 0.057013
vn 0.177247 -0.973337 0.145595
v 0.006895 0.010363 0.061770
vn 0.177247 -0.973337 0.145595
v 0.005603 0.010316 0.063025
vn -0.174843 -0.158320 0.971784
v -0.002034 0.016006 0.059738
vn -0.174843 -0.158320 0.971784
v -0.004950 0.021842 0.060164
vn -0.174843 -0.158320 0.971784
v -0.008833 0.006788 0.057013
vn -0.842796 -0.443412 0.305091
v -0.002034 0.016006 0.059738
vn -0.842796 -0.443412 0.305091
v -0.000718 0.015641 0.062843
vn -0.842796 -0.443412 0.305091
v -0.004950 0.021842 0.060164
vn 0.868668 0.449300 -0.208675
v -0.004950 0.021842 0.060164
vn 0.868668 0.449300 -0.208675
v -0.002034 0.016006 0.059738
vn 0.868668 0.449300 -0.208675
v -0.002792 0.012884 0.049861
vn -0.829064 -0.346722 -0.438676
v -0.005844 0.012811 0.041487
vn -0.829064 -0.346722 -0.438676
v -0.005856 0.013790 0.040736
vn -0.829064 -0.346722 -0.438676
v -0.003598 0.002040 0.045755
vn 0.245548 0.592041 0.767590
v -0.005856 0.013790 0.040736
vn 0.245548 0.592041 0.767590
v -0.008401 0.013838 0.041514
vn 0.245548 0.592041 0.767590
v -0.005844 0.012811 0.041487
vn -0.807808 0.352645 0.472322
v -0.005856 0.013790 0.040736
vn -0.807808 0.352645 0.472322
v -0.005844 0.012811 0.041487
vn -0.807808 0.352645 0.472322
v -0.000256 0.019206 0.046271
vn -0.245548 -0.592041 -0.767590
v -0.005844 0.012811 0.041487
vn -0.245548 -0.592041 -0.767590
v -0.008401 0.013838 0.041514
vn -0.245548 -0.592041 -0.767590
v -0.005856 0.013790 0.040736
# 552 vertices, 0 vertices normals

f 1//1 2//2 3//3
f 4//4 5//5 6//6
f 7//7 8//8 9//9
f 10//10 11//11 12//12
f 13//13 14//14 15//15
f 16//16 17//17 18//18
f 19//19 20//20 21//21
f 22//22 23//23 24//24
f 25//25 26//26 27//27
f 28//28 29//29 30//30
f 31//31 32//32 33//33
f 34//34 35//35 36//36
f 37//37 38//38 39//39
f 40//40 41//41 42//42
f 43//43 44//44 45//45
f 46//46 47//47 48//48
f 49//49 50//50 51//51
f 52//52 53//53 54//54
f 55//55 56//56 57//57
f 58//58 59//59 60//60
f 61//61 62//62 63//63
f 64//64 65//65 66//66
f 67//67 68//68 69//69
f 70//70 71//71 72//72
f 73//73 74//74 75//75
f 76//76 77//77 78//78
f 79//79 80//80 81//81
f 82//82 83//83 84//84
f 85//85 86//86 87//87
f 88//88 89//89 90//90
f 91//91 92//92 93//93
f 94//94 95//95 96//96
f 97//97 98//98 99//99
f 100//100 101//101 102//102
f 103//103 104//104 105//105
f 106//106 107//107 108//108
f 109//109 110//110 111//111
f 112//112 113//113 114//114
f 115//115 116//116 117//117
f 118//118 119//119 120//120
f 121//121 122//122 123//123
f 124//124 125//125 126//126
f 127//127 128//128 129//129
f 130//130 131//131 132//132
f 133//133 134//134 135//135
f 136//136 137//137 138//138
f 139//139 140//140 141//141
f 142//142 143//143 144//144
f 145//145 146//146 147//147
f 148//148 149//149 150//150
f 151//151 152//152 153//153
f 154//154 155//155 156//156
f 157//157 158//158 159//159
f 160//160 161//161 162//162
f 163//163 164//164 165//165
f 166//166 167//167 168//168
f 169//169 170//170 171//171
f 172//172 173//173 174//174
f 175//175 176//176 177//177
f 178//178 179//179 180//180
f 181//181 182//182 183//183
f 184//184 185//185 186//186
f 187//187 188//188 189//189
f 190//190 191//191 192//192
f 193//193 194//194 195//195
f 196//196 197//197 198//198
f 199//199 200//200 201//201
f 202//202 203//203 204//204
f 205//205 206//206 207//207
f 208//208 209//209 210//210
f 211//211 212//212 213//213
f 214//214 215//215 216//216
f 217//217 218//218 219//219
f 220//220 221//221 222//222
f 223//223 224//224 225//225
f 226//226 227//227 228//228
f 229//229 230//230 231//231
f 232//232 233//233 234//234
f 235//235 236//236 237//237
f 238//238 239//239 240//240
f 241//241 242//242 243//243
f 244//244 245//245 246//246
f 247//247 248//248 249//249
f 250//250 251//251 252//252
f 253//253 254//254 255//255
f 256//256 257//257 258//258
f 259//259 260//260 261//261
f 262//262 263//263 264//264
f 265//265 266//266 267//267
f 268//268 269//269 270//270
f 271//271 272//272 273//273
f 274//274 275//275 276//276
f 277//277 278//278 279//279
f 280//280 281//281 282//282
f 283//283 284//284 285//285
f 286//286 287//287 288//288
f 289//289 290//290 291//291
f 292//292 293//293 294//294
f 295//295 296//296 297//297
f 298//298 299//299 300//300
f 301//301 302//302 303//303
f 304//304 305//305 306//306
f 307//307 308//308 309//309
f 310//310 311//311 312//312
f 313//313 314//314 315//315
f 316//316 317//317 318//318
f 319//319 320//320 321//321
f 322//322 323//323 324//324
f 325//325 326//326 327//327
f 328//328 329//329 330//330
f 331//331 332//332 333//333
f 334//334 335//335 336//336
f 337//337 338//338 339//339
f 340//340 341//341 342//342
f 343//343 344//344 345//345
f 346//346 347//347 348//348
f 349//349 350//350 351//351
f 352//352 353//353 354//354
f 355//355 356//356 357//357
f 358//358 359//359 360//360
f 361//361 362//362 363//363
f 364//364 365//365 366//366
f 367//367 368//368 369//369
f 370//370 371//371 372//372
f 373//373 374//374 375//375
f 376//376 377//377 378//378
f 379//379 380//380 381//381
f 382//382 383//383 384//384
f 385//385 386//386 387//387
f 388//388 389//389 390//390
f 391//391 392//392 393//393
f 394//394 395//395 396//396
f 397//397 398//398 399//399
f 400//400 401//401 402//402
f 403//403 404//404 405//405
f 406//406 407//407 408//408
f 409//409 410//410 411//411
f 412//412 413//413 414//414
f 415//415 416//416 417//417
f 418//418 419//419 420//420
f 421//421 422//422 423//423
f 424//424 425//425 426//426
f 427//427 428//428 429//429
f 430//430 431//431 432//432
f 433//433 434//434 435//435
f 436//436 437//437 438//438
f 439//439 440//440 441//441
f 442//442 443//443 444//444
f 445//445 446//446 447//447
f 448//448 449//449 450//450
f 451//451 452//452 453//453
f 454//454 455//455 456//456
f 457//457 458//458 459//459
f 460//460 461//461 462//462
f 463//463 464//464 465//465
f 466//466 467//467 468//468
f 469//469 470//470 471//471
f 472//472 473//473 474//474
f 475//475 476//476 477//477
f 478//478 479//479 480//480
f 481//481 482//482 483//483
f 484//484 485//485 486//486
f 487//487 488//488 489//489
f 490//490 491//491 492//492
f 493//493 494//494 495//495
f 496//496 497//497 498//498
f 499//499 500//500 501//501
f 502//502 503//503 504//504
f 505//505 506//506 507//507
f 508//508 509//509 510//510
f 511//511 512//512 513//513
f 514//514 515//515 516//516
f 517//517 518//518 519//519
f 520//520 521//521 522//522
f 523//523 524//524 525//525
f 526//526 527//527 528//528
f 529//529 530//530 531//531
f 532//532 533//533 534//534
f 535//535 536//536 537//537
f 538//538 539//539 540//540
f 541//541 542//542 543//543
f 544//544 545//545 546//546
f 547//547 548//548 549//549
f 550//550 551//551 552//552
# 184 faces, 0 coords texture

# End of File