####
#
# OBJ File Generated by Meshlab
#
####
# Object ssf2_Left.obj
#
# Vertices: 537
# Faces: 179
#
####
vn -0.193033 0.003771 0.981185
v -0.006295 -0.010870 -0.045337
vn -0.193033 0.003771 0.981185
v -0.006225 -0.029600 -0.045251
vn -0.193033 0.003771 0.981185
v -0.006132 -0.029342 -0.045234
vn 0.908075 0.005300 0.418773
v -0.006295 -0.010870 -0.045337
vn 0.908075 0.005300 0.418773
v -0.009117 -0.017697 -0.039131
vn 0.908075 0.005300 0.418773
v -0.006225 -0.029600 -0.045251
vn -0.755021 0.011165 -0.655605
v -0.006415 -0.010712 -0.055059
vn -0.755021 0.011165 -0.655605
v -0.002086 -0.013811 -0.060097
vn -0.755021 0.011165 -0.655605
v -0.002130 -0.027403 -0.060278
vn 0.756108 -0.007691 0.654402
v -0.002086 -0.013811 -0.060097
vn 0.756108 -0.007691 0.654402
v -0.006415 -0.010712 -0.055059
vn 0.756108 -0.007691 0.654402
v -0.005733 -0.029913 -0.056073
vn -0.124464 -0.181116 0.975554
v 0.000718 -0.015641 -0.037495
vn -0.124464 -0.181116 0.975554
v -0.005603 -0.010316 -0.037313
vn -0.124464 -0.181116 0.975554
v -0.009117 -0.017697 -0.039131
vn -0.640131 0.618993 0.455060
v 0.003173 -0.010040 -0.039177
vn -0.640131 0.618993 0.455060
v 0.001669 0.000196 -0.055216
vn -0.640131 0.618993 0.455060
v -0.002657 -0.013132 -0.043172
vn 0.198643 -0.048045 0.978894
v 0.003173 -0.010040 -0.039177
vn 0.198643 -0.048045 0.978894
v 0.007099 -0.029408 -0.040924
vn 0.198643 -0.048045 0.978894
v 0.008422 -0.013588 -0.040416
vn 0.427279 -0.142506 0.892819
v 0.003173 -0.010040 -0.039177
vn 0.427279 -0.142506 0.892819
v -0.000917 -0.038984 -0.041839
vn 0.427279 -0.142506 0.892819
v 0.006639 -0.033415 -0.044566
vn -0.009974 -0.050193 0.998690
v -0.005335 -0.033889 -0.038526
vn -0.009974 -0.050193 0.998690
v 0.001375 -0.037306 -0.038630
vn -0.009974 -0.050193 0.998690
v 0.004494 -0.022807 -0.037871
vn 0.764043 -0.004383 -0.645151
v -0.006295 -0.010870 -0.045337
vn 0.764043 -0.004383 -0.645151
v -0.002080 -0.013877 -0.040324
vn 0.764043 -0.004383 -0.645151
v -0.002086 -0.027300 -0.040241
vn -0.766279 -0.003171 0.642500
v -0.002080 -0.013877 -0.040324
vn -0.766279 -0.003171 0.642500
v -0.006295 -0.010870 -0.045337
vn -0.766279 -0.003171 0.642500
v -0.006132 -0.029342 -0.045234
vn 0.995987 -0.082148 -0.035513
v 0.006639 -0.033415 -0.044566
vn 0.995987 -0.082148 -0.035513
v 0.008422 -0.013588 -0.040416
vn 0.995987 -0.082148 -0.035513
v 0.007099 -0.029408 -0.040924
vn -0.056069 0.095869 0.993814
v 0.004494 -0.022807 -0.037871
vn -0.056069 0.095869 0.993814
v 0.003173 -0.010040 -0.039177
vn -0.056069 0.095869 0.993814
v -0.009117 -0.017697 -0.039131
vn 0.999918 0.003669 -0.012303
v -0.006415 -0.010712 -0.055059
vn 0.999918 0.003669 -0.012303
v -0.006295 -0.010870 -0.045337
vn 0.999918 0.003669 -0.012303
v -0.006225 -0.029600 -0.045251
vn -0.998672 -0.033441 -0.039201
v -0.006231 -0.021940 -0.050169
vn -0.998672 -0.033441 -0.039201
v -0.006415 -0.010712 -0.055059
vn -0.998672 -0.033441 -0.039201
v -0.005733 -0.029913 -0.056073
vn 0.268074 0.169082 -0.948445
v 0.001669 0.000196 -0.055216
vn 0.268074 0.169082 -0.948445
v 0.007163 -0.028647 -0.058805
vn 0.268074 0.169082 -0.948445
v 0.003421 -0.039832 -0.061857
vn -0.411077 -0.043564 -0.910559
v 0.003421 -0.039832 -0.061857
vn -0.411077 -0.043564 -0.910559
v 0.001215 -0.038684 -0.060916
vn -0.411077 -0.043564 -0.910559
v 0.002962 -0.023619 -0.062425
vn -0.691275 -0.241177 0.681155
v 0.000024 -0.019467 -0.054435
vn -0.691275 -0.241177 0.681155
v -0.006371 -0.003866 -0.055400
vn -0.691275 -0.241177 0.681155
v 0.005562 -0.043304 -0.057254
vn 0.577995 -0.804012 -0.139594
v -0.002086 -0.027300 -0.040241
vn 0.577995 -0.804012 -0.139594
v -0.005710 -0.029919 -0.040166
vn 0.577995 -0.804012 -0.139594
v -0.006132 -0.029342 -0.045234
vn 0.776271 0.003327 -0.630390
v -0.006295 -0.010870 -0.045337
vn 0.776271 0.003327 -0.630390
v -0.002086 -0.027300 -0.040241
vn 0.776271 0.003327 -0.630390
v -0.006132 -0.029342 -0.045234
vn -0.580630 0.806795 0.109318
v -0.002086 -0.027300 -0.040241
vn -0.580630 0.806795 0.109318
v -0.006225 -0.029600 -0.045251
vn -0.580630 0.806795 0.109318
v -0.005710 -0.029919 -0.040166
vn -0.777791 0.004286 0.628509
v -0.002086 -0.027300 -0.040241
vn -0.777791 0.004286 0.628509
v -0.002080 -0.013877 -0.040324
vn -0.777791 0.004286 0.628509
v -0.006132 -0.029342 -0.045234
vn 0.601490 0.111492 -0.791062
v 0.006639 -0.033415 -0.044566
vn 0.601490 0.111492 -0.791062
v -0.002393 -0.001757 -0.046972
vn 0.601490 0.111492 -0.791062
v 0.008422 -0.013588 -0.040416
vn -0.303212 0.790131 0.532686
v 0.006693 0.002002 -0.055035
vn -0.303212 0.790131 0.532686
v 0.001669 0.000196 -0.055216
vn -0.303212 0.790131 0.532686
v 0.003173 -0.010040 -0.039177
vn -0.073720 -0.371728 -0.925410
v -0.001151 -0.034666 -0.043443
vn -0.073720 -0.371728 -0.925410
v -0.006371 -0.003866 -0.055400
vn -0.073720 -0.371728 -0.925410
v 0.006639 -0.033415 -0.044566
vn -0.963745 -0.064133 -0.259001
v -0.002393 -0.001757 -0.046972
vn -0.963745 -0.064133 -0.259001
v -0.001151 -0.034666 -0.043443
vn -0.963745 -0.064133 -0.259001
v -0.002657 -0.013132 -0.043172
vn 0.689545 0.135182 0.711515
v -0.005335 -0.033889 -0.038526
vn 0.689545 0.135182 0.711515
v -0.002797 -0.043184 -0.039219
vn 0.689545 0.135182 0.711515
v -0.000917 -0.038984 -0.041839
vn -0.974549 -0.222441 -0.027817
v -0.006225 -0.029600 -0.045251
vn -0.974549 -0.222441 -0.027817
v -0.009117 -0.017697 -0.039131
vn -0.974549 -0.222441 -0.027817
v -0.008130 -0.019125 -0.062279
vn 0.688806 -0.086227 -0.719800
v -0.008130 -0.019125 -0.062279
vn 0.688806 -0.086227 -0.719800
v 0.001669 0.000196 -0.055216
vn 0.688806 -0.086227 -0.719800
v 0.000024 -0.019467 -0.054435
vn -0.820495 0.240382 -0.518656
v 0.006693 0.002002 -0.055035
vn -0.820495 0.240382 -0.518656
v 0.006508 -0.015512 -0.062859
vn -0.820495 0.240382 -0.518656
v 0.000024 -0.019467 -0.054435
vn -0.474390 -0.001223 -0.880314
v 0.001669 0.000196 -0.055216
vn -0.474390 -0.001223 -0.880314
v 0.008401 -0.013838 -0.058824
vn -0.474390 -0.001223 -0.880314
v 0.005562 -0.043304 -0.057254
vn 0.809389 -0.416154 0.414374
v 0.005844 -0.012811 -0.058851
vn 0.809389 -0.416154 0.414374
v 0.001306 -0.012317 -0.049489
vn 0.809389 -0.416154 0.414374
v 0.006508 -0.015512 -0.062859
vn 0.164424 -0.099811 -0.981327
v 0.002572 -0.023697 -0.060020
vn 0.164424 -0.099811 -0.981327
v -0.005539 -0.029799 -0.060759
vn 0.164424 -0.099811 -0.981327
v -0.008130 -0.019125 -0.062279
vn -0.579532 0.812882 0.058018
v -0.002130 -0.027403 -0.060278
vn -0.579532 0.812882 0.058018
v 0.002962 -0.023619 -0.062425
vn -0.579532 0.812882 0.058018
v -0.005539 -0.029799 -0.060759
vn 0.762609 -0.011072 0.646765
v -0.002086 -0.013811 -0.060097
vn 0.762609 -0.011072 0.646765
v -0.005733 -0.029913 -0.056073
vn 0.762609 -0.011072 0.646765
v -0.002130 -0.027403 -0.060278
vn -0.761491 0.007169 -0.648136
v -0.006415 -0.010712 -0.055059
vn -0.761491 0.007169 -0.648136
v -0.002130 -0.027403 -0.060278
vn -0.761491 0.007169 -0.648136
v -0.005733 -0.029913 -0.056073
vn -0.645241 -0.763979 -0.000002
v -0.006295 -0.010870 -0.045337
vn -0.645241 -0.763979 -0.000002
v -0.006895 -0.010363 -0.038568
vn -0.645241 -0.763979 -0.000002
v -0.006895 -0.010364 -0.061811
vn 0.670038 0.742317 0.003823
v -0.006295 -0.010870 -0.045337
vn 0.670038 0.742317 0.003823
v -0.006415 -0.010712 -0.055059
vn 0.670038 0.742317 0.003823
v -0.006895 -0.010363 -0.038568
vn -0.587373 -0.809271 0.008519
v -0.006295 -0.010870 -0.045337
vn -0.587373 -0.809271 0.008519
v -0.002080 -0.013877 -0.040324
vn -0.587373 -0.809271 0.008519
v -0.006895 -0.010363 -0.038568
vn 0.259646 -0.053701 0.964210
v 0.000024 -0.019467 -0.054435
vn 0.259646 -0.053701 0.964210
v 0.005562 -0.043304 -0.057254
vn 0.259646 -0.053701 0.964210
v 0.006693 0.002002 -0.055035
vn 0.989286 -0.123042 -0.078577
v 0.000024 -0.019467 -0.054435
vn 0.989286 -0.123042 -0.078577
v 0.001306 -0.012317 -0.049489
vn 0.989286 -0.123042 -0.078577
v 0.001470 -0.016575 -0.040749
vn -0.984436 -0.115399 -0.132546
v 0.006639 -0.033415 -0.044566
vn -0.984436 -0.115399 -0.132546
v 0.004494 -0.022807 -0.037871
vn -0.984436 -0.115399 -0.132546
v 0.003173 -0.010040 -0.039177
vn -0.905911 -0.010348 -0.423342
v -0.006295 -0.010870 -0.045337
vn -0.905911 -0.010348 -0.423342
v -0.006132 -0.029342 -0.045234
vn -0.905911 -0.010348 -0.423342
v -0.009117 -0.017697 -0.039131
vn -0.961034 -0.272036 0.049086
v -0.009117 -0.017697 -0.039131
vn -0.961034 -0.272036 0.049086
v -0.006132 -0.029342 -0.045234
vn -0.961034 -0.272036 0.049086
v -0.005710 -0.029919 -0.040166
vn 0.998459 0.033153 0.044507
v -0.006415 -0.010712 -0.055059
vn 0.998459 0.033153 0.044507
v -0.006225 -0.029600 -0.045251
vn 0.998459 0.033153 0.044507
v -0.005733 -0.029913 -0.056073
vn -0.970734 -0.237238 -0.037347
v -0.005733 -0.029913 -0.056073
vn -0.970734 -0.237238 -0.037347
v -0.006225 -0.029600 -0.045251
vn -0.970734 -0.237238 -0.037347
v -0.008130 -0.019125 -0.062279
vn -0.998571 -0.029422 -0.044620
v -0.006231 -0.021940 -0.050169
vn -0.998571 -0.029422 -0.044620
v -0.005733 -0.029913 -0.056073
vn -0.998571 -0.029422 -0.044620
v -0.006225 -0.029600 -0.045251
vn -0.969238 -0.241812 -0.045877
v -0.008130 -0.019125 -0.062279
vn -0.969238 -0.241812 -0.045877
v -0.005539 -0.029799 -0.060759
vn -0.969238 -0.241812 -0.045877
v -0.005733 -0.029913 -0.056073
vn -0.574679 0.818371 -0.003765
v -0.002130 -0.027403 -0.060278
vn -0.574679 0.818371 -0.003765
v -0.005539 -0.029799 -0.060759
vn -0.574679 0.818371 -0.003765
v -0.005733 -0.029913 -0.056073
vn 0.050479 -0.044794 0.997720
v -0.006013 -0.042228 -0.057140
vn 0.050479 -0.044794 0.997720
v -0.001375 -0.037306 -0.057154
vn 0.050479 -0.044794 0.997720
v -0.006371 -0.003866 -0.055400
vn 0.068587 0.658522 0.749429
v -0.006013 -0.042228 -0.057140
vn 0.068587 0.658522 0.749429
v 0.005562 -0.043304 -0.057254
vn 0.068587 0.658522 0.749429
v 0.001215 -0.038684 -0.060916
vn 0.715190 0.644252 0.271003
v -0.002657 -0.013132 -0.043172
vn 0.715190 0.644252 0.271003
v -0.006371 -0.003866 -0.055400
vn 0.715190 0.644252 0.271003
v -0.006895 -0.010363 -0.038568
vn -0.986360 -0.033579 -0.161139
v 0.002572 -0.023697 -0.060020
vn -0.986360 -0.033579 -0.161139
v 0.002962 -0.023619 -0.062425
vn -0.986360 -0.033579 -0.161139
v 0.003421 -0.039832 -0.061857
vn 0.027692 0.035808 0.998975
v 0.002962 -0.023619 -0.062425
vn 0.027692 0.035808 0.998975
v -0.008130 -0.019125 -0.062279
vn 0.027692 0.035808 0.998975
v 0.003421 -0.039832 -0.061857
vn -0.986918 0.024544 -0.159342
v 0.002572 -0.023697 -0.060020
vn -0.986918 0.024544 -0.159342
v 0.002794 -0.017249 -0.060401
vn -0.986918 0.024544 -0.159342
v 0.002962 -0.023619 -0.062425
vn 0.436373 -0.046781 -0.898549
v 0.003173 -0.010040 -0.039177
vn 0.436373 -0.046781 -0.898549
v 0.004494 -0.022807 -0.037871
vn 0.436373 -0.046781 -0.898549
v 0.001375 -0.037306 -0.038630
vn -0.284315 0.368319 -0.885159
v 0.004972 -0.021852 -0.040241
vn -0.284315 0.368319 -0.885159
v -0.002086 -0.027300 -0.040241
vn -0.284315 0.368319 -0.885159
v -0.005710 -0.029919 -0.040166
vn 0.004783 -0.006232 -0.999969
v -0.002080 -0.013877 -0.040324
vn 0.004783 -0.006232 -0.999969
v 0.004972 -0.021852 -0.040241
vn 0.004783 -0.006232 -0.999969
v -0.002086 -0.027300 -0.040241
vn 0.928529 0.239862 -0.283372
v 0.004972 -0.021852 -0.040241
vn 0.928529 0.239862 -0.283372
v 0.006639 -0.033415 -0.044566
vn 0.928529 0.239862 -0.283372
v 0.000024 -0.019467 -0.054435
vn 0.582412 -0.808541 -0.084007
v -0.002086 -0.027300 -0.040241
vn 0.582412 -0.808541 -0.084007
v 0.004494 -0.022807 -0.037871
vn 0.582412 -0.808541 -0.084007
v -0.005710 -0.029919 -0.040166
vn -0.582571 -0.812779 -0.000515
v -0.002086 -0.013811 -0.060097
vn -0.582571 -0.812779 -0.000515
v -0.006415 -0.010712 -0.055059
vn -0.582571 -0.812779 -0.000515
v -0.006895 -0.010364 -0.061811
vn 0.587330 0.809348 0.000000
v -0.006415 -0.010712 -0.055059
vn 0.587330 0.809348 0.000000
v -0.006895 -0.010364 -0.061811
vn 0.587330 0.809348 0.000000
v -0.006895 -0.010363 -0.038568
vn -0.514828 -0.857260 -0.007616
v -0.006415 -0.010712 -0.055059
vn -0.514828 -0.857260 -0.007616
v -0.006295 -0.010870 -0.045337
vn -0.514828 -0.857260 -0.007616
v -0.006895 -0.010364 -0.061811
vn 0.848493 0.133039 -0.512211
v -0.005539 -0.029799 -0.060759
vn 0.848493 0.133039 -0.512211
v -0.008130 -0.019125 -0.062279
vn 0.848493 0.133039 -0.512211
v -0.006371 -0.003866 -0.055400
vn 0.919601 -0.381864 -0.092272
v 0.001669 0.000196 -0.055216
vn 0.919601 -0.381864 -0.092272
v 0.004491 0.004345 -0.044258
vn 0.919601 -0.381864 -0.092272
v -0.002657 -0.013132 -0.043172
vn -0.999864 -0.011083 0.012182
v -0.006231 -0.021940 -0.050169
vn -0.999864 -0.011083 0.012182
v -0.006295 -0.010870 -0.045337
vn -0.999864 -0.011083 0.012182
v -0.006415 -0.010712 -0.055059
vn -0.999982 -0.003747 -0.004624
v -0.006231 -0.021940 -0.050169
vn -0.999982 -0.003747 -0.004624
v -0.006225 -0.029600 -0.045251
vn -0.999982 -0.003747 -0.004624
v -0.006295 -0.010870 -0.045337
vn 0.123202 0.006123 0.992363
v 0.001470 -0.016575 -0.040749
vn 0.123202 0.006123 0.992363
v -0.002080 -0.013877 -0.040324
vn 0.123202 0.006123 0.992363
v -0.002086 -0.027300 -0.040241
vn -0.574319 -0.816517 0.058803
v -0.002080 -0.013877 -0.040324
vn -0.574319 -0.816517 0.058803
v 0.000718 -0.015641 -0.037495
vn -0.574319 -0.816517 0.058803
v -0.006895 -0.010363 -0.038568
vn -0.343845 -0.313269 -0.885230
v -0.002080 -0.013877 -0.040324
vn -0.343845 -0.313269 -0.885230
v 0.001470 -0.016575 -0.040749
vn -0.343845 -0.313269 -0.885230
v 0.004972 -0.021852 -0.040241
vn 0.357394 0.760695 -0.541860
v -0.002080 -0.013877 -0.040324
vn 0.357394 0.760695 -0.541860
v -0.006895 -0.010363 -0.038568
vn 0.357394 0.760695 -0.541860
v 0.002034 -0.016006 -0.040600
vn -0.996759 0.080445 -0.000023
v -0.006371 -0.003866 -0.055400
vn -0.996759 0.080445 -0.000023
v -0.006895 -0.010364 -0.061811
vn -0.996759 0.080445 -0.000023
v -0.006895 -0.010363 -0.038568
vn 0.939341 0.282729 0.194170
v -0.002393 -0.001757 -0.046972
vn 0.939341 0.282729 0.194170
v 0.006639 -0.033415 -0.044566
vn 0.939341 0.282729 0.194170
v 0.001306 -0.012317 -0.049489
vn -0.523022 -0.640030 0.562858
v -0.005603 -0.010316 -0.037313
vn -0.523022 -0.640030 0.562858
v -0.006895 -0.010363 -0.038568
vn -0.523022 -0.640030 0.562858
v 0.000718 -0.015641 -0.037495
vn 0.523022 0.640030 -0.562858
v -0.005603 -0.010316 -0.037313
vn 0.523022 0.640030 -0.562858
v 0.000718 -0.015641 -0.037495
vn 0.523022 0.640030 -0.562858
v -0.006895 -0.010363 -0.038568
vn -0.691166 0.155190 0.705837
v -0.005603 -0.010316 -0.037313
vn -0.691166 0.155190 0.705837
v -0.006895 -0.010363 -0.038568
vn -0.691166 0.155190 0.705837
v -0.009117 -0.017697 -0.039131
vn -0.081297 -0.813464 -0.575905
v 0.005562 -0.043304 -0.057254
vn -0.081297 -0.813464 -0.575905
v -0.006013 -0.042228 -0.057140
vn -0.081297 -0.813464 -0.575905
v 0.003421 -0.039832 -0.061857
vn -0.576741 -0.816560 -0.024480
v 0.002794 -0.017249 -0.060401
vn -0.576741 -0.816560 -0.024480
v -0.002086 -0.013811 -0.060097
vn -0.576741 -0.816560 -0.024480
v -0.006895 -0.010364 -0.061811
vn -0.100824 -0.055229 -0.993370
v -0.002086 -0.013811 -0.060097
vn -0.100824 -0.055229 -0.993370
v 0.002794 -0.017249 -0.060401
vn -0.100824 -0.055229 -0.993370
v 0.002572 -0.023697 -0.060020
vn 0.425846 0.150464 -0.892197
v -0.002086 -0.013811 -0.060097
vn 0.425846 0.150464 -0.892197
v 0.003421 -0.039832 -0.061857
vn 0.425846 0.150464 -0.892197
v -0.006895 -0.010364 -0.061811
vn 0.987730 -0.087768 -0.129174
v 0.001306 -0.012317 -0.049489
vn 0.987730 -0.087768 -0.129174
v 0.000024 -0.019467 -0.054435
vn 0.987730 -0.087768 -0.129174
v 0.001669 0.000196 -0.055216
vn 0.909529 -0.148038 -0.388384
v -0.002657 -0.013132 -0.043172
vn 0.909529 -0.148038 -0.388384
v -0.006225 -0.029600 -0.045251
vn 0.909529 -0.148038 -0.388384
v -0.006371 -0.003866 -0.055400
vn 0.769735 -0.071538 0.634343
v 0.001669 0.000196 -0.055216
vn 0.769735 -0.071538 0.634343
v 0.003421 -0.039832 -0.061857
vn 0.769735 -0.071538 0.634343
v 0.006508 -0.015512 -0.062859
vn 0.579206 0.730226 0.362341
v -0.002393 -0.001757 -0.046972
vn 0.579206 0.730226 0.362341
v 0.003173 -0.010040 -0.039177
vn 0.579206 0.730226 0.362341
v 0.008422 -0.013588 -0.040416
vn -0.462581 -0.881752 -0.092366
v -0.002080 -0.013877 -0.040324
vn -0.462581 -0.881752 -0.092366
v 0.002034 -0.016006 -0.040600
vn -0.462581 -0.881752 -0.092366
v 0.000718 -0.015641 -0.037495
vn 0.963340 0.165712 -0.210988
v 0.004972 -0.021852 -0.040241
vn 0.963340 0.165712 -0.210988
v 0.001306 -0.012317 -0.049489
vn 0.963340 0.165712 -0.210988
v 0.003173 -0.010040 -0.039177
vn 0.961731 0.124462 0.244097
v 0.004972 -0.021852 -0.040241
vn 0.961731 0.124462 0.244097
v 0.003173 -0.010040 -0.039177
vn 0.961731 0.124462 0.244097
v 0.004494 -0.022807 -0.037871
vn 0.551257 0.823034 0.136860
v 0.002034 -0.016006 -0.040600
vn 0.551257 0.823034 0.136860
v -0.006895 -0.010363 -0.038568
vn 0.551257 0.823034 0.136860
v 0.000718 -0.015641 -0.037495
vn 0.513813 -0.610023 -0.603215
v 0.002572 -0.023697 -0.060020
vn 0.513813 -0.610023 -0.603215
v -0.002130 -0.027403 -0.060278
vn 0.513813 -0.610023 -0.603215
v -0.005539 -0.029799 -0.060759
vn 0.044398 0.013161 -0.998927
v -0.002130 -0.027403 -0.060278
vn 0.044398 0.013161 -0.998927
v -0.002086 -0.013811 -0.060097
vn 0.044398 0.013161 -0.998927
v 0.002572 -0.023697 -0.060020
vn -0.614741 0.785226 -0.074247
v -0.002130 -0.027403 -0.060278
vn -0.614741 0.785226 -0.074247
v 0.002572 -0.023697 -0.060020
vn -0.614741 0.785226 -0.074247
v 0.002962 -0.023619 -0.062425
vn -0.955611 -0.022227 0.293794
v -0.008130 -0.019125 -0.062279
vn -0.955611 -0.022227 0.293794
v -0.006013 -0.042228 -0.057140
vn -0.955611 -0.022227 0.293794
v -0.006371 -0.003866 -0.055400
vn 0.599664 -0.776913 -0.191859
v -0.002086 -0.027300 -0.040241
vn 0.599664 -0.776913 -0.191859
v 0.004972 -0.021852 -0.040241
vn 0.599664 -0.776913 -0.191859
v 0.004494 -0.022807 -0.037871
vn 0.287771 0.866876 0.407080
v 0.004972 -0.021852 -0.040241
vn 0.287771 0.866876 0.407080
v -0.009117 -0.017697 -0.039131
vn 0.287771 0.866876 0.407080
v 0.004494 -0.022807 -0.037871
vn 0.948158 -0.316034 -0.033453
v 0.001470 -0.016575 -0.040749
vn 0.948158 -0.316034 -0.033453
v -0.002086 -0.027300 -0.040241
vn 0.948158 -0.316034 -0.033453
v 0.000024 -0.019467 -0.054435
vn -0.577417 0.748095 0.327022
v -0.002086 -0.027300 -0.040241
vn -0.577417 0.748095 0.327022
v 0.004972 -0.021852 -0.040241
vn -0.577417 0.748095 0.327022
v 0.000024 -0.019467 -0.054435
vn -0.157636 -0.067862 0.985163
v 0.002794 -0.017249 -0.060401
vn -0.157636 -0.067862 0.985163
v -0.008130 -0.019125 -0.062279
vn -0.157636 -0.067862 0.985163
v 0.003421 -0.039832 -0.061857
vn -0.017240 0.063818 -0.997813
v -0.002086 -0.013811 -0.060097
vn -0.017240 0.063818 -0.997813
v 0.002794 -0.017249 -0.060401
vn -0.017240 0.063818 -0.997813
v 0.003421 -0.039832 -0.061857
vn 0.999590 0.028116 -0.005361
v 0.002794 -0.017249 -0.060401
vn 0.999590 0.028116 -0.005361
v 0.003421 -0.039832 -0.061857
vn 0.999590 0.028116 -0.005361
v 0.002962 -0.023619 -0.062425
vn 0.893180 -0.004162 0.449680
v 0.002572 -0.023697 -0.060020
vn 0.893180 -0.004162 0.449680
v 0.003421 -0.039832 -0.061857
vn 0.893180 -0.004162 0.449680
v 0.002794 -0.017249 -0.060401
vn 0.850098 -0.146346 -0.505882
v 0.005562 -0.043304 -0.057254
vn 0.850098 -0.146346 -0.505882
v 0.003421 -0.039832 -0.061857
vn 0.850098 -0.146346 -0.505882
v 0.007163 -0.028647 -0.058805
vn 0.578287 -0.318351 -0.751157
v 0.004491 0.004345 -0.044258
vn 0.578287 -0.318351 -0.751157
v 0.003173 -0.010040 -0.039177
vn 0.578287 -0.318351 -0.751157
v -0.002393 -0.001757 -0.046972
vn -0.910222 -0.216371 0.353101
v 0.006639 -0.033415 -0.044566
vn -0.910222 -0.216371 0.353101
v 0.007099 -0.029408 -0.040924
vn -0.910222 -0.216371 0.353101
v 0.003173 -0.010040 -0.039177
vn -0.988538 0.142126 -0.050912
v -0.006895 -0.010364 -0.061811
vn -0.988538 0.142126 -0.050912
v -0.008130 -0.019125 -0.062279
vn -0.988538 0.142126 -0.050912
v -0.009117 -0.017697 -0.039131
vn -0.957038 0.289964 -0.000025
v -0.006895 -0.010364 -0.061811
vn -0.957038 0.289964 -0.000025
v -0.009117 -0.017697 -0.039131
vn -0.957038 0.289964 -0.000025
v -0.006895 -0.010363 -0.038568
vn 0.651840 0.047875 0.756844
v 0.006693 0.002002 -0.055035
vn 0.651840 0.047875 0.756844
v -0.002393 -0.001757 -0.046972
vn 0.651840 0.047875 0.756844
v 0.001306 -0.012317 -0.049489
vn -0.408670 0.912000 -0.035272
v 0.006693 0.002002 -0.055035
vn -0.408670 0.912000 -0.035272
v -0.006371 -0.003866 -0.055400
vn -0.408670 0.912000 -0.035272
v -0.002393 -0.001757 -0.046972
vn -0.993800 -0.053809 0.097297
v -0.006225 -0.029600 -0.045251
vn -0.993800 -0.053809 0.097297
v -0.005335 -0.033889 -0.038526
vn -0.993800 -0.053809 0.097297
v -0.005710 -0.029919 -0.040166
vn 0.720549 -0.239268 0.650815
v -0.005335 -0.033889 -0.038526
vn 0.720549 -0.239268 0.650815
v -0.001151 -0.034666 -0.043443
vn 0.720549 -0.239268 0.650815
v 0.003173 -0.010040 -0.039177
vn -0.159682 0.030030 -0.986712
v -0.002797 -0.043184 -0.039219
vn -0.159682 0.030030 -0.986712
v -0.005335 -0.033889 -0.038526
vn -0.159682 0.030030 -0.986712
v 0.003173 -0.010040 -0.039177
vn 0.958015 -0.125339 0.257870
v 0.005856 -0.013790 -0.059602
vn 0.958015 -0.125339 0.257870
v 0.006508 -0.015512 -0.062859
vn 0.958015 -0.125339 0.257870
v 0.006693 0.002002 -0.055035
vn 0.884333 -0.163327 0.437355
v 0.005844 -0.012811 -0.058851
vn 0.884333 -0.163327 0.437355
v 0.006693 0.002002 -0.055035
vn 0.884333 -0.163327 0.437355
v 0.001306 -0.012317 -0.049489
vn -0.762939 0.571616 -0.301960
v 0.006639 -0.033415 -0.044566
vn -0.762939 0.571616 -0.301960
v -0.002797 -0.043184 -0.039219
vn -0.762939 0.571616 -0.301960
v 0.001375 -0.037306 -0.038630
vn 0.839870 -0.148390 -0.522110
v -0.001151 -0.034666 -0.043443
vn 0.839870 -0.148390 -0.522110
v 0.001375 -0.037306 -0.038630
vn 0.839870 -0.148390 -0.522110
v -0.000917 -0.038984 -0.041839
vn -0.349148 -0.704602 0.617763
v -0.005335 -0.033889 -0.038526
vn -0.349148 -0.704602 0.617763
v -0.000917 -0.038984 -0.041839
vn -0.349148 -0.704602 0.617763
v 0.001375 -0.037306 -0.038630
vn 0.183505 -0.031786 -0.982505
v 0.003173 -0.010040 -0.039177
vn 0.183505 -0.031786 -0.982505
v 0.001375 -0.037306 -0.038630
vn 0.183505 -0.031786 -0.982505
v -0.002797 -0.043184 -0.039219
vn -0.791063 -0.342673 0.506749
v -0.008130 -0.019125 -0.062279
vn -0.791063 -0.342673 0.506749
v 0.001215 -0.038684 -0.060916
vn -0.791063 -0.342673 0.506749
v 0.005562 -0.043304 -0.057254
vn -0.035497 -0.057637 0.997706
v -0.006371 -0.003866 -0.055400
vn -0.035497 -0.057637 0.997706
v -0.001375 -0.037306 -0.057154
vn -0.035497 -0.057637 0.997706
v 0.005562 -0.043304 -0.057254
vn -0.330494 -0.367793 -0.869196
v -0.008130 -0.019125 -0.062279
vn -0.330494 -0.367793 -0.869196
v 0.005562 -0.043304 -0.057254
vn -0.330494 -0.367793 -0.869196
v -0.001375 -0.037306 -0.057154
vn 0.582267 -0.547097 0.601373
v -0.006013 -0.042228 -0.057140
vn 0.582267 -0.547097 0.601373
v 0.001215 -0.038684 -0.060916
vn 0.582267 -0.547097 0.601373
v -0.001375 -0.037306 -0.057154
vn -0.458037 -0.888874 0.010234
v 0.003421 -0.039832 -0.061857
vn -0.458037 -0.888874 0.010234
v -0.001375 -0.037306 -0.057154
vn -0.458037 -0.888874 0.010234
v 0.001215 -0.038684 -0.060916
vn -0.120421 0.563617 0.817212
v 0.006639 -0.033415 -0.044566
vn -0.120421 0.563617 0.817212
v -0.000917 -0.038984 -0.041839
vn -0.120421 0.563617 0.817212
v -0.002797 -0.043184 -0.039219
vn -0.917268 0.093999 0.387018
v 0.003173 -0.010040 -0.039177
vn -0.917268 0.093999 0.387018
v -0.001151 -0.034666 -0.043443
vn -0.917268 0.093999 0.387018
v -0.000917 -0.038984 -0.041839
vn 0.998853 0.023380 0.041776
v -0.005733 -0.029913 -0.056073
vn 0.998853 0.023380 0.041776
v -0.005539 -0.029799 -0.060759
vn 0.998853 0.023380 0.041776
v -0.006371 -0.003866 -0.055400
vn 0.998724 0.023299 0.044804
v -0.005733 -0.029913 -0.056073
vn 0.998724 0.023299 0.044804
v -0.006371 -0.003866 -0.055400
vn 0.998724 0.023299 0.044804
v -0.006225 -0.029600 -0.045251
vn -0.136634 -0.121331 0.983163
v -0.005710 -0.029919 -0.040166
vn -0.136634 -0.121331 0.983163
v 0.004494 -0.022807 -0.037871
vn -0.136634 -0.121331 0.983163
v -0.009117 -0.017697 -0.039131
vn -0.058365 0.068061 -0.995973
v 0.004972 -0.021852 -0.040241
vn -0.058365 0.068061 -0.995973
v -0.005710 -0.029919 -0.040166
vn -0.058365 0.068061 -0.995973
v -0.009117 -0.017697 -0.039131
vn -0.934347 -0.125534 -0.333523
v 0.001306 -0.012317 -0.049489
vn -0.934347 -0.125534 -0.333523
v 0.001669 0.000196 -0.055216
vn -0.934347 -0.125534 -0.333523
v 0.006508 -0.015512 -0.062859
vn -0.978840 0.017678 -0.203864
v 0.006693 0.002002 -0.055035
vn -0.978840 0.017678 -0.203864
v 0.003173 -0.010040 -0.039177
vn -0.978840 0.017678 -0.203864
v 0.004491 0.004345 -0.044258
vn 0.819079 -0.048434 0.571632
v 0.006693 0.002002 -0.055035
vn 0.819079 -0.048434 0.571632
v 0.005562 -0.043304 -0.057254
vn 0.819079 -0.048434 0.571632
v 0.008401 -0.013838 -0.058824
vn -0.046771 0.227647 -0.972620
v 0.001669 0.000196 -0.055216
vn -0.046771 0.227647 -0.972620
v 0.006693 0.002002 -0.055035
vn -0.046771 0.227647 -0.972620
v 0.008401 -0.013838 -0.058824
vn -0.923355 -0.372744 0.092078
v -0.006371 -0.003866 -0.055400
vn -0.923355 -0.372744 0.092078
v 0.000024 -0.019467 -0.054435
vn -0.923355 -0.372744 0.092078
v 0.006639 -0.033415 -0.044566
vn -0.553830 0.275365 0.785777
v -0.002657 -0.013132 -0.043172
vn -0.553830 0.275365 0.785777
v 0.004491 0.004345 -0.044258
vn -0.553830 0.275365 0.785777
v -0.002393 -0.001757 -0.046972
vn 0.609243 0.017394 0.792792
v 0.001669 0.000196 -0.055216
vn 0.609243 0.017394 0.792792
v 0.005562 -0.043304 -0.057254
vn 0.609243 0.017394 0.792792
v 0.007163 -0.028647 -0.058805
vn -0.436120 0.873035 -0.218193
v -0.006371 -0.003866 -0.055400
vn -0.436120 0.873035 -0.218193
v 0.004491 0.004345 -0.044258
vn -0.436120 0.873035 -0.218193
v 0.001669 0.000196 -0.055216
vn 0.388130 -0.880925 0.270790
v 0.006693 0.002002 -0.055035
vn 0.388130 -0.880925 0.270790
v 0.004491 0.004345 -0.044258
vn 0.388130 -0.880925 0.270790
v -0.006371 -0.003866 -0.055400
vn 0.077373 0.158923 0.984254
v -0.008130 -0.019125 -0.062279
vn 0.077373 0.158923 0.984254
v -0.005539 -0.029799 -0.060759
vn 0.077373 0.158923 0.984254
v 0.002962 -0.023619 -0.062425
vn -0.051080 -0.093693 -0.994290
v -0.008130 -0.019125 -0.062279
vn -0.051080 -0.093693 -0.994290
v 0.002962 -0.023619 -0.062425
vn -0.051080 -0.093693 -0.994290
v 0.001215 -0.038684 -0.060916
vn -0.374950 -0.922587 -0.090804
v 0.002962 -0.023619 -0.062425
vn -0.374950 -0.922587 -0.090804
v 0.002572 -0.023697 -0.060020
vn -0.374950 -0.922587 -0.090804
v -0.008130 -0.019125 -0.062279
vn 0.973802 0.058155 0.219834
v 0.004972 -0.021852 -0.040241
vn 0.973802 0.058155 0.219834
v 0.004494 -0.022807 -0.037871
vn 0.973802 0.058155 0.219834
v 0.006639 -0.033415 -0.044566
vn 0.738161 0.422515 0.525927
v 0.003421 -0.039832 -0.061857
vn 0.738161 0.422515 0.525927
v -0.008130 -0.019125 -0.062279
vn 0.738161 0.422515 0.525927
v -0.001375 -0.037306 -0.057154
vn -0.326950 0.676955 -0.659421
v -0.006371 -0.003866 -0.055400
vn -0.326950 0.676955 -0.659421
v 0.001669 0.000196 -0.055216
vn -0.326950 0.676955 -0.659421
v -0.006895 -0.010364 -0.061811
vn -0.799701 0.251703 0.545091
v -0.002086 -0.027300 -0.040241
vn -0.799701 0.251703 0.545091
v -0.006132 -0.029342 -0.045234
vn -0.799701 0.251703 0.545091
v -0.006225 -0.029600 -0.045251
vn -0.085818 0.017217 0.996162
v -0.005335 -0.033889 -0.038526
vn -0.085818 0.017217 0.996162
v 0.004494 -0.022807 -0.037871
vn -0.085818 0.017217 0.996162
v -0.009117 -0.017697 -0.039131
vn -0.913614 -0.226047 -0.337954
v -0.005710 -0.029919 -0.040166
vn -0.913614 -0.226047 -0.337954
v -0.005335 -0.033889 -0.038526
vn -0.913614 -0.226047 -0.337954
v -0.009117 -0.017697 -0.039131
vn -0.386574 -0.233840 -0.892121
v -0.008130 -0.019125 -0.062279
vn -0.386574 -0.233840 -0.892121
v 0.003421 -0.039832 -0.061857
vn -0.386574 -0.233840 -0.892121
v -0.006013 -0.042228 -0.057140
vn 0.065200 -0.860132 -0.505888
v -0.001151 -0.034666 -0.043443
vn 0.065200 -0.860132 -0.505888
v 0.006639 -0.033415 -0.044566
vn 0.065200 -0.860132 -0.505888
v 0.001375 -0.037306 -0.038630
vn 0.713695 -0.624315 -0.317602
v 0.002034 -0.016006 -0.040600
vn 0.713695 -0.624315 -0.317602
v 0.001470 -0.016575 -0.040749
vn 0.713695 -0.624315 -0.317602
v 0.001306 -0.012317 -0.049489
vn 0.043770 0.211072 -0.976490
v 0.002034 -0.016006 -0.040600
vn 0.043770 0.211072 -0.976490
v 0.001470 -0.016575 -0.040749
vn 0.043770 0.211072 -0.976490
v -0.002080 -0.013877 -0.040324
vn -0.043770 -0.211072 0.976490
v 0.001470 -0.016575 -0.040749
vn -0.043770 -0.211072 0.976490
v 0.002034 -0.016006 -0.040600
vn -0.043770 -0.211072 0.976490
v -0.002080 -0.013877 -0.040324
vn 0.210596 0.045797 -0.976500
v 0.004972 -0.021852 -0.040241
vn 0.210596 0.045797 -0.976500
v 0.001470 -0.016575 -0.040749
vn 0.210596 0.045797 -0.976500
v 0.002034 -0.016006 -0.040600
vn -0.957469 -0.191686 0.215660
v 0.006639 -0.033415 -0.044566
vn -0.957469 -0.191686 0.215660
v 0.003173 -0.010040 -0.039177
vn -0.957469 -0.191686 0.215660
v 0.001306 -0.012317 -0.049489
vn 0.647921 -0.050793 -0.760012
v -0.006895 -0.010364 -0.061811
vn 0.647921 -0.050793 -0.760012
v 0.001669 0.000196 -0.055216
vn 0.647921 -0.050793 -0.760012
v -0.008130 -0.019125 -0.062279
vn 0.104898 0.038266 -0.993747
v 0.003421 -0.039832 -0.061857
vn 0.104898 0.038266 -0.993747
v -0.008130 -0.019125 -0.062279
vn 0.104898 0.038266 -0.993747
v -0.006895 -0.010364 -0.061811
vn -0.164367 -0.029463 0.985959
v 0.002794 -0.017249 -0.060401
vn -0.164367 -0.029463 0.985959
v -0.006895 -0.010364 -0.061811
vn -0.164367 -0.029463 0.985959
v -0.008130 -0.019125 -0.062279
vn -0.581621 -0.718585 -0.381251
v -0.006225 -0.029600 -0.045251
vn -0.581621 -0.718585 -0.381251
v -0.001151 -0.034666 -0.043443
vn -0.581621 -0.718585 -0.381251
v -0.005335 -0.033889 -0.038526
vn 0.368355 0.037466 -0.928930
v -0.002657 -0.013132 -0.043172
vn 0.368355 0.037466 -0.928930
v -0.001151 -0.034666 -0.043443
vn 0.368355 0.037466 -0.928930
v -0.006225 -0.029600 -0.045251
vn -0.551378 -0.008800 -0.834209
v 0.004972 -0.021852 -0.040241
vn -0.551378 -0.008800 -0.834209
v 0.000718 -0.015641 -0.037495
vn -0.551378 -0.008800 -0.834209
v 0.003173 -0.010040 -0.039177
vn 0.876679 -0.263361 0.402585
v 0.002034 -0.016006 -0.040600
vn 0.876679 -0.263361 0.402585
v 0.003173 -0.010040 -0.039177
vn 0.876679 -0.263361 0.402585
v 0.000718 -0.015641 -0.037495
vn 0.227223 -0.370037 -0.900801
v 0.003173 -0.010040 -0.039177
vn 0.227223 -0.370037 -0.900801
v 0.000718 -0.015641 -0.037495
vn 0.227223 -0.370037 -0.900801
v -0.009117 -0.017697 -0.039131
vn 0.197443 0.201503 0.959381
v 0.003173 -0.010040 -0.039177
vn 0.197443 0.201503 0.959381
v -0.005603 -0.010316 -0.037313
vn 0.197443 0.201503 0.959381
v 0.000718 -0.015641 -0.037495
vn -0.905381 0.011345 0.424448
v -0.006371 -0.003866 -0.055400
vn -0.905381 0.011345 0.424448
v -0.001151 -0.034666 -0.043443
vn -0.905381 0.011345 0.424448
v -0.002393 -0.001757 -0.046972
vn 0.656382 0.352581 -0.666970
v 0.003421 -0.039832 -0.061857
vn 0.656382 0.352581 -0.666970
v -0.008130 -0.019125 -0.062279
vn 0.656382 0.352581 -0.666970
v 0.000024 -0.019467 -0.054435
vn -0.807470 0.078374 -0.584679
v 0.003421 -0.039832 -0.061857
vn -0.807470 0.078374 -0.584679
v 0.000024 -0.019467 -0.054435
vn -0.807470 0.078374 -0.584679
v 0.006508 -0.015512 -0.062859
vn 0.122608 0.772997 -0.622449
v 0.003376 -0.028818 -0.040924
vn 0.122608 0.772997 -0.622449
v 0.007099 -0.029408 -0.040924
vn 0.122608 0.772997 -0.622449
v 0.003318 -0.029517 -0.041804
vn -0.122608 -0.772997 0.622449
v 0.003318 -0.029517 -0.041804
vn -0.122608 -0.772997 0.622449
v 0.007099 -0.029408 -0.040924
vn -0.122608 -0.772997 0.622449
v 0.003376 -0.028818 -0.040924
vn 0.133517 -0.780182 0.611138
v 0.003318 -0.029517 -0.059076
vn 0.133517 -0.780182 0.611138
v 0.007163 -0.028647 -0.058805
vn 0.133517 -0.780182 0.611138
v 0.003376 -0.028818 -0.058196
vn -0.133517 0.780182 -0.611138
v 0.003376 -0.028818 -0.058196
vn -0.133517 0.780182 -0.611138
v 0.007163 -0.028647 -0.058805
vn -0.133517 0.780182 -0.611138
v 0.003318 -0.029517 -0.059076
vn -0.262405 -0.401987 0.877240
v 0.004655 -0.013525 -0.041514
vn -0.262405 -0.401987 0.877240
v 0.008422 -0.013588 -0.040416
vn -0.262405 -0.401987 0.877240
v 0.004739 -0.012514 -0.041025
vn 0.262405 0.401987 -0.877240
v 0.004739 -0.012514 -0.041025
vn 0.262405 0.401987 -0.877240
v 0.008422 -0.013588 -0.040416
vn 0.262405 0.401987 -0.877240
v 0.004655 -0.013525 -0.041514
vn -0.060187 0.830013 -0.554487
v 0.003173 -0.010040 -0.039177
vn -0.060187 0.830013 -0.554487
v -0.002657 -0.013132 -0.043172
vn -0.060187 0.830013 -0.554487
v -0.006895 -0.010363 -0.038568
vn -0.032393 0.999465 -0.004558
v 0.003173 -0.010040 -0.039177
vn -0.032393 0.999465 -0.004558
v -0.006895 -0.010363 -0.038568
vn -0.032393 0.999465 -0.004558
v -0.005603 -0.010316 -0.037313
vn -0.393213 -0.141736 0.908457
v 0.002034 -0.016006 -0.040600
vn -0.393213 -0.141736 0.908457
v 0.004972 -0.021852 -0.040241
vn -0.393213 -0.141736 0.908457
v 0.003173 -0.010040 -0.039177
vn 0.843204 0.442439 0.305378
v 0.002034 -0.016006 -0.040600
vn 0.843204 0.442439 0.305378
v 0.000718 -0.015641 -0.037495
vn 0.843204 0.442439 0.305378
v 0.004972 -0.021852 -0.040241
vn -0.884774 -0.451622 -0.114948
v 0.004972 -0.021852 -0.040241
vn -0.884774 -0.451622 -0.114948
v 0.002034 -0.016006 -0.040600
vn -0.884774 -0.451622 -0.114948
v 0.001306 -0.012317 -0.049489
vn 0.986723 -0.091159 0.134418
v 0.005844 -0.012811 -0.058851
vn 0.986723 -0.091159 0.134418
v 0.005856 -0.013790 -0.059602
vn 0.986723 -0.091159 0.134418
v 0.006693 0.002002 -0.055035
vn -0.245548 -0.592041 0.767590
v 0.005856 -0.013790 -0.059602
vn -0.245548 -0.592041 0.767590
v 0.008401 -0.013838 -0.058824
vn -0.245548 -0.592041 0.767590
v 0.005844 -0.012811 -0.058851
vn -0.927410 0.220561 -0.302100
v 0.005856 -0.013790 -0.059602
vn -0.927410 0.220561 -0.302100
v 0.005844 -0.012811 -0.058851
vn -0.927410 0.220561 -0.302100
v 0.006508 -0.015512 -0.062859
vn 0.245548 0.592041 -0.767590
v 0.005844 -0.012811 -0.058851
vn 0.245548 0.592041 -0.767590
v 0.008401 -0.013838 -0.058824
vn 0.245548 0.592041 -0.767590
v 0.005856 -0.013790 -0.059602
# 537 vertices, 0 vertices normals

f 1//1 2//2 3//3
f 4//4 5//5 6//6
f 7//7 8//8 9//9
f 10//10 11//11 12//12
f 13//13 14//14 15//15
f 16//16 17//17 18//18
f 19//19 20//20 21//21
f 22//22 23//23 24//24
f 25//25 26//26 27//27
f 28//28 29//29 30//30
f 31//31 32//32 33//33
f 34//34 35//35 36//36
f 37//37 38//38 39//39
f 40//40 41//41 42//42
f 43//43 44//44 45//45
f 46//46 47//47 48//48
f 49//49 50//50 51//51
f 52//52 53//53 54//54
f 55//55 56//56 57//57
f 58//58 59//59 60//60
f 61//61 62//62 63//63
f 64//64 65//65 66//66
f 67//67 68//68 69//69
f 70//70 71//71 72//72
f 73//73 74//74 75//75
f 76//76 77//77 78//78
f 79//79 80//80 81//81
f 82//82 83//83 84//84
f 85//85 86//86 87//87
f 88//88 89//89 90//90
f 91//91 92//92 93//93
f 94//94 95//95 96//96
f 97//97 98//98 99//99
f 100//100 101//101 102//102
f 103//103 104//104 105//105
f 106//106 107//107 108//108
f 109//109 110//110 111//111
f 112//112 113//113 114//114
f 115//115 116//116 117//117
f 118//118 119//119 120//120
f 121//121 122//122 123//123
f 124//124 125//125 126//126
f 127//127 128//128 129//129
f 130//130 131//131 132//132
f 133//133 134//134 135//135
f 136//136 137//137 138//138
f 139//139 140//140 141//141
f 142//142 143//143 144//144
f 145//145 146//146 147//147
f 148//148 149//149 150//150
f 151//151 152//152 153//153
f 154//154 155//155 156//156
f 157//157 158//158 159//159
f 160//160 161//161 162//162
f 163//163 164//164 165//165
f 166//166 167//167 168//168
f 169//169 170//170 171//171
f 172//172 173//173 174//174
f 175//175 176//176 177//177
f 178//178 179//179 180//180
f 181//181 182//182 183//183
f 184//184 185//185 186//186
f 187//187 188//188 189//189
f 190//190 191//191 192//192
f 193//193 194//194 195//195
f 196//196 197//197 198//198
f 199//199 200//200 201//201
f 202//202 203//203 204//204
f 205//205 206//206 207//207
f 208//208 209//209 210//210
f 211//211 212//212 213//213
f 214//214 215//215 216//216
f 217//217 218//218 219//219
f 220//220 221//221 222//222
f 223//223 224//224 225//225
f 226//226 227//227 228//228
f 229//229 230//230 231//231
f 232//232 233//233 234//234
f 235//235 236//236 237//237
f 238//238 239//239 240//240
f 241//241 242//242 243//243
f 244//244 245//245 246//246
f 247//247 248//248 249//249
f 250//250 251//251 252//252
f 253//253 254//254 255//255
f 256//256 257//257 258//258
f 259//259 260//260 261//261
f 262//262 263//263 264//264
f 265//265 266//266 267//267
f 268//268 269//269 270//270
f 271//271 272//272 273//273
f 274//274 275//275 276//276
f 277//277 278//278 279//279
f 280//280 281//281 282//282
f 283//283 284//284 285//285
f 286//286 287//287 288//288
f 289//289 290//290 291//291
f 292//292 293//293 294//294
f 295//295 296//296 297//297
f 298//298 299//299 300//300
f 301//301 302//302 303//303
f 304//304 305//305 306//306
f 307//307 308//308 309//309
f 310//310 311//311 312//312
f 313//313 314//314 315//315
f 316//316 317//317 318//318
f 319//319 320//320 321//321
f 322//322 323//323 324//324
f 325//325 326//326 327//327
f 328//328 329//329 330//330
f 331//331 332//332 333//333
f 334//334 335//335 336//336
f 337//337 338//338 339//339
f 340//340 341//341 342//342
f 343//343 344//344 345//345
f 346//346 347//347 348//348
f 349//349 350//350 351//351
f 352//352 353//353 354//354
f 355//355 356//356 357//357
f 358//358 359//359 360//360
f 361//361 362//362 363//363
f 364//364 365//365 366//366
f 367//367 368//368 369//369
f 370//370 371//371 372//372
f 373//373 374//374 375//375
f 376//376 377//377 378//378
f 379//379 380//380 381//381
f 382//382 383//383 384//384
f 385//385 386//386 387//387
f 388//388 389//389 390//390
f 391//391 392//392 393//393
f 394//394 395//395 396//396
f 397//397 398//398 399//399
f 400//400 401//401 402//402
f 403//403 404//404 405//405
f 406//406 407//407 408//408
f 409//409 410//410 411//411
f 412//412 413//413 414//414
f 415//415 416//416 417//417
f 418//418 419//419 420//420
f 421//421 422//422 423//423
f 424//424 425//425 426//426
f 427//427 428//428 429//429
f 430//430 431//431 432//432
f 433//433 434//434 435//435
f 436//436 437//437 438//438
f 439//439 440//440 441//441
f 442//442 443//443 444//444
f 445//445 446//446 447//447
f 448//448 449//449 450//450
f 451//451 452//452 453//453
f 454//454 455//455 456//456
f 457//457 458//458 459//459
f 460//460 461//461 462//462
f 463//463 464//464 465//465
f 466//466 467//467 468//468
f 469//469 470//470 471//471
f 472//472 473//473 474//474
f 475//475 476//476 477//477
f 478//478 479//479 480//480
f 481//481 482//482 483//483
f 484//484 485//485 486//486
f 487//487 488//488 489//489
f 490//490 491//491 492//492
f 493//493 494//494 495//495
f 496//496 497//497 498//498
f 499//499 500//500 501//501
f 502//502 503//503 504//504
f 505//505 506//506 507//507
f 508//508 509//509 510//510
f 511//511 512//512 513//513
f 514//514 515//515 516//516
f 517//517 518//518 519//519
f 520//520 521//521 522//522
f 523//523 524//524 525//525
f 526//526 527//527 528//528
f 529//529 530//530 531//531
f 532//532 533//533 534//534
f 535//535 536//536 537//537
# 179 faces, 0 coords texture

# End of File