####
#
# OBJ File Generated by Meshlab
#
####
# Object aj1_Left.obj
#
# Vertices: 600
# Faces: 200
#
####
vn 0.007805 0.006082 -0.999951
v -0.047251 -0.035115 0.178673
vn 0.007805 0.006082 -0.999951
v -0.051886 0.041588 0.179104
vn 0.007805 0.006082 -0.999951
v 0.024871 0.053872 0.179778
vn 0.885986 -0.200761 -0.418000
v -0.044434 -0.094544 0.281624
vn 0.885986 -0.200761 -0.418000
v -0.051176 -0.093750 0.266951
vn 0.885986 -0.200761 -0.418000
v -0.056064 -0.071596 0.245951
vn -0.633941 0.304075 -0.711095
v -0.044225 0.047042 0.203986
vn -0.633941 0.304075 -0.711095
v -0.049602 0.017238 0.196034
vn -0.633941 0.304075 -0.711095
v -0.059682 0.042345 0.215757
vn -0.141054 -0.185812 0.972408
v -0.004872 -0.112495 0.308480
vn -0.141054 -0.185812 0.972408
v 0.012222 -0.050825 0.322744
vn -0.141054 -0.185812 0.972408
v -0.039674 -0.049972 0.315379
vn 0.156048 0.983022 0.096525
v 0.045199 0.081406 0.187502
vn 0.156048 0.983022 0.096525
v 0.001345 0.086000 0.211620
vn 0.156048 0.983022 0.096525
v -0.025309 0.079970 0.316120
vn -0.529450 -0.848169 -0.017076
v 0.071090 0.056749 0.222023
vn -0.529450 -0.848169 -0.017076
v 0.057079 0.064254 0.283645
vn -0.529450 -0.848169 -0.017076
v 0.058839 0.064592 0.212274
vn -0.023340 0.053571 -0.998291
v 0.044918 -0.033673 0.189170
vn -0.023340 0.053571 -0.998291
v 0.071299 -0.035839 0.188437
vn -0.023340 0.053571 -0.998291
v 0.012271 -0.105401 0.186084
vn 0.071882 0.997403 0.004514
v -0.059628 -0.064541 0.214565
vn 0.071882 0.997403 0.004514
v -0.068519 -0.064119 0.262720
vn 0.071882 0.997403 0.004514
v -0.056589 -0.064844 0.232913
vn 0.552193 -0.459900 -0.695395
v -0.057737 0.061036 0.284063
vn 0.552193 -0.459900 -0.695395
v -0.022498 0.061036 0.312046
vn 0.552193 -0.459900 -0.695395
v -0.051019 0.050270 0.296517
vn -0.110830 0.993415 0.029054
v 0.001345 0.086000 0.211620
vn -0.110830 0.993415 0.029054
v -0.068957 0.078273 0.207635
vn -0.110830 0.993415 0.029054
v -0.025309 0.079970 0.316120
vn -0.799937 0.182993 0.571501
v -0.055701 -0.077775 0.301847
vn -0.799937 0.182993 0.571501
v -0.039674 -0.049972 0.315379
vn -0.799937 0.182993 0.571501
v -0.073188 -0.050825 0.268741
vn 0.823658 0.547634 0.147258
v -0.059628 -0.064541 0.214565
vn 0.823658 0.547634 0.147258
v -0.070001 -0.042183 0.189438
vn 0.823658 0.547634 0.147258
v -0.068519 -0.064119 0.262720
vn 0.042004 -0.999005 0.015009
v 0.025609 -0.112923 0.194711
vn 0.042004 -0.999005 0.015009
v 0.060934 -0.110436 0.261375
vn 0.042004 -0.999005 0.015009
v -0.004872 -0.112495 0.308480
vn -0.938356 0.344007 0.033877
v -0.068957 0.078273 0.207635
vn -0.938356 0.344007 0.033877
v -0.080795 0.043691 0.230877
vn -0.938356 0.344007 0.033877
v -0.066863 0.077557 0.272906
vn 0.625724 0.692917 0.358240
v -0.059628 -0.064541 0.214565
vn 0.625724 0.692917 0.358240
v -0.045956 -0.064541 0.190684
vn 0.625724 0.692917 0.358240
v -0.070001 -0.042183 0.189438
vn -0.039007 -0.092024 -0.994992
v -0.039791 0.039149 0.189131
vn -0.039007 -0.092024 -0.994992
v -0.070760 0.040871 0.190186
vn -0.039007 -0.092024 -0.994992
v -0.045415 0.076673 0.185881
vn 0.031026 -0.053384 0.998092
v -0.045956 0.064592 0.190684
vn 0.031026 -0.053384 0.998092
v -0.070760 0.040871 0.190186
vn 0.031026 -0.053384 0.998092
v -0.039791 0.039149 0.189131
vn -0.125417 -0.107938 -0.986215
v 0.027917 -0.069575 0.297337
vn -0.125417 -0.107938 -0.986215
v -0.000002 -0.095244 0.303697
vn -0.125417 -0.107938 -0.986215
v -0.031789 -0.059222 0.303797
vn -0.018865 -0.049342 -0.998604
v 0.071756 0.035963 0.189246
vn -0.018865 -0.049342 -0.998604
v 0.013039 0.057766 0.189278
vn -0.018865 -0.049342 -0.998604
v 0.045199 0.081406 0.187502
vn -0.021602 -0.999765 -0.002030
v -0.004872 -0.112495 0.308480
vn -0.021602 -0.999765 -0.002030
v -0.042999 -0.111471 0.209671
vn -0.021602 -0.999765 -0.002030
v 0.025609 -0.112923 0.194711
vn 0.639334 -0.676219 0.366032
v -0.070760 0.040871 0.190186
vn 0.639334 -0.676219 0.366032
v -0.045956 0.064592 0.190684
vn 0.639334 -0.676219 0.366032
v -0.059628 0.064592 0.214565
vn 0.907770 0.169681 0.383618
v 0.058839 -0.038811 0.212274
vn 0.907770 0.169681 0.383618
v 0.056398 -0.064541 0.229431
vn 0.907770 0.169681 0.383618
v 0.064590 -0.065221 0.210348
vn -0.115865 0.989623 -0.084975
v 0.069289 -0.059287 0.273047
vn -0.115865 0.989623 -0.084975
v 0.064590 -0.065221 0.210348
vn -0.115865 0.989623 -0.084975
v 0.056398 -0.064541 0.229431
vn -0.662716 -0.115415 0.739923
v 0.071090 0.056749 0.222023
vn -0.662716 -0.115415 0.739923
v 0.058839 0.064592 0.212274
vn -0.662716 -0.115415 0.739923
v 0.044178 0.065061 0.199216
vn 0.023339 -0.106414 -0.994048
v 0.013039 0.057766 0.189278
vn 0.023339 -0.106414 -0.994048
v -0.045415 0.076673 0.185881
vn 0.023339 -0.106414 -0.994048
v 0.045199 0.081406 0.187502
vn 0.819966 -0.549518 0.160266
v -0.066965 0.064592 0.252104
vn 0.819966 -0.549518 0.160266
v -0.070760 0.040871 0.190186
vn 0.819966 -0.549518 0.160266
v -0.059628 0.064592 0.214565
vn -0.752560 -0.001491 -0.658522
v -0.042976 -0.037007 0.193014
vn -0.752560 -0.001491 -0.658522
v -0.057006 -0.059588 0.209099
vn -0.752560 -0.001491 -0.658522
v -0.056932 -0.040198 0.208970
vn -0.953930 -0.220338 0.203636
v 0.049783 -0.092780 0.228827
vn -0.953930 -0.220338 0.203636
v 0.054724 -0.093648 0.251031
vn -0.953930 -0.220338 0.203636
v 0.051281 -0.067835 0.262834
vn 0.401557 0.879572 0.255157
v -0.070001 -0.042183 0.189438
vn 0.401557 0.879572 0.255157
v -0.079156 -0.049807 0.230125
vn 0.401557 0.879572 0.255157
v -0.068519 -0.064119 0.262720
vn 0.945975 -0.006445 0.324174
v 0.049602 -0.017187 0.196034
vn 0.945975 -0.006445 0.324174
v 0.055433 -0.017073 0.179020
vn 0.945975 -0.006445 0.324174
v 0.049884 0.016028 0.195871
vn 0.744373 0.604725 0.283226
v -0.068519 -0.064119 0.262720
vn 0.744373 0.604725 0.283226
v -0.056064 -0.071596 0.245951
vn 0.744373 0.604725 0.283226
v -0.056589 -0.064844 0.232913
vn -0.029009 0.963451 0.266310
v 0.071299 -0.035839 0.188437
vn -0.029009 0.963451 0.266310
v 0.069289 -0.059287 0.273047
vn -0.029009 0.963451 0.266310
v 0.083130 -0.037297 0.195000
vn -0.995534 -0.059751 -0.073087
v -0.047251 -0.035115 0.178673
vn -0.995534 -0.059751 -0.073087
v -0.049602 -0.017187 0.196034
vn -0.995534 -0.059751 -0.073087
v -0.051886 0.041588 0.179104
vn -0.509110 -0.136599 -0.849792
v 0.022501 0.061036 0.312046
vn -0.509110 -0.136599 -0.849792
v 0.051379 0.050613 0.296420
vn -0.509110 -0.136599 -0.849792
v 0.006641 0.052123 0.322980
vn -0.955105 0.175686 -0.238557
v 0.057079 0.064254 0.283645
vn -0.955105 0.175686 -0.238557
v 0.071090 0.056749 0.222023
vn -0.955105 0.175686 -0.238557
v 0.051379 0.050613 0.296420
vn 0.477479 -0.601209 0.640751
v 0.044530 -0.068581 0.312870
vn 0.477479 -0.601209 0.640751
v -0.004872 -0.112495 0.308480
vn 0.477479 -0.601209 0.640751
v 0.060934 -0.110436 0.261375
vn 0.847894 -0.245706 0.469792
v 0.060934 -0.110436 0.261375
vn 0.847894 -0.245706 0.469792
v 0.069289 -0.059287 0.273047
vn 0.847894 -0.245706 0.469792
v 0.044530 -0.068581 0.312870
vn 0.975019 -0.186720 0.120305
v 0.060934 -0.110436 0.261375
vn 0.975019 -0.186720 0.120305
v 0.083130 -0.037297 0.195000
vn 0.975019 -0.186720 0.120305
v 0.069289 -0.059287 0.273047
vn 0.915474 0.190048 -0.354668
v -0.066486 0.062219 0.262998
vn 0.915474 0.190048 -0.354668
v -0.051019 0.050270 0.296517
vn 0.915474 0.190048 -0.354668
v -0.071226 0.050904 0.244700
vn 0.505475 0.820348 0.267439
v -0.079156 -0.049807 0.230125
vn 0.505475 0.820348 0.267439
v -0.070001 -0.042183 0.189438
vn 0.505475 0.820348 0.267439
v -0.079658 -0.033479 0.180989
vn 0.012379 0.101808 0.994727
v -0.023981 -0.078761 0.197425
vn 0.012379 0.101808 0.994727
v 0.018808 -0.092481 0.198296
vn 0.012379 0.101808 0.994727
v 0.009333 -0.065557 0.195659
vn 0.703341 0.309822 -0.639783
v 0.045267 0.029034 0.190172
vn 0.703341 0.309822 -0.639783
v 0.055433 -0.017073 0.179020
vn 0.703341 0.309822 -0.639783
v 0.024871 0.053872 0.179778
vn -0.809265 -0.185595 -0.557356
v 0.044558 -0.095244 0.281722
vn -0.809265 -0.185595 -0.557356
v 0.027917 -0.069575 0.297337
vn -0.809265 -0.185595 -0.557356
v 0.051281 -0.067835 0.262834
vn 0.071841 0.792329 -0.605849
v -0.031789 -0.059222 0.303797
vn 0.071841 0.792329 -0.605849
v 0.025790 -0.058137 0.312044
vn 0.071841 0.792329 -0.605849
v 0.027917 -0.069575 0.297337
vn -0.232492 -0.969330 0.079662
v -0.066077 -0.102380 0.252939
vn -0.232492 -0.969330 0.079662
v -0.042999 -0.111471 0.209671
vn -0.232492 -0.969330 0.079662
v -0.004872 -0.112495 0.308480
vn -0.970904 0.000733 0.239466
v -0.059628 -0.064541 0.214565
vn -0.970904 0.000733 0.239466
v -0.054556 -0.061657 0.235120
vn -0.970904 0.000733 0.239466
v -0.059620 -0.041063 0.214525
vn -0.661114 0.434833 0.611431
v -0.025309 0.079970 0.316120
vn -0.661114 0.434833 0.611431
v -0.066863 0.077557 0.272906
vn -0.661114 0.434833 0.611431
v -0.055059 0.051457 0.304231
vn -0.979003 -0.141398 0.146836
v 0.049783 -0.092780 0.228827
vn -0.979003 -0.141398 0.146836
v 0.051281 -0.067835 0.262834
vn -0.979003 -0.141398 0.146836
v 0.045488 -0.079227 0.213241
vn -0.991017 0.000000 0.133734
v -0.051886 0.041588 0.179104
vn -0.991017 0.000000 0.133734
v -0.049602 -0.017187 0.196034
vn -0.991017 0.000000 0.133734
v -0.049602 0.017238 0.196034
vn 0.000003 -0.775118 -0.631817
v -0.022498 0.061036 0.312046
vn 0.000003 -0.775118 -0.631817
v 0.022501 0.061036 0.312046
vn 0.000003 -0.775118 -0.631817
v 0.006641 0.052123 0.322980
vn 0.988020 -0.133202 -0.077940
v 0.079422 0.051596 0.259709
vn 0.988020 -0.133202 -0.077940
v 0.071756 0.035963 0.189246
vn 0.988020 -0.133202 -0.077940
v 0.075240 0.057014 0.197436
vn 0.611084 0.002921 -0.791560
v 0.044178 0.065061 0.199216
vn 0.611084 0.002921 -0.791560
v 0.057006 0.059639 0.209099
vn 0.611084 0.002921 -0.791560
v 0.056932 0.040248 0.208970
vn -0.925137 -0.222000 0.307957
v -0.055701 -0.077775 0.301847
vn -0.925137 -0.222000 0.307957
v -0.073188 -0.050825 0.268741
vn -0.925137 -0.222000 0.307957
v -0.066077 -0.102380 0.252939
vn 0.815578 0.578631 -0.004423
v 0.075240 0.057014 0.197436
vn 0.815578 0.578631 -0.004423
v 0.061008 0.077809 0.293557
vn 0.815578 0.578631 -0.004423
v 0.079422 0.051596 0.259709
vn 0.616396 -0.626951 -0.476433
v -0.068519 -0.064119 0.262720
vn 0.616396 -0.626951 -0.476433
v -0.079156 -0.049807 0.230125
vn 0.616396 -0.626951 -0.476433
v -0.031789 -0.059222 0.303797
vn -0.438618 0.898419 0.021401
v 0.069289 -0.059287 0.273047
vn -0.438618 0.898419 0.021401
v 0.056398 -0.064541 0.229431
vn -0.438618 0.898419 0.021401
v 0.051281 -0.067835 0.262834
vn 0.739793 -0.561262 -0.371068
v 0.083130 -0.037297 0.195000
vn 0.739793 -0.561262 -0.371068
v 0.060934 -0.110436 0.261375
vn 0.739793 -0.561262 -0.371068
v 0.025609 -0.112923 0.194711
vn -0.045535 0.962849 -0.266175
v -0.045415 0.076673 0.185881
vn -0.045535 0.962849 -0.266175
v 0.001345 0.086000 0.211620
vn -0.045535 0.962849 -0.266175
v 0.045199 0.081406 0.187502
vn -0.965321 -0.170904 -0.197352
v -0.044225 0.047042 0.203986
vn -0.965321 -0.170904 -0.197352
v -0.044037 0.062640 0.189557
vn -0.965321 -0.170904 -0.197352
v -0.039791 0.039149 0.189131
vn 0.187681 0.254829 0.948598
v -0.028543 -0.102913 0.204815
vn 0.187681 0.254829 0.948598
v -0.023981 -0.078761 0.197425
vn 0.187681 0.254829 0.948598
v -0.035705 -0.095244 0.204172
vn -0.804469 -0.497487 -0.324556
v -0.042999 -0.111471 0.209671
vn -0.804469 -0.497487 -0.324556
v -0.066077 -0.102380 0.252939
vn -0.804469 -0.497487 -0.324556
v -0.079658 -0.033479 0.180989
vn -0.940797 -0.294578 0.167705
v 0.071090 0.056749 0.222023
vn -0.940797 -0.294578 0.167705
v 0.071756 0.035963 0.189246
vn -0.940797 -0.294578 0.167705
v 0.079422 0.051596 0.259709
vn -0.890988 0.366523 0.267958
v 0.050341 -0.064862 0.209730
vn -0.890988 0.366523 0.267958
v 0.045488 -0.079227 0.213241
vn -0.890988 0.366523 0.267958
v 0.056398 -0.064541 0.229431
vn -0.311987 0.323742 0.893228
v 0.009333 -0.065557 0.195659
vn -0.311987 0.323742 0.893228
v 0.045488 -0.079227 0.213241
vn -0.311987 0.323742 0.893228
v 0.050341 -0.064862 0.209730
vn 0.853574 -0.026762 -0.520284
v 0.058839 -0.038811 0.212274
vn 0.853574 -0.026762 -0.520284
v 0.044918 -0.033673 0.189170
vn 0.853574 -0.026762 -0.520284
v 0.050700 -0.024340 0.198177
vn 0.341118 0.303483 -0.889683
v -0.000002 -0.095244 0.303697
vn 0.341118 0.303483 -0.889683
v -0.032009 -0.093751 0.291934
vn 0.341118 0.303483 -0.889683
v -0.031789 -0.059222 0.303797
vn -0.078871 0.996143 0.038458
v -0.079156 -0.049807 0.230125
vn -0.078871 0.996143 0.038458
v -0.073188 -0.050825 0.268741
vn -0.078871 0.996143 0.038458
v -0.039674 -0.049972 0.315379
vn 0.321345 -0.233671 0.917679
v -0.023981 -0.078761 0.197425
vn 0.321345 -0.233671 0.917679
v -0.009337 -0.065557 0.195659
vn 0.321345 -0.233671 0.917679
v -0.050116 -0.065557 0.209938
vn -0.771160 0.634208 -0.055600
v 0.056398 -0.064541 0.229431
vn -0.771160 0.634208 -0.055600
v 0.045488 -0.079227 0.213241
vn -0.771160 0.634208 -0.055600
v 0.051281 -0.067835 0.262834
vn -0.288446 -0.096277 0.952643
v -0.025309 0.079970 0.316120
vn -0.288446 -0.096277 0.952643
v -0.055059 0.051457 0.304231
vn -0.288446 -0.096277 0.952643
v 0.006641 0.052123 0.322980
vn 0.401024 0.220143 -0.889223
v -0.022498 0.061036 0.312046
vn 0.401024 0.220143 -0.889223
v 0.006641 0.052123 0.322980
vn 0.401024 0.220143 -0.889223
v -0.051019 0.050270 0.296517
vn 0.032603 0.999047 0.029033
v 0.045199 0.081406 0.187502
vn 0.032603 0.999047 0.029033
v -0.025309 0.079970 0.316120
vn 0.032603 0.999047 0.029033
v 0.061008 0.077809 0.293557
vn 0.924906 -0.101023 -0.366528
v -0.044434 -0.094544 0.281624
vn 0.924906 -0.101023 -0.366528
v -0.056064 -0.071596 0.245951
vn 0.924906 -0.101023 -0.366528
v -0.031789 -0.059222 0.303797
vn 0.187864 0.941379 -0.280200
v -0.068519 -0.064119 0.262720
vn 0.187864 0.941379 -0.280200
v -0.031789 -0.059222 0.303797
vn 0.187864 0.941379 -0.280200
v -0.056064 -0.071596 0.245951
vn 0.753011 0.224499 0.618526
v -0.016623 -0.094616 0.194221
vn 0.753011 0.224499 0.618526
v -0.023981 -0.078761 0.197425
vn 0.753011 0.224499 0.618526
v -0.017874 -0.100895 0.198024
vn -0.020697 -0.054277 -0.998311
v 0.071756 0.035963 0.189246
vn -0.020697 -0.054277 -0.998311
v 0.045267 0.029034 0.190172
vn -0.020697 -0.054277 -0.998311
v 0.013039 0.057766 0.189278
vn 0.026209 0.033316 0.999101
v 0.041949 0.061955 0.189161
vn 0.026209 0.033316 0.999101
v 0.045267 0.029034 0.190172
vn 0.026209 0.033316 0.999101
v 0.071756 0.035963 0.189246
vn -0.256507 0.914427 -0.313093
v 0.025790 -0.058137 0.312044
vn -0.256507 0.914427 -0.313093
v 0.069289 -0.059287 0.273047
vn -0.256507 0.914427 -0.313093
v 0.051281 -0.067835 0.262834
vn -0.739386 0.475456 -0.476707
v 0.025790 -0.058137 0.312044
vn -0.739386 0.475456 -0.476707
v 0.051281 -0.067835 0.262834
vn -0.739386 0.475456 -0.476707
v 0.027917 -0.069575 0.297337
vn -0.942420 -0.026057 0.333415
v -0.066863 0.077557 0.272906
vn -0.942420 -0.026057 0.333415
v -0.080795 0.043691 0.230877
vn -0.942420 -0.026057 0.333415
v -0.055059 0.051457 0.304231
vn 0.428034 -0.888177 0.167118
v -0.080795 0.043691 0.230877
vn 0.428034 -0.888177 0.167118
v -0.070760 0.040871 0.190186
vn 0.428034 -0.888177 0.167118
v -0.071226 0.050904 0.244700
vn -0.719146 -0.290617 -0.631166
v 0.042335 0.063389 0.300843
vn -0.719146 -0.290617 -0.631166
v 0.057079 0.064254 0.283645
vn -0.719146 -0.290617 -0.631166
v 0.051379 0.050613 0.296420
vn 0.917097 0.140807 -0.372971
v -0.057737 0.061036 0.284063
vn 0.917097 0.140807 -0.372971
v -0.051019 0.050270 0.296517
vn 0.917097 0.140807 -0.372971
v -0.066486 0.062219 0.262998
vn -0.675058 -0.114604 -0.728809
v -0.042976 -0.037007 0.193014
vn -0.675058 -0.114604 -0.728809
v -0.050700 -0.024340 0.198177
vn -0.675058 -0.114604 -0.728809
v -0.049602 -0.017187 0.196034
vn -0.100112 -0.156184 0.982641
v -0.041949 -0.061904 0.189161
vn -0.100112 -0.156184 0.982641
v -0.042976 -0.037007 0.193014
vn -0.100112 -0.156184 0.982641
v -0.070001 -0.042183 0.189438
vn 0.095794 0.176630 -0.979605
v 0.012271 -0.105401 0.186084
vn 0.095794 0.176630 -0.979605
v -0.070001 -0.042183 0.189438
vn 0.095794 0.176630 -0.979605
v -0.042976 -0.037007 0.193014
vn -0.701740 -0.255810 -0.664922
v -0.042976 -0.037007 0.193014
vn -0.701740 -0.255810 -0.664922
v -0.056932 -0.040198 0.208970
vn -0.701740 -0.255810 -0.664922
v -0.049461 -0.027058 0.196031
vn -0.955552 0.161236 -0.246828
v -0.080795 0.043691 0.230877
vn -0.955552 0.161236 -0.246828
v -0.068957 0.078273 0.207635
vn -0.955552 0.161236 -0.246828
v -0.070760 0.040871 0.190186
vn -0.071670 0.997341 0.013237
v -0.068957 0.078273 0.207635
vn -0.071670 0.997341 0.013237
v -0.066863 0.077557 0.272906
vn -0.071670 0.997341 0.013237
v -0.025309 0.079970 0.316120
vn -0.030711 -0.990197 0.136259
v -0.051019 0.050270 0.296517
vn -0.030711 -0.990197 0.136259
v 0.006641 0.052123 0.322980
vn -0.030711 -0.990197 0.136259
v -0.055059 0.051457 0.304231
vn 0.047691 -0.344120 -0.937714
v 0.044178 0.065061 0.199216
vn 0.047691 -0.344120 -0.937714
v 0.056932 0.040248 0.208970
vn 0.047691 -0.344120 -0.937714
v 0.044958 0.039656 0.208578
vn -0.958410 -0.273623 -0.081121
v -0.066077 -0.102380 0.252939
vn -0.958410 -0.273623 -0.081121
v -0.079156 -0.049807 0.230125
vn -0.958410 -0.273623 -0.081121
v -0.079658 -0.033479 0.180989
vn -0.833042 0.135543 -0.536348
v -0.042976 -0.037007 0.193014
vn -0.833042 0.135543 -0.536348
v -0.045956 -0.064541 0.190684
vn -0.833042 0.135543 -0.536348
v -0.057006 -0.059588 0.209099
vn 0.138847 -0.020599 -0.990100
v 0.044918 -0.033673 0.189170
vn 0.138847 -0.020599 -0.990100
v 0.012271 -0.105401 0.186084
vn 0.138847 -0.020599 -0.990100
v -0.003539 -0.060328 0.182929
vn -0.877819 0.453934 0.152896
v -0.059628 -0.064541 0.214565
vn -0.877819 0.453934 0.152896
v -0.056589 -0.064844 0.232913
vn -0.877819 0.453934 0.152896
v -0.054556 -0.061657 0.235120
vn -0.567206 0.161206 -0.807645
v 0.028539 -0.102913 0.290245
vn -0.567206 0.161206 -0.807645
v 0.014166 -0.094861 0.301947
vn -0.567206 0.161206 -0.807645
v 0.027917 -0.069575 0.297337
vn -0.787772 -0.419524 -0.451016
v -0.045956 0.064592 0.190684
vn -0.787772 -0.419524 -0.451016
v -0.044225 0.047042 0.203986
vn -0.787772 -0.419524 -0.451016
v -0.059628 0.064592 0.214565
vn -0.110269 -0.987720 -0.110675
v 0.051379 0.050613 0.296420
vn -0.110269 -0.987720 -0.110675
v 0.071090 0.056749 0.222023
vn -0.110269 -0.987720 -0.110675
v 0.079422 0.051596 0.259709
vn -0.303536 -0.269790 0.913827
v -0.055701 -0.077775 0.301847
vn -0.303536 -0.269790 0.913827
v -0.004872 -0.112495 0.308480
vn -0.303536 -0.269790 0.913827
v -0.039674 -0.049972 0.315379
vn 0.757307 -0.621716 -0.199890
v -0.071226 0.050904 0.244700
vn 0.757307 -0.621716 -0.199890
v -0.055059 0.051457 0.304231
vn 0.757307 -0.621716 -0.199890
v -0.080795 0.043691 0.230877
vn -0.178550 -0.982243 0.057614
v -0.071226 0.050904 0.244700
vn -0.178550 -0.982243 0.057614
v -0.051019 0.050270 0.296517
vn -0.178550 -0.982243 0.057614
v -0.055059 0.051457 0.304231
vn -0.621118 0.355742 -0.698327
v -0.068957 0.078273 0.207635
vn -0.621118 0.355742 -0.698327
v -0.045415 0.076673 0.185881
vn -0.621118 0.355742 -0.698327
v -0.070760 0.040871 0.190186
vn 0.554398 0.792155 -0.255211
v -0.031789 -0.059222 0.303797
vn 0.554398 0.792155 -0.255211
v -0.079156 -0.049807 0.230125
vn 0.554398 0.792155 -0.255211
v -0.039674 -0.049972 0.315379
vn 0.878179 -0.373782 0.298477
v 0.055433 -0.017073 0.179020
vn 0.878179 -0.373782 0.298477
v 0.049602 -0.017187 0.196034
vn 0.878179 -0.373782 0.298477
v 0.044918 -0.033673 0.189170
vn -0.956897 0.099844 0.272727
v -0.051886 0.041588 0.179104
vn -0.956897 0.099844 0.272727
v -0.049602 0.017238 0.196034
vn -0.956897 0.099844 0.272727
v -0.044225 0.047042 0.203986
vn 0.479718 0.248050 -0.841631
v 0.045199 0.081406 0.187502
vn 0.479718 0.248050 -0.841631
v 0.075240 0.057014 0.197436
vn 0.479718 0.248050 -0.841631
v 0.071756 0.035963 0.189246
vn -0.261058 -0.777851 0.571661
v 0.015099 -0.094860 0.193365
vn -0.261058 -0.777851 0.571661
v 0.018808 -0.092481 0.198296
vn -0.261058 -0.777851 0.571661
v -0.023981 -0.078761 0.197425
vn -0.132658 -0.839517 -0.526891
v -0.042999 -0.111471 0.209671
vn -0.132658 -0.839517 -0.526891
v 0.012271 -0.105401 0.186084
vn -0.132658 -0.839517 -0.526891
v 0.025609 -0.112923 0.194711
vn -0.307553 -0.452404 -0.837103
v -0.042999 -0.111471 0.209671
vn -0.307553 -0.452404 -0.837103
v -0.079658 -0.033479 0.180989
vn -0.307553 -0.452404 -0.837103
v 0.012271 -0.105401 0.186084
vn 0.980293 0.031386 -0.195041
v -0.051176 -0.093750 0.266951
vn 0.980293 0.031386 -0.195041
v -0.054714 -0.093751 0.249168
vn 0.980293 0.031386 -0.195041
v -0.056064 -0.071596 0.245951
vn -0.824289 0.294701 0.483424
v 0.044492 -0.091918 0.219279
vn -0.824289 0.294701 0.483424
v 0.049783 -0.092780 0.228827
vn -0.824289 0.294701 0.483424
v 0.045488 -0.079227 0.213241
vn -0.965392 0.256329 0.048097
v 0.064590 -0.065221 0.210348
vn -0.965392 0.256329 0.048097
v 0.069289 -0.059287 0.273047
vn -0.965392 0.256329 0.048097
v 0.071299 -0.035839 0.188437
vn 0.948698 0.254540 -0.187568
v 0.049884 0.016028 0.195871
vn 0.948698 0.254540 -0.187568
v 0.055433 -0.017073 0.179020
vn 0.948698 0.254540 -0.187568
v 0.045267 0.029034 0.190172
vn -0.131383 0.849057 -0.511704
v 0.013039 0.057766 0.189278
vn -0.131383 0.849057 -0.511704
v 0.024871 0.053872 0.179778
vn -0.131383 0.849057 -0.511704
v -0.051886 0.041588 0.179104
vn 0.031502 -0.081559 -0.996171
v 0.013039 0.057766 0.189278
vn 0.031502 -0.081559 -0.996171
v -0.039791 0.039149 0.189131
vn 0.031502 -0.081559 -0.996171
v -0.045415 0.076673 0.185881
vn 0.124651 0.208662 -0.970012
v 0.028539 -0.102913 0.290245
vn 0.124651 0.208662 -0.970012
v 0.027917 -0.069575 0.297337
vn 0.124651 0.208662 -0.970012
v 0.034005 -0.094599 0.292736
vn 0.147738 -0.261559 0.953814
v -0.004872 -0.112495 0.308480
vn 0.147738 -0.261559 0.953814
v 0.044530 -0.068581 0.312870
vn 0.147738 -0.261559 0.953814
v 0.012222 -0.050825 0.322744
vn 0.779063 -0.213764 0.589378
v 0.051379 0.050613 0.296420
vn 0.779063 -0.213764 0.589378
v 0.079422 0.051596 0.259709
vn 0.779063 -0.213764 0.589378
v 0.061008 0.077809 0.293557
vn 0.976136 -0.087499 -0.198751
v -0.067608 0.063389 0.256970
vn 0.976136 -0.087499 -0.198751
v -0.066486 0.062219 0.262998
vn 0.976136 -0.087499 -0.198751
v -0.071226 0.050904 0.244700
vn 0.522861 0.822394 0.224244
v -0.023981 -0.078761 0.197425
vn 0.522861 0.822394 0.224244
v -0.050116 -0.065557 0.209938
vn 0.522861 0.822394 0.224244
v -0.056064 -0.071596 0.245951
vn 0.841138 0.493320 0.221635
v -0.056064 -0.071596 0.245951
vn 0.841138 0.493320 0.221635
v -0.050116 -0.065557 0.209938
vn 0.841138 0.493320 0.221635
v -0.056589 -0.064844 0.232913
vn 0.000380 0.706757 0.707457
v 0.058839 -0.038811 0.212274
vn 0.000380 0.706757 0.707457
v 0.044304 -0.046708 0.220171
vn 0.000380 0.706757 0.707457
v 0.053736 -0.065628 0.239067
vn 0.773340 0.299309 0.558891
v 0.058839 -0.038811 0.212274
vn 0.773340 0.299309 0.558891
v 0.052038 -0.064541 0.235464
vn 0.773340 0.299309 0.558891
v 0.056398 -0.064541 0.229431
vn 0.486076 0.873702 0.019372
v 0.025790 -0.058137 0.312044
vn 0.486076 0.873702 0.019372
v 0.012222 -0.050825 0.322744
vn 0.486076 0.873702 0.019372
v 0.044530 -0.068581 0.312870
vn 0.420654 0.790075 0.445906
v 0.069289 -0.059287 0.273047
vn 0.420654 0.790075 0.445906
v 0.025790 -0.058137 0.312044
vn 0.420654 0.790075 0.445906
v 0.044530 -0.068581 0.312870
vn 0.025116 -0.123901 -0.991977
v -0.047251 -0.035115 0.178673
vn 0.025116 -0.123901 -0.991977
v 0.055433 -0.017073 0.179020
vn 0.025116 -0.123901 -0.991977
v -0.003539 -0.060328 0.182929
vn -0.912644 -0.339746 0.227274
v -0.049602 -0.017187 0.196034
vn -0.912644 -0.339746 0.227274
v -0.047251 -0.035115 0.178673
vn -0.912644 -0.339746 0.227274
v -0.042976 -0.037007 0.193014
vn -0.501917 -0.864182 0.035629
v -0.042976 -0.037007 0.193014
vn -0.501917 -0.864182 0.035629
v -0.047251 -0.035115 0.178673
vn -0.501917 -0.864182 0.035629
v -0.003539 -0.060328 0.182929
vn -0.864424 -0.088573 -0.494901
v -0.059628 -0.064541 0.214565
vn -0.864424 -0.088573 -0.494901
v -0.057006 -0.059588 0.209099
vn -0.864424 -0.088573 -0.494901
v -0.045956 -0.064541 0.190684
vn 0.642635 0.762976 -0.069910
v 0.045199 0.081406 0.187502
vn 0.642635 0.762976 -0.069910
v 0.061008 0.077809 0.293557
vn 0.642635 0.762976 -0.069910
v 0.075240 0.057014 0.197436
vn 0.233477 0.476665 0.847513
v 0.061008 0.077809 0.293557
vn 0.233477 0.476665 0.847513
v -0.025309 0.079970 0.316120
vn 0.233477 0.476665 0.847513
v 0.006641 0.052123 0.322980
vn -0.000000 0.707107 0.707107
v -0.044304 -0.046708 0.220171
vn -0.000000 0.707107 0.707107
v -0.059620 -0.041063 0.214525
vn -0.000000 0.707107 0.707107
v -0.054556 -0.061657 0.235120
vn 0.794667 0.170291 -0.582670
v 0.045267 0.029034 0.190172
vn 0.794667 0.170291 -0.582670
v 0.044178 0.065061 0.199216
vn 0.794667 0.170291 -0.582670
v 0.047599 0.027162 0.192805
vn -0.344920 -0.185392 -0.920141
v 0.012271 -0.105401 0.186084
vn -0.344920 -0.185392 -0.920141
v -0.042976 -0.037007 0.193014
vn -0.344920 -0.185392 -0.920141
v -0.003539 -0.060328 0.182929
vn 0.585757 0.671148 0.454366
v 0.024871 0.053872 0.179778
vn 0.585757 0.671148 0.454366
v 0.013039 0.057766 0.189278
vn 0.585757 0.671148 0.454366
v 0.045267 0.029034 0.190172
vn 0.941391 -0.330223 0.068811
v -0.066965 0.064592 0.252104
vn 0.941391 -0.330223 0.068811
v -0.071226 0.050904 0.244700
vn 0.941391 -0.330223 0.068811
v -0.070760 0.040871 0.190186
vn -0.597341 -0.041471 -0.800914
v -0.044225 0.047042 0.203986
vn -0.597341 -0.041471 -0.800914
v -0.059682 0.042345 0.215757
vn -0.597341 -0.041471 -0.800914
v -0.059628 0.064592 0.214565
vn -0.282268 0.796773 0.534301
v -0.051886 0.041588 0.179104
vn -0.282268 0.796773 0.534301
v -0.039791 0.039149 0.189131
vn -0.282268 0.796773 0.534301
v 0.013039 0.057766 0.189278
vn -0.118688 -0.115257 -0.986219
v 0.014166 -0.094861 0.301947
vn -0.118688 -0.115257 -0.986219
v -0.000002 -0.095244 0.303697
vn -0.118688 -0.115257 -0.986219
v 0.027917 -0.069575 0.297337
vn -0.474694 -0.036064 0.879412
v 0.018808 -0.092481 0.198296
vn -0.474694 -0.036064 0.879412
v 0.030961 -0.091918 0.204879
vn -0.474694 -0.036064 0.879412
v 0.045488 -0.079227 0.213241
vn -0.458825 -0.074734 0.885378
v 0.018808 -0.092481 0.198296
vn -0.458825 -0.074734 0.885378
v 0.045488 -0.079227 0.213241
vn -0.458825 -0.074734 0.885378
v 0.009333 -0.065557 0.195659
vn 0.608237 0.785514 0.114083
v -0.079658 -0.033479 0.180989
vn 0.608237 0.785514 0.114083
v -0.070001 -0.042183 0.189438
vn 0.608237 0.785514 0.114083
v 0.012271 -0.105401 0.186084
vn 0.507715 0.162976 0.845969
v -0.028543 -0.102913 0.204815
vn 0.507715 0.162976 0.845969
v -0.017874 -0.100895 0.198024
vn 0.507715 0.162976 0.845969
v -0.023981 -0.078761 0.197425
vn -0.973036 -0.178857 0.145642
v -0.066077 -0.102380 0.252939
vn -0.973036 -0.178857 0.145642
v -0.073188 -0.050825 0.268741
vn -0.973036 -0.178857 0.145642
v -0.079156 -0.049807 0.230125
vn 0.095684 0.808559 -0.580583
v -0.031789 -0.059222 0.303797
vn 0.095684 0.808559 -0.580583
v -0.039674 -0.049972 0.315379
vn 0.095684 0.808559 -0.580583
v 0.012222 -0.050825 0.322744
vn 0.057287 0.856652 -0.512705
v 0.025790 -0.058137 0.312044
vn 0.057287 0.856652 -0.512705
v -0.031789 -0.059222 0.303797
vn 0.057287 0.856652 -0.512705
v 0.012222 -0.050825 0.322744
vn -0.312808 -0.397711 0.862541
v -0.054556 -0.061657 0.235120
vn -0.312808 -0.397711 0.862541
v -0.056589 -0.064844 0.232913
vn -0.312808 -0.397711 0.862541
v -0.050955 -0.064541 0.235096
vn 0.401570 0.495064 0.770489
v -0.050955 -0.064541 0.235096
vn 0.401570 0.495064 0.770489
v -0.044304 -0.046708 0.220171
vn 0.401570 0.495064 0.770489
v -0.054556 -0.061657 0.235120
vn -0.722636 -0.049058 -0.689486
v 0.027917 -0.069575 0.297337
vn -0.722636 -0.049058 -0.689486
v 0.044558 -0.095244 0.281722
vn -0.722636 -0.049058 -0.689486
v 0.034005 -0.094599 0.292736
vn 0.001391 0.011280 -0.999935
v 0.055433 -0.017073 0.179020
vn 0.001391 0.011280 -0.999935
v -0.047251 -0.035115 0.178673
vn 0.001391 0.011280 -0.999935
v 0.024871 0.053872 0.179778
vn 0.852895 -0.025194 -0.521474
v 0.044918 -0.033673 0.189170
vn 0.852895 -0.025194 -0.521474
v 0.049602 -0.017187 0.196034
vn 0.852895 -0.025194 -0.521474
v 0.050700 -0.024340 0.198177
vn -0.017036 -0.996641 -0.080104
v -0.014170 -0.094861 0.301947
vn -0.017036 -0.996641 -0.080104
v -0.032009 -0.093751 0.291934
vn -0.017036 -0.996641 -0.080104
v -0.000002 -0.095244 0.303697
vn 0.000000 0.132567 0.991174
v -0.023981 -0.078761 0.197425
vn 0.000000 0.132567 0.991174
v 0.009333 -0.065557 0.195659
vn 0.000000 0.132567 0.991174
v -0.009337 -0.065557 0.195659
vn 0.636518 -0.602364 -0.481667
v 0.058839 -0.038811 0.212274
vn 0.636518 -0.602364 -0.481667
v 0.053736 -0.065628 0.239067
vn 0.636518 -0.602364 -0.481667
v 0.052038 -0.064541 0.235464
vn 0.711674 -0.054250 0.700413
v 0.044178 0.065061 0.199216
vn 0.711674 -0.054250 0.700413
v 0.044958 0.026723 0.195454
vn 0.711674 -0.054250 0.700413
v 0.047599 0.027162 0.192805
vn 0.999501 0.022509 -0.022181
v 0.044958 0.026723 0.195454
vn 0.999501 0.022509 -0.022181
v 0.044178 0.065061 0.199216
vn 0.999501 0.022509 -0.022181
v 0.044958 0.039656 0.208578
vn -0.487462 -0.043220 -0.872074
v 0.022501 0.061036 0.312046
vn -0.487462 -0.043220 -0.872074
v 0.042335 0.063389 0.300843
vn -0.487462 -0.043220 -0.872074
v 0.051379 0.050613 0.296420
vn 0.439281 -0.654521 -0.615333
v -0.003539 -0.060328 0.182929
vn 0.439281 -0.654521 -0.615333
v 0.055433 -0.017073 0.179020
vn 0.439281 -0.654521 -0.615333
v 0.044918 -0.033673 0.189170
vn 0.433916 0.842837 -0.318345
v -0.051886 0.041588 0.179104
vn 0.433916 0.842837 -0.318345
v -0.044225 0.047042 0.203986
vn 0.433916 0.842837 -0.318345
v -0.039791 0.039149 0.189131
vn 0.768176 -0.319182 0.555003
v -0.035705 -0.095244 0.204172
vn 0.768176 -0.319182 0.555003
v -0.023981 -0.078761 0.197425
vn 0.768176 -0.319182 0.555003
v -0.056064 -0.071596 0.245951
vn 0.738295 -0.409504 -0.535936
v 0.058839 -0.038811 0.212274
vn 0.738295 -0.409504 -0.535936
v 0.043668 -0.052558 0.201878
vn 0.738295 -0.409504 -0.535936
v 0.044918 -0.033673 0.189170
vn 0.453234 0.162588 -0.876438
v 0.058839 -0.038811 0.212274
vn 0.453234 0.162588 -0.876438
v 0.064590 -0.065221 0.210348
vn 0.453234 0.162588 -0.876438
v 0.043668 -0.052558 0.201878
vn -0.319466 0.550548 -0.771258
v 0.028539 -0.102913 0.290245
vn -0.319466 0.550548 -0.771258
v 0.010020 -0.102913 0.297916
vn -0.319466 0.550548 -0.771258
v 0.014166 -0.094861 0.301947
vn 0.607882 0.254525 -0.752128
v -0.032009 -0.093751 0.291934
vn 0.607882 0.254525 -0.752128
v -0.044434 -0.094544 0.281624
vn 0.607882 0.254525 -0.752128
v -0.031789 -0.059222 0.303797
vn -0.851692 -0.139247 -0.505203
v 0.051795 -0.094861 0.269417
vn -0.851692 -0.139247 -0.505203
v 0.044558 -0.095244 0.281722
vn -0.851692 -0.139247 -0.505203
v 0.051281 -0.067835 0.262834
vn -0.985291 -0.057889 -0.160783
v 0.051281 -0.067835 0.262834
vn -0.985291 -0.057889 -0.160783
v 0.054724 -0.093648 0.251031
vn -0.985291 -0.057889 -0.160783
v 0.051795 -0.094861 0.269417
vn 0.966096 0.089956 -0.242003
v 0.041949 0.061955 0.189161
vn 0.966096 0.089956 -0.242003
v 0.044178 0.065061 0.199216
vn 0.966096 0.089956 -0.242003
v 0.045267 0.029034 0.190172
vn 0.006248 0.955038 -0.296418
v -0.044037 0.062640 0.189557
vn 0.006248 0.955038 -0.296418
v 0.044178 0.065061 0.199216
vn 0.006248 0.955038 -0.296418
v 0.041949 0.061955 0.189161
vn -0.004670 -0.008617 -0.999952
v 0.071756 0.035963 0.189246
vn -0.004670 -0.008617 -0.999952
v -0.044037 0.062640 0.189557
vn -0.004670 -0.008617 -0.999952
v 0.041949 0.061955 0.189161
vn 0.024722 -0.774909 0.631589
v -0.045956 -0.064541 0.190684
vn 0.024722 -0.774909 0.631589
v 0.044037 -0.062589 0.189557
vn 0.024722 -0.774909 0.631589
v 0.043668 -0.052558 0.201878
vn 0.998097 -0.029680 0.054048
v 0.044918 -0.033673 0.189170
vn 0.998097 -0.029680 0.054048
v 0.043668 -0.052558 0.201878
vn 0.998097 -0.029680 0.054048
v 0.044037 -0.062589 0.189557
vn 0.004229 -0.046128 -0.998927
v 0.071299 -0.035839 0.188437
vn 0.004229 -0.046128 -0.998927
v 0.044037 -0.062589 0.189557
vn 0.004229 -0.046128 -0.998927
v -0.041949 -0.061904 0.189161
vn 0.028798 0.012492 0.999507
v 0.071299 -0.035839 0.188437
vn 0.028798 0.012492 0.999507
v 0.044918 -0.033673 0.189170
vn 0.028798 0.012492 0.999507
v 0.044037 -0.062589 0.189557
vn 0.652330 0.222938 -0.724406
v 0.058839 0.064592 0.212274
vn 0.652330 0.222938 -0.724406
v 0.057006 0.059639 0.209099
vn 0.652330 0.222938 -0.724406
v 0.044178 0.065061 0.199216
vn 0.025039 -0.186838 0.982071
v -0.016623 -0.094616 0.194221
vn 0.025039 -0.186838 0.982071
v 0.015099 -0.094860 0.193365
vn 0.025039 -0.186838 0.982071
v -0.023981 -0.078761 0.197425
vn -0.097561 0.979255 -0.177601
v -0.045415 0.076673 0.185881
vn -0.097561 0.979255 -0.177601
v -0.068957 0.078273 0.207635
vn -0.097561 0.979255 -0.177601
v 0.001345 0.086000 0.211620
vn -0.007247 0.003707 -0.999967
v -0.070001 -0.042183 0.189438
vn -0.007247 0.003707 -0.999967
v 0.071299 -0.035839 0.188437
vn -0.007247 0.003707 -0.999967
v -0.041949 -0.061904 0.189161
vn 0.000000 -0.500003 -0.866024
v -0.045956 -0.064541 0.190684
vn 0.000000 -0.500003 -0.866024
v -0.041949 -0.061904 0.189161
vn 0.000000 -0.500003 -0.866024
v 0.044037 -0.062589 0.189557
vn -0.421592 0.121659 -0.898587
v -0.041949 -0.061904 0.189161
vn -0.421592 0.121659 -0.898587
v -0.045956 -0.064541 0.190684
vn -0.421592 0.121659 -0.898587
v -0.042976 -0.037007 0.193014
vn -0.539519 -0.700633 0.466940
v -0.004872 -0.112495 0.308480
vn -0.539519 -0.700633 0.466940
v -0.055701 -0.077775 0.301847
vn -0.539519 -0.700633 0.466940
v -0.066077 -0.102380 0.252939
vn -0.577814 -0.694519 0.428690
v 0.044178 0.065061 0.199216
vn -0.577814 -0.694519 0.428690
v 0.071756 0.035963 0.189246
vn -0.577814 -0.694519 0.428690
v 0.071090 0.056749 0.222023
vn -0.084593 -0.393791 0.915299
v -0.045956 0.064592 0.190684
vn -0.084593 -0.393791 0.915299
v 0.071756 0.035963 0.189246
vn -0.084593 -0.393791 0.915299
v 0.044178 0.065061 0.199216
vn -0.179204 0.779119 0.600716
v 0.071299 -0.035839 0.188437
vn -0.179204 0.779119 0.600716
v -0.045956 -0.064541 0.190684
vn -0.179204 0.779119 0.600716
v 0.043668 -0.052558 0.201878
vn 0.032886 0.592658 0.804782
v 0.071299 -0.035839 0.188437
vn 0.032886 0.592658 0.804782
v 0.043668 -0.052558 0.201878
vn 0.032886 0.592658 0.804782
v 0.064590 -0.065221 0.210348
vn 0.993150 0.073668 0.090696
v -0.054714 -0.093751 0.249168
vn 0.993150 0.073668 0.090696
v -0.052688 -0.094860 0.227883
vn 0.993150 0.073668 0.090696
v -0.056064 -0.071596 0.245951
vn 0.767840 -0.319733 0.555151
v -0.052688 -0.094860 0.227883
vn 0.767840 -0.319733 0.555151
v -0.035705 -0.095244 0.204172
vn 0.767840 -0.319733 0.555151
v -0.056064 -0.071596 0.245951
vn -0.680551 0.357660 0.639476
v 0.030961 -0.091918 0.204879
vn -0.680551 0.357660 0.639476
v 0.044492 -0.091918 0.219279
vn -0.680551 0.357660 0.639476
v 0.045488 -0.079227 0.213241
vn -0.908103 -0.036095 0.417187
v 0.044304 -0.046708 0.220171
vn -0.908103 -0.036095 0.417187
v 0.052038 -0.064541 0.235464
vn -0.908103 -0.036095 0.417187
v 0.053736 -0.065628 0.239067
vn -0.109299 -0.646087 0.755397
v -0.050700 -0.024340 0.198177
vn -0.109299 -0.646087 0.755397
v -0.049461 -0.027058 0.196031
vn -0.109299 -0.646087 0.755397
v -0.027493 -0.026351 0.199814
vn 0.753289 0.583235 -0.303960
v -0.042976 -0.037007 0.193014
vn 0.753289 0.583235 -0.303960
v -0.049461 -0.027058 0.196031
vn 0.753289 0.583235 -0.303960
v -0.050700 -0.024340 0.198177
vn 0.004359 0.060334 0.998169
v 0.071299 -0.035839 0.188437
vn 0.004359 0.060334 0.998169
v -0.070001 -0.042183 0.189438
vn 0.004359 0.060334 0.998169
v -0.045956 -0.064541 0.190684
vn 0.425764 -0.332831 -0.841397
v 0.083130 -0.037297 0.195000
vn 0.425764 -0.332831 -0.841397
v 0.012271 -0.105401 0.186084
vn 0.425764 -0.332831 -0.841397
v 0.071299 -0.035839 0.188437
vn 0.394831 -0.296977 -0.869432
v 0.025609 -0.112923 0.194711
vn 0.394831 -0.296977 -0.869432
v 0.012271 -0.105401 0.186084
vn 0.394831 -0.296977 -0.869432
v 0.083130 -0.037297 0.195000
vn 0.946470 -0.319489 0.046046
v -0.066965 0.064592 0.252104
vn 0.946470 -0.319489 0.046046
v -0.067608 0.063389 0.256970
vn 0.946470 -0.319489 0.046046
v -0.071226 0.050904 0.244700
vn 0.506246 -0.088915 0.857793
v 0.051379 0.050613 0.296420
vn 0.506246 -0.088915 0.857793
v 0.061008 0.077809 0.293557
vn 0.506246 -0.088915 0.857793
v 0.006641 0.052123 0.322980
vn 0.569718 0.088181 0.817096
v -0.045956 0.064592 0.190684
vn 0.569718 0.088181 0.817096
v -0.039791 0.039149 0.189131
vn 0.569718 0.088181 0.817096
v -0.044037 0.062640 0.189557
vn 0.075647 0.553291 -0.829546
v -0.045956 0.064592 0.190684
vn 0.075647 0.553291 -0.829546
v 0.044178 0.065061 0.199216
vn 0.075647 0.553291 -0.829546
v -0.044037 0.062640 0.189557
vn -0.745541 -0.447705 -0.493689
v -0.044225 0.047042 0.203986
vn -0.745541 -0.447705 -0.493689
v -0.045956 0.064592 0.190684
vn -0.745541 -0.447705 -0.493689
v -0.044037 0.062640 0.189557
vn -0.134017 -0.590986 0.795472
v 0.071756 0.035963 0.189246
vn -0.134017 -0.590986 0.795472
v -0.045956 0.064592 0.190684
vn -0.134017 -0.590986 0.795472
v -0.044037 0.062640 0.189557
vn 0.259179 0.735738 0.625712
v -0.028543 -0.102913 0.204815
vn 0.259179 0.735738 0.625712
v -0.010024 -0.102913 0.197144
vn 0.259179 0.735738 0.625712
v -0.017874 -0.100895 0.198024
# 600 vertices, 0 vertices normals

f 1//1 2//2 3//3
f 4//4 5//5 6//6
f 7//7 8//8 9//9
f 10//10 11//11 12//12
f 13//13 14//14 15//15
f 16//16 17//17 18//18
f 19//19 20//20 21//21
f 22//22 23//23 24//24
f 25//25 26//26 27//27
f 28//28 29//29 30//30
f 31//31 32//32 33//33
f 34//34 35//35 36//36
f 37//37 38//38 39//39
f 40//40 41//41 42//42
f 43//43 44//44 45//45
f 46//46 47//47 48//48
f 49//49 50//50 51//51
f 52//52 53//53 54//54
f 55//55 56//56 57//57
f 58//58 59//59 60//60
f 61//61 62//62 63//63
f 64//64 65//65 66//66
f 67//67 68//68 69//69
f 70//70 71//71 72//72
f 73//73 74//74 75//75
f 76//76 77//77 78//78
f 79//79 80//80 81//81
f 82//82 83//83 84//84
f 85//85 86//86 87//87
f 88//88 89//89 90//90
f 91//91 92//92 93//93
f 94//94 95//95 96//96
f 97//97 98//98 99//99
f 100//100 101//101 102//102
f 103//103 104//104 105//105
f 106//106 107//107 108//108
f 109//109 110//110 111//111
f 112//112 113//113 114//114
f 115//115 116//116 117//117
f 118//118 119//119 120//120
f 121//121 122//122 123//123
f 124//124 125//125 126//126
f 127//127 128//128 129//129
f 130//130 131//131 132//132
f 133//133 134//134 135//135
f 136//136 137//137 138//138
f 139//139 140//140 141//141
f 142//142 143//143 144//144
f 145//145 146//146 147//147
f 148//148 149//149 150//150
f 151//151 152//152 153//153
f 154//154 155//155 156//156
f 157//157 158//158 159//159
f 160//160 161//161 162//162
f 163//163 164//164 165//165
f 166//166 167//167 168//168
f 169//169 170//170 171//171
f 172//172 173//173 174//174
f 175//175 176//176 177//177
f 178//178 179//179 180//180
f 181//181 182//182 183//183
f 184//184 185//185 186//186
f 187//187 188//188 189//189
f 190//190 191//191 192//192
f 193//193 194//194 195//195
f 196//196 197//197 198//198
f 199//199 200//200 201//201
f 202//202 203//203 204//204
f 205//205 206//206 207//207
f 208//208 209//209 210//210
f 211//211 212//212 213//213
f 214//214 215//215 216//216
f 217//217 218//218 219//219
f 220//220 221//221 222//222
f 223//223 224//224 225//225
f 226//226 227//227 228//228
f 229//229 230//230 231//231
f 232//232 233//233 234//234
f 235//235 236//236 237//237
f 238//238 239//239 240//240
f 241//241 242//242 243//243
f 244//244 245//245 246//246
f 247//247 248//248 249//249
f 250//250 251//251 252//252
f 253//253 254//254 255//255
f 256//256 257//257 258//258
f 259//259 260//260 261//261
f 262//262 263//263 264//264
f 265//265 266//266 267//267
f 268//268 269//269 270//270
f 271//271 272//272 273//273
f 274//274 275//275 276//276
f 277//277 278//278 279//279
f 280//280 281//281 282//282
f 283//283 284//284 285//285
f 286//286 287//287 288//288
f 289//289 290//290 291//291
f 292//292 293//293 294//294
f 295//295 296//296 297//297
f 298//298 299//299 300//300
f 301//301 302//302 303//303
f 304//304 305//305 306//306
f 307//307 308//308 309//309
f 310//310 311//311 312//312
f 313//313 314//314 315//315
f 316//316 317//317 318//318
f 319//319 320//320 321//321
f 322//322 323//323 324//324
f 325//325 326//326 327//327
f 328//328 329//329 330//330
f 331//331 332//332 333//333
f 334//334 335//335 336//336
f 337//337 338//338 339//339
f 340//340 341//341 342//342
f 343//343 344//344 345//345
f 346//346 347//347 348//348
f 349//349 350//350 351//351
f 352//352 353//353 354//354
f 355//355 356//356 357//357
f 358//358 359//359 360//360
f 361//361 362//362 363//363
f 364//364 365//365 366//366
f 367//367 368//368 369//369
f 370//370 371//371 372//372
f 373//373 374//374 375//375
f 376//376 377//377 378//378
f 379//379 380//380 381//381
f 382//382 383//383 384//384
f 385//385 386//386 387//387
f 388//388 389//389 390//390
f 391//391 392//392 393//393
f 394//394 395//395 396//396
f 397//397 398//398 399//399
f 400//400 401//401 402//402
f 403//403 404//404 405//405
f 406//406 407//407 408//408
f 409//409 410//410 411//411
f 412//412 413//413 414//414
f 415//415 416//416 417//417
f 418//418 419//419 420//420
f 421//421 422//422 423//423
f 424//424 425//425 426//426
f 427//427 428//428 429//429
f 430//430 431//431 432//432
f 433//433 434//434 435//435
f 436//436 437//437 438//438
f 439//439 440//440 441//441
f 442//442 443//443 444//444
f 445//445 446//446 447//447
f 448//448 449//449 450//450
f 451//451 452//452 453//453
f 454//454 455//455 456//456
f 457//457 458//458 459//459
f 460//460 461//461 462//462
f 463//463 464//464 465//465
f 466//466 467//467 468//468
f 469//469 470//470 471//471
f 472//472 473//473 474//474
f 475//475 476//476 477//477
f 478//478 479//479 480//480
f 481//481 482//482 483//483
f 484//484 485//485 486//486
f 487//487 488//488 489//489
f 490//490 491//491 492//492
f 493//493 494//494 495//495
f 496//496 497//497 498//498
f 499//499 500//500 501//501
f 502//502 503//503 504//504
f 505//505 506//506 507//507
f 508//508 509//509 510//510
f 511//511 512//512 513//513
f 514//514 515//515 516//516
f 517//517 518//518 519//519
f 520//520 521//521 522//522
f 523//523 524//524 525//525
f 526//526 527//527 528//528
f 529//529 530//530 531//531
f 532//532 533//533 534//534
f 535//535 536//536 537//537
f 538//538 539//539 540//540
f 541//541 542//542 543//543
f 544//544 545//545 546//546
f 547//547 548//548 549//549
f 550//550 551//551 552//552
f 553//553 554//554 555//555
f 556//556 557//557 558//558
f 559//559 560//560 561//561
f 562//562 563//563 564//564
f 565//565 566//566 567//567
f 568//568 569//569 570//570
f 571//571 572//572 573//573
f 574//574 575//575 576//576
f 577//577 578//578 579//579
f 580//580 581//581 582//582
f 583//583 584//584 585//585
f 586//586 587//587 588//588
f 589//589 590//590 591//591
f 592//592 593//593 594//594
f 595//595 596//596 597//597
f 598//598 599//599 600//600
# 200 faces, 0 coords texture

# End of File