####
#
# OBJ File Generated by Meshlab
#
####
# Object aj1_Left_chull.obj
#
# Vertices: 600
# Faces: 200
#
####
vn 0.007806 0.006091 -0.999951
v -0.047251 -0.035115 0.178673
vn 0.007806 0.006091 -0.999951
v -0.051886 0.041588 0.179104
vn 0.007806 0.006091 -0.999951
v 0.024871 0.053872 0.179778
vn 0.886012 -0.200710 -0.417969
v -0.044434 -0.094544 0.281624
vn 0.886012 -0.200710 -0.417969
v -0.051176 -0.093750 0.266951
vn 0.886012 -0.200710 -0.417969
v -0.056064 -0.071596 0.245951
vn -0.633930 0.304096 -0.711097
v -0.044225 0.047042 0.203986
vn -0.633930 0.304096 -0.711097
v -0.049602 0.017238 0.196034
vn -0.633930 0.304096 -0.711097
v -0.059682 0.042345 0.215757
vn -0.141057 -0.185815 0.972407
v -0.004872 -0.112495 0.308480
vn -0.141057 -0.185815 0.972407
v 0.012222 -0.050825 0.322744
vn -0.141057 -0.185815 0.972407
v -0.039674 -0.049972 0.315379
vn 0.156066 0.983019 0.096530
v 0.045199 0.081406 0.187502
vn 0.156066 0.983019 0.096530
v 0.001345 0.086000 0.211620
vn 0.156066 0.983019 0.096530
v -0.025309 0.079970 0.316120
vn -0.529419 -0.848189 -0.017072
v 0.071090 0.056749 0.222023
vn -0.529419 -0.848189 -0.017072
v 0.057079 0.064254 0.283645
vn -0.529419 -0.848189 -0.017072
v 0.058839 0.064592 0.212274
vn -0.023339 0.053573 -0.998291
v 0.044918 -0.033673 0.189170
vn -0.023339 0.053573 -0.998291
v 0.071299 -0.035839 0.188437
vn -0.023339 0.053573 -0.998291
v 0.012271 -0.105401 0.186084
vn 0.071978 0.997396 0.004549
v -0.059628 -0.064541 0.214565
vn 0.071978 0.997396 0.004549
v -0.068519 -0.064119 0.262720
vn 0.071978 0.997396 0.004549
v -0.056589 -0.064844 0.232913
vn 0.552216 -0.459856 -0.695406
v -0.057737 0.061036 0.284063
vn 0.552216 -0.459856 -0.695406
v -0.022498 0.061036 0.312046
vn 0.552216 -0.459856 -0.695406
v -0.051019 0.050270 0.296517
vn -0.110835 0.993414 0.029054
v 0.001345 0.086000 0.211620
vn -0.110835 0.993414 0.029054
v -0.068957 0.078273 0.207635
vn -0.110835 0.993414 0.029054
v -0.025309 0.079970 0.316120
vn -0.799946 0.182976 0.571494
v -0.055701 -0.077775 0.301847
vn -0.799946 0.182976 0.571494
v -0.039674 -0.049972 0.315379
vn -0.799946 0.182976 0.571494
v -0.073188 -0.050825 0.268741
vn 0.823648 0.547645 0.147274
v -0.059628 -0.064541 0.214565
vn 0.823648 0.547645 0.147274
v -0.070001 -0.042183 0.189438
vn 0.823648 0.547645 0.147274
v -0.068519 -0.064119 0.262720
vn 0.042003 -0.999005 0.015012
v 0.025609 -0.112923 0.194711
vn 0.042003 -0.999005 0.015012
v 0.060934 -0.110436 0.261375
vn 0.042003 -0.999005 0.015012
v -0.004872 -0.112495 0.308480
vn -0.938363 0.343986 0.033878
v -0.068957 0.078273 0.207635
vn -0.938363 0.343986 0.033878
v -0.080795 0.043691 0.230877
vn -0.938363 0.343986 0.033878
v -0.066863 0.077557 0.272906
vn 0.625733 0.692911 0.358235
v -0.059628 -0.064541 0.214565
vn 0.625733 0.692911 0.358235
v -0.045956 -0.064541 0.190684
vn 0.625733 0.692911 0.358235
v -0.070001 -0.042183 0.189438
vn -0.039012 -0.092025 -0.994992
v -0.039791 0.039149 0.189131
vn -0.039012 -0.092025 -0.994992
v -0.070760 0.040871 0.190186
vn -0.039012 -0.092025 -0.994992
v -0.045415 0.076673 0.185881
vn 0.031031 -0.053403 0.998091
v -0.045956 0.064592 0.190684
vn 0.031031 -0.053403 0.998091
v -0.070760 0.040871 0.190186
vn 0.031031 -0.053403 0.998091
v -0.039791 0.039149 0.189131
vn -0.125422 -0.107938 -0.986214
v 0.027917 -0.069575 0.297337
vn -0.125422 -0.107938 -0.986214
v -0.000002 -0.095244 0.303697
vn -0.125422 -0.107938 -0.986214
v -0.031789 -0.059222 0.303797
vn -0.018870 -0.049352 -0.998603
v 0.071756 0.035963 0.189246
vn -0.018870 -0.049352 -0.998603
v 0.013039 0.057766 0.189278
vn -0.018870 -0.049352 -0.998603
v 0.045199 0.081406 0.187502
vn -0.021601 -0.999765 -0.002026
v -0.004872 -0.112495 0.308480
vn -0.021601 -0.999765 -0.002026
v -0.042999 -0.111471 0.209671
vn -0.021601 -0.999765 -0.002026
v 0.025609 -0.112923 0.194711
vn 0.639341 -0.676216 0.366026
v -0.070760 0.040871 0.190186
vn 0.639341 -0.676216 0.366026
v -0.045956 0.064592 0.190684
vn 0.639341 -0.676216 0.366026
v -0.059628 0.064592 0.214565
vn 0.907759 0.169694 0.383638
v 0.058839 -0.038811 0.212274
vn 0.907759 0.169694 0.383638
v 0.056398 -0.064541 0.229431
vn 0.907759 0.169694 0.383638
v 0.064590 -0.065221 0.210348
vn -0.115814 0.989629 -0.084981
v 0.069289 -0.059287 0.273047
vn -0.115814 0.989629 -0.084981
v 0.064590 -0.065221 0.210348
vn -0.115814 0.989629 -0.084981
v 0.056398 -0.064541 0.229431
vn -0.662714 -0.115442 0.739922
v 0.071090 0.056749 0.222023
vn -0.662714 -0.115442 0.739922
v 0.058839 0.064592 0.212274
vn -0.662714 -0.115442 0.739922
v 0.044178 0.065061 0.199216
vn 0.023342 -0.106434 -0.994046
v 0.013039 0.057766 0.189278
vn 0.023342 -0.106434 -0.994046
v -0.045415 0.076673 0.185881
vn 0.023342 -0.106434 -0.994046
v 0.045199 0.081406 0.187502
vn 0.819971 -0.549512 0.160263
v -0.066965 0.064592 0.252104
vn 0.819971 -0.549512 0.160263
v -0.070760 0.040871 0.190186
vn 0.819971 -0.549512 0.160263
v -0.059628 0.064592 0.214565
vn -0.752555 -0.001509 -0.658528
v -0.042976 -0.037007 0.193014
vn -0.752555 -0.001509 -0.658528
v -0.057006 -0.059588 0.209099
vn -0.752555 -0.001509 -0.658528
v -0.056932 -0.040198 0.208970
vn -0.953921 -0.220359 0.203659
v 0.049783 -0.092780 0.228827
vn -0.953921 -0.220359 0.203659
v 0.054724 -0.093648 0.251031
vn -0.953921 -0.220359 0.203659
v 0.051281 -0.067835 0.262834
vn 0.401547 0.879573 0.255168
v -0.070001 -0.042183 0.189438
vn 0.401547 0.879573 0.255168
v -0.079156 -0.049807 0.230125
vn 0.401547 0.879573 0.255168
v -0.068519 -0.064119 0.262720
vn 0.945980 -0.006441 0.324161
v 0.049602 -0.017187 0.196034
vn 0.945980 -0.006441 0.324161
v 0.055433 -0.017073 0.179020
vn 0.945980 -0.006441 0.324161
v 0.049884 0.016028 0.195871
vn 0.744354 0.604755 0.283212
v -0.068519 -0.064119 0.262720
vn 0.744354 0.604755 0.283212
v -0.056064 -0.071596 0.245951
vn 0.744354 0.604755 0.283212
v -0.056589 -0.064844 0.232913
vn -0.029000 0.963450 0.266312
v 0.071299 -0.035839 0.188437
vn -0.029000 0.963450 0.266312
v 0.069289 -0.059287 0.273047
vn -0.029000 0.963450 0.266312
v 0.083130 -0.037297 0.195000
vn -0.995532 -0.059747 -0.073115
v -0.047251 -0.035115 0.178673
vn -0.995532 -0.059747 -0.073115
v -0.049602 -0.017187 0.196034
vn -0.995532 -0.059747 -0.073115
v -0.051886 0.041588 0.179104
vn -0.509115 -0.136555 -0.849797
v 0.022501 0.061036 0.312046
vn -0.509115 -0.136555 -0.849797
v 0.051379 0.050613 0.296420
vn -0.509115 -0.136555 -0.849797
v 0.006641 0.052123 0.322980
vn -0.955105 0.175684 -0.238559
v 0.057079 0.064254 0.283645
vn -0.955105 0.175684 -0.238559
v 0.071090 0.056749 0.222023
vn -0.955105 0.175684 -0.238559
v 0.051379 0.050613 0.296420
vn 0.477476 -0.601203 0.640759
v 0.044530 -0.068581 0.312870
vn 0.477476 -0.601203 0.640759
v -0.004872 -0.112495 0.308480
vn 0.477476 -0.601203 0.640759
v 0.060934 -0.110436 0.261375
vn 0.847885 -0.245707 0.469808
v 0.060934 -0.110436 0.261375
vn 0.847885 -0.245707 0.469808
v 0.069289 -0.059287 0.273047
vn 0.847885 -0.245707 0.469808
v 0.044530 -0.068581 0.312870
vn 0.975020 -0.186719 0.120303
v 0.060934 -0.110436 0.261375
vn 0.975020 -0.186719 0.120303
v 0.083130 -0.037297 0.195000
vn 0.975020 -0.186719 0.120303
v 0.069289 -0.059287 0.273047
vn 0.915467 0.190065 -0.354678
v -0.066486 0.062219 0.262998
vn 0.915467 0.190065 -0.354678
v -0.051019 0.050270 0.296517
vn 0.915467 0.190065 -0.354678
v -0.071226 0.050904 0.244700
vn 0.505424 0.820377 0.267449
v -0.079156 -0.049807 0.230125
vn 0.505424 0.820377 0.267449
v -0.070001 -0.042183 0.189438
vn 0.505424 0.820377 0.267449
v -0.079658 -0.033479 0.180989
vn 0.012388 0.101786 0.994729
v -0.023981 -0.078761 0.197425
vn 0.012388 0.101786 0.994729
v 0.018808 -0.092481 0.198296
vn 0.012388 0.101786 0.994729
v 0.009333 -0.065557 0.195659
vn 0.703339 0.309823 -0.639784
v 0.045267 0.029034 0.190172
vn 0.703339 0.309823 -0.639784
v 0.055433 -0.017073 0.179020
vn 0.703339 0.309823 -0.639784
v 0.024871 0.053872 0.179778
vn -0.809264 -0.185586 -0.557359
v 0.044558 -0.095244 0.281722
vn -0.809264 -0.185586 -0.557359
v 0.027917 -0.069575 0.297337
vn -0.809264 -0.185586 -0.557359
v 0.051281 -0.067835 0.262834
vn 0.071842 0.792341 -0.605833
v -0.031789 -0.059222 0.303797
vn 0.071842 0.792341 -0.605833
v 0.025790 -0.058137 0.312044
vn 0.071842 0.792341 -0.605833
v 0.027917 -0.069575 0.297337
vn -0.232487 -0.969332 0.079663
v -0.066077 -0.102380 0.252939
vn -0.232487 -0.969332 0.079663
v -0.042999 -0.111471 0.209671
vn -0.232487 -0.969332 0.079663
v -0.004872 -0.112495 0.308480
vn -0.970904 0.000739 0.239469
v -0.059628 -0.064541 0.214565
vn -0.970904 0.000739 0.239469
v -0.054556 -0.061657 0.235120
vn -0.970904 0.000739 0.239469
v -0.059620 -0.041063 0.214525
vn -0.661108 0.434842 0.611432
v -0.025309 0.079970 0.316120
vn -0.661108 0.434842 0.611432
v -0.066863 0.077557 0.272906
vn -0.661108 0.434842 0.611432
v -0.055059 0.051457 0.304231
vn -0.979004 -0.141388 0.146836
v 0.049783 -0.092780 0.228827
vn -0.979004 -0.141388 0.146836
v 0.051281 -0.067835 0.262834
vn -0.979004 -0.141388 0.146836
v 0.045488 -0.079227 0.213241
vn -0.991022 0.000000 0.133697
v -0.051886 0.041588 0.179104
vn -0.991022 0.000000 0.133697
v -0.049602 -0.017187 0.196034
vn -0.991022 0.000000 0.133697
v -0.049602 0.017238 0.196034
vn 0.000000 -0.775102 -0.631836
v -0.022498 0.061036 0.312046
vn 0.000000 -0.775102 -0.631836
v 0.022501 0.061036 0.312046
vn 0.000000 -0.775102 -0.631836
v 0.006641 0.052123 0.322980
vn 0.988020 -0.133197 -0.077940
v 0.079422 0.051596 0.259709
vn 0.988020 -0.133197 -0.077940
v 0.071756 0.035963 0.189246
vn 0.988020 -0.133197 -0.077940
v 0.075240 0.057014 0.197436
vn 0.611080 0.002934 -0.791564
v 0.044178 0.065061 0.199216
vn 0.611080 0.002934 -0.791564
v 0.057006 0.059639 0.209099
vn 0.611080 0.002934 -0.791564
v 0.056932 0.040248 0.208970
vn -0.925139 -0.221995 0.307954
v -0.055701 -0.077775 0.301847
vn -0.925139 -0.221995 0.307954
v -0.073188 -0.050825 0.268741
vn -0.925139 -0.221995 0.307954
v -0.066077 -0.102380 0.252939
vn 0.815573 0.578637 -0.004427
v 0.075240 0.057014 0.197436
vn 0.815573 0.578637 -0.004427
v 0.061008 0.077809 0.293557
vn 0.815573 0.578637 -0.004427
v 0.079422 0.051596 0.259709
vn 0.616409 -0.626936 -0.476436
v -0.068519 -0.064119 0.262720
vn 0.616409 -0.626936 -0.476436
v -0.079156 -0.049807 0.230125
vn 0.616409 -0.626936 -0.476436
v -0.031789 -0.059222 0.303797
vn -0.438604 0.898425 0.021408
v 0.069289 -0.059287 0.273047
vn -0.438604 0.898425 0.021408
v 0.056398 -0.064541 0.229431
vn -0.438604 0.898425 0.021408
v 0.051281 -0.067835 0.262834
vn 0.739789 -0.561264 -0.371072
v 0.083130 -0.037297 0.195000
vn 0.739789 -0.561264 -0.371072
v 0.060934 -0.110436 0.261375
vn 0.739789 -0.561264 -0.371072
v 0.025609 -0.112923 0.194711
vn -0.045530 0.962845 -0.266190
v -0.045415 0.076673 0.185881
vn -0.045530 0.962845 -0.266190
v 0.001345 0.086000 0.211620
vn -0.045530 0.962845 -0.266190
v 0.045199 0.081406 0.187502
vn -0.965326 -0.170904 -0.197328
v -0.044225 0.047042 0.203986
vn -0.965326 -0.170904 -0.197328
v -0.044037 0.062640 0.189557
vn -0.965326 -0.170904 -0.197328
v -0.039791 0.039149 0.189131
vn 0.187676 0.254804 0.948606
v -0.028543 -0.102913 0.204815
vn 0.187676 0.254804 0.948606
v -0.023981 -0.078761 0.197425
vn 0.187676 0.254804 0.948606
v -0.035705 -0.095244 0.204172
vn -0.804469 -0.497486 -0.324556
v -0.042999 -0.111471 0.209671
vn -0.804469 -0.497486 -0.324556
v -0.066077 -0.102380 0.252939
vn -0.804469 -0.497486 -0.324556
v -0.079658 -0.033479 0.180989
vn -0.940785 -0.294609 0.167715
v 0.071090 0.056749 0.222023
vn -0.940785 -0.294609 0.167715
v 0.071756 0.035963 0.189246
vn -0.940785 -0.294609 0.167715
v 0.079422 0.051596 0.259709
vn -0.890995 0.366503 0.267962
v 0.050341 -0.064862 0.209730
vn -0.890995 0.366503 0.267962
v 0.045488 -0.079227 0.213241
vn -0.890995 0.366503 0.267962
v 0.056398 -0.064541 0.229431
vn -0.311982 0.323718 0.893238
v 0.009333 -0.065557 0.195659
vn -0.311982 0.323718 0.893238
v 0.045488 -0.079227 0.213241
vn -0.311982 0.323718 0.893238
v 0.050341 -0.064862 0.209730
vn 0.853588 -0.026728 -0.520262
v 0.058839 -0.038811 0.212274
vn 0.853588 -0.026728 -0.520262
v 0.044918 -0.033673 0.189170
vn 0.853588 -0.026728 -0.520262
v 0.050700 -0.024340 0.198177
vn 0.341125 0.303490 -0.889678
v -0.000002 -0.095244 0.303697
vn 0.341125 0.303490 -0.889678
v -0.032009 -0.093751 0.291934
vn 0.341125 0.303490 -0.889678
v -0.031789 -0.059222 0.303797
vn -0.078857 0.996144 0.038448
v -0.079156 -0.049807 0.230125
vn -0.078857 0.996144 0.038448
v -0.073188 -0.050825 0.268741
vn -0.078857 0.996144 0.038448
v -0.039674 -0.049972 0.315379
vn 0.321335 -0.233641 0.917691
v -0.023981 -0.078761 0.197425
vn 0.321335 -0.233641 0.917691
v -0.009337 -0.065557 0.195659
vn 0.321335 -0.233641 0.917691
v -0.050116 -0.065557 0.209938
vn -0.771178 0.634187 -0.055597
v 0.056398 -0.064541 0.229431
vn -0.771178 0.634187 -0.055597
v 0.045488 -0.079227 0.213241
vn -0.771178 0.634187 -0.055597
v 0.051281 -0.067835 0.262834
vn -0.288445 -0.096264 0.952645
v -0.025309 0.079970 0.316120
vn -0.288445 -0.096264 0.952645
v -0.055059 0.051457 0.304231
vn -0.288445 -0.096264 0.952645
v 0.006641 0.052123 0.322980
vn 0.401022 0.220220 -0.889204
v -0.022498 0.061036 0.312046
vn 0.401022 0.220220 -0.889204
v 0.006641 0.052123 0.322980
vn 0.401022 0.220220 -0.889204
v -0.051019 0.050270 0.296517
vn 0.032599 0.999047 0.029025
v 0.045199 0.081406 0.187502
vn 0.032599 0.999047 0.029025
v -0.025309 0.079970 0.316120
vn 0.032599 0.999047 0.029025
v 0.061008 0.077809 0.293557
vn 0.924907 -0.101027 -0.366525
v -0.044434 -0.094544 0.281624
vn 0.924907 -0.101027 -0.366525
v -0.056064 -0.071596 0.245951
vn 0.924907 -0.101027 -0.366525
v -0.031789 -0.059222 0.303797
vn 0.187864 0.941377 -0.280209
v -0.068519 -0.064119 0.262720
vn 0.187864 0.941377 -0.280209
v -0.031789 -0.059222 0.303797
vn 0.187864 0.941377 -0.280209
v -0.056064 -0.071596 0.245951
vn 0.753086 0.224521 0.618427
v -0.016623 -0.094616 0.194221
vn 0.753086 0.224521 0.618427
v -0.023981 -0.078761 0.197425
vn 0.753086 0.224521 0.618427
v -0.017874 -0.100895 0.198024
vn -0.020700 -0.054281 -0.998311
v 0.071756 0.035963 0.189246
vn -0.020700 -0.054281 -0.998311
v 0.045267 0.029034 0.190172
vn -0.020700 -0.054281 -0.998311
v 0.013039 0.057766 0.189278
vn 0.026210 0.033324 0.999101
v 0.041949 0.061955 0.189161
vn 0.026210 0.033324 0.999101
v 0.045267 0.029034 0.190172
vn 0.026210 0.033324 0.999101
v 0.071756 0.035963 0.189246
vn -0.256502 0.914433 -0.313080
v 0.025790 -0.058137 0.312044
vn -0.256502 0.914433 -0.313080
v 0.069289 -0.059287 0.273047
vn -0.256502 0.914433 -0.313080
v 0.051281 -0.067835 0.262834
vn -0.739388 0.475454 -0.476706
v 0.025790 -0.058137 0.312044
vn -0.739388 0.475454 -0.476706
v 0.051281 -0.067835 0.262834
vn -0.739388 0.475454 -0.476706
v 0.027917 -0.069575 0.297337
vn -0.942423 -0.026070 0.333406
v -0.066863 0.077557 0.272906
vn -0.942423 -0.026070 0.333406
v -0.080795 0.043691 0.230877
vn -0.942423 -0.026070 0.333406
v -0.055059 0.051457 0.304231
vn 0.428069 -0.888160 0.167120
v -0.080795 0.043691 0.230877
vn 0.428069 -0.888160 0.167120
v -0.070760 0.040871 0.190186
vn 0.428069 -0.888160 0.167120
v -0.071226 0.050904 0.244700
vn -0.719164 -0.290584 -0.631161
v 0.042335 0.063389 0.300843
vn -0.719164 -0.290584 -0.631161
v 0.057079 0.064254 0.283645
vn -0.719164 -0.290584 -0.631161
v 0.051379 0.050613 0.296420
vn 0.917090 0.140793 -0.372992
v -0.057737 0.061036 0.284063
vn 0.917090 0.140793 -0.372992
v -0.051019 0.050270 0.296517
vn 0.917090 0.140793 -0.372992
v -0.066486 0.062219 0.262998
vn -0.675158 -0.114677 -0.728705
v -0.042976 -0.037007 0.193014
vn -0.675158 -0.114677 -0.728705
v -0.050700 -0.024340 0.198177
vn -0.675158 -0.114677 -0.728705
v -0.049602 -0.017187 0.196034
vn -0.100108 -0.156200 0.982639
v -0.041949 -0.061904 0.189161
vn -0.100108 -0.156200 0.982639
v -0.042976 -0.037007 0.193014
vn -0.100108 -0.156200 0.982639
v -0.070001 -0.042183 0.189438
vn 0.095792 0.176637 -0.979604
v 0.012271 -0.105401 0.186084
vn 0.095792 0.176637 -0.979604
v -0.070001 -0.042183 0.189438
vn 0.095792 0.176637 -0.979604
v -0.042976 -0.037007 0.193014
vn -0.701742 -0.255773 -0.664934
v -0.042976 -0.037007 0.193014
vn -0.701742 -0.255773 -0.664934
v -0.056932 -0.040198 0.208970
vn -0.701742 -0.255773 -0.664934
v -0.049461 -0.027058 0.196031
vn -0.955556 0.161214 -0.246827
v -0.080795 0.043691 0.230877
vn -0.955556 0.161214 -0.246827
v -0.068957 0.078273 0.207635
vn -0.955556 0.161214 -0.246827
v -0.070760 0.040871 0.190186
vn -0.071684 0.997340 0.013240
v -0.068957 0.078273 0.207635
vn -0.071684 0.997340 0.013240
v -0.066863 0.077557 0.272906
vn -0.071684 0.997340 0.013240
v -0.025309 0.079970 0.316120
vn -0.030723 -0.990194 0.136277
v -0.051019 0.050270 0.296517
vn -0.030723 -0.990194 0.136277
v 0.006641 0.052123 0.322980
vn -0.030723 -0.990194 0.136277
v -0.055059 0.051457 0.304231
vn 0.047710 -0.344095 -0.937722
v 0.044178 0.065061 0.199216
vn 0.047710 -0.344095 -0.937722
v 0.056932 0.040248 0.208970
vn 0.047710 -0.344095 -0.937722
v 0.044958 0.039656 0.208578
vn -0.958404 -0.273640 -0.081139
v -0.066077 -0.102380 0.252939
vn -0.958404 -0.273640 -0.081139
v -0.079156 -0.049807 0.230125
vn -0.958404 -0.273640 -0.081139
v -0.079658 -0.033479 0.180989
vn -0.833051 0.135547 -0.536333
v -0.042976 -0.037007 0.193014
vn -0.833051 0.135547 -0.536333
v -0.045956 -0.064541 0.190684
vn -0.833051 0.135547 -0.536333
v -0.057006 -0.059588 0.209099
vn 0.138851 -0.020601 -0.990099
v 0.044918 -0.033673 0.189170
vn 0.138851 -0.020601 -0.990099
v 0.012271 -0.105401 0.186084
vn 0.138851 -0.020601 -0.990099
v -0.003539 -0.060328 0.182929
vn -0.877759 0.454055 0.152882
v -0.059628 -0.064541 0.214565
vn -0.877759 0.454055 0.152882
v -0.056589 -0.064844 0.232913
vn -0.877759 0.454055 0.152882
v -0.054556 -0.061657 0.235120
vn -0.567223 0.161224 -0.807629
v 0.028539 -0.102913 0.290245
vn -0.567223 0.161224 -0.807629
v 0.014166 -0.094861 0.301947
vn -0.567223 0.161224 -0.807629
v 0.027917 -0.069575 0.297337
vn -0.787772 -0.419538 -0.451004
v -0.045956 0.064592 0.190684
vn -0.787772 -0.419538 -0.451004
v -0.044225 0.047042 0.203986
vn -0.787772 -0.419538 -0.451004
v -0.059628 0.064592 0.214565
vn -0.110265 -0.987721 -0.110678
v 0.051379 0.050613 0.296420
vn -0.110265 -0.987721 -0.110678
v 0.071090 0.056749 0.222023
vn -0.110265 -0.987721 -0.110678
v 0.079422 0.051596 0.259709
vn -0.303539 -0.269793 0.913825
v -0.055701 -0.077775 0.301847
vn -0.303539 -0.269793 0.913825
v -0.004872 -0.112495 0.308480
vn -0.303539 -0.269793 0.913825
v -0.039674 -0.049972 0.315379
vn 0.757362 -0.621644 -0.199904
v -0.071226 0.050904 0.244700
vn 0.757362 -0.621644 -0.199904
v -0.055059 0.051457 0.304231
vn 0.757362 -0.621644 -0.199904
v -0.080795 0.043691 0.230877
vn -0.178574 -0.982238 0.057620
v -0.071226 0.050904 0.244700
vn -0.178574 -0.982238 0.057620
v -0.051019 0.050270 0.296517
vn -0.178574 -0.982238 0.057620
v -0.055059 0.051457 0.304231
vn -0.621117 0.355732 -0.698332
v -0.068957 0.078273 0.207635
vn -0.621117 0.355732 -0.698332
v -0.045415 0.076673 0.185881
vn -0.621117 0.355732 -0.698332
v -0.070760 0.040871 0.190186
vn 0.554403 0.792150 -0.255217
v -0.031789 -0.059222 0.303797
vn 0.554403 0.792150 -0.255217
v -0.079156 -0.049807 0.230125
vn 0.554403 0.792150 -0.255217
v -0.039674 -0.049972 0.315379
vn 0.878185 -0.373777 0.298465
v 0.055433 -0.017073 0.179020
vn 0.878185 -0.373777 0.298465
v 0.049602 -0.017187 0.196034
vn 0.878185 -0.373777 0.298465
v 0.044918 -0.033673 0.189170
vn -0.956893 0.099868 0.272730
v -0.051886 0.041588 0.179104
vn -0.956893 0.099868 0.272730
v -0.049602 0.017238 0.196034
vn -0.956893 0.099868 0.272730
v -0.044225 0.047042 0.203986
vn 0.479716 0.248047 -0.841632
v 0.045199 0.081406 0.187502
vn 0.479716 0.248047 -0.841632
v 0.075240 0.057014 0.197436
vn 0.479716 0.248047 -0.841632
v 0.071756 0.035963 0.189246
vn -0.261053 -0.777864 0.571645
v 0.015099 -0.094860 0.193365
vn -0.261053 -0.777864 0.571645
v 0.018808 -0.092481 0.198296
vn -0.261053 -0.777864 0.571645
v -0.023981 -0.078761 0.197425
vn -0.132656 -0.839517 -0.526890
v -0.042999 -0.111471 0.209671
vn -0.132656 -0.839517 -0.526890
v 0.012271 -0.105401 0.186084
vn -0.132656 -0.839517 -0.526890
v 0.025609 -0.112923 0.194711
vn -0.307555 -0.452410 -0.837100
v -0.042999 -0.111471 0.209671
vn -0.307555 -0.452410 -0.837100
v -0.079658 -0.033479 0.180989
vn -0.307555 -0.452410 -0.837100
v 0.012271 -0.105401 0.186084
vn 0.980293 0.031413 -0.195035
v -0.051176 -0.093750 0.266951
vn 0.980293 0.031413 -0.195035
v -0.054714 -0.093751 0.249168
vn 0.980293 0.031413 -0.195035
v -0.056064 -0.071596 0.245951
vn -0.824314 0.294679 0.483396
v 0.044492 -0.091918 0.219279
vn -0.824314 0.294679 0.483396
v 0.049783 -0.092780 0.228827
vn -0.824314 0.294679 0.483396
v 0.045488 -0.079227 0.213241
vn -0.965399 0.256302 0.048095
v 0.064590 -0.065221 0.210348
vn -0.965399 0.256302 0.048095
v 0.069289 -0.059287 0.273047
vn -0.965399 0.256302 0.048095
v 0.071299 -0.035839 0.188437
vn 0.948681 0.254555 -0.187632
v 0.049884 0.016028 0.195871
vn 0.948681 0.254555 -0.187632
v 0.055433 -0.017073 0.179020
vn 0.948681 0.254555 -0.187632
v 0.045267 0.029034 0.190172
vn -0.131391 0.849074 -0.511674
v 0.013039 0.057766 0.189278
vn -0.131391 0.849074 -0.511674
v 0.024871 0.053872 0.179778
vn -0.131391 0.849074 -0.511674
v -0.051886 0.041588 0.179104
vn 0.031512 -0.081557 -0.996170
v 0.013039 0.057766 0.189278
vn 0.031512 -0.081557 -0.996170
v -0.039791 0.039149 0.189131
vn 0.031512 -0.081557 -0.996170
v -0.045415 0.076673 0.185881
vn 0.124654 0.208676 -0.970008
v 0.028539 -0.102913 0.290245
vn 0.124654 0.208676 -0.970008
v 0.027917 -0.069575 0.297337
vn 0.124654 0.208676 -0.970008
v 0.034005 -0.094599 0.292736
vn 0.147751 -0.261567 0.953809
v -0.004872 -0.112495 0.308480
vn 0.147751 -0.261567 0.953809
v 0.044530 -0.068581 0.312870
vn 0.147751 -0.261567 0.953809
v 0.012222 -0.050825 0.322744
vn 0.779053 -0.213785 0.589383
v 0.051379 0.050613 0.296420
vn 0.779053 -0.213785 0.589383
v 0.079422 0.051596 0.259709
vn 0.779053 -0.213785 0.589383
v 0.061008 0.077809 0.293557
vn 0.976139 -0.087603 -0.198692
v -0.067608 0.063389 0.256970
vn 0.976139 -0.087603 -0.198692
v -0.066486 0.062219 0.262998
vn 0.976139 -0.087603 -0.198692
v -0.071226 0.050904 0.244700
vn 0.522862 0.822388 0.224263
v -0.023981 -0.078761 0.197425
vn 0.522862 0.822388 0.224263
v -0.050116 -0.065557 0.209938
vn 0.522862 0.822388 0.224263
v -0.056064 -0.071596 0.245951
vn 0.841081 0.493409 0.221655
v -0.056064 -0.071596 0.245951
vn 0.841081 0.493409 0.221655
v -0.050116 -0.065557 0.209938
vn 0.841081 0.493409 0.221655
v -0.056589 -0.064844 0.232913
vn 0.000384 0.706754 0.707460
v 0.058839 -0.038811 0.212274
vn 0.000384 0.706754 0.707460
v 0.044304 -0.046708 0.220171
vn 0.000384 0.706754 0.707460
v 0.053736 -0.065628 0.239067
vn 0.773343 0.299305 0.558889
v 0.058839 -0.038811 0.212274
vn 0.773343 0.299305 0.558889
v 0.052038 -0.064541 0.235464
vn 0.773343 0.299305 0.558889
v 0.056398 -0.064541 0.229431
vn 0.486074 0.873704 0.019301
v 0.025790 -0.058137 0.312044
vn 0.486074 0.873704 0.019301
v 0.012222 -0.050825 0.322744
vn 0.486074 0.873704 0.019301
v 0.044530 -0.068581 0.312870
vn 0.420657 0.790065 0.445921
v 0.069289 -0.059287 0.273047
vn 0.420657 0.790065 0.445921
v 0.025790 -0.058137 0.312044
vn 0.420657 0.790065 0.445921
v 0.044530 -0.068581 0.312870
vn 0.025121 -0.123895 -0.991977
v -0.047251 -0.035115 0.178673
vn 0.025121 -0.123895 -0.991977
v 0.055433 -0.017073 0.179020
vn 0.025121 -0.123895 -0.991977
v -0.003539 -0.060328 0.182929
vn -0.912657 -0.339734 0.227239
v -0.049602 -0.017187 0.196034
vn -0.912657 -0.339734 0.227239
v -0.047251 -0.035115 0.178673
vn -0.912657 -0.339734 0.227239
v -0.042976 -0.037007 0.193014
vn -0.501924 -0.864178 0.035611
v -0.042976 -0.037007 0.193014
vn -0.501924 -0.864178 0.035611
v -0.047251 -0.035115 0.178673
vn -0.501924 -0.864178 0.035611
v -0.003539 -0.060328 0.182929
vn -0.864432 -0.088541 -0.494892
v -0.059628 -0.064541 0.214565
vn -0.864432 -0.088541 -0.494892
v -0.057006 -0.059588 0.209099
vn -0.864432 -0.088541 -0.494892
v -0.045956 -0.064541 0.190684
vn 0.642628 0.762982 -0.069915
v 0.045199 0.081406 0.187502
vn 0.642628 0.762982 -0.069915
v 0.061008 0.077809 0.293557
vn 0.642628 0.762982 -0.069915
v 0.075240 0.057014 0.197436
vn 0.233473 0.476656 0.847520
v 0.061008 0.077809 0.293557
vn 0.233473 0.476656 0.847520
v -0.025309 0.079970 0.316120
vn 0.233473 0.476656 0.847520
v 0.006641 0.052123 0.322980
vn -0.000037 0.707119 0.707094
v -0.044304 -0.046708 0.220171
vn -0.000037 0.707119 0.707094
v -0.059620 -0.041063 0.214525
vn -0.000037 0.707119 0.707094
v -0.054556 -0.061657 0.235120
vn 0.794635 0.170300 -0.582712
v 0.045267 0.029034 0.190172
vn 0.794635 0.170300 -0.582712
v 0.044178 0.065061 0.199216
vn 0.794635 0.170300 -0.582712
v 0.047599 0.027162 0.192805
vn -0.344936 -0.185398 -0.920134
v 0.012271 -0.105401 0.186084
vn -0.344936 -0.185398 -0.920134
v -0.042976 -0.037007 0.193014
vn -0.344936 -0.185398 -0.920134
v -0.003539 -0.060328 0.182929
vn 0.585730 0.671139 0.454415
v 0.024871 0.053872 0.179778
vn 0.585730 0.671139 0.454415
v 0.013039 0.057766 0.189278
vn 0.585730 0.671139 0.454415
v 0.045267 0.029034 0.190172
vn 0.941371 -0.330276 0.068833
v -0.066965 0.064592 0.252104
vn 0.941371 -0.330276 0.068833
v -0.071226 0.050904 0.244700
vn 0.941371 -0.330276 0.068833
v -0.070760 0.040871 0.190186
vn -0.597329 -0.041464 -0.800924
v -0.044225 0.047042 0.203986
vn -0.597329 -0.041464 -0.800924
v -0.059682 0.042345 0.215757
vn -0.597329 -0.041464 -0.800924
v -0.059628 0.064592 0.214565
vn -0.282267 0.796779 0.534293
v -0.051886 0.041588 0.179104
vn -0.282267 0.796779 0.534293
v -0.039791 0.039149 0.189131
vn -0.282267 0.796779 0.534293
v 0.013039 0.057766 0.189278
vn -0.118700 -0.115251 -0.986219
v 0.014166 -0.094861 0.301947
vn -0.118700 -0.115251 -0.986219
v -0.000002 -0.095244 0.303697
vn -0.118700 -0.115251 -0.986219
v 0.027917 -0.069575 0.297337
vn -0.474688 -0.036079 0.879415
v 0.018808 -0.092481 0.198296
vn -0.474688 -0.036079 0.879415
v 0.030961 -0.091918 0.204879
vn -0.474688 -0.036079 0.879415
v 0.045488 -0.079227 0.213241
vn -0.458818 -0.074750 0.885380
v 0.018808 -0.092481 0.198296
vn -0.458818 -0.074750 0.885380
v 0.045488 -0.079227 0.213241
vn -0.458818 -0.074750 0.885380
v 0.009333 -0.065557 0.195659
vn 0.608243 0.785519 0.114020
v -0.079658 -0.033479 0.180989
vn 0.608243 0.785519 0.114020
v -0.070001 -0.042183 0.189438
vn 0.608243 0.785519 0.114020
v 0.012271 -0.105401 0.186084
vn 0.507668 0.162966 0.845999
v -0.028543 -0.102913 0.204815
vn 0.507668 0.162966 0.845999
v -0.017874 -0.100895 0.198024
vn 0.507668 0.162966 0.845999
v -0.023981 -0.078761 0.197425
vn -0.973032 -0.178858 0.145664
v -0.066077 -0.102380 0.252939
vn -0.973032 -0.178858 0.145664
v -0.073188 -0.050825 0.268741
vn -0.973032 -0.178858 0.145664
v -0.079156 -0.049807 0.230125
vn 0.095688 0.808544 -0.580603
v -0.031789 -0.059222 0.303797
vn 0.095688 0.808544 -0.580603
v -0.039674 -0.049972 0.315379
vn 0.095688 0.808544 -0.580603
v 0.012222 -0.050825 0.322744
vn 0.057297 0.856632 -0.512737
v 0.025790 -0.058137 0.312044
vn 0.057297 0.856632 -0.512737
v -0.031789 -0.059222 0.303797
vn 0.057297 0.856632 -0.512737
v 0.012222 -0.050825 0.322744
vn -0.312807 -0.397755 0.862521
v -0.054556 -0.061657 0.235120
vn -0.312807 -0.397755 0.862521
v -0.056589 -0.064844 0.232913
vn -0.312807 -0.397755 0.862521
v -0.050955 -0.064541 0.235096
vn 0.401615 0.495048 0.770476
v -0.050955 -0.064541 0.235096
vn 0.401615 0.495048 0.770476
v -0.044304 -0.046708 0.220171
vn 0.401615 0.495048 0.770476
v -0.054556 -0.061657 0.235120
vn -0.722620 -0.049029 -0.689504
v 0.027917 -0.069575 0.297337
vn -0.722620 -0.049029 -0.689504
v 0.044558 -0.095244 0.281722
vn -0.722620 -0.049029 -0.689504
v 0.034005 -0.094599 0.292736
vn 0.001396 0.011285 -0.999935
v 0.055433 -0.017073 0.179020
vn 0.001396 0.011285 -0.999935
v -0.047251 -0.035115 0.178673
vn 0.001396 0.011285 -0.999935
v 0.024871 0.053872 0.179778
vn 0.852957 -0.025268 -0.521369
v 0.044918 -0.033673 0.189170
vn 0.852957 -0.025268 -0.521369
v 0.049602 -0.017187 0.196034
vn 0.852957 -0.025268 -0.521369
v 0.050700 -0.024340 0.198177
vn -0.017046 -0.996640 -0.080115
v -0.014170 -0.094861 0.301947
vn -0.017046 -0.996640 -0.080115
v -0.032009 -0.093751 0.291934
vn -0.017046 -0.996640 -0.080115
v -0.000002 -0.095244 0.303697
vn 0.000000 0.132567 0.991174
v -0.023981 -0.078761 0.197425
vn 0.000000 0.132567 0.991174
v 0.009333 -0.065557 0.195659
vn 0.000000 0.132567 0.991174
v -0.009337 -0.065557 0.195659
vn 0.636484 -0.602378 -0.481693
v 0.058839 -0.038811 0.212274
vn 0.636484 -0.602378 -0.481693
v 0.053736 -0.065628 0.239067
vn 0.636484 -0.602378 -0.481693
v 0.052038 -0.064541 0.235464
vn 0.711613 -0.054257 0.700473
v 0.044178 0.065061 0.199216
vn 0.711613 -0.054257 0.700473
v 0.044958 0.026723 0.195454
vn 0.711613 -0.054257 0.700473
v 0.047599 0.027162 0.192805
vn 0.999500 0.022512 -0.022184
v 0.044958 0.026723 0.195454
vn 0.999500 0.022512 -0.022184
v 0.044178 0.065061 0.199216
vn 0.999500 0.022512 -0.022184
v 0.044958 0.039656 0.208578
vn -0.487462 -0.043160 -0.872077
v 0.022501 0.061036 0.312046
vn -0.487462 -0.043160 -0.872077
v 0.042335 0.063389 0.300843
vn -0.487462 -0.043160 -0.872077
v 0.051379 0.050613 0.296420
vn 0.439282 -0.654507 -0.615347
v -0.003539 -0.060328 0.182929
vn 0.439282 -0.654507 -0.615347
v 0.055433 -0.017073 0.179020
vn 0.439282 -0.654507 -0.615347
v 0.044918 -0.033673 0.189170
vn 0.433874 0.842861 -0.318337
v -0.051886 0.041588 0.179104
vn 0.433874 0.842861 -0.318337
v -0.044225 0.047042 0.203986
vn 0.433874 0.842861 -0.318337
v -0.039791 0.039149 0.189131
vn 0.768167 -0.319200 0.555005
v -0.035705 -0.095244 0.204172
vn 0.768167 -0.319200 0.555005
v -0.023981 -0.078761 0.197425
vn 0.768167 -0.319200 0.555005
v -0.056064 -0.071596 0.245951
vn 0.738307 -0.409499 -0.535923
v 0.058839 -0.038811 0.212274
vn 0.738307 -0.409499 -0.535923
v 0.043668 -0.052558 0.201878
vn 0.738307 -0.409499 -0.535923
v 0.044918 -0.033673 0.189170
vn 0.453233 0.162611 -0.876435
v 0.058839 -0.038811 0.212274
vn 0.453233 0.162611 -0.876435
v 0.064590 -0.065221 0.210348
vn 0.453233 0.162611 -0.876435
v 0.043668 -0.052558 0.201878
vn -0.319462 0.550587 -0.771232
v 0.028539 -0.102913 0.290245
vn -0.319462 0.550587 -0.771232
v 0.010020 -0.102913 0.297916
vn -0.319462 0.550587 -0.771232
v 0.014166 -0.094861 0.301947
vn 0.607865 0.254536 -0.752138
v -0.032009 -0.093751 0.291934
vn 0.607865 0.254536 -0.752138
v -0.044434 -0.094544 0.281624
vn 0.607865 0.254536 -0.752138
v -0.031789 -0.059222 0.303797
vn -0.851673 -0.139262 -0.505232
v 0.051795 -0.094861 0.269417
vn -0.851673 -0.139262 -0.505232
v 0.044558 -0.095244 0.281722
vn -0.851673 -0.139262 -0.505232
v 0.051281 -0.067835 0.262834
vn -0.985290 -0.057902 -0.160783
v 0.051281 -0.067835 0.262834
vn -0.985290 -0.057902 -0.160783
v 0.054724 -0.093648 0.251031
vn -0.985290 -0.057902 -0.160783
v 0.051795 -0.094861 0.269417
vn 0.966111 0.089941 -0.241951
v 0.041949 0.061955 0.189161
vn 0.966111 0.089941 -0.241951
v 0.044178 0.065061 0.199216
vn 0.966111 0.089941 -0.241951
v 0.045267 0.029034 0.190172
vn 0.006243 0.955044 -0.296399
v -0.044037 0.062640 0.189557
vn 0.006243 0.955044 -0.296399
v 0.044178 0.065061 0.199216
vn 0.006243 0.955044 -0.296399
v 0.041949 0.061955 0.189161
vn -0.004674 -0.008630 -0.999952
v 0.071756 0.035963 0.189246
vn -0.004674 -0.008630 -0.999952
v -0.044037 0.062640 0.189557
vn -0.004674 -0.008630 -0.999952
v 0.041949 0.061955 0.189161
vn 0.024718 -0.774892 0.631610
v -0.045956 -0.064541 0.190684
vn 0.024718 -0.774892 0.631610
v 0.044037 -0.062589 0.189557
vn 0.024718 -0.774892 0.631610
v 0.043668 -0.052558 0.201878
vn 0.998096 -0.029686 0.054061
v 0.044918 -0.033673 0.189170
vn 0.998096 -0.029686 0.054061
v 0.043668 -0.052558 0.201878
vn 0.998096 -0.029686 0.054061
v 0.044037 -0.062589 0.189557
vn 0.004233 -0.046138 -0.998926
v 0.071299 -0.035839 0.188437
vn 0.004233 -0.046138 -0.998926
v 0.044037 -0.062589 0.189557
vn 0.004233 -0.046138 -0.998926
v -0.041949 -0.061904 0.189161
vn 0.028798 0.012500 0.999507
v 0.071299 -0.035839 0.188437
vn 0.028798 0.012500 0.999507
v 0.044918 -0.033673 0.189170
vn 0.028798 0.012500 0.999507
v 0.044037 -0.062589 0.189557
vn 0.652331 0.222948 -0.724403
v 0.058839 0.064592 0.212274
vn 0.652331 0.222948 -0.724403
v 0.057006 0.059639 0.209099
vn 0.652331 0.222948 -0.724403
v 0.044178 0.065061 0.199216
vn 0.025064 -0.186826 0.982073
v -0.016623 -0.094616 0.194221
vn 0.025064 -0.186826 0.982073
v 0.015099 -0.094860 0.193365
vn 0.025064 -0.186826 0.982073
v -0.023981 -0.078761 0.197425
vn -0.097564 0.979253 -0.177606
v -0.045415 0.076673 0.185881
vn -0.097564 0.979253 -0.177606
v -0.068957 0.078273 0.207635
vn -0.097564 0.979253 -0.177606
v 0.001345 0.086000 0.211620
vn -0.007251 0.003731 -0.999967
v -0.070001 -0.042183 0.189438
vn -0.007251 0.003731 -0.999967
v 0.071299 -0.035839 0.188437
vn -0.007251 0.003731 -0.999967
v -0.041949 -0.061904 0.189161
vn 0.000004 -0.500135 -0.865947
v -0.045956 -0.064541 0.190684
vn 0.000004 -0.500135 -0.865947
v -0.041949 -0.061904 0.189161
vn 0.000004 -0.500135 -0.865947
v 0.044037 -0.062589 0.189557
vn -0.421608 0.121670 -0.898578
v -0.041949 -0.061904 0.189161
vn -0.421608 0.121670 -0.898578
v -0.045956 -0.064541 0.190684
vn -0.421608 0.121670 -0.898578
v -0.042976 -0.037007 0.193014
vn -0.539518 -0.700633 0.466940
v -0.004872 -0.112495 0.308480
vn -0.539518 -0.700633 0.466940
v -0.055701 -0.077775 0.301847
vn -0.539518 -0.700633 0.466940
v -0.066077 -0.102380 0.252939
vn -0.577813 -0.694516 0.428696
v 0.044178 0.065061 0.199216
vn -0.577813 -0.694516 0.428696
v 0.071756 0.035963 0.189246
vn -0.577813 -0.694516 0.428696
v 0.071090 0.056749 0.222023
vn -0.084592 -0.393788 0.915301
v -0.045956 0.064592 0.190684
vn -0.084592 -0.393788 0.915301
v 0.071756 0.035963 0.189246
vn -0.084592 -0.393788 0.915301
v 0.044178 0.065061 0.199216
vn -0.179200 0.779108 0.600731
v 0.071299 -0.035839 0.188437
vn -0.179200 0.779108 0.600731
v -0.045956 -0.064541 0.190684
vn -0.179200 0.779108 0.600731
v 0.043668 -0.052558 0.201878
vn 0.032889 0.592646 0.804791
v 0.071299 -0.035839 0.188437
vn 0.032889 0.592646 0.804791
v 0.043668 -0.052558 0.201878
vn 0.032889 0.592646 0.804791
v 0.064590 -0.065221 0.210348
vn 0.993149 0.073686 0.090693
v -0.054714 -0.093751 0.249168
vn 0.993149 0.073686 0.090693
v -0.052688 -0.094860 0.227883
vn 0.993149 0.073686 0.090693
v -0.056064 -0.071596 0.245951
vn 0.767845 -0.319728 0.555147
v -0.052688 -0.094860 0.227883
vn 0.767845 -0.319728 0.555147
v -0.035705 -0.095244 0.204172
vn 0.767845 -0.319728 0.555147
v -0.056064 -0.071596 0.245951
vn -0.680549 0.357656 0.639480
v 0.030961 -0.091918 0.204879
vn -0.680549 0.357656 0.639480
v 0.044492 -0.091918 0.219279
vn -0.680549 0.357656 0.639480
v 0.045488 -0.079227 0.213241
vn -0.908153 -0.036191 0.417072
v 0.044304 -0.046708 0.220171
vn -0.908153 -0.036191 0.417072
v 0.052038 -0.064541 0.235464
vn -0.908153 -0.036191 0.417072
v 0.053736 -0.065628 0.239067
vn -0.109275 -0.646177 0.755324
v -0.050700 -0.024340 0.198177
vn -0.109275 -0.646177 0.755324
v -0.049461 -0.027058 0.196031
vn -0.109275 -0.646177 0.755324
v -0.027493 -0.026351 0.199814
vn 0.753453 0.583195 -0.303633
v -0.042976 -0.037007 0.193014
vn 0.753453 0.583195 -0.303633
v -0.049461 -0.027058 0.196031
vn 0.753453 0.583195 -0.303633
v -0.050700 -0.024340 0.198177
vn 0.004363 0.060320 0.998170
v 0.071299 -0.035839 0.188437
vn 0.004363 0.060320 0.998170
v -0.070001 -0.042183 0.189438
vn 0.004363 0.060320 0.998170
v -0.045956 -0.064541 0.190684
vn 0.425743 -0.332810 -0.841416
v 0.083130 -0.037297 0.195000
vn 0.425743 -0.332810 -0.841416
v 0.012271 -0.105401 0.186084
vn 0.425743 -0.332810 -0.841416
v 0.071299 -0.035839 0.188437
vn 0.394847 -0.296997 -0.869419
v 0.025609 -0.112923 0.194711
vn 0.394847 -0.296997 -0.869419
v 0.012271 -0.105401 0.186084
vn 0.394847 -0.296997 -0.869419
v 0.083130 -0.037297 0.195000
vn 0.946451 -0.319543 0.046067
v -0.066965 0.064592 0.252104
vn 0.946451 -0.319543 0.046067
v -0.067608 0.063389 0.256970
vn 0.946451 -0.319543 0.046067
v -0.071226 0.050904 0.244700
vn 0.506249 -0.088940 0.857789
v 0.051379 0.050613 0.296420
vn 0.506249 -0.088940 0.857789
v 0.061008 0.077809 0.293557
vn 0.506249 -0.088940 0.857789
v 0.006641 0.052123 0.322980
vn 0.569578 0.088132 0.817199
v -0.045956 0.064592 0.190684
vn 0.569578 0.088132 0.817199
v -0.039791 0.039149 0.189131
vn 0.569578 0.088132 0.817199
v -0.044037 0.062640 0.189557
vn 0.075644 0.553306 -0.829537
v -0.045956 0.064592 0.190684
vn 0.075644 0.553306 -0.829537
v 0.044178 0.065061 0.199216
vn 0.075644 0.553306 -0.829537
v -0.044037 0.062640 0.189557
vn -0.745452 -0.447772 -0.493762
v -0.044225 0.047042 0.203986
vn -0.745452 -0.447772 -0.493762
v -0.045956 0.064592 0.190684
vn -0.745452 -0.447772 -0.493762
v -0.044037 0.062640 0.189557
vn -0.134025 -0.591018 0.795446
v 0.071756 0.035963 0.189246
vn -0.134025 -0.591018 0.795446
v -0.045956 0.064592 0.190684
vn -0.134025 -0.591018 0.795446
v -0.044037 0.062640 0.189557
vn 0.259255 0.735567 0.625882
v -0.028543 -0.102913 0.204815
vn 0.259255 0.735567 0.625882
v -0.010024 -0.102913 0.197144
vn 0.259255 0.735567 0.625882
v -0.017874 -0.100895 0.198024
# 600 vertices, 0 vertices normals

f 1//1 2//2 3//3
f 4//4 5//5 6//6
f 7//7 8//8 9//9
f 10//10 11//11 12//12
f 13//13 14//14 15//15
f 16//16 17//17 18//18
f 19//19 20//20 21//21
f 22//22 23//23 24//24
f 25//25 26//26 27//27
f 28//28 29//29 30//30
f 31//31 32//32 33//33
f 34//34 35//35 36//36
f 37//37 38//38 39//39
f 40//40 41//41 42//42
f 43//43 44//44 45//45
f 46//46 47//47 48//48
f 49//49 50//50 51//51
f 52//52 53//53 54//54
f 55//55 56//56 57//57
f 58//58 59//59 60//60
f 61//61 62//62 63//63
f 64//64 65//65 66//66
f 67//67 68//68 69//69
f 70//70 71//71 72//72
f 73//73 74//74 75//75
f 76//76 77//77 78//78
f 79//79 80//80 81//81
f 82//82 83//83 84//84
f 85//85 86//86 87//87
f 88//88 89//89 90//90
f 91//91 92//92 93//93
f 94//94 95//95 96//96
f 97//97 98//98 99//99
f 100//100 101//101 102//102
f 103//103 104//104 105//105
f 106//106 107//107 108//108
f 109//109 110//110 111//111
f 112//112 113//113 114//114
f 115//115 116//116 117//117
f 118//118 119//119 120//120
f 121//121 122//122 123//123
f 124//124 125//125 126//126
f 127//127 128//128 129//129
f 130//130 131//131 132//132
f 133//133 134//134 135//135
f 136//136 137//137 138//138
f 139//139 140//140 141//141
f 142//142 143//143 144//144
f 145//145 146//146 147//147
f 148//148 149//149 150//150
f 151//151 152//152 153//153
f 154//154 155//155 156//156
f 157//157 158//158 159//159
f 160//160 161//161 162//162
f 163//163 164//164 165//165
f 166//166 167//167 168//168
f 169//169 170//170 171//171
f 172//172 173//173 174//174
f 175//175 176//176 177//177
f 178//178 179//179 180//180
f 181//181 182//182 183//183
f 184//184 185//185 186//186
f 187//187 188//188 189//189
f 190//190 191//191 192//192
f 193//193 194//194 195//195
f 196//196 197//197 198//198
f 199//199 200//200 201//201
f 202//202 203//203 204//204
f 205//205 206//206 207//207
f 208//208 209//209 210//210
f 211//211 212//212 213//213
f 214//214 215//215 216//216
f 217//217 218//218 219//219
f 220//220 221//221 222//222
f 223//223 224//224 225//225
f 226//226 227//227 228//228
f 229//229 230//230 231//231
f 232//232 233//233 234//234
f 235//235 236//236 237//237
f 238//238 239//239 240//240
f 241//241 242//242 243//243
f 244//244 245//245 246//246
f 247//247 248//248 249//249
f 250//250 251//251 252//252
f 253//253 254//254 255//255
f 256//256 257//257 258//258
f 259//259 260//260 261//261
f 262//262 263//263 264//264
f 265//265 266//266 267//267
f 268//268 269//269 270//270
f 271//271 272//272 273//273
f 274//274 275//275 276//276
f 277//277 278//278 279//279
f 280//280 281//281 282//282
f 283//283 284//284 285//285
f 286//286 287//287 288//288
f 289//289 290//290 291//291
f 292//292 293//293 294//294
f 295//295 296//296 297//297
f 298//298 299//299 300//300
f 301//301 302//302 303//303
f 304//304 305//305 306//306
f 307//307 308//308 309//309
f 310//310 311//311 312//312
f 313//313 314//314 315//315
f 316//316 317//317 318//318
f 319//319 320//320 321//321
f 322//322 323//323 324//324
f 325//325 326//326 327//327
f 328//328 329//329 330//330
f 331//331 332//332 333//333
f 334//334 335//335 336//336
f 337//337 338//338 339//339
f 340//340 341//341 342//342
f 343//343 344//344 345//345
f 346//346 347//347 348//348
f 349//349 350//350 351//351
f 352//352 353//353 354//354
f 355//355 356//356 357//357
f 358//358 359//359 360//360
f 361//361 362//362 363//363
f 364//364 365//365 366//366
f 367//367 368//368 369//369
f 370//370 371//371 372//372
f 373//373 374//374 375//375
f 376//376 377//377 378//378
f 379//379 380//380 381//381
f 382//382 383//383 384//384
f 385//385 386//386 387//387
f 388//388 389//389 390//390
f 391//391 392//392 393//393
f 394//394 395//395 396//396
f 397//397 398//398 399//399
f 400//400 401//401 402//402
f 403//403 404//404 405//405
f 406//406 407//407 408//408
f 409//409 410//410 411//411
f 412//412 413//413 414//414
f 415//415 416//416 417//417
f 418//418 419//419 420//420
f 421//421 422//422 423//423
f 424//424 425//425 426//426
f 427//427 428//428 429//429
f 430//430 431//431 432//432
f 433//433 434//434 435//435
f 436//436 437//437 438//438
f 439//439 440//440 441//441
f 442//442 443//443 444//444
f 445//445 446//446 447//447
f 448//448 449//449 450//450
f 451//451 452//452 453//453
f 454//454 455//455 456//456
f 457//457 458//458 459//459
f 460//460 461//461 462//462
f 463//463 464//464 465//465
f 466//466 467//467 468//468
f 469//469 470//470 471//471
f 472//472 473//473 474//474
f 475//475 476//476 477//477
f 478//478 479//479 480//480
f 481//481 482//482 483//483
f 484//484 485//485 486//486
f 487//487 488//488 489//489
f 490//490 491//491 492//492
f 493//493 494//494 495//495
f 496//496 497//497 498//498
f 499//499 500//500 501//501
f 502//502 503//503 504//504
f 505//505 506//506 507//507
f 508//508 509//509 510//510
f 511//511 512//512 513//513
f 514//514 515//515 516//516
f 517//517 518//518 519//519
f 520//520 521//521 522//522
f 523//523 524//524 525//525
f 526//526 527//527 528//528
f 529//529 530//530 531//531
f 532//532 533//533 534//534
f 535//535 536//536 537//537
f 538//538 539//539 540//540
f 541//541 542//542 543//543
f 544//544 545//545 546//546
f 547//547 548//548 549//549
f 550//550 551//551 552//552
f 553//553 554//554 555//555
f 556//556 557//557 558//558
f 559//559 560//560 561//561
f 562//562 563//563 564//564
f 565//565 566//566 567//567
f 568//568 569//569 570//570
f 571//571 572//572 573//573
f 574//574 575//575 576//576
f 577//577 578//578 579//579
f 580//580 581//581 582//582
f 583//583 584//584 585//585
f 586//586 587//587 588//588
f 589//589 590//590 591//591
f 592//592 593//593 594//594
f 595//595 596//596 597//597
f 598//598 599//599 600//600
# 200 faces, 0 coords texture

# End of File