#VRML V2.0 utf8

# Generated by VCGLIB, (C)Copyright 1999-2001 VCG, IEI-CNR

NavigationInfo {
	type [ "EXAMINE", "ANY" ]
}
Transform {
  scale 1 1 1
  translation 0 0 0
  children
  [
    Shape
    {
      geometry IndexedFaceSet
      {
        creaseAngle .5
        solid FALSE
        coord Coordinate
        {
          point
          [
            1.40283e-06 0.0651048 -0.316542, 1.43563e-06 0.0764572 -0.254853, 0.0229902 0.0729188 -0.254853, -0.0170657 -0.0561269 -0.238869, 
            0 -0.0582661 -0.167704, -0.0208257 -0.0544457 -0.16744, -0.0225348 0.0714844 -0.254612, 1.43377e-06 0.0749522 -0.254612, 
            -0.0247147 0.079796 -0.191177, -0.00582848 0.0600928 -0.180739, 0.0208257 0.0544457 -0.16744, 0.0278266 0.0516346 -0.181015, 
            -0.021074 -0.0648612 -0.118523, -0.0343848 -0.00784811 -0.118523, -0.0400864 -0.055174 -0.118523, 0.0162848 -0.0552127 -0.292532, 
            0.0325716 -0.0458786 -0.286783, 0.0328731 -0.0485883 -0.238869, 1.40283e-06 0.0651048 -0.316542, -0.020315 0.0618313 -0.31657, 
            1.43563e-06 0.0764572 -0.254853, 0.000508 -0.0691789 -0.349232, 0.000508 -0.0587294 -0.364501, 0.0427748 -0.0598337 -0.362248, 
            0.0416535 0.0177074 -0.348902, 0.0446829 0.014336 -0.330486, 0.0447226 0.00915968 -0.349693, 0.03054 0.0550378 -0.321448, 
            0.0429879 0.0613993 -0.254612, 0.0225375 0.0714836 -0.254612, -0.0411381 0.0220993 -0.321947, 0.0194549 0.0606642 -0.323566, 
            0.000211158 0.0242399 -0.323751, -0.0682228 0.0484841 -0.212104, -0.0578725 0.00461521 -0.292692, -0.0664742 0.00409893 -0.228711, 
            -0.0400864 -0.055174 -0.118523, -0.0343848 -0.00784811 -0.118523, -0.0400864 0.055174 -0.118523, 0.0665041 0.0410051 -0.228544, 
            0.0664408 0.00196885 -0.228684, 0.0573764 0.00311735 -0.291549, -0.00582848 0.0600928 -0.180739, 0.0278266 0.0516346 -0.181015, 
            0.0411803 0.0664849 -0.181832, -0.021074 0.0648612 -0.118523, 0 0.0352691 -0.118523, 9.91544e-05 0.0694001 -0.118543, 
            0.021074 0.0648612 -0.118523, 0.0275745 0.0219899 -0.118523, 0.0360979 0.0010275 -0.118514, -0.0682228 0.0484841 -0.212104, 
            -0.0561848 0.037312 -0.302223, -0.0578725 0.00461521 -0.292692, -9.22709e-06 0.0624519 -0.322064, 0.0138884 0.022972 -0.323426, 
            0.0405195 0.0218276 -0.320553, -0.0544452 0.0374062 -0.307058, -0.0649834 0.0410049 -0.228444, -0.0529394 0.0179773 -0.30933, 
            0.0400864 -0.055174 -0.118523, 0.0551748 -0.0400855 -0.118523, 0.0400864 0.055174 -0.118523, 0.0454809 -0.0370887 -0.245357, 
            0.0503039 -0.0276538 -0.1881, 0.0343533 -0.0459994 -0.183307, 0.025872 0.00810375 -0.316964, 0.0259245 -0.0603389 -0.336268, 
            0.0258738 0.00479587 -0.35223, 0.000508 -0.0587294 -0.364501, 0.0430975 -0.0471157 -0.371691, 0.0427748 -0.0598337 -0.362248, 
            -0.0649834 0.0410049 -0.228444, -0.063679 0.00339439 -0.234503, -0.0559892 0.00392094 -0.292151, 0.0648924 0.0454423 -0.228601, 
            0.0537784 0.0375879 -0.308757, 0.0649488 0.00655301 -0.229725, 0.0665041 0.0410051 -0.228544, 0.0541117 0.0113299 -0.310382, 
            0.0558328 0.037454 -0.308181, -0.021074 0.0648612 -0.118523, -0.0183735 0.0298979 -0.117946, 0 0.0352691 -0.118523, 
            -0.0383595 0.0497095 -0.320476, -0.0405195 0.0218276 -0.320553, -0.000193957 0.0229707 -0.322227, -0.0371788 0.0694809 -0.183119, 
            0.042075 0.0676712 -0.184141, -0.00723284 0.0591929 -0.182523, 0.0234885 -0.0336479 -0.281777, 0.000507995 -0.0444481 -0.286832, 
            0.037779 -0.0382193 -0.284979, 0.000508 -0.0596458 -0.297386, 0.0416535 -0.0676214 -0.310114, 0.0425641 -0.0563957 -0.29535, 
            -0.051454 -0.0261898 -0.187514, -0.052144 -0.0235706 -0.282257, -0.0463374 -0.0347523 -0.283137, 0.0599477 0.00821201 -0.156319, 
            0.0648607 0.0210757 -0.118523, 0.0681989 0 -0.118523, 0.0544006 -0.0010332 -0.24013, 0.0538405 -0.0136568 -0.177701, 
            0.053975 -0.0117675 -0.284188, -0.0400864 0.055174 -0.118523, -0.0351799 0.048421 -0.155975, -0.0535258 0.0281183 -0.156848, 
            8.31275e-05 -0.0571399 -0.240638, -0.0174302 -0.0533132 -0.1881, 0.00882719 -0.0553913 -0.1881, -0.0648607 -0.0210757 -0.118523, 
            -0.0681989 0 -0.118523, -0.0571252 -0.0174068 -0.157447, -0.0333726 -0.0471516 -0.287402, -0.0208257 -0.0544457 -0.16744, 
            -0.0343533 -0.0459994 -0.183307, 0.025872 0.00810375 -0.316964, 0.044974 0.00560927 -0.31179, 0.0388882 -0.0132684 -0.295934, 
            0.0529045 0.000967959 -0.194434, 0.0530666 0.000583246 -0.289814, 0.052451 -0.0104452 -0.177701, -0.0208245 0.0544462 -0.167441, 
            0 0.0582661 -0.167704, -0.00582848 0.0600928 -0.180739, 0.021074 0.0648612 -0.118523, 9.91544e-05 0.0694001 -0.118543, 
            0.0183722 0.0298989 -0.117947, -0.0400864 0.055174 -0.118523, -0.0343848 -0.00784811 -0.118523, -0.0334588 0.0113629 -0.118562, 
            -0.0152929 -0.0243977 -0.0969147, 0.0276148 -0.0135058 -0.0969124, -0.020782 0.0188938 -0.0963794, 0.0425388 0.0481099 -0.321559, 
            0.0411381 0.0220993 -0.321947, 0.0138884 0.022972 -0.323426, -0.0682228 0.0484841 -0.212104, -0.0480781 0.0700592 -0.191851, 
            -0.043849 0.0626336 -0.254853, -0.0580802 0.0539633 -0.185382, -0.0572708 0.00390757 -0.186742, -0.0476698 0.035893 -0.182584, 
            -0.0443661 -0.0357023 -0.217581, -0.0325695 -0.04588 -0.286783, -0.0451133 -0.0338526 -0.282968, 0.020816 -0.0557455 -0.158089, 
            -0.000103447 -0.0694017 -0.118538, 0 -0.0595466 -0.157827, 0.000508 -0.00694966 -0.374388, 0.000508 0.00839071 -0.364043, 
            0.0424881 0.00715493 -0.364183, 0.0506823 -0.023136 -0.282275, 0.0489407 -0.0269701 -0.1881, 0.0503013 -0.02285 -0.177701, 
            0.0429985 0.00377487 -0.290506, 0.0430242 0.00432678 -0.29193, 0.0429569 0.00438342 -0.206352, 0.0240722 0.0164143 -0.302872, 
            0.0313473 0.0135665 -0.303729, 0.0416535 0.017904 -0.31253, 0.000508 -0.0730206 -0.331133, 0.0419473 -0.0689403 -0.347567, 
            0.0416535 -0.0722167 -0.328089, 0.0276148 -0.0135058 -0.0969124, 0.0224785 0.0173721 -0.0969022, -0.020782 0.0188938 -0.0963794, 
            0.0224785 0.0173721 -0.0969022, 0.0276148 -0.0135058 -0.0969124, 0.0360979 0.0010275 -0.118514, 0.0537784 0.0375879 -0.308757, 
            0.0648924 0.0454423 -0.228601, 0.0429879 0.0613993 -0.254612, 0.0208159 0.0557455 -0.158088, 0 0.0595466 -0.157827, 
            0.021074 0.0648612 -0.118523, 0.000508 -0.0250749 -0.378106, 0.0416535 -0.00844097 -0.374185, 0.0416535 -0.0267237 -0.377341, 
            0.025872 0.00810375 -0.316964, 0.026058 -0.0325685 -0.292157, 0.0259245 -0.0603389 -0.336268, -9.22709e-06 0.0624519 -0.322064, 
            -0.0383595 0.0497095 -0.320476, -0.000193957 0.0229707 -0.322227, -0.0383595 0.0497095 -0.320476, -0.0200212 0.0604214 -0.316017, 
            -0.0429855 0.061401 -0.254612, 0.0425388 0.0481099 -0.321559, 0.0438513 0.062632 -0.254853, 0.065984 0.0531707 -0.199819, 
            0.0614422 0.0497172 -0.18818, 0.0656453 0.0022951 -0.195158, 0.065984 0.0531707 -0.199819, 0.0421073 -0.0428777 -0.1575, 
            0.0551748 -0.0400855 -0.118523, 0.0400864 -0.055174 -0.118523, 0.0656453 0.0022951 -0.195158, 0.0614422 0.0497172 -0.18818, 
            0.0571255 0.00431223 -0.185998, 0.0664408 0.00196885 -0.228684, 0.0656453 0.0022951 -0.195158, 0.0544006 -0.0010332 -0.24013, 
            -0.021074 -0.0648612 -0.118523, -0.0400864 -0.055174 -0.118523, -0.0208159 -0.0557455 -0.158088, 0.0530666 0.000583246 -0.289814, 
            0.052451 -0.0117675 -0.284188, 0.052451 -0.0104452 -0.177701, -0.00582848 0.0600928 -0.180739, 0.0411803 0.0664849 -0.181832, 
            -0.0215672 0.0775892 -0.18286, -1.21561e-05 -0.0574844 -0.294432, 8.75234e-05 -0.058664 -0.238869, -0.0170657 -0.0561269 -0.238869, 
            -0.0383595 0.0497095 -0.320476, -0.0429855 0.061401 -0.254612, -0.0646182 0.0520756 -0.201461, -0.0605657 0.0491595 -0.189412, 
            -0.0371788 0.0694809 -0.183119, -0.0411868 0.039987 -0.18214, 0.000507995 -0.0444481 -0.286832, 0.000508 -0.0596458 -0.297386, 
            0.0425641 -0.0563957 -0.29535, 0.03054 0.0550378 -0.321448, -9.22709e-06 0.0624519 -0.322064, 0.0405195 0.0218276 -0.320553, 
            -0.0598516 0 -0.155975, -0.0572708 0.00390757 -0.186742, -0.0571252 -0.0174068 -0.157447, -0.053975 -0.0104452 -0.177701, 
            -0.0548574 -0.000490331 -0.189343, -0.0544074 -0.000184615 -0.289334, 0.0446829 0.014336 -0.330486, 0.038862 0.0220732 -0.334282, 
            0.0416535 0.017904 -0.31253, -0.0649834 0.0410049 -0.228444, -0.0559892 0.00392094 -0.292151, -0.0529394 0.0179773 -0.30933, 
            0.0138884 0.022972 -0.323426, 0.0416535 0.017904 -0.31253, 0.038862 0.0220732 -0.334282, 0.0430242 0.00432678 -0.29193, 
            0.0429985 0.00377487 -0.290506, 0.0439702 -0.00586973 -0.295937, -0.0400864 -0.055174 -0.118523, -0.0400864 0.055174 -0.118523, 
            -0.0551748 0.0400855 -0.118523, -0.0551748 0.0400855 -0.118523, -0.0400864 0.055174 -0.118523, -0.0535258 0.0281183 -0.156848, 
            0.0614422 0.0497172 -0.18818, 0.0489319 0.0314301 -0.182522, 0.0571255 0.00431223 -0.185998, 0.026058 -0.0325685 -0.292157, 
            0.0445108 -0.0426006 -0.296511, 0.0442311 -0.053032 -0.312008, 0.000508 -0.0691789 -0.349232, 0.0427748 -0.0598337 -0.362248, 
            0.0419473 -0.0689403 -0.347567, 0.021074 -0.0648612 -0.118523, -0.00715673 -0.0355996 -0.118509, -0.000103447 -0.0694017 -0.118538, 
            0.020816 -0.0557455 -0.158089, 0.021074 -0.0648612 -0.118523, -0.000103447 -0.0694017 -0.118538, -0.0371788 0.0694809 -0.183119, 
            -0.00723284 0.0591929 -0.182523, -0.0411868 0.039987 -0.18214, -0.0561848 0.037312 -0.302223, -0.0543344 0.0182742 -0.30995, 
            -0.0578725 0.00461521 -0.292692, 0.0424881 0.00715493 -0.364183, 0.0416535 0.0177074 -0.348902, 0.0447226 0.00915968 -0.349693, 
            -0.0480781 0.0700592 -0.191851, -0.0240407 0.0767972 -0.225237, -0.043849 0.0626336 -0.254853, -0.0561848 0.037312 -0.302223, 
            -0.0446897 0.0462197 -0.32074, -0.0543344 0.0182742 -0.30995, -0.0288649 -0.00306008 -0.0966945, -0.020782 0.0188938 -0.0963794, 
            -0.0334588 0.0113629 -0.118562, -0.0288649 -0.00306008 -0.0966945, -0.0334588 0.0113629 -0.118562, -0.0343848 -0.00784811 -0.118523, 
            0.0224785 0.0173721 -0.0969022, 0.0360979 0.0010275 -0.118514, 0.0275745 0.0219899 -0.118523, -0.0644248 0.00271335 -0.195628, 
            -0.0605657 0.0491595 -0.189412, -0.0561789 0.0165478 -0.18733, -0.0552222 0.00126367 -0.188832, -0.0526082 -0.000601096 -0.289081, 
            -0.063679 0.00339439 -0.234503, 0.0447226 0.00915968 -0.349693, 0.0446829 0.014336 -0.330486, 0.044974 0.00560927 -0.31179, 
            0.0644531 0.002253 -0.194884, 0.055571 0.0118701 -0.187124, 0.0635938 0.0542054 -0.19175, 0.000507995 -0.0444481 -0.286832, 
            0.0425641 -0.0563957 -0.29535, 0.037779 -0.0382193 -0.284979, -0.021074 0.0648612 -0.118523, 9.91544e-05 0.0694001 -0.118543, 
            -0.020816 0.0557455 -0.158089, 0.021074 0.0648612 -0.118523, 0 0.0595466 -0.157827, 9.91544e-05 0.0694001 -0.118543, 
            0.0138884 0.022972 -0.323426, 0.0240722 0.0164143 -0.302872, 0.0416535 0.017904 -0.31253, -0.0476698 0.035893 -0.182584, 
            -0.00582848 0.0600928 -0.180739, -0.0580802 0.0539633 -0.185382, -0.0208245 0.0544462 -0.167441, -0.00582848 0.0600928 -0.180739, 
            -0.0476698 0.035893 -0.182584, -0.0580802 0.0539633 -0.185382, -0.065587 0.00129456 -0.194483, -0.0572708 0.00390757 -0.186742, 
            0.0273311 0.0143382 -0.280744, 0.0430242 0.00432678 -0.29193, 0.0340854 0.0100352 -0.29373, 0.000508 -0.0696745 -0.312935, 
            0.0416535 -0.0722167 -0.328089, 0.0416535 -0.0676214 -0.310114, 0.0446871 -0.0599276 -0.311296, 0.0443591 -0.0646713 -0.330552, 
            0.0437325 -0.060999 -0.347094, 0.0194549 0.0606642 -0.323566, 0.0425388 0.0481099 -0.321559, 0.0138884 0.022972 -0.323426, 
            0.0425388 0.0481099 -0.321559, 0.0194549 0.0606642 -0.323566, 0.0438513 0.062632 -0.254853, 0.000508 0.00839071 -0.364043, 
            0.0416535 0.0177074 -0.348902, 0.0424881 0.00715493 -0.364183, 0.042075 0.0676712 -0.184141, 0.0470638 0.0683336 -0.195452, 
            0.0635938 0.0542054 -0.19175, 0.025872 0.00810375 -0.316964, 0.0258738 0.00479587 -0.35223, 0.043942 0.00541777 -0.342339, 
            0.065984 0.0531707 -0.199819, 0.0481564 0.0693212 -0.19227, 0.0411803 0.0664849 -0.181832, -0.0544452 0.0374062 -0.307058, 
            -0.0383595 0.0497095 -0.320476, -0.0646182 0.0520756 -0.201461, -0.0383595 0.0497095 -0.320476, -0.0544452 0.0374062 -0.307058, 
            -0.0478881 0.0206154 -0.315935, 0.0208159 0.0557455 -0.158088, 0.021074 0.0648612 -0.118523, 0.0400864 0.055174 -0.118523, 
            0.0400864 0.055174 -0.118523, 0.021074 0.0648612 -0.118523, 0.0360979 0.0010275 -0.118514, 0.0544006 -0.0010332 -0.24013, 
            0.053975 0.00635 -0.182775, 0.0538405 -0.0136568 -0.177701, 0.0571255 0.00431223 -0.185998, 0.053736 -0.0153303 -0.184925, 
            0.0567447 0 -0.167602, 0.0400864 -0.055174 -0.118523, 0.0400864 0.055174 -0.118523, 0.0360979 0.0010275 -0.118514, 
            0.0416535 -0.0267237 -0.377341, 0.0416535 -0.00844097 -0.374185, 0.0446331 -0.0252455 -0.367672, 0.0416535 -0.0267237 -0.377341, 
            0.0446331 -0.0252455 -0.367672, 0.0430975 -0.0471157 -0.371691, 0.0404591 0.00597469 -0.252072, 0.0396689 0.00647814 -0.227838, 
            0.0430242 0.00432678 -0.29193, 0.026058 -0.0325685 -0.292157, 0.0388882 -0.0132684 -0.295934, 0.037779 -0.0382193 -0.284979, 
            0.0425388 0.0481099 -0.321559, 0.0558328 0.037454 -0.308181, 0.0541117 0.0113299 -0.310382, 0.0558328 0.037454 -0.308181, 
            0.0425388 0.0481099 -0.321559, 0.065984 0.0531707 -0.199819, 0.0439702 -0.00586973 -0.295937, 0.0361151 -0.0112689 -0.276448, 
            0.0325233 -0.0257005 -0.280175, 0.0430242 0.00432678 -0.29193, 0.0416535 0.017904 -0.31253, 0.0362252 0.00966571 -0.296922, 
            5.65369e-05 0.0834667 -0.191719, 0.042075 0.0676712 -0.184141, -0.0371788 0.0694809 -0.183119, 1.43377e-06 0.0749522 -0.254612, 
            0.0225375 0.0714836 -0.254612, 0.0247508 0.0796562 -0.192124, 0.0571255 0.00431223 -0.185998, 0.0537767 -0.0151867 -0.1881, 
            0.053736 -0.0153303 -0.184925, 0.0537767 -0.0151867 -0.1881, 0.053975 -0.0117675 -0.284188, 0.0538405 -0.0136568 -0.177701, 
            -0.0480781 0.0700592 -0.191851, -0.0682228 0.0484841 -0.212104, -0.0580802 0.0539633 -0.185382, -0.0580802 0.0539633 -0.185382, 
            -0.0682228 0.0484841 -0.212104, -0.065587 0.00129456 -0.194483, 0.0368919 0.0456531 -0.181679, 0.0421822 0.0366502 -0.184925, 
            0.0274389 0.0486794 -0.184925, -0.0526082 -0.000601096 -0.289081, -0.052451 -0.00311233 -0.191842, -0.052451 -0.00281926 -0.271413, 
            -0.0371788 0.0694809 -0.183119, -0.0605657 0.0491595 -0.189412, -0.0473015 0.0682645 -0.191302, -0.0452876 -0.0372892 -0.23873, 
            -0.0333726 -0.0471516 -0.287402, -0.0343533 -0.0459994 -0.183307, 0.0614422 0.0497172 -0.18818, 0.065984 0.0531707 -0.199819, 
            0.0411803 0.0664849 -0.181832, 0.0614422 0.0497172 -0.18818, 0.0411803 0.0664849 -0.181832, 0.0489319 0.0314301 -0.182522, 
            0.0319762 -0.047355 -0.240638, 0.0211819 -0.0522661 -0.214369, 0.036484 -0.0423259 -0.1881, 0.0084472 0.0207515 -0.333732, 
            0.0215218 0.0218203 -0.332991, 0.0416535 0.0177074 -0.348902, 0.00981319 0.0229698 -0.32384, 0.0138884 0.022972 -0.323426, 
            0.038862 0.0220732 -0.334282, 0.0506823 -0.023136 -0.282275, 0.0442816 -0.0361518 -0.254848, 0.0489407 -0.0269701 -0.1881, 
            0.0503039 -0.0276538 -0.1881, 0.0454809 -0.0370887 -0.245357, 0.052144 -0.0235706 -0.282257, -0.0288649 -0.00306008 -0.0966945, 
            -0.0152929 -0.0243977 -0.0969147, -0.020782 0.0188938 -0.0963794, -0.0152929 -0.0243977 -0.0969147, -0.0288649 -0.00306008 -0.0966945, 
            -0.0275745 -0.0219899 -0.118523, 0.0537784 0.0375879 -0.308757, 0.03054 0.0550378 -0.321448, 0.0541117 0.0113299 -0.310382, 
            0.03054 0.0550378 -0.321448, 0.0537784 0.0375879 -0.308757, 0.0429879 0.0613993 -0.254612, 8.31275e-05 -0.0571399 -0.240638, 
            -0.0160895 -0.0537278 -0.291411, -0.0174302 -0.0533132 -0.1881, 0.000507995 -0.0444481 -0.286832, 0.0205645 -0.0305364 -0.276546, 
            0.0100475 -0.0351582 -0.278169, 0.025872 0.00810375 -0.316964, 0.043942 0.00541777 -0.342339, 0.044974 0.00560927 -0.31179, 
            -0.0605657 0.0491595 -0.189412, -0.0644248 0.00271335 -0.195628, -0.0646182 0.0520756 -0.201461, -0.0473015 0.0682645 -0.191302, 
            -0.0605657 0.0491595 -0.189412, -0.0646182 0.0520756 -0.201461, -0.021074 -0.0648612 -0.118523, -0.00715673 -0.0355996 -0.118509, 
            -0.0275745 -0.0219899 -0.118523, -0.0152929 -0.0243977 -0.0969147, -0.0275745 -0.0219899 -0.118523, -0.00715673 -0.0355996 -0.118509, 
            -0.00723284 0.0591929 -0.182523, 0.00951403 0.0550641 -0.184925, -0.00951402 0.0550641 -0.184925, -0.0200212 0.0604214 -0.316017, 
            -0.0383595 0.0497095 -0.320476, -9.22709e-06 0.0624519 -0.322064, -9.22709e-06 0.0624519 -0.322064, 1.43377e-06 0.0749522 -0.254612, 
            -0.0225348 0.0714844 -0.254612, 0.000508 0.022225 -0.330482, 0.00648991 0.0212677 -0.328075, 0.0084472 0.0207515 -0.333732, 
            -0.020782 0.0188938 -0.0963794, -0.0195834 0.0239478 -0.0993801, -0.02032 0.0275073 -0.115018, 0.0162848 -0.0552127 -0.292532, 
            0.0172331 -0.0560757 -0.238869, 8.75234e-05 -0.058664 -0.238869, 0.0416535 -0.00844097 -0.374185, 0.0445116 -0.00592432 -0.364326, 
            0.0446331 -0.0252455 -0.367672, 0.0260758 -0.0416255 -0.360807, 0.0437325 -0.060999 -0.347094, 0.0430975 -0.0471157 -0.371691, 
            0.0445116 -0.00592432 -0.364326, 0.0447226 0.00915968 -0.349693, 0.043942 0.00541777 -0.342339, 0.0185086 0.023131 -0.0989865, 
            0.0224785 0.0173721 -0.0969022, 0.02032 0.0275073 -0.115018, -0.0605657 0.0491595 -0.189412, -0.0411868 0.039987 -0.18214, 
            -0.0561789 0.0165478 -0.18733, 0.0446331 -0.0252455 -0.367672, 0.0336956 -0.010973 -0.361256, 0.0260758 -0.0416255 -0.360807, 
            0.0225375 0.0714836 -0.254612, 0.0470638 0.0683336 -0.195452, 0.0247508 0.0796562 -0.192124, 0.0247508 0.0796562 -0.192124, 
            0.0470638 0.0683336 -0.195452, 0.042075 0.0676712 -0.184141, -0.0664742 0.00409893 -0.228711, -0.065587 0.00129456 -0.194483, 
            -0.0682228 0.0484841 -0.212104, 0.0194549 0.0606642 -0.323566, 0.0229902 0.0729188 -0.254853, 0.0438513 0.062632 -0.254853, 
            0.0411803 0.0664849 -0.181832, 0.0481564 0.0693212 -0.19227, 0.0252944 0.08122 -0.191242, -0.0644248 0.00271335 -0.195628, 
            -0.063679 0.00339439 -0.234503, -0.0649834 0.0410049 -0.228444, -0.063679 0.00339439 -0.234503, -0.0644248 0.00271335 -0.195628, 
            -0.0552222 0.00126367 -0.188832, -0.021074 -0.0648612 -0.118523, -0.0208159 -0.0557455 -0.158088, 0 -0.0595466 -0.157827, 
            0.0430242 0.00432678 -0.29193, 0.0362252 0.00966571 -0.296922, 0.0340854 0.0100352 -0.29373, 9.91544e-05 0.0694001 -0.118543, 
            0 0.0595466 -0.157827, -0.020816 0.0557455 -0.158089, 0.0656453 0.0022951 -0.195158, 0.0664408 0.00196885 -0.228684, 
            0.0665041 0.0410051 -0.228544, 0.0649488 0.00655301 -0.229725, 0.0644531 0.002253 -0.194884, 0.0635938 0.0542054 -0.19175, 
            0.0427748 -0.0598337 -0.362248, 0.0437325 -0.060999 -0.347094, 0.0419473 -0.0689403 -0.347567, 0.0443591 -0.0646713 -0.330552, 
            0.0419473 -0.0689403 -0.347567, 0.0437325 -0.060999 -0.347094, 0.000508 -0.0432492 -0.374636, 0.000508 -0.0250749 -0.378106, 
            0.0416535 -0.0267237 -0.377341, 0.000508 -0.0696745 -0.312935, 0.000508 -0.0730206 -0.331133, 0.0416535 -0.0722167 -0.328089, 
            0.0648924 0.0454423 -0.228601, 0.0649488 0.00655301 -0.229725, 0.0635938 0.0542054 -0.19175, -0.00582848 0.0600928 -0.180739, 
            0 0.0582661 -0.167704, 0.0208257 0.0544457 -0.16744, 0.037779 -0.0382193 -0.284979, 0.0445108 -0.0426006 -0.296511, 
            0.026058 -0.0325685 -0.292157, 0.037779 -0.0382193 -0.284979, 0.0425641 -0.0563957 -0.29535, 0.0445108 -0.0426006 -0.296511, 
            -0.0552222 0.00126367 -0.188832, -0.0515303 0.0216158 -0.184544, -0.0531246 0.00635 -0.185177, -0.0552222 0.00126367 -0.188832, 
            -0.052451 -0.00311233 -0.191842, -0.0526082 -0.000601096 -0.289081, -0.0648607 0.0210757 -0.118523, -0.0535258 0.0281183 -0.156848, 
            -0.0598516 0 -0.155975, -0.0648607 -0.0210757 -0.118523, -0.0648607 0.0210757 -0.118523, -0.0681989 0 -0.118523, 
            0.0520344 0.0203713 -0.184925, 0.055571 0.0118701 -0.187124, 0.0531246 0.00635 -0.185177, 0.052451 0.00635 -0.182775, 
            0.0529045 0.000967959 -0.194434, 0.052451 -0.0104452 -0.177701, 0.000508 0.0186308 -0.348632, 0.000508 0.022225 -0.330482, 
            0.0084472 0.0207515 -0.333732, 0.000508 0.0186308 -0.348632, 0.0084472 0.0207515 -0.333732, 0.0416535 0.0177074 -0.348902, 
            0.0368919 0.0456531 -0.181679, 0.042075 0.0676712 -0.184141, 0.0635938 0.0542054 -0.19175, 0.021074 -0.0648612 -0.118523, 
            0.0226459 -0.028254 -0.118511, -0.00715673 -0.0355996 -0.118509, -9.22709e-06 0.0624519 -0.322064, 0.0225375 0.0714836 -0.254612, 
            1.43377e-06 0.0749522 -0.254612, 0.00224 0.030323 -0.298656, 0.0313473 0.0135665 -0.303729, 0.0240722 0.0164143 -0.302872, 
            0.0648607 -0.0210757 -0.118523, 0.0681989 0 -0.118523, 0.0648607 0.0210757 -0.118523, 0.0599477 0.00821201 -0.156319, 
            0.0681989 0 -0.118523, 0.0648607 -0.0210757 -0.118523, -0.0400864 -0.055174 -0.118523, -0.0551748 0.0400855 -0.118523, 
            -0.0551748 -0.0400855 -0.118523, -0.0400864 -0.055174 -0.118523, -0.0551748 -0.0400855 -0.118523, -0.0444985 -0.0402911 -0.157252, 
            0.0551748 -0.0400855 -0.118523, 0.0551748 0.0400855 -0.118523, 0.0400864 0.055174 -0.118523, 0.0447688 0.0398634 -0.157608, 
            0.0400864 0.055174 -0.118523, 0.0551748 0.0400855 -0.118523, 0.0447688 0.0398634 -0.157608, 0.0648607 0.0210757 -0.118523, 
            0.0599477 0.00821201 -0.156319, 0.0529045 0.000967959 -0.194434, 0.0531246 0.00635 -0.185177, 0.055571 0.0118701 -0.187124, 
            0.0644531 0.002253 -0.194884, 0.0529045 0.000967959 -0.194434, 0.055571 0.0118701 -0.187124, 0.0194549 0.0606642 -0.323566, 
            1.40283e-06 0.0651048 -0.316542, 0.0229902 0.0729188 -0.254853, -0.0535258 0.0281183 -0.156848, -0.0351799 0.048421 -0.155975, 
            -0.0476698 0.035893 -0.182584, -0.0446897 0.0462197 -0.32074, -0.0489983 0.020934 -0.316985, -0.0543344 0.0182742 -0.30995, 
            0.0430242 0.00432678 -0.29193, 0.0439702 -0.00586973 -0.295937, 0.044974 0.00560927 -0.31179, -0.0325695 -0.04588 -0.286783, 
            -0.0398431 -0.0394796 -0.1881, -0.0174302 -0.0533132 -0.1881, -0.0561848 0.037312 -0.302223, -0.0682228 0.0484841 -0.212104, 
            -0.043849 0.0626336 -0.254853, 0.0439702 -0.00586973 -0.295937, 0.0420055 0.0002253 -0.277924, 0.0361151 -0.0112689 -0.276448, 
            0.0427748 -0.0598337 -0.362248, 0.0430975 -0.0471157 -0.371691, 0.0437325 -0.060999 -0.347094, 0.0322219 0.0112224 -0.276494, 
            0.0354743 0.00915035 -0.273535, 0.0430242 0.00432678 -0.29193, -0.0383595 0.0497095 -0.320476, -0.0478881 0.0206154 -0.315935, 
            -0.0405195 0.0218276 -0.320553, -0.0644248 0.00271335 -0.195628, -0.0649834 0.0410049 -0.228444, -0.0646182 0.0520756 -0.201461, 
            -0.0544452 0.0374062 -0.307058, -0.0646182 0.0520756 -0.201461, -0.0649834 0.0410049 -0.228444, 0.0656453 0.0022951 -0.195158, 
            0.0571255 0.00431223 -0.185998, 0.0544006 -0.0010332 -0.24013, 0.0571255 0.00431223 -0.185998, 0.053975 0.00635 -0.182775, 
            0.0544006 -0.0010332 -0.24013, 0.065984 0.0531707 -0.199819, 0.0656453 0.0022951 -0.195158, 0.0665041 0.0410051 -0.228544, 
            0.0558328 0.037454 -0.308181, 0.065984 0.0531707 -0.199819, 0.0665041 0.0410051 -0.228544, 0.0572266 -0.0167976 -0.15854, 
            0.0551748 -0.0400855 -0.118523, 0.0421073 -0.0428777 -0.1575, 0.0537767 -0.0151867 -0.1881, 0.0503039 -0.0276538 -0.1881, 
            0.053975 -0.0117675 -0.284188, -0.00723284 0.0591929 -0.182523, -0.0274389 0.0486794 -0.184925, -0.0411868 0.039987 -0.18214, 
            -0.0413868 0.0376346 -0.180373, -0.0411868 0.039987 -0.18214, -0.0274389 0.0486794 -0.184925, -0.053975 0.00635 -0.182775, 
            -0.0548574 -0.000490331 -0.189343, -0.053975 -0.0104452 -0.177701, 0.0425388 0.0481099 -0.321559, 0.0541117 0.0113299 -0.310382, 
            0.0411381 0.0220993 -0.321947, 0.03054 0.0550378 -0.321448, 0.0405195 0.0218276 -0.320553, 0.0541117 0.0113299 -0.310382, 
            0.0194549 0.0606642 -0.323566, 0.00981319 0.0229698 -0.32384, 0.000211158 0.0242399 -0.323751, 0.00981319 0.0229698 -0.32384, 
            0.00648991 0.0212677 -0.328075, 0.000211158 0.0242399 -0.323751, -0.0371788 0.0694809 -0.183119, -0.0473015 0.0682645 -0.191302, 
            -0.0247147 0.079796 -0.191177, -0.0225348 0.0714844 -0.254612, -0.0247147 0.079796 -0.191177, -0.0473015 0.0682645 -0.191302, 
            0.0442816 -0.0361518 -0.254848, 0.036484 -0.0423259 -0.1881, 0.0489407 -0.0269701 -0.1881, 0.0571255 0.00431223 -0.185998, 
            0.0567447 0 -0.167602, 0.053975 0.0108848 -0.182775, 0.0416535 0.017904 -0.31253, 0.044974 0.00560927 -0.31179, 
            0.0446829 0.014336 -0.330486, 0.0416535 0.017904 -0.31253, 0.0430242 0.00432678 -0.29193, 0.044974 0.00560927 -0.31179, 
            -0.0552222 0.00126367 -0.188832, -0.0561789 0.0165478 -0.18733, -0.0515303 0.0216158 -0.184544, -0.0561789 0.0165478 -0.18733, 
            -0.0411868 0.039987 -0.18214, -0.0515303 0.0216158 -0.184544, 0.0421073 -0.0428777 -0.1575, 0.0400864 -0.055174 -0.118523, 
            0.021074 -0.0648612 -0.118523, 0.021074 -0.0648612 -0.118523, 0.0400864 -0.055174 -0.118523, 0.0226459 -0.028254 -0.118511, 
            -0.0400864 0.055174 -0.118523, -0.021074 0.0648612 -0.118523, -0.0351799 0.048421 -0.155975, -0.0400864 0.055174 -0.118523, 
            -0.0334588 0.0113629 -0.118562, -0.021074 0.0648612 -0.118523, -0.053975 -0.0117675 -0.284188, -0.053975 -0.0104452 -0.177701, 
            -0.0544074 -0.000184615 -0.289334, -0.000103447 -0.0694017 -0.118538, -0.021074 -0.0648612 -0.118523, 0 -0.0595466 -0.157827, 
            -0.000103447 -0.0694017 -0.118538, -0.00715673 -0.0355996 -0.118509, -0.021074 -0.0648612 -0.118523, -0.0452876 -0.0372892 -0.23873, 
            -0.0343533 -0.0459994 -0.183307, -0.051454 -0.0261898 -0.187514, -0.0648607 -0.0210757 -0.118523, -0.0571252 -0.0174068 -0.157447, 
            -0.0444985 -0.0402911 -0.157252, 0.0278266 0.0516346 -0.181015, 0.0489319 0.0314301 -0.182522, 0.0411803 0.0664849 -0.181832, 
            0.0447688 0.0398634 -0.157608, 0.0489319 0.0314301 -0.182522, 0.0278266 0.0516346 -0.181015, -0.0648607 0.0210757 -0.118523, 
            -0.0551748 0.0400855 -0.118523, -0.0535258 0.0281183 -0.156848, -0.0551748 -0.0400855 -0.118523, -0.0551748 0.0400855 -0.118523, 
            -0.0648607 0.0210757 -0.118523, 0.0572266 -0.0167976 -0.15854, 0.0648607 -0.0210757 -0.118523, 0.0551748 -0.0400855 -0.118523, 
            0.0551748 -0.0400855 -0.118523, 0.0648607 -0.0210757 -0.118523, 0.0551748 0.0400855 -0.118523, -0.0551748 -0.0400855 -0.118523, 
            -0.0648607 -0.0210757 -0.118523, -0.0444985 -0.0402911 -0.157252, -0.0551748 -0.0400855 -0.118523, -0.0648607 0.0210757 -0.118523, 
            -0.0648607 -0.0210757 -0.118523, 0.0648607 -0.0210757 -0.118523, 0.0648607 0.0210757 -0.118523, 0.0551748 0.0400855 -0.118523, 
            0.0447688 0.0398634 -0.157608, 0.0551748 0.0400855 -0.118523, 0.0648607 0.0210757 -0.118523, -0.021074 0.0648612 -0.118523, 
            -0.0334588 0.0113629 -0.118562, -0.0183735 0.0298979 -0.117946, -0.020782 0.0188938 -0.0963794, -0.02032 0.0275073 -0.115018, 
            -0.0334588 0.0113629 -0.118562, 0.0530666 0.000583246 -0.289814, 0.0573764 0.00311735 -0.291549, 0.0544006 -0.0010332 -0.24013, 
            0.0530666 0.000583246 -0.289814, 0.0544006 -0.0010332 -0.24013, 0.053975 -0.0117675 -0.284188, 0.0425641 -0.0563957 -0.29535, 
            0.0446871 -0.0599276 -0.311296, 0.0445108 -0.0426006 -0.296511, -0.00582848 0.0600928 -0.180739, -0.0215672 0.0775892 -0.18286, 
            -0.0580802 0.0539633 -0.185382, -0.0215672 0.0775892 -0.18286, -0.0480781 0.0700592 -0.191851, -0.0580802 0.0539633 -0.185382, 
            0.0211819 -0.0522661 -0.214369, 8.31275e-05 -0.0571399 -0.240638, 0.00882719 -0.0553913 -0.1881, -1.21561e-05 -0.0574844 -0.294432, 
            0.0162848 -0.0552127 -0.292532, 8.75234e-05 -0.058664 -0.238869, -0.0411381 0.0220993 -0.321947, -0.0446897 0.0462197 -0.32074, 
            0.0194549 0.0606642 -0.323566, 0.055571 0.0118701 -0.187124, 0.0421822 0.0366502 -0.184925, 0.0368919 0.0456531 -0.181679, 
            0.0259245 -0.0603389 -0.336268, 0.0442311 -0.053032 -0.312008, 0.0437325 -0.060999 -0.347094, 0.0143876 0.0225841 -0.307573, 
            0.020133 0.0189239 -0.30793, 0.00762275 0.0266772 -0.322156, -0.0240298 0.0538946 -0.161454, -0.0208245 0.0544462 -0.167441, 
            -0.0476698 0.035893 -0.182584, -0.051454 -0.0261898 -0.187514, -0.053975 -0.0104452 -0.177701, -0.052144 -0.0235706 -0.282257, 
            0.0325233 -0.0257005 -0.280175, 0.0234885 -0.0336479 -0.281777, 0.037779 -0.0382193 -0.284979, -0.052451 -0.00281926 -0.271413, 
            -0.052451 -0.0117675 -0.284188, -0.0526082 -0.000601096 -0.289081, -0.0343533 -0.0459994 -0.183307, -0.0208257 -0.0544457 -0.16744, 
            -0.0444985 -0.0402911 -0.157252, 0.0258738 0.00479587 -0.35223, 0.0259245 -0.0603389 -0.336268, 0.0260758 -0.0416255 -0.360807, 
            -0.0333726 -0.0471516 -0.287402, -0.0170657 -0.0561269 -0.238869, -0.0208257 -0.0544457 -0.16744, 0.0416535 -0.0722167 -0.328089, 
            0.0419473 -0.0689403 -0.347567, 0.0443591 -0.0646713 -0.330552, 0.0416535 -0.0722167 -0.328089, 0.0443591 -0.0646713 -0.330552, 
            0.0446871 -0.0599276 -0.311296, 0.0278266 0.0516346 -0.181015, 0.0208257 0.0544457 -0.16744, 0.02403 0.0538944 -0.161454, 
            0.025872 0.00810375 -0.316964, 0.025837 -0.0122439 -0.294445, 0.026058 -0.0325685 -0.292157, 0.0215218 0.0218203 -0.332991, 
            0.038862 0.0220732 -0.334282, 0.0416535 0.0177074 -0.348902, 0.0416535 0.0177074 -0.348902, 0.038862 0.0220732 -0.334282, 
            0.0446829 0.014336 -0.330486, 0.0283851 0.0136667 -0.298656, 0.0313473 0.0135665 -0.303729, 0.00224 0.030323 -0.298656, 
            0.000508 -0.00694966 -0.374388, 0.0424881 0.00715493 -0.364183, 0.0416535 -0.00844097 -0.374185, 0.0368919 0.0456531 -0.181679, 
            0.00951403 0.0550641 -0.184925, -0.00723284 0.0591929 -0.182523, -0.0531246 0.00635 -0.185177, -0.052451 -0.00311233 -0.191842, 
            -0.0552222 0.00126367 -0.188832, 0.000507995 -0.0444481 -0.286832, 0.0100475 -0.0351582 -0.278169, -7.6327e-05 -0.0358644 -0.27695, 
            0.0416535 -0.0676214 -0.310114, 0.0416535 -0.0722167 -0.328089, 0.0446871 -0.0599276 -0.311296, 0.0416535 -0.0676214 -0.310114, 
            0.0446871 -0.0599276 -0.311296, 0.0425641 -0.0563957 -0.29535, 0.0506823 -0.023136 -0.282275, 0.052451 -0.0104452 -0.177701, 
            0.052451 -0.0117675 -0.284188, 0.0503039 -0.0276538 -0.1881, 0.052144 -0.0235706 -0.282257, 0.053975 -0.0117675 -0.284188, 
            0.0319762 -0.047355 -0.240638, 0.036484 -0.0423259 -0.1881, 0.0442816 -0.0361518 -0.254848, 0.0325716 -0.0458786 -0.286783, 
            0.0454809 -0.0370887 -0.245357, 0.0328731 -0.0485883 -0.238869, -0.0664742 0.00409893 -0.228711, -0.0578725 0.00461521 -0.292692, 
            -0.0544074 -0.000184615 -0.289334, 0.000508 -0.0432492 -0.374636, 0.0416535 -0.0267237 -0.377341, 0.0430975 -0.0471157 -0.371691, 
            0.0388882 -0.0132684 -0.295934, 0.0439702 -0.00586973 -0.295937, 0.037779 -0.0382193 -0.284979, 0.0439702 -0.00586973 -0.295937, 
            0.0325233 -0.0257005 -0.280175, 0.037779 -0.0382193 -0.284979, 0.00762275 0.0266772 -0.322156, 0.020133 0.0189239 -0.30793, 
            0.0138884 0.022972 -0.323426, -9.22709e-06 0.0624519 -0.322064, 0.00762275 0.0266772 -0.322156, 0.0138884 0.022972 -0.323426, 
            -0.065587 0.00129456 -0.194483, -0.0548574 -0.000490331 -0.189343, -0.0572708 0.00390757 -0.186742, -0.0572708 0.00390757 -0.186742, 
            -0.0548574 -0.000490331 -0.189343, -0.0571252 -0.0174068 -0.157447, 0.0599477 0.00821201 -0.156319, 0.0572266 -0.0167976 -0.15854, 
            0.0571255 0.00431223 -0.185998, 0.0506823 -0.023136 -0.282275, 0.0503013 -0.02285 -0.177701, 0.052451 -0.0104452 -0.177701, 
            0.0219838 0.0214387 -0.329269, 0.0215217 0.0218203 -0.327973, 0.038862 0.0220732 -0.334282, 0.0343533 -0.0459994 -0.183307, 
            0.0240298 -0.0538946 -0.161454, 0.0208245 -0.0544462 -0.167441, 0.0162848 -0.0552127 -0.292532, 0.0328731 -0.0485883 -0.238869, 
            0.0172331 -0.0560757 -0.238869, 0.0215218 0.0218203 -0.332991, 0.0084472 0.0207515 -0.333732, 0.0139753 0.0198477 -0.333657, 
            0.0404591 0.00597469 -0.252072, 0.0430242 0.00432678 -0.29193, 0.0354743 0.00915035 -0.273535, 0.0447226 0.00915968 -0.349693, 
            0.044974 0.00560927 -0.31179, 0.043942 0.00541777 -0.342339, -0.0413868 0.0376346 -0.180373, -0.0515303 0.0216158 -0.184544, 
            -0.0411868 0.039987 -0.18214, -0.0503193 -0.0253027 -0.250506, -0.0443661 -0.0357023 -0.217581, -0.0451133 -0.0338526 -0.282968, 
            -0.0429855 0.061401 -0.254612, -0.0473015 0.0682645 -0.191302, -0.0646182 0.0520756 -0.201461, -0.0429855 0.061401 -0.254612, 
            -0.0225348 0.0714844 -0.254612, -0.0473015 0.0682645 -0.191302, -0.0537767 -0.0151867 -0.1881, -0.053975 -0.0104452 -0.177701, 
            -0.051454 -0.0261898 -0.187514, -0.0351799 0.048421 -0.155975, -0.0240298 0.0538946 -0.161454, -0.0476698 0.035893 -0.182584, 
            -0.021074 0.0648612 -0.118523, -0.020816 0.0557455 -0.158089, -0.0351799 0.048421 -0.155975, 0.0649488 0.00655301 -0.229725, 
            0.0530666 0.000583246 -0.289814, 0.0644531 0.002253 -0.194884, 0.0530666 0.000583246 -0.289814, 0.0529045 0.000967959 -0.194434, 
            0.0644531 0.002253 -0.194884, 5.65369e-05 0.0834667 -0.191719, 0.0247508 0.0796562 -0.192124, 0.042075 0.0676712 -0.184141, 
            0.0416535 -0.00844097 -0.374185, 0.0424881 0.00715493 -0.364183, 0.0445116 -0.00592432 -0.364326, 0.055571 0.0118701 -0.187124, 
            0.0368919 0.0456531 -0.181679, 0.0635938 0.0542054 -0.19175, -0.065587 0.00129456 -0.194483, -0.0664742 0.00409893 -0.228711, 
            -0.0544074 -0.000184615 -0.289334, 0.0313473 0.0135665 -0.303729, 0.0362252 0.00966571 -0.296922, 0.0416535 0.017904 -0.31253, 
            0.0208159 0.0557455 -0.158088, 0.0400864 0.055174 -0.118523, 0.0447688 0.0398634 -0.157608, 0.0188066 -0.0526202 -0.184925, 
            0.035419 -0.0432211 -0.184925, 0.0211819 -0.0522661 -0.214369, 0.021074 0.0648612 -0.118523, 0.0183722 0.0298989 -0.117947, 
            0.0275745 0.0219899 -0.118523, -0.0400864 -0.055174 -0.118523, -0.0444985 -0.0402911 -0.157252, -0.0208159 -0.0557455 -0.158088, 
            -0.0681989 0 -0.118523, -0.0598516 0 -0.155975, -0.0571252 -0.0174068 -0.157447, -0.0681989 0 -0.118523, 
            -0.0648607 0.0210757 -0.118523, -0.0598516 0 -0.155975, 0.0599477 0.00821201 -0.156319, 0.0571255 0.00431223 -0.185998, 
            0.0489319 0.0314301 -0.182522, 0.0447688 0.0398634 -0.157608, 0.0599477 0.00821201 -0.156319, 0.0489319 0.0314301 -0.182522, 
            9.91544e-05 0.0694001 -0.118543, 0 0.0352691 -0.118523, 0.0183722 0.0298989 -0.117947, -0.0526082 -0.000601096 -0.289081, 
            -0.0559892 0.00392094 -0.292151, -0.063679 0.00339439 -0.234503, 0.026058 -0.0325685 -0.292157, 0.025837 -0.0122439 -0.294445, 
            0.0388882 -0.0132684 -0.295934, -0.0174302 -0.0533132 -0.1881, -0.0160895 -0.0537278 -0.291411, -0.0325695 -0.04588 -0.286783, 
            0.0572266 -0.0167976 -0.15854, 0.0421073 -0.0428777 -0.1575, 0.0503039 -0.0276538 -0.1881, 0.0421073 -0.0428777 -0.1575, 
            0.0343533 -0.0459994 -0.183307, 0.0503039 -0.0276538 -0.1881, 0.0194549 0.0606642 -0.323566, 0.0138884 0.022972 -0.323426, 
            0.00981319 0.0229698 -0.32384, -0.0200212 0.0604214 -0.316017, -9.22709e-06 0.0624519 -0.322064, -0.0225348 0.0714844 -0.254612, 
            -0.0200212 0.0604214 -0.316017, -0.0225348 0.0714844 -0.254612, -0.0429855 0.061401 -0.254612, 0.0537784 0.0375879 -0.308757, 
            0.0541117 0.0113299 -0.310382, 0.0649488 0.00655301 -0.229725, 0.0665041 0.0410051 -0.228544, 0.0573764 0.00311735 -0.291549, 
            0.0541117 0.0113299 -0.310382, 0.0421073 -0.0428777 -0.1575, 0.021074 -0.0648612 -0.118523, 0.020816 -0.0557455 -0.158089, 
            -9.22709e-06 0.0624519 -0.322064, -0.000193957 0.0229707 -0.322227, 0.00762275 0.0266772 -0.322156, 0.0273311 0.0143382 -0.280744, 
            0.0280869 0.0138567 -0.27671, 0.0430242 0.00432678 -0.29193, 0.0664408 0.00196885 -0.228684, 0.0544006 -0.0010332 -0.24013, 
            0.0573764 0.00311735 -0.291549, -0.0444985 -0.0402911 -0.157252, -0.0571252 -0.0174068 -0.157447, -0.051454 -0.0261898 -0.187514, 
            -0.0183735 0.0298979 -0.117946, -0.0334588 0.0113629 -0.118562, -0.02032 0.0275073 -0.115018, -9.22709e-06 0.0624519 -0.322064, 
            0.03054 0.0550378 -0.321448, 0.0225375 0.0714836 -0.254612, -0.0325695 -0.04588 -0.286783, -0.0443661 -0.0357023 -0.217581, 
            -0.0398431 -0.0394796 -0.1881, 0.053975 0.00635 -0.182775, 0.053975 0.0104452 -0.177701, 0.0538405 -0.0136568 -0.177701, 
            0.0599477 0.00821201 -0.156319, 0.0648607 -0.0210757 -0.118523, 0.0572266 -0.0167976 -0.15854, 0.052451 -0.0104452 -0.177701, 
            0.0538405 -0.0136568 -0.177701, 0.053975 0.0104452 -0.177701, 0.052451 -0.0104452 -0.177701, 0.0503013 -0.02285 -0.177701, 
            0.0538405 -0.0136568 -0.177701, 0.0429879 0.0613993 -0.254612, 0.0648924 0.0454423 -0.228601, 0.0635938 0.0542054 -0.19175, 
            0.0396689 0.00647814 -0.227838, 0.0429569 0.00438342 -0.206352, 0.0430242 0.00432678 -0.29193, 0.0215218 0.0218203 -0.332991, 
            0.0219838 0.0214387 -0.329269, 0.038862 0.0220732 -0.334282, -0.0598516 0 -0.155975, -0.0535258 0.0281183 -0.156848, 
            -0.0572708 0.00390757 -0.186742, -0.0535258 0.0281183 -0.156848, -0.0476698 0.035893 -0.182584, -0.0572708 0.00390757 -0.186742, 
            0.00686855 0.0203264 -0.32716, 0.00981319 0.0229698 -0.32384, 0.0190211 0.0186298 -0.327281, 0.0215217 0.0218203 -0.327973, 
            0.00981319 0.0229698 -0.32384, 0.038862 0.0220732 -0.334282, 0.0481564 0.0693212 -0.19227, 0.065984 0.0531707 -0.199819, 
            0.0438513 0.062632 -0.254853, 0.0481564 0.0693212 -0.19227, 0.0438513 0.062632 -0.254853, 0.0229902 0.0729188 -0.254853, 
            -0.0503193 -0.0253027 -0.250506, -0.0451133 -0.0338526 -0.282968, -0.0506823 -0.023136 -0.282275, 0.042075 0.0676712 -0.184141, 
            0.0368919 0.0456531 -0.181679, -0.00723284 0.0591929 -0.182523, -0.0452876 -0.0372892 -0.23873, -0.0463374 -0.0347523 -0.283137, 
            -0.0333726 -0.0471516 -0.287402, -0.051454 -0.0261898 -0.187514, -0.0463374 -0.0347523 -0.283137, -0.0452876 -0.0372892 -0.23873, 
            0.000508 -0.0596458 -0.297386, 0.000508 -0.0696745 -0.312935, 0.0416535 -0.0676214 -0.310114, -0.0351799 0.048421 -0.155975, 
            -0.020816 0.0557455 -0.158089, -0.0240298 0.0538946 -0.161454, 0.000508 -0.0730206 -0.331133, 0.000508 -0.0691789 -0.349232, 
            0.0419473 -0.0689403 -0.347567, -0.0531246 0.00635 -0.185177, -0.052451 0.00233806 -0.183721, -0.052451 -0.00311233 -0.191842, 
            0.000508 -0.0587294 -0.364501, 0.000508 -0.0432492 -0.374636, 0.0430975 -0.0471157 -0.371691, 0.000508 -0.0250749 -0.378106, 
            0.000508 -0.00694966 -0.374388, 0.0416535 -0.00844097 -0.374185, 0.000508 0.00839071 -0.364043, 0.000508 0.0186308 -0.348632, 
            0.0416535 0.0177074 -0.348902, 0.0439702 -0.00586973 -0.295937, 0.0388882 -0.0132684 -0.295934, 0.044974 0.00560927 -0.31179, 
            -0.0343533 -0.0459994 -0.183307, -0.0444985 -0.0402911 -0.157252, -0.051454 -0.0261898 -0.187514, 0.0442311 -0.053032 -0.312008, 
            0.0445108 -0.0426006 -0.296511, 0.0446871 -0.0599276 -0.311296, 0.0442311 -0.053032 -0.312008, 0.0446871 -0.0599276 -0.311296, 
            0.0437325 -0.060999 -0.347094, -0.00723284 0.0591929 -0.182523, -0.00951402 0.0550641 -0.184925, -0.0274389 0.0486794 -0.184925, 
            0.0368919 0.0456531 -0.181679, 0.0274389 0.0486794 -0.184925, 0.00951403 0.0550641 -0.184925, 0.0183722 0.0298989 -0.117947, 
            0.02032 0.0275073 -0.115018, 0.0275745 0.0219899 -0.118523, 0.0224785 0.0173721 -0.0969022, 0.0275745 0.0219899 -0.118523, 
            0.02032 0.0275073 -0.115018, 0.0185086 0.023131 -0.0989865, -0.0195834 0.0251764 -0.0989731, 0.012213 0.0372354 -0.095611, 
            0.0224785 0.0173721 -0.0969022, 0.0185086 0.023131 -0.0989865, 0.012213 0.0372354 -0.095611, -0.0446897 0.0462197 -0.32074, 
            -0.0561848 0.037312 -0.302223, -0.043849 0.0626336 -0.254853, -0.020315 0.0618313 -0.31657, -0.0446897 0.0462197 -0.32074, 
            -0.043849 0.0626336 -0.254853, 0.0100475 -0.0351582 -0.278169, 0.00910199 -0.0341126 -0.272149, -7.6327e-05 -0.0358644 -0.27695, 
            0.0225375 0.0714836 -0.254612, 0.0429879 0.0613993 -0.254612, 0.0470638 0.0683336 -0.195452, 0.0429879 0.0613993 -0.254612, 
            0.0635938 0.0542054 -0.19175, 0.0470638 0.0683336 -0.195452, 0.000507995 -0.0444481 -0.286832, 0.0234885 -0.0336479 -0.281777, 
            0.0205645 -0.0305364 -0.276546, 0.0283851 0.0136667 -0.298656, 0.0312706 0.0124724 -0.299956, 0.0313473 0.0135665 -0.303729, 
            0.0362252 0.00966571 -0.296922, 0.0313473 0.0135665 -0.303729, 0.0312706 0.0124724 -0.299956, 0.055571 0.0118701 -0.187124, 
            0.0520344 0.0203713 -0.184925, 0.0421822 0.0366502 -0.184925, 0.0400864 -0.055174 -0.118523, 0.0360979 0.0010275 -0.118514, 
            0.0226459 -0.028254 -0.118511, 0.0276148 -0.0135058 -0.0969124, 0.0226459 -0.028254 -0.118511, 0.0360979 0.0010275 -0.118514, 
            -0.021074 -0.0648612 -0.118523, -0.0275745 -0.0219899 -0.118523, -0.0343848 -0.00784811 -0.118523, -0.0288649 -0.00306008 -0.0966945, 
            -0.0343848 -0.00784811 -0.118523, -0.0275745 -0.0219899 -0.118523, -0.020315 0.0618313 -0.31657, -0.0240407 0.0767972 -0.225237, 
            1.43563e-06 0.0764572 -0.254853, -0.020315 0.0618313 -0.31657, -0.043849 0.0626336 -0.254853, -0.0240407 0.0767972 -0.225237, 
            -0.0247147 0.079796 -0.191177, 5.65369e-05 0.0834667 -0.191719, -0.0371788 0.0694809 -0.183119, 0.0084472 0.0207515 -0.333732, 
            0.00648991 0.0212677 -0.328075, 0.00686827 0.0203265 -0.333805, 0.053975 0.0108848 -0.182775, 0.053975 0.00635 -0.182775, 
            0.0571255 0.00431223 -0.185998, 0.0240722 0.0164143 -0.302872, 0.0138884 0.022972 -0.323426, 0.020133 0.0189239 -0.30793, 
            0.052451 -0.0117675 -0.284188, 0.053975 -0.0117675 -0.284188, 0.052144 -0.0235706 -0.282257, 0.052451 -0.0117675 -0.284188, 
            0.0530666 0.000583246 -0.289814, 0.053975 -0.0117675 -0.284188, 0.0260758 -0.0416255 -0.360807, 0.0430975 -0.0471157 -0.371691, 
            0.0446331 -0.0252455 -0.367672, 0.0252944 0.08122 -0.191242, -1.41812e-05 0.0851067 -0.190901, 0.0411803 0.0664849 -0.181832, 
            -0.0537767 -0.0151867 -0.1881, -0.051454 -0.0261898 -0.187514, -0.0571252 -0.0174068 -0.157447, -0.0537767 -0.0151867 -0.1881, 
            -0.0571252 -0.0174068 -0.157447, -0.0548574 -0.000490331 -0.189343, 0.0447688 0.0398634 -0.157608, 0.02403 0.0538944 -0.161454, 
            0.0208159 0.0557455 -0.158088, 0.0447688 0.0398634 -0.157608, 0.0278266 0.0516346 -0.181015, 0.02403 0.0538944 -0.161454, 
            -0.0537767 -0.0151867 -0.1881, -0.0548574 -0.000490331 -0.189343, -0.0557659 0.00356921 -0.1863, -0.053975 0.00635 -0.182775, 
            -0.0557659 0.00356921 -0.1863, -0.0548574 -0.000490331 -0.189343, 0.0143876 0.0225841 -0.310872, 0.00844657 0.0151825 -0.309238, 
            0.0143876 0.0225841 -0.307573, 0.0143876 0.0225841 -0.307573, 0.0143876 0.0225841 -0.310872, 0.020133 0.0189239 -0.30793, 
            0.0143876 0.0225841 -0.310872, 0.0143876 0.0225841 -0.307573, 0.020133 0.0189239 -0.30793, 0.0143876 0.0225841 -0.307573, 
            0.00844657 0.0151825 -0.309238, 0.0143876 0.0225841 -0.310872, 0.000211158 0.0242399 -0.323751, 0.00648991 0.0212677 -0.328075, 
            0.000508 0.022225 -0.330482, -0.02403 -0.0538944 -0.161454, -0.0208159 -0.0557455 -0.158088, -0.0444985 -0.0402911 -0.157252, 
            -0.0208257 -0.0544457 -0.16744, -0.02403 -0.0538944 -0.161454, -0.0444985 -0.0402911 -0.157252, 0.026058 -0.0325685 -0.292157, 
            0.0442311 -0.053032 -0.312008, 0.0259245 -0.0603389 -0.336268, 0.0442816 -0.0361518 -0.254848, 0.0506823 -0.023136 -0.282275, 
            0.052144 -0.0235706 -0.282257, 0.0506823 -0.023136 -0.282275, 0.052451 -0.0117675 -0.284188, 0.052144 -0.0235706 -0.282257, 
            -0.0195834 0.0239478 -0.0993801, -0.020782 0.0188938 -0.0963794, -0.0195834 0.0251764 -0.0989731, 0.0185086 0.023131 -0.0989865, 
            -0.0195834 0.0239478 -0.0993801, -0.0195834 0.0251764 -0.0989731, 0.0336956 -0.010973 -0.361256, 0.0445116 -0.00592432 -0.364326, 
            0.043942 0.00541777 -0.342339, 0.0188066 -0.0526202 -0.184925, 0.0211819 -0.0522661 -0.214369, 0.00882719 -0.0553913 -0.1881, 
            -0.0446897 0.0462197 -0.32074, -0.0411381 0.0220993 -0.321947, -0.0489983 0.020934 -0.316985, 0.0439702 -0.00586973 -0.295937, 
            0.0429985 0.00377487 -0.290506, 0.0420055 0.0002253 -0.277924, -0.020782 0.0188938 -0.0963794, 0.012213 0.0372354 -0.095611, 
            -0.0195834 0.0251764 -0.0989731, 0.0336956 -0.010973 -0.361256, 0.0446331 -0.0252455 -0.367672, 0.0445116 -0.00592432 -0.364326, 
            0.0215217 0.0218203 -0.327973, 0.0190211 0.0186298 -0.327281, 0.00981319 0.0229698 -0.32384, 0.0276148 -0.0135058 -0.0969124, 
            -0.0152929 -0.0243977 -0.0969147, -0.00715673 -0.0355996 -0.118509, 0.0276148 -0.0135058 -0.0969124, -0.00715673 -0.0355996 -0.118509, 
            0.0226459 -0.028254 -0.118511, -0.020315 0.0618313 -0.31657, 1.40283e-06 0.0651048 -0.316542, 0.0194549 0.0606642 -0.323566, 
            -0.020315 0.0618313 -0.31657, 0.0194549 0.0606642 -0.323566, -0.0446897 0.0462197 -0.32074, 0.0361151 -0.0112689 -0.276448, 
            0.0420055 0.0002253 -0.277924, 0.03651 -0.00840087 -0.271109, 8.75234e-05 -0.058664 -0.238869, 0.0172331 -0.0560757 -0.238869, 
            0 -0.0582661 -0.167704, -0.0170657 -0.0561269 -0.238869, 8.75234e-05 -0.058664 -0.238869, 0 -0.0582661 -0.167704, 
            0.0537767 -0.0151867 -0.1881, 0.0571255 0.00431223 -0.185998, 0.0572266 -0.0167976 -0.15854, 0.0572266 -0.0167976 -0.15854, 
            0.0503039 -0.0276538 -0.1881, 0.0537767 -0.0151867 -0.1881, 0.0421073 -0.0428777 -0.1575, 0.0240298 -0.0538946 -0.161454, 
            0.0343533 -0.0459994 -0.183307, 0.0421073 -0.0428777 -0.1575, 0.020816 -0.0557455 -0.158089, 0.0240298 -0.0538946 -0.161454, 
            -1.41812e-05 0.0851067 -0.190901, 0.0252944 0.08122 -0.191242, 1.43563e-06 0.0764572 -0.254853, -1.41812e-05 0.0851067 -0.190901, 
            1.43563e-06 0.0764572 -0.254853, -0.0240407 0.0767972 -0.225237, 0.0172331 -0.0560757 -0.238869, 0.0208245 -0.0544462 -0.167441, 
            0 -0.0582661 -0.167704, 0.0172331 -0.0560757 -0.238869, 0.0328731 -0.0485883 -0.238869, 0.0208245 -0.0544462 -0.167441, 
            0.0319762 -0.047355 -0.240638, 0.0442816 -0.0361518 -0.254848, 0.0325716 -0.0458786 -0.286783, 0.0319762 -0.047355 -0.240638, 
            0.0325716 -0.0458786 -0.286783, 0.0162848 -0.0552127 -0.292532, 0.0260758 -0.0416255 -0.360807, 0.0259245 -0.0603389 -0.336268, 
            0.0437325 -0.060999 -0.347094, 0.0280869 0.0138567 -0.27671, 0.0322219 0.0112224 -0.276494, 0.0430242 0.00432678 -0.29193, 
            -0.053975 -0.0117675 -0.284188, -0.052144 -0.0235706 -0.282257, -0.053975 -0.0104452 -0.177701, 0.053736 -0.0153303 -0.184925, 
            0.0537767 -0.0151867 -0.1881, 0.0538405 -0.0136568 -0.177701, 0.025872 0.00810375 -0.316964, 0.0388882 -0.0132684 -0.295934, 
            0.025837 -0.0122439 -0.294445, 0.0529045 0.000967959 -0.194434, 0.052451 0.00635 -0.182775, 0.0531246 0.00635 -0.185177, 
            0.0258738 0.00479587 -0.35223, 0.0336956 -0.010973 -0.361256, 0.043942 0.00541777 -0.342339, 1.43377e-06 0.0749522 -0.254612, 
            5.65369e-05 0.0834667 -0.191719, -0.0247147 0.079796 -0.191177, 1.43377e-06 0.0749522 -0.254612, 0.0247508 0.0796562 -0.192124, 
            5.65369e-05 0.0834667 -0.191719, -0.0544452 0.0374062 -0.307058, -0.0529394 0.0179773 -0.30933, -0.0478881 0.0206154 -0.315935, 
            0.0252944 0.08122 -0.191242, 0.0481564 0.0693212 -0.19227, 0.0229902 0.0729188 -0.254853, 0.0252944 0.08122 -0.191242, 
            0.0229902 0.0729188 -0.254853, 1.43563e-06 0.0764572 -0.254853, 0.0319762 -0.047355 -0.240638, 0.0162848 -0.0552127 -0.292532, 
            0.0211819 -0.0522661 -0.214369, 0.0211819 -0.0522661 -0.214369, 0.0162848 -0.0552127 -0.292532, 8.31275e-05 -0.0571399 -0.240638, 
            -0.0163097 -0.0552056 -0.292526, -1.21561e-05 -0.0574844 -0.294432, -0.0170657 -0.0561269 -0.238869, -0.0163097 -0.0552056 -0.292526, 
            -0.0170657 -0.0561269 -0.238869, -0.0333726 -0.0471516 -0.287402, -0.065587 0.00129456 -0.194483, -0.0544074 -0.000184615 -0.289334, 
            -0.0548574 -0.000490331 -0.189343, 0.0424881 0.00715493 -0.364183, 0.0447226 0.00915968 -0.349693, 0.0445116 -0.00592432 -0.364326, 
            0.0283851 0.0136667 -0.298656, 0.00224 0.030323 -0.298656, 0.0273311 0.0143382 -0.297518, 0.0283851 0.0136667 -0.298656, 
            0.0273311 0.0143382 -0.297518, 0.0312706 0.0124724 -0.299956, 0.0231064 0.00770667 -0.298656, 0.0273311 0.0143382 -0.297518, 
            0.0283851 0.0136667 -0.298656, 0.0231064 0.00770667 -0.298656, 0.0283851 0.0136667 -0.298656, 0.0273311 0.0143382 -0.297518, 
            0.012213 0.0372354 -0.095611, -0.020782 0.0188938 -0.0963794, 0.0224785 0.0173721 -0.0969022, 0.0530666 0.000583246 -0.289814, 
            0.0649488 0.00655301 -0.229725, 0.0573764 0.00311735 -0.291549, 0.0649488 0.00655301 -0.229725, 0.0541117 0.0113299 -0.310382, 
            0.0573764 0.00311735 -0.291549, 0.0143876 0.0225841 -0.310872, 0.00844657 0.0151825 -0.309238, 0.0111592 0.0148527 -0.309845, 
            0.0143876 0.0225841 -0.310872, 0.0111592 0.0148527 -0.309845, 0.00844657 0.0151825 -0.309238, 0.0405195 0.0218276 -0.320553, 
            0.0411381 0.0220993 -0.321947, 0.0541117 0.0113299 -0.310382, 8.31275e-05 -0.0571399 -0.240638, 0.0162848 -0.0552127 -0.292532, 
            -1.21561e-05 -0.0574844 -0.294432, 8.31275e-05 -0.0571399 -0.240638, -1.21561e-05 -0.0574844 -0.294432, -0.0160895 -0.0537278 -0.291411, 
            0.00648991 0.0212677 -0.328075, 0.00981319 0.0229698 -0.32384, 0.00686855 0.0203264 -0.32716, 0.0325716 -0.0458786 -0.286783, 
            0.0442816 -0.0361518 -0.254848, 0.0454809 -0.0370887 -0.245357, 0.0442816 -0.0361518 -0.254848, 0.052144 -0.0235706 -0.282257, 
            0.0454809 -0.0370887 -0.245357, 0.0336956 -0.010973 -0.361256, 0.0258738 0.00479587 -0.35223, 0.0260758 -0.0416255 -0.360807, 
            -0.0644248 0.00271335 -0.195628, -0.0561789 0.0165478 -0.18733, -0.0552222 0.00126367 -0.188832, 0.0328731 -0.0485883 -0.238869, 
            0.0343533 -0.0459994 -0.183307, 0.0208245 -0.0544462 -0.167441, 0.0328731 -0.0485883 -0.238869, 0.0454809 -0.0370887 -0.245357, 
            0.0343533 -0.0459994 -0.183307, -1.41812e-05 0.0851067 -0.190901, -0.0240407 0.0767972 -0.225237, -0.0215672 0.0775892 -0.18286, 
            -0.0215672 0.0775892 -0.18286, -0.0240407 0.0767972 -0.225237, -0.0480781 0.0700592 -0.191851, -1.41812e-05 0.0851067 -0.190901, 
            -0.0215672 0.0775892 -0.18286, 0.0411803 0.0664849 -0.181832, 0.035419 -0.0432211 -0.184925, 0.036484 -0.0423259 -0.1881, 
            0.0211819 -0.0522661 -0.214369
          ]
        }
        coordIndex
        [
          0,1,2,-1, 3,4,5,-1, 6,7,8,-1, 9,10,11,-1, 12,13,14,-1, 15,16,17,-1, 
          18,19,20,-1, 21,22,23,-1, 24,25,26,-1, 27,28,29,-1, 30,31,32,-1, 33,34,35,-1, 
          36,37,38,-1, 39,40,41,-1, 42,43,44,-1, 45,46,47,-1, 48,49,50,-1, 51,52,53,-1, 
          54,55,56,-1, 57,58,59,-1, 60,61,62,-1, 63,64,65,-1, 66,67,68,-1, 69,70,71,-1, 
          72,73,74,-1, 75,76,77,-1, 78,79,80,-1, 81,82,83,-1, 84,85,86,-1, 87,88,89,-1, 
          90,91,92,-1, 93,94,95,-1, 96,97,98,-1, 99,100,101,-1, 102,103,104,-1, 105,106,107,-1, 
          108,109,110,-1, 111,112,113,-1, 114,115,116,-1, 117,118,119,-1, 120,121,122,-1, 123,124,125,-1, 
          126,127,128,-1, 129,130,131,-1, 132,133,134,-1, 135,136,137,-1, 138,139,140,-1, 141,142,143,-1, 
          144,145,146,-1, 147,148,149,-1, 150,151,152,-1, 153,154,155,-1, 156,157,158,-1, 159,160,161,-1, 
          162,163,164,-1, 165,166,167,-1, 168,169,170,-1, 171,172,173,-1, 174,175,176,-1, 177,178,179,-1, 
          180,181,182,-1, 183,184,185,-1, 186,187,188,-1, 189,190,191,-1, 192,193,194,-1, 195,196,197,-1, 
          198,199,200,-1, 201,202,203,-1, 204,205,206,-1, 207,208,209,-1, 210,211,212,-1, 213,214,215,-1, 
          216,217,218,-1, 219,220,221,-1, 222,223,224,-1, 225,226,227,-1, 228,229,230,-1, 231,232,233,-1, 
          234,235,236,-1, 237,238,239,-1, 240,241,242,-1, 243,244,245,-1, 246,247,248,-1, 249,250,251,-1, 
          252,253,254,-1, 255,256,257,-1, 258,259,260,-1, 261,262,263,-1, 264,265,266,-1, 267,268,269,-1, 
          270,271,272,-1, 273,274,275,-1, 276,277,278,-1, 279,280,281,-1, 282,283,284,-1, 285,286,287,-1, 
          288,289,290,-1, 291,292,293,-1, 294,295,296,-1, 297,298,299,-1, 300,301,302,-1, 303,304,305,-1, 
          306,307,308,-1, 309,310,311,-1, 312,313,314,-1, 315,316,317,-1, 318,319,320,-1, 321,322,323,-1, 
          324,325,326,-1, 327,328,329,-1, 330,331,332,-1, 333,334,335,-1, 336,337,338,-1, 339,340,341,-1, 
          342,343,344,-1, 345,346,347,-1, 348,349,350,-1, 351,352,353,-1, 354,355,356,-1, 357,358,359,-1, 
          360,361,362,-1, 363,364,365,-1, 366,367,368,-1, 369,370,371,-1, 372,373,374,-1, 375,376,377,-1, 
          378,379,380,-1, 381,382,383,-1, 384,385,386,-1, 387,388,389,-1, 390,391,392,-1, 393,394,395,-1, 
          396,397,398,-1, 399,400,401,-1, 402,403,404,-1, 405,406,407,-1, 408,409,410,-1, 411,412,413,-1, 
          414,415,416,-1, 417,418,419,-1, 420,421,422,-1, 423,424,425,-1, 426,427,428,-1, 429,430,431,-1, 
          432,433,434,-1, 435,436,437,-1, 438,439,440,-1, 441,442,443,-1, 444,445,446,-1, 447,448,449,-1, 
          450,451,452,-1, 453,454,455,-1, 456,457,458,-1, 459,460,461,-1, 462,463,464,-1, 465,466,467,-1, 
          468,469,470,-1, 471,472,473,-1, 474,475,476,-1, 477,478,479,-1, 480,481,482,-1, 483,484,485,-1, 
          486,487,488,-1, 489,490,491,-1, 492,493,494,-1, 495,496,497,-1, 498,499,500,-1, 501,502,503,-1, 
          504,505,506,-1, 507,508,509,-1, 510,511,512,-1, 513,514,515,-1, 516,517,518,-1, 519,520,521,-1, 
          522,523,524,-1, 525,526,527,-1, 528,529,530,-1, 531,532,533,-1, 534,535,536,-1, 537,538,539,-1, 
          540,541,542,-1, 543,544,545,-1, 546,547,548,-1, 549,550,551,-1, 552,553,554,-1, 555,556,557,-1, 
          558,559,560,-1, 561,562,563,-1, 564,565,566,-1, 567,568,569,-1, 570,571,572,-1, 573,574,575,-1, 
          576,577,578,-1, 579,580,581,-1, 582,583,584,-1, 585,586,587,-1, 588,589,590,-1, 591,592,593,-1, 
          594,595,596,-1, 597,598,599,-1, 600,601,602,-1, 603,604,605,-1, 606,607,608,-1, 609,610,611,-1, 
          612,613,614,-1, 615,616,617,-1, 618,619,620,-1, 621,622,623,-1, 624,625,626,-1, 627,628,629,-1, 
          630,631,632,-1, 633,634,635,-1, 636,637,638,-1, 639,640,641,-1, 642,643,644,-1, 645,646,647,-1, 
          648,649,650,-1, 651,652,653,-1, 654,655,656,-1, 657,658,659,-1, 660,661,662,-1, 663,664,665,-1, 
          666,667,668,-1, 669,670,671,-1, 672,673,674,-1, 675,676,677,-1, 678,679,680,-1, 681,682,683,-1, 
          684,685,686,-1, 687,688,689,-1, 690,691,692,-1, 693,694,695,-1, 696,697,698,-1, 699,700,701,-1, 
          702,703,704,-1, 705,706,707,-1, 708,709,710,-1, 711,712,713,-1, 714,715,716,-1, 717,718,719,-1, 
          720,721,722,-1, 723,724,725,-1, 726,727,728,-1, 729,730,731,-1, 732,733,734,-1, 735,736,737,-1, 
          738,739,740,-1, 741,742,743,-1, 744,745,746,-1, 747,748,749,-1, 750,751,752,-1, 753,754,755,-1, 
          756,757,758,-1, 759,760,761,-1, 762,763,764,-1, 765,766,767,-1, 768,769,770,-1, 771,772,773,-1, 
          774,775,776,-1, 777,778,779,-1, 780,781,782,-1, 783,784,785,-1, 786,787,788,-1, 789,790,791,-1, 
          792,793,794,-1, 795,796,797,-1, 798,799,800,-1, 801,802,803,-1, 804,805,806,-1, 807,808,809,-1, 
          810,811,812,-1, 813,814,815,-1, 816,817,818,-1, 819,820,821,-1, 822,823,824,-1, 825,826,827,-1, 
          828,829,830,-1, 831,832,833,-1, 834,835,836,-1, 837,838,839,-1, 840,841,842,-1, 843,844,845,-1, 
          846,847,848,-1, 849,850,851,-1, 852,853,854,-1, 855,856,857,-1, 858,859,860,-1, 861,862,863,-1, 
          864,865,866,-1, 867,868,869,-1, 870,871,872,-1, 873,874,875,-1, 876,877,878,-1, 879,880,881,-1, 
          882,883,884,-1, 885,886,887,-1, 888,889,890,-1, 891,892,893,-1, 894,895,896,-1, 897,898,899,-1, 
          900,901,902,-1, 903,904,905,-1, 906,907,908,-1, 909,910,911,-1, 912,913,914,-1, 915,916,917,-1, 
          918,919,920,-1, 921,922,923,-1, 924,925,926,-1, 927,928,929,-1, 930,931,932,-1, 933,934,935,-1, 
          936,937,938,-1, 939,940,941,-1, 942,943,944,-1, 945,946,947,-1, 948,949,950,-1, 951,952,953,-1, 
          954,955,956,-1, 957,958,959,-1, 960,961,962,-1, 963,964,965,-1, 966,967,968,-1, 969,970,971,-1, 
          972,973,974,-1, 975,976,977,-1, 978,979,980,-1, 981,982,983,-1, 984,985,986,-1, 987,988,989,-1, 
          990,991,992,-1, 993,994,995,-1, 996,997,998,-1, 999,1000,1001,-1, 1002,1003,1004,-1, 1005,1006,1007,-1, 
          1008,1009,1010,-1, 1011,1012,1013,-1, 1014,1015,1016,-1, 1017,1018,1019,-1, 1020,1021,1022,-1, 1023,1024,1025,-1, 
          1026,1027,1028,-1, 1029,1030,1031,-1, 1032,1033,1034,-1, 1035,1036,1037,-1, 1038,1039,1040,-1, 1041,1042,1043,-1, 
          1044,1045,1046,-1, 1047,1048,1049,-1, 1050,1051,1052,-1, 1053,1054,1055,-1, 1056,1057,1058,-1, 1059,1060,1061,-1, 
          1062,1063,1064,-1, 1065,1066,1067,-1, 1068,1069,1070,-1, 1071,1072,1073,-1, 1074,1075,1076,-1, 1077,1078,1079,-1, 
          1080,1081,1082,-1, 1083,1084,1085,-1, 1086,1087,1088,-1, 1089,1090,1091,-1, 1092,1093,1094,-1, 1095,1096,1097,-1, 
          1098,1099,1100,-1, 1101,1102,1103,-1, 1104,1105,1106,-1, 1107,1108,1109,-1, 1110,1111,1112,-1, 1113,1114,1115,-1, 
          1116,1117,1118,-1, 1119,1120,1121,-1, 1122,1123,1124,-1, 1125,1126,1127,-1, 1128,1129,1130,-1, 1131,1132,1133,-1, 
          1134,1135,1136,-1, 1137,1138,1139,-1, 1140,1141,1142,-1, 1143,1144,1145,-1, 1146,1147,1148,-1, 1149,1150,1151,-1, 
          1152,1153,1154,-1, 1155,1156,1157,-1, 1158,1159,1160,-1, 1161,1162,1163,-1, 1164,1165,1166,-1, 1167,1168,1169,-1, 
          1170,1171,1172,-1, 1173,1174,1175,-1, 1176,1177,1178,-1, 1179,1180,1181,-1, 1182,1183,1184,-1, 1185,1186,1187,-1, 
          1188,1189,1190,-1, 1191,1192,1193,-1, 1194,1195,1196,-1, 1197,1198,1199,-1, 1200,1201,1202,-1, 1203,1204,1205,-1, 
          1206,1207,1208,-1, 1209,1210,1211,-1, 1212,1213,1214,-1, 1215,1216,1217,-1, 1218,1219,1220,-1, 1221,1222,1223,-1, 
          1224,1225,1226,-1, 1227,1228,1229,-1, 1230,1231,1232,-1, 1233,1234,1235,-1, 1236,1237,1238,-1, 1239,1240,1241,-1, 
          1242,1243,1244,-1, 1245,1246,1247,-1, 1248,1249,1250,-1, 1251,1252,1253,-1, 1254,1255,1256,-1, 1257,1258,1259,-1, 
          1260,1261,1262,-1, 1263,1264,1265,-1, 1266,1267,1268,-1, 1269,1270,1271,-1, 1272,1273,1274,-1, 1275,1276,1277,-1, 
          1278,1279,1280,-1, 1281,1282,1283,-1, 1284,1285,1286,-1, 1287,1288,1289,-1, 1290,1291,1292,-1, 1293,1294,1295,-1, 
          1296,1297,1298,-1, 1299,1300,1301,-1, 1302,1303,1304,-1, 1305,1306,1307,-1, 1308,1309,1310,-1, 1311,1312,1313,-1, 
          1314,1315,1316,-1, 1317,1318,1319,-1, 1320,1321,1322,-1, 1323,1324,1325,-1, 1326,1327,1328,-1, 1329,1330,1331,-1, 
          1332,1333,1334,-1, 1335,1336,1337,-1, 1338,1339,1340,-1, 1341,1342,1343,-1, 1344,1345,1346,-1, 1347,1348,1349,-1, 
          1350,1351,1352,-1, 1353,1354,1355,-1, 1356,1357,1358,-1, 1359,1360,1361,-1, 1362,1363,1364,-1, 1365,1366,1367,-1, 
          1368,1369,1370,-1, 1371,1372,1373,-1, 1374,1375,1376,-1, 1377,1378,1379,-1, 1380,1381,1382,-1, 1383,1384,1385,-1, 
          1386,1387,1388,-1, 1389,1390,1391,-1, 1392,1393,1394,-1, 1395,1396,1397,-1, 1398,1399,1400,-1, 1401,1402,1403,-1, 
          1404,1405,1406,-1, 1407,1408,1409,-1, 1410,1411,1412,-1, 1413,1414,1415,-1, 1416,1417,1418,-1, 1419,1420,1421,-1, 
          1422,1423,1424,-1, 1425,1426,1427,-1, 1428,1429,1430,-1, 1431,1432,1433,-1, 1434,1435,1436,-1, 1437,1438,1439,-1, 
          1440,1441,1442,-1, 1443,1444,1445,-1, 1446,1447,1448,-1, 1449,1450,1451,-1, 1452,1453,1454,-1, 1455,1456,1457,-1, 
          1458,1459,1460,-1, 1461,1462,1463,-1, 1464,1465,1466,-1, 1467,1468,1469,-1, 1470,1471,1472,-1, 1473,1474,1475,-1, 
          1476,1477,1478,-1, 1479,1480,1481,-1, 1482,1483,1484,-1, 1485,1486,1487,-1, 1488,1489,1490,-1, 1491,1492,1493,-1, 
          1494,1495,1496,-1
        ]
      }
      appearance Appearance
      {
        material Material
        {
	       ambientIntensity 0.2
	       diffuseColor 0.9 0.9 0.9
	       specularColor .1 .1 .1
	       shininess .5
        }
      }
    }
  ]
}
