####
#
# OBJ File Generated by Meshlab
#
####
# Object aj5_Right.obj
#
# Vertices: 1251
# Faces: 417
#
####
vn -0.534187 0.844086 0.046499
v 0.038097 -0.029840 -0.221087
vn -0.534187 0.844086 0.046499
v 0.060239 -0.022291 -0.103764
vn -0.534187 0.844086 0.046499
v 0.057251 -0.016315 -0.246562
vn 0.114038 0.983036 -0.143652
v 0.043845 0.030617 -0.157846
vn 0.114038 0.983036 -0.143652
v 0.052443 0.038999 -0.093656
vn 0.114038 0.983036 -0.143652
v 0.062816 0.020507 -0.211971
vn 0.080427 -0.420047 -0.903931
v -0.018523 -0.056966 -0.094486
vn 0.080427 -0.420047 -0.903931
v -0.057617 -0.027214 -0.111789
vn 0.080427 -0.420047 -0.903931
v 0.001381 -0.055520 -0.093386
vn -0.899975 -0.414387 0.135382
v -0.028436 -0.028437 -0.076622
vn -0.899975 -0.414387 0.135382
v -0.043214 -0.003768 -0.099352
vn -0.899975 -0.414387 0.135382
v -0.022431 -0.043489 -0.082772
vn -0.403989 -0.908953 -0.102940
v -0.057617 -0.027214 -0.111789
vn -0.403989 -0.908953 -0.102940
v 0.019671 -0.056559 -0.155992
vn -0.403989 -0.908953 -0.102940
v 0.001381 -0.055520 -0.093386
vn -0.915498 -0.402321 0.000817
v 0.052443 0.038999 -0.093656
vn -0.915498 -0.402321 0.000817
v 0.060010 0.021546 -0.209067
vn -0.915498 -0.402321 0.000817
v 0.060452 0.020718 -0.121451
vn -0.998485 0.049988 0.022982
v 0.057251 -0.016315 -0.246562
vn -0.998485 0.049988 0.022982
v 0.060239 -0.022291 -0.103764
vn -0.998485 0.049988 0.022982
v 0.060010 0.021546 -0.209067
vn 0.991248 0.112337 0.069343
v 0.062268 -0.026063 -0.128700
vn 0.991248 0.112337 0.069343
v 0.062816 0.020507 -0.211971
vn 0.991248 0.112337 0.069343
v 0.052443 0.038999 -0.093656
vn 0.432845 -0.897546 -0.084006
v -0.036412 0.032506 -0.180959
vn 0.432845 -0.897546 -0.084006
v -0.053029 0.025823 -0.195180
vn 0.432845 -0.897546 -0.084006
v -0.023220 0.040418 -0.197526
vn -0.124559 -0.929691 0.346640
v 0.006731 0.029492 -0.082622
vn -0.124559 -0.929691 0.346640
v 0.017149 0.030459 -0.076283
vn -0.124559 -0.929691 0.346640
v -0.004271 0.033901 -0.074748
vn 0.675486 0.737259 0.012946
v -0.030480 -0.039912 -0.086563
vn 0.675486 0.737259 0.012946
v -0.036786 -0.031826 -0.217986
vn 0.675486 0.737259 0.012946
v -0.041268 -0.030154 -0.079337
vn 0.037204 0.999308 0.000543
v -0.019719 -0.054334 -0.094866
vn 0.037204 0.999308 0.000543
v 0.018647 -0.055736 -0.144017
vn 0.037204 0.999308 0.000543
v -0.018308 -0.054340 -0.181777
vn -0.655601 -0.706610 0.266250
v -0.018523 -0.056966 -0.094486
vn -0.655601 -0.706610 0.266250
v -0.041268 -0.030154 -0.079337
vn -0.655601 -0.706610 0.266250
v -0.057617 -0.027214 -0.111789
vn 0.646717 -0.757297 -0.090871
v -0.043693 0.029002 -0.155231
vn 0.646717 -0.757297 -0.090871
v -0.064314 0.003485 -0.089326
vn 0.646717 -0.757297 -0.090871
v -0.053029 0.025823 -0.195180
vn 0.947546 -0.065835 -0.312766
v 0.037154 -0.015390 -0.076622
vn 0.947546 -0.065835 -0.312766
v 0.028188 -0.038776 -0.098862
vn 0.947546 -0.065835 -0.312766
v 0.038354 0.017901 -0.079994
vn 0.994293 -0.106536 0.005609
v -0.033136 0.000000 -0.260506
vn 0.994293 -0.106536 0.005609
v -0.036786 -0.031826 -0.217986
vn 0.994293 -0.106536 0.005609
v -0.032814 0.002030 -0.278989
vn -0.468382 0.879093 0.088396
v -0.032814 0.002030 -0.278989
vn -0.468382 0.879093 0.088396
v -0.061144 -0.016586 -0.243971
vn -0.468382 0.879093 0.088396
v -0.033136 0.000000 -0.260506
vn 0.822074 0.569039 0.019714
v -0.036786 -0.031826 -0.217986
vn 0.822074 0.569039 0.019714
v -0.064314 0.003485 -0.089326
vn 0.822074 0.569039 0.019714
v -0.041268 -0.030154 -0.079337
vn 0.354715 -0.934831 -0.016370
v 0.040215 0.000000 -0.076622
vn 0.354715 -0.934831 -0.016370
v 0.021704 -0.007035 -0.075991
vn 0.354715 -0.934831 -0.016370
v 0.039888 0.000362 -0.104363
vn -0.353589 0.934359 0.044132
v 0.021704 -0.007035 -0.075991
vn -0.353589 0.934359 0.044132
v 0.040215 0.000000 -0.076622
vn -0.353589 0.934359 0.044132
v 0.035685 -0.000412 -0.104197
vn -0.991831 0.094376 -0.085816
v -0.064314 0.003485 -0.089326
vn -0.991831 0.094376 -0.085816
v -0.060452 0.020710 -0.115015
vn -0.991831 0.094376 -0.085816
v -0.053029 0.025823 -0.195180
vn -0.800022 0.000000 0.599971
v 0.027305 0.003313 -0.282525
vn -0.800022 0.000000 0.599971
v 0.027305 -0.003313 -0.282525
vn -0.800022 0.000000 0.599971
v 0.030256 0.007705 -0.278589
vn -0.984242 0.000000 -0.176824
v 0.027305 -0.003313 -0.282525
vn -0.984242 0.000000 -0.176824
v 0.027305 0.003313 -0.282525
vn -0.984242 0.000000 -0.176824
v 0.027708 -0.009225 -0.284765
vn 0.297644 -0.927287 0.227039
v -0.019224 0.029582 -0.260981
vn 0.297644 -0.927287 0.227039
v 0.001096 0.026741 -0.299224
vn 0.297644 -0.927287 0.227039
v -0.012044 0.038623 -0.233470
vn 0.170465 0.484726 0.857894
v -0.007116 -0.044000 -0.088895
vn 0.170465 0.484726 0.857894
v 0.028188 -0.038776 -0.098862
vn 0.170465 0.484726 0.857894
v -0.030480 -0.039912 -0.086563
vn -0.141162 -0.650622 0.746166
v 0.004186 -0.050140 -0.088165
vn -0.141162 -0.650622 0.746166
v -0.041268 -0.030154 -0.079337
vn -0.141162 -0.650622 0.746166
v 0.001381 -0.055520 -0.093386
vn -0.785345 0.618981 0.009784
v 0.018647 -0.055736 -0.144017
vn -0.785345 0.618981 0.009784
v 0.036585 -0.033974 -0.080928
vn -0.785345 0.618981 0.009784
v 0.038097 -0.029840 -0.221087
vn 0.702225 -0.692499 -0.165304
v -0.015503 0.056871 -0.105622
vn 0.702225 -0.692499 -0.165304
v -0.064314 0.003485 -0.089326
vn 0.702225 -0.692499 -0.165304
v -0.023701 0.056556 -0.139131
vn -0.707043 0.705895 -0.042461
v 0.018647 -0.055736 -0.144017
vn -0.707043 0.705895 -0.042461
v 0.027099 -0.043984 -0.089397
vn -0.707043 0.705895 -0.042461
v 0.036585 -0.033974 -0.080928
vn -0.547746 0.814723 -0.190264
v 0.018647 -0.055736 -0.144017
vn -0.547746 0.814723 -0.190264
v 0.001381 -0.055520 -0.093386
vn -0.547746 0.814723 -0.190264
v 0.028188 -0.038776 -0.098862
vn -0.056740 -0.997191 -0.048898
v 0.026164 -0.006365 -0.293458
vn -0.056740 -0.997191 -0.048898
v 0.027408 -0.007228 -0.277299
vn -0.056740 -0.997191 -0.048898
v 0.020955 -0.006165 -0.291504
vn -0.278202 0.683249 -0.675110
v -0.019719 -0.054334 -0.094866
vn -0.278202 0.683249 -0.675110
v -0.022431 -0.043489 -0.082772
vn -0.278202 0.683249 -0.675110
v 0.028188 -0.038776 -0.098862
vn -0.543141 0.123968 0.830439
v 0.030250 0.000000 -0.082622
vn -0.543141 0.123968 0.830439
v 0.027254 -0.013125 -0.082622
vn -0.543141 0.123968 0.830439
v 0.038354 0.017901 -0.079994
vn -0.058804 -0.372891 0.926010
v 0.027254 0.013125 -0.082622
vn -0.058804 -0.372891 0.926010
v 0.038354 0.017901 -0.079994
vn -0.058804 -0.372891 0.926010
v 0.017149 0.030459 -0.076283
vn 0.999995 0.003037 0.000000
v -0.022991 -0.046148 -0.182103
vn 0.999995 0.003037 0.000000
v -0.022977 -0.050698 -0.179680
vn 0.999995 0.003037 0.000000
v -0.022977 -0.050698 -0.185378
vn -0.892864 0.005325 0.450295
v -0.058116 0.032469 -0.113484
vn -0.892864 0.005325 0.450295
v -0.057617 -0.027214 -0.111789
vn -0.892864 0.005325 0.450295
v -0.041268 -0.030154 -0.079337
vn 0.480606 -0.854895 0.195380
v -0.053029 0.025823 -0.195180
vn 0.480606 -0.854895 0.195380
v -0.024201 0.027619 -0.258236
vn 0.480606 -0.854895 0.195380
v -0.022282 0.037699 -0.218851
vn 0.726181 -0.345042 0.594649
v -0.029449 0.021538 -0.264941
vn 0.726181 -0.345042 0.594649
v -0.035672 0.017296 -0.259803
vn 0.726181 -0.345042 0.594649
v 0.001096 0.026741 -0.299224
vn -0.606217 -0.792450 -0.067260
v -0.034558 0.015664 -0.103246
vn -0.606217 -0.792450 -0.067260
v -0.032530 0.011840 -0.076476
vn -0.606217 -0.792450 -0.067260
v -0.037154 0.015390 -0.076622
vn 0.609244 0.792595 -0.024798
v -0.035130 0.013038 -0.102066
vn 0.609244 0.792595 -0.024798
v -0.037154 0.015390 -0.076622
vn 0.609244 0.792595 -0.024798
v -0.032530 0.011840 -0.076476
vn -0.983741 0.000000 0.179592
v 0.027305 -0.003313 -0.282525
vn -0.983741 0.000000 0.179592
v 0.027305 0.003313 -0.282525
vn -0.983741 0.000000 0.179592
v 0.026143 0.006546 -0.288889
vn -0.279114 -0.933133 -0.226623
v -0.022431 -0.043489 -0.082772
vn -0.279114 -0.933133 -0.226623
v 0.004186 -0.050140 -0.088165
vn -0.279114 -0.933133 -0.226623
v 0.001165 -0.052253 -0.075744
vn -0.208778 -0.043286 -0.977005
v 0.004186 -0.050140 -0.088165
vn -0.208778 -0.043286 -0.977005
v -0.022431 -0.043489 -0.082772
vn -0.208778 -0.043286 -0.977005
v -0.041268 -0.030154 -0.079337
vn -0.615109 -0.677795 0.402783
v 0.030452 0.020776 -0.264432
vn -0.615109 -0.677795 0.402783
v 0.024523 0.024978 -0.266413
vn -0.615109 -0.677795 0.402783
v 0.001096 0.026741 -0.299224
vn -0.625437 -0.780265 -0.003782
v -0.064314 0.003485 -0.089326
vn -0.625437 -0.780265 -0.003782
v -0.062753 0.003154 -0.279244
vn -0.625437 -0.780265 -0.003782
v -0.061341 0.001436 -0.158323
vn -0.967674 -0.252191 0.002500
v 0.060010 0.021546 -0.209067
vn -0.967674 -0.252191 0.002500
v 0.061604 0.015649 -0.186882
vn -0.967674 -0.252191 0.002500
v 0.060452 0.020718 -0.121451
vn -0.995684 0.000000 0.092806
v 0.027305 0.003313 -0.291525
vn -0.995684 0.000000 0.092806
v 0.027305 -0.003313 -0.291525
vn -0.995684 0.000000 0.092806
v 0.027636 0.009472 -0.287977
vn -0.480294 0.000000 -0.877108
v 0.027305 0.003313 -0.291525
vn -0.480294 0.000000 -0.877108
v 0.030256 -0.007696 -0.293141
vn -0.480294 0.000000 -0.877108
v 0.027305 -0.003313 -0.291525
vn -0.838136 -0.545281 -0.013992
v 0.001096 0.026741 -0.299224
vn -0.838136 -0.545281 -0.013992
v -0.001143 0.029463 -0.271182
vn -0.838136 -0.545281 -0.013992
v -0.003175 0.032315 -0.260590
vn -0.178022 0.961401 0.209800
v -0.005890 0.037473 -0.076544
vn -0.178022 0.961401 0.209800
v 0.010520 0.041424 -0.080725
vn -0.178022 0.961401 0.209800
v -0.027428 0.036039 -0.088251
vn -0.740925 -0.635538 0.217076
v 0.052443 0.038999 -0.093656
vn -0.740925 -0.635538 0.217076
v 0.024528 0.056372 -0.138074
vn -0.740925 -0.635538 0.217076
v 0.041681 0.031230 -0.153135
vn 0.805941 -0.591379 0.027023
v -0.023701 0.056556 -0.139131
vn 0.805941 -0.591379 0.027023
v -0.064314 0.003485 -0.089326
vn 0.805941 -0.591379 0.027023
v -0.041792 0.031290 -0.152532
vn 0.626750 -0.774662 -0.084161
v 0.057251 -0.016315 -0.246562
vn 0.626750 -0.774662 -0.084161
v 0.019671 -0.056559 -0.155992
vn 0.626750 -0.774662 -0.084161
v 0.022977 -0.050691 -0.185383
vn 0.209833 -0.419266 0.883281
v -0.019719 -0.054334 -0.094866
vn 0.209833 -0.419266 0.883281
v 0.028188 -0.038776 -0.098862
vn 0.209833 -0.419266 0.883281
v -0.016715 -0.043995 -0.090672
vn -0.957947 0.042338 -0.283804
v 0.027305 -0.003313 -0.282525
vn -0.957947 0.042338 -0.283804
v 0.030256 -0.007696 -0.293141
vn -0.957947 0.042338 -0.283804
v 0.027708 -0.009225 -0.284765
vn -0.937995 -0.342430 0.053910
v 0.027708 -0.009225 -0.284765
vn -0.937995 -0.342430 0.053910
v 0.027408 -0.007228 -0.277299
vn -0.937995 -0.342430 0.053910
v 0.026164 -0.006365 -0.293458
vn -0.995115 -0.086080 0.048334
v 0.027305 -0.003313 -0.282525
vn -0.995115 -0.086080 0.048334
v 0.026143 0.006546 -0.288889
vn -0.995115 -0.086080 0.048334
v 0.027708 -0.009225 -0.284765
vn -0.067428 -0.512022 0.856322
v -0.030480 -0.039912 -0.086563
vn -0.067428 -0.512022 0.856322
v 0.001381 -0.055520 -0.093386
vn -0.067428 -0.512022 0.856322
v 0.023216 -0.044000 -0.084779
vn -0.972315 0.054741 -0.227172
v 0.019671 -0.056559 -0.155992
vn -0.972315 0.054741 -0.227172
v 0.001165 -0.052253 -0.075744
vn -0.972315 0.054741 -0.227172
v 0.004186 -0.050140 -0.088165
vn 0.319917 0.945252 -0.064438
v 0.043845 0.030617 -0.157846
vn 0.319917 0.945252 -0.064438
v 0.062816 0.020507 -0.211971
vn 0.319917 0.945252 -0.064438
v -0.007209 0.042274 -0.240321
vn -0.171106 0.859260 0.482073
v -0.014350 0.032945 -0.076622
vn -0.171106 0.859260 0.482073
v -0.004271 0.033901 -0.074748
vn -0.171106 0.859260 0.482073
v 0.000000 0.035803 -0.076622
vn 0.161726 -0.981041 0.106785
v -0.061976 0.016444 -0.158323
vn 0.161726 -0.981041 0.106785
v -0.062753 0.003154 -0.279244
vn 0.161726 -0.981041 0.106785
v -0.060452 0.020710 -0.121444
vn -0.501458 0.639662 0.582557
v -0.036786 -0.031826 -0.217986
vn -0.501458 0.639662 0.582557
v -0.022977 -0.050698 -0.185378
vn -0.501458 0.639662 0.582557
v 0.018647 -0.055736 -0.144017
vn 0.626116 -0.359788 -0.691760
v -0.018861 0.023650 -0.082622
vn 0.626116 -0.359788 -0.691760
v -0.004271 0.033901 -0.074748
vn 0.626116 -0.359788 -0.691760
v -0.029682 -0.009969 -0.074931
vn 0.000000 -0.872484 0.488643
v 0.006731 0.029492 -0.082622
vn 0.000000 -0.872484 0.488643
v -0.004271 0.033901 -0.074748
vn 0.000000 -0.872484 0.488643
v -0.006731 0.029492 -0.082622
vn 0.161066 -0.983862 -0.077933
v 0.006933 -0.039211 -0.076089
vn 0.161066 -0.983862 -0.077933
v -0.022431 -0.043489 -0.082772
vn 0.161066 -0.983862 -0.077933
v 0.036585 -0.033974 -0.080928
vn -0.109819 0.796402 -0.594712
v 0.036585 -0.033974 -0.080928
vn -0.109819 0.796402 -0.594712
v -0.022431 -0.043489 -0.082772
vn -0.109819 0.796402 -0.594712
v 0.000000 -0.035803 -0.076622
vn -0.524563 0.802085 -0.285469
v -0.007209 0.042274 -0.240321
vn -0.524563 0.802085 -0.285469
v 0.001096 0.026741 -0.299224
vn -0.524563 0.802085 -0.285469
v -0.034917 0.010626 -0.278327
vn 0.531163 -0.790028 0.306141
v 0.001096 0.026741 -0.299224
vn 0.531163 -0.790028 0.306141
v -0.035672 0.017296 -0.259803
vn 0.531163 -0.790028 0.306141
v -0.034917 0.010626 -0.278327
vn -0.408442 -0.686432 0.601653
v -0.018523 -0.056966 -0.094486
vn -0.408442 -0.686432 0.601653
v 0.001165 -0.052253 -0.075744
vn -0.408442 -0.686432 0.601653
v -0.041268 -0.030154 -0.079337
vn -0.963394 -0.093101 0.251405
v 0.027305 0.003313 -0.291525
vn -0.963394 -0.093101 0.251405
v 0.030256 0.007705 -0.278589
vn -0.963394 -0.093101 0.251405
v 0.027636 0.009472 -0.287977
vn -0.974885 0.148145 -0.166290
v 0.027305 0.003313 -0.291525
vn -0.974885 0.148145 -0.166290
v 0.026164 -0.006365 -0.293458
vn -0.974885 0.148145 -0.166290
v 0.027636 0.009472 -0.287977
vn 0.838578 0.289389 -0.461564
v -0.029682 -0.009969 -0.074931
vn 0.838578 0.289389 -0.461564
v -0.025317 -0.025317 -0.076622
vn 0.838578 0.289389 -0.461564
v -0.022431 -0.043489 -0.082772
vn -0.035468 0.181435 0.982763
v 0.038354 0.017901 -0.079994
vn -0.035468 0.181435 0.982763
v 0.021704 -0.007035 -0.075991
vn -0.035468 0.181435 0.982763
v 0.040215 0.000000 -0.076622
vn 0.697899 -0.303620 0.648654
v -0.034412 0.023022 -0.258479
vn 0.697899 -0.303620 0.648654
v -0.035672 0.017296 -0.259803
vn 0.697899 -0.303620 0.648654
v -0.033303 0.020465 -0.260869
vn -0.025159 -0.073899 -0.996948
v -0.029682 -0.009969 -0.074931
vn -0.025159 -0.073899 -0.996948
v -0.037154 0.015390 -0.076622
vn -0.025159 -0.073899 -0.996948
v -0.032530 0.011840 -0.076476
vn 0.630515 0.752035 0.192077
v 0.038354 0.017901 -0.079994
vn 0.630515 0.752035 0.192077
v 0.027314 0.032553 -0.101122
vn 0.630515 0.752035 0.192077
v 0.010520 0.041424 -0.080725
vn 0.192025 -0.974357 0.117282
v 0.000000 0.029071 -0.278071
vn 0.192025 -0.974357 0.117282
v 0.001096 0.026741 -0.299224
vn 0.192025 -0.974357 0.117282
v 0.009821 0.033342 -0.258667
vn -0.027477 -0.873275 -0.486452
v -0.036786 -0.031826 -0.217986
vn -0.027477 -0.873275 -0.486452
v -0.061144 -0.016586 -0.243971
vn -0.027477 -0.873275 -0.486452
v -0.032814 0.002030 -0.278989
vn 0.216111 -0.847791 -0.484301
v -0.061144 -0.016586 -0.243971
vn 0.216111 -0.847791 -0.484301
v -0.062753 0.003154 -0.279244
vn 0.216111 -0.847791 -0.484301
v -0.033136 0.000000 -0.260506
vn 0.140868 -0.986149 -0.087559
v 0.057251 -0.016315 -0.246562
vn 0.140868 -0.986149 -0.087559
v 0.062268 -0.026063 -0.128700
vn 0.140868 -0.986149 -0.087559
v 0.036585 -0.033974 -0.080928
vn 0.758269 -0.651456 0.025156
v 0.057251 -0.016315 -0.246562
vn 0.758269 -0.651456 0.025156
v 0.036585 -0.033974 -0.080928
vn 0.758269 -0.651456 0.025156
v 0.019671 -0.056559 -0.155992
vn 0.455769 -0.839890 0.294720
v -0.018714 0.028722 -0.262945
vn 0.455769 -0.839890 0.294720
v -0.024383 0.024808 -0.265329
vn 0.455769 -0.839890 0.294720
v 0.001096 0.026741 -0.299224
vn 0.525219 -0.104474 -0.844529
v 0.040215 0.000000 -0.076622
vn 0.525219 -0.104474 -0.844529
v 0.037154 -0.015390 -0.076622
vn 0.525219 -0.104474 -0.844529
v 0.038354 0.017901 -0.079994
vn 0.217193 0.463078 -0.859294
v 0.027305 -0.003313 -0.291525
vn 0.217193 0.463078 -0.859294
v 0.030256 -0.007696 -0.293141
vn 0.217193 0.463078 -0.859294
v 0.026164 -0.006365 -0.293458
vn -0.482419 -0.602169 0.636132
v -0.043214 -0.003768 -0.099352
vn -0.482419 -0.602169 0.636132
v -0.032530 0.011840 -0.076476
vn -0.482419 -0.602169 0.636132
v -0.037154 0.015390 -0.076622
vn 0.493593 0.825069 -0.275002
v 0.030452 0.020776 -0.264432
vn 0.493593 0.825069 -0.275002
v 0.001096 0.026741 -0.299224
vn 0.493593 0.825069 -0.275002
v 0.060010 0.021546 -0.209067
vn 0.670216 0.000000 -0.742166
v 0.022312 -0.000265 -0.287034
vn 0.670216 0.000000 -0.742166
v 0.027305 0.003313 -0.282525
vn 0.670216 0.000000 -0.742166
v 0.027305 -0.003313 -0.282525
vn 0.820312 0.371148 -0.435128
v 0.060010 0.021546 -0.209067
vn 0.820312 0.371148 -0.435128
v 0.057251 -0.016315 -0.246562
vn 0.820312 0.371148 -0.435128
v 0.032766 0.000005 -0.278801
vn -0.909719 0.328537 0.253921
v 0.032766 0.000005 -0.278801
vn -0.909719 0.328537 0.253921
v 0.038097 -0.029840 -0.221087
vn -0.909719 0.328537 0.253921
v 0.060010 0.021546 -0.209067
vn -0.280449 0.928313 -0.244095
v -0.028679 0.030607 -0.107472
vn -0.280449 0.928313 -0.244095
v -0.027428 0.036039 -0.088251
vn -0.280449 0.928313 -0.244095
v 0.008094 0.041716 -0.107472
vn -0.932927 0.329431 0.145333
v -0.035442 0.021825 -0.107472
vn -0.932927 0.329431 0.145333
v -0.043214 -0.003768 -0.099352
vn -0.932927 0.329431 0.145333
v -0.027428 0.036039 -0.088251
vn 0.861204 0.000000 -0.508259
v 0.027305 0.003313 -0.291525
vn 0.861204 0.000000 -0.508259
v 0.027305 -0.003313 -0.291525
vn 0.861204 0.000000 -0.508259
v 0.026164 -0.006365 -0.293458
vn 0.989830 -0.127337 0.063413
v -0.060452 0.002837 -0.150903
vn 0.989830 -0.127337 0.063413
v -0.060452 0.020710 -0.115015
vn 0.989830 -0.127337 0.063413
v -0.064314 0.003485 -0.089326
vn -0.638121 0.427520 0.640335
v -0.018308 -0.054340 -0.181777
vn -0.638121 0.427520 0.640335
v 0.018647 -0.055736 -0.144017
vn -0.638121 0.427520 0.640335
v -0.020447 -0.050698 -0.186339
vn -0.999775 -0.002080 -0.021101
v 0.060239 -0.022291 -0.103764
vn -0.999775 -0.002080 -0.021101
v 0.060706 0.015318 -0.129609
vn -0.999775 -0.002080 -0.021101
v 0.061341 0.001444 -0.158329
vn 0.035797 -0.399579 0.916000
v 0.023216 -0.044000 -0.084779
vn 0.035797 -0.399579 0.916000
v 0.036585 -0.033974 -0.080928
vn 0.035797 -0.399579 0.916000
v -0.022431 -0.043489 -0.082772
vn 0.953229 0.301424 -0.022325
v 0.040855 0.007955 -0.107472
vn 0.953229 0.301424 -0.022325
v 0.036801 0.021248 -0.101122
vn 0.953229 0.301424 -0.022325
v 0.038354 0.017901 -0.079994
vn 0.399757 0.908863 -0.119004
v 0.008464 0.046998 -0.151593
vn 0.399757 0.908863 -0.119004
v 0.043845 0.030617 -0.157846
vn 0.399757 0.908863 -0.119004
v -0.007209 0.042274 -0.240321
vn -0.300925 -0.948260 0.101224
v 0.008464 0.046998 -0.149471
vn -0.300925 -0.948260 0.101224
v -0.007209 0.042274 -0.240321
vn -0.300925 -0.948260 0.101224
v 0.052443 0.038999 -0.093656
vn -0.502312 0.773187 0.387123
v 0.027721 -0.027721 -0.101122
vn -0.502312 0.773187 0.387123
v 0.033084 -0.022240 -0.105110
vn -0.502312 0.773187 0.387123
v 0.020476 -0.030810 -0.104352
vn 0.794216 -0.556980 -0.242890
v 0.025317 -0.025317 -0.101122
vn 0.794216 -0.556980 -0.242890
v 0.020476 -0.030810 -0.104352
vn 0.794216 -0.556980 -0.242890
v 0.029424 -0.019460 -0.101122
vn 0.365710 -0.930675 0.010011
v -0.053029 0.025823 -0.195180
vn 0.365710 -0.930675 0.010011
v -0.036412 0.032506 -0.180959
vn 0.365710 -0.930675 0.010011
v -0.037157 0.032441 -0.159744
vn -0.030413 0.177056 -0.983731
v 0.016853 -0.029191 -0.079829
vn -0.030413 0.177056 -0.983731
v -0.029682 -0.009969 -0.074931
vn -0.030413 0.177056 -0.983731
v 0.021704 -0.007035 -0.075991
vn -0.240019 -0.958172 0.155877
v -0.007295 0.039503 -0.233701
vn -0.240019 -0.958172 0.155877
v 0.001096 0.026741 -0.299224
vn -0.240019 -0.958172 0.155877
v -0.002159 0.037230 -0.239762
vn -0.360475 -0.919034 0.159481
v 0.037469 0.022094 -0.256864
vn -0.360475 -0.919034 0.159481
v 0.060010 0.021546 -0.209067
vn -0.360475 -0.919034 0.159481
v 0.028598 0.025477 -0.257413
vn 0.975997 0.185555 0.114016
v 0.025343 0.002929 -0.276153
vn 0.975997 0.185555 0.114016
v 0.027408 -0.007228 -0.277299
vn 0.975997 0.185555 0.114016
v 0.026143 0.006546 -0.288889
vn 0.994705 0.101990 0.012661
v 0.027708 -0.009225 -0.284765
vn 0.994705 0.101990 0.012661
v 0.026143 0.006546 -0.288889
vn 0.994705 0.101990 0.012661
v 0.027408 -0.007228 -0.277299
vn 0.304541 -0.504528 -0.807902
v 0.005750 -0.037294 -0.108245
vn 0.304541 -0.504528 -0.807902
v 0.030320 -0.022463 -0.108245
vn 0.304541 -0.504528 -0.807902
v 0.028188 -0.038776 -0.098862
vn -0.809572 0.587021 -0.000011
v 0.038097 -0.029840 -0.221087
vn -0.809572 0.587021 -0.000011
v 0.022977 -0.050691 -0.185383
vn -0.809572 0.587021 -0.000011
v 0.022977 -0.050691 -0.179686
vn 0.765872 0.289598 -0.574085
v 0.027305 0.003313 -0.291525
vn 0.765872 0.289598 -0.574085
v 0.027636 0.009472 -0.287977
vn 0.765872 0.289598 -0.574085
v 0.030256 -0.007696 -0.293141
vn 0.020668 -0.214653 -0.976472
v 0.052443 0.038999 -0.093656
vn 0.020668 -0.214653 -0.976472
v 0.000000 0.056552 -0.098625
vn 0.020668 -0.214653 -0.976472
v 0.022699 0.056236 -0.098075
vn -0.781029 0.610608 0.130964
v 0.019671 -0.056559 -0.155992
vn -0.781029 0.610608 0.130964
v 0.020447 -0.050691 -0.178724
vn -0.781029 0.610608 0.130964
v 0.018928 -0.051780 -0.182705
vn 0.595004 0.691305 -0.409961
v 0.028436 0.028437 -0.076622
vn 0.595004 0.691305 -0.409961
v 0.038354 0.017901 -0.079994
vn 0.595004 0.691305 -0.409961
v 0.010520 0.041424 -0.080725
vn 0.702269 0.117045 -0.702224
v -0.009250 -0.036500 -0.089779
vn 0.702269 0.117045 -0.702224
v -0.007116 -0.044000 -0.088895
vn 0.702269 0.117045 -0.702224
v -0.008884 -0.044000 -0.090663
vn 0.113889 -0.986945 -0.113881
v -0.007116 -0.044000 -0.088895
vn 0.113889 -0.986945 -0.113881
v -0.008884 -0.044000 -0.090663
vn 0.113889 -0.986945 -0.113881
v 0.028188 -0.038776 -0.098862
vn -0.702269 0.117045 0.702224
v -0.006750 -0.036500 -0.089779
vn -0.702269 0.117045 0.702224
v -0.008884 -0.044000 -0.090663
vn -0.702269 0.117045 0.702224
v -0.007116 -0.044000 -0.088895
vn -0.096657 -0.848872 0.519686
v -0.007116 -0.044000 -0.088895
vn -0.096657 -0.848872 0.519686
v -0.030480 -0.039912 -0.086563
vn -0.096657 -0.848872 0.519686
v -0.016715 -0.043995 -0.090672
vn -0.484971 -0.872656 -0.057225
v -0.036786 -0.031826 -0.217986
vn -0.484971 -0.872656 -0.057225
v -0.057617 -0.027214 -0.111789
vn -0.484971 -0.872656 -0.057225
v -0.061144 -0.016586 -0.243971
vn -0.067796 0.996454 0.049820
v -0.058116 0.032469 -0.113484
vn -0.067796 0.996454 0.049820
v 0.052443 0.038999 -0.093656
vn -0.067796 0.996454 0.049820
v -0.007209 0.042274 -0.240321
vn -0.893823 0.312297 0.321793
v 0.027305 0.003313 -0.282525
vn -0.893823 0.312297 0.321793
v 0.030256 0.007705 -0.278589
vn -0.893823 0.312297 0.321793
v 0.026143 0.006546 -0.288889
vn -0.932633 0.326409 0.153798
v 0.061341 0.001444 -0.158329
vn -0.932633 0.326409 0.153798
v 0.061604 0.015649 -0.186882
vn -0.932633 0.326409 0.153798
v 0.060010 0.021546 -0.209067
vn -0.710643 -0.566717 0.416914
v 0.018861 0.023650 -0.082622
vn -0.710643 -0.566717 0.416914
v 0.027254 0.013125 -0.082622
vn -0.710643 -0.566717 0.416914
v 0.017149 0.030459 -0.076283
vn 0.507124 0.544290 0.668262
v -0.041268 -0.030154 -0.079337
vn 0.507124 0.544290 0.668262
v -0.022431 -0.043489 -0.082772
vn 0.507124 0.544290 0.668262
v -0.043214 -0.003768 -0.099352
vn 0.036832 -0.007326 0.999295
v 0.040215 0.000000 -0.076622
vn 0.036832 -0.007326 0.999295
v 0.021704 -0.007035 -0.075991
vn 0.036832 -0.007326 0.999295
v 0.037154 -0.015390 -0.076622
vn -0.476709 -0.877349 -0.054841
v 0.035848 -0.013149 -0.101122
vn -0.476709 -0.877349 -0.054841
v 0.037154 -0.015390 -0.076622
vn -0.476709 -0.877349 -0.054841
v 0.021704 -0.007035 -0.075991
vn 0.474139 0.879621 -0.038199
v 0.034062 -0.014987 -0.105733
vn 0.474139 0.879621 -0.038199
v 0.021704 -0.007035 -0.075991
vn 0.474139 0.879621 -0.038199
v 0.037154 -0.015390 -0.076622
vn 0.998231 0.058468 -0.010828
v -0.061976 0.009592 -0.172826
vn 0.998231 0.058468 -0.010828
v -0.061341 0.001436 -0.158323
vn 0.998231 0.058468 -0.010828
v -0.062753 0.003154 -0.279244
vn 0.713700 0.676765 -0.180614
v -0.025317 0.025317 -0.101122
vn 0.713700 0.676765 -0.180614
v -0.025222 0.024292 -0.104588
vn 0.713700 0.676765 -0.180614
v -0.028504 0.027762 -0.104551
vn 0.060795 -0.350139 0.934723
v 0.027305 -0.003313 -0.282525
vn 0.060795 -0.350139 0.934723
v 0.027708 -0.009225 -0.284765
vn 0.060795 -0.350139 0.934723
v 0.030256 0.007705 -0.278589
vn -0.997793 0.007499 0.065981
v 0.027305 -0.003313 -0.291525
vn -0.997793 0.007499 0.065981
v 0.027708 -0.009225 -0.284765
vn -0.997793 0.007499 0.065981
v 0.027636 0.009472 -0.287977
vn 0.997690 0.067935 0.000000
v 0.027305 -0.003313 -0.282525
vn 0.997690 0.067935 0.000000
v 0.027708 -0.009225 -0.284765
vn 0.997690 0.067935 0.000000
v 0.027305 -0.003313 -0.291525
vn -0.829486 -0.558527 0.000000
v 0.027305 -0.003313 -0.282525
vn -0.829486 -0.558527 0.000000
v 0.027305 -0.003313 -0.291525
vn -0.829486 -0.558527 0.000000
v 0.030256 -0.007696 -0.293141
vn 0.834309 0.438642 0.333950
v 0.027305 -0.003313 -0.291525
vn 0.834309 0.438642 0.333950
v 0.027708 -0.009225 -0.284765
vn 0.834309 0.438642 0.333950
v 0.030256 -0.007696 -0.293141
vn 0.610988 -0.787549 -0.080372
v -0.062753 0.003154 -0.279244
vn 0.610988 -0.787549 -0.080372
v -0.007209 0.042274 -0.240321
vn 0.610988 -0.787549 -0.080372
v -0.034412 0.023022 -0.258479
vn 0.989281 0.145528 -0.012068
v -0.034917 0.010626 -0.278327
vn 0.989281 0.145528 -0.012068
v -0.035672 0.017296 -0.259803
vn 0.989281 0.145528 -0.012068
v -0.033136 0.000000 -0.260506
vn -0.868684 0.382440 0.314846
v -0.033136 0.000000 -0.260506
vn -0.868684 0.382440 0.314846
v -0.007209 0.042274 -0.240321
vn -0.868684 0.382440 0.314846
v -0.034917 0.010626 -0.278327
vn 0.794244 -0.566280 -0.220235
v 0.028188 -0.038776 -0.098862
vn 0.794244 -0.566280 -0.220235
v 0.036585 -0.033974 -0.080928
vn 0.794244 -0.566280 -0.220235
v 0.027099 -0.043984 -0.089397
vn 0.765243 0.642134 0.045465
v 0.038354 0.017901 -0.079994
vn 0.765243 0.642134 0.045465
v 0.036801 0.021248 -0.101122
vn 0.765243 0.642134 0.045465
v 0.027314 0.032553 -0.101122
vn 0.373884 0.927171 -0.023773
v 0.023109 0.035661 -0.107472
vn 0.373884 0.927171 -0.023773
v 0.008094 0.041716 -0.107472
vn 0.373884 0.927171 -0.023773
v 0.010520 0.041424 -0.080725
vn -0.415333 -0.905313 -0.088921
v 0.004186 -0.050140 -0.088165
vn -0.415333 -0.905313 -0.088921
v 0.000000 -0.049267 -0.077505
vn -0.415333 -0.905313 -0.088921
v -0.041268 -0.030154 -0.079337
vn -0.824791 -0.489059 -0.283799
v 0.000000 -0.049267 -0.077505
vn -0.824791 -0.489059 -0.283799
v 0.004186 -0.050140 -0.088165
vn -0.824791 -0.489059 -0.283799
v 0.001165 -0.052253 -0.075744
vn 0.814986 -0.436652 0.380963
v 0.038097 -0.029840 -0.221087
vn 0.814986 -0.436652 0.380963
v 0.057251 -0.016315 -0.246562
vn 0.814986 -0.436652 0.380963
v 0.060010 0.021546 -0.209067
vn -0.370784 0.910050 0.185279
v 0.060010 0.021546 -0.209067
vn -0.370784 0.910050 0.185279
v 0.037469 0.022094 -0.256864
vn -0.370784 0.910050 0.185279
v 0.030452 0.020776 -0.264432
vn 0.958584 -0.228523 0.169984
v 0.028188 -0.038776 -0.098862
vn 0.958584 -0.228523 0.169984
v 0.040855 0.007955 -0.107472
vn 0.958584 -0.228523 0.169984
v 0.038354 0.017901 -0.079994
vn -0.918540 0.386901 -0.081191
v -0.037154 0.015390 -0.076622
vn -0.918540 0.386901 -0.081191
v -0.027428 0.036039 -0.088251
vn -0.918540 0.386901 -0.081191
v -0.043214 -0.003768 -0.099352
vn 0.025142 -0.202018 -0.979059
v 0.052443 0.038999 -0.093656
vn 0.025142 -0.202018 -0.979059
v -0.064314 0.003485 -0.089326
vn 0.025142 -0.202018 -0.979059
v 0.000000 0.056552 -0.098625
vn -0.411636 -0.897808 0.156516
v 0.060010 0.021546 -0.209067
vn -0.411636 -0.897808 0.156516
v 0.023220 0.040425 -0.197533
vn -0.411636 -0.897808 0.156516
v 0.020784 0.034105 -0.240188
vn -0.454241 -0.890832 0.009203
v 0.033547 0.035355 -0.178598
vn -0.454241 -0.890832 0.009203
v 0.023220 0.040425 -0.197533
vn -0.454241 -0.890832 0.009203
v 0.060010 0.021546 -0.209067
vn 0.804603 -0.591518 0.052156
v 0.028188 -0.038776 -0.098862
vn 0.804603 -0.591518 0.052156
v 0.023622 -0.044000 -0.087668
vn 0.804603 -0.591518 0.052156
v 0.018647 -0.055736 -0.144017
vn -0.239366 -0.838762 -0.489063
v 0.027099 -0.043984 -0.089397
vn -0.239366 -0.838762 -0.489063
v 0.023622 -0.044000 -0.087668
vn -0.239366 -0.838762 -0.489063
v 0.028188 -0.038776 -0.098862
vn 0.253876 0.512151 -0.820517
v 0.000000 -0.033000 -0.080122
vn 0.253876 0.512151 -0.820517
v -0.018861 -0.023650 -0.080122
vn 0.253876 0.512151 -0.820517
v -0.029682 -0.009969 -0.074931
vn 0.726083 0.349663 0.592063
v -0.018861 -0.023650 -0.080122
vn 0.726083 0.349663 0.592063
v -0.030250 0.000000 -0.080122
vn 0.726083 0.349663 0.592063
v -0.029682 -0.009969 -0.074931
vn 0.067536 0.968853 0.238249
v 0.026143 0.006546 -0.288889
vn 0.067536 0.968853 0.238249
v 0.020955 0.005972 -0.285084
vn 0.067536 0.968853 0.238249
v 0.020955 0.003775 -0.276153
vn -0.223099 -0.558313 -0.799071
v 0.000000 -0.049267 -0.077505
vn -0.223099 -0.558313 -0.799071
v 0.001165 -0.052253 -0.075744
vn -0.223099 -0.558313 -0.799071
v -0.041268 -0.030154 -0.079337
vn 0.430115 0.866867 0.252076
v 0.004186 -0.050140 -0.088165
vn 0.430115 0.866867 0.252076
v -0.041268 -0.030154 -0.079337
vn 0.430115 0.866867 0.252076
v 0.001165 -0.052253 -0.075744
vn 0.968076 0.211914 -0.133872
v 0.025343 0.002929 -0.276153
vn 0.968076 0.211914 -0.133872
v 0.026371 0.002241 -0.269803
vn 0.968076 0.211914 -0.133872
v 0.027408 -0.007228 -0.277299
vn 0.369683 -0.907029 0.201578
v -0.012044 0.038623 -0.233470
vn 0.369683 -0.907029 0.201578
v -0.022282 0.037699 -0.218851
vn 0.369683 -0.907029 0.201578
v -0.019224 0.029582 -0.260981
vn -0.281240 -0.925291 -0.254443
v 0.030256 -0.007696 -0.293141
vn -0.281240 -0.925291 -0.254443
v 0.027708 -0.009225 -0.284765
vn -0.281240 -0.925291 -0.254443
v 0.026164 -0.006365 -0.293458
vn -0.425510 0.904684 0.022089
v 0.036585 -0.033974 -0.080928
vn -0.425510 0.904684 0.022089
v 0.060239 -0.022291 -0.103764
vn -0.425510 0.904684 0.022089
v 0.038097 -0.029840 -0.221087
vn 0.993443 -0.102443 -0.050758
v 0.062268 -0.026063 -0.128700
vn 0.993443 -0.102443 -0.050758
v 0.057251 -0.016315 -0.246562
vn 0.993443 -0.102443 -0.050758
v 0.062816 0.020507 -0.211971
vn 0.000000 0.000000 -1.000000
v 0.025317 -0.025317 -0.101122
vn 0.000000 0.000000 -1.000000
v 0.029424 -0.019460 -0.101122
vn 0.000000 0.000000 -1.000000
v 0.033084 -0.022240 -0.101122
vn 0.031670 0.041702 0.998628
v 0.033084 -0.022240 -0.105110
vn 0.031670 0.041702 0.998628
v 0.029424 -0.019460 -0.105110
vn 0.031670 0.041702 0.998628
v 0.020476 -0.030810 -0.104352
vn -0.866235 -0.291139 0.406048
v -0.029682 -0.009969 -0.074931
vn -0.866235 -0.291139 0.406048
v -0.043214 -0.003768 -0.099352
vn -0.866235 -0.291139 0.406048
v -0.025317 -0.025317 -0.076622
vn 0.409692 -0.326717 -0.851709
v -0.027254 0.013125 -0.082622
vn 0.409692 -0.326717 -0.851709
v -0.018861 0.023650 -0.082622
vn 0.409692 -0.326717 -0.851709
v -0.029682 -0.009969 -0.074931
vn -0.077118 0.332485 -0.939950
v 0.027636 0.009472 -0.287977
vn -0.077118 0.332485 -0.939950
v 0.026164 -0.006365 -0.293458
vn -0.077118 0.332485 -0.939950
v 0.026143 0.006546 -0.288889
vn 0.926315 -0.374430 0.041729
v 0.025317 0.025317 -0.076622
vn 0.926315 -0.374430 0.041729
v 0.026538 0.025837 -0.099054
vn 0.926315 -0.374430 0.041729
v 0.027878 0.028563 -0.104361
vn 0.173687 -0.974406 -0.142709
v 0.021704 -0.007035 -0.075991
vn 0.173687 -0.974406 -0.142709
v 0.035685 -0.000412 -0.104197
vn 0.173687 -0.974406 -0.142709
v 0.039888 0.000362 -0.104363
vn -0.926316 0.374430 0.041729
v -0.025317 -0.025317 -0.076622
vn -0.926316 0.374430 0.041729
v -0.026538 -0.025837 -0.099054
vn -0.926316 0.374430 0.041729
v -0.027878 -0.028563 -0.104361
vn -0.452982 -0.889380 0.061736
v 0.000000 -0.035803 -0.076622
vn -0.452982 -0.889380 0.061736
v -0.000749 -0.036937 -0.098453
vn -0.452982 -0.889380 0.061736
v 0.000556 -0.038023 -0.104527
vn 0.920059 0.389563 0.041623
v 0.000000 0.035803 -0.076622
vn 0.920059 0.389563 0.041623
v 0.000493 0.037035 -0.099042
vn 0.920059 0.389563 0.041623
v -0.000484 0.039910 -0.104361
vn -0.716950 -0.679577 0.155429
v -0.025222 0.024292 -0.104588
vn -0.716950 -0.679577 0.155429
v -0.027721 0.027721 -0.101122
vn -0.716950 -0.679577 0.155429
v -0.028504 0.027762 -0.104551
vn -0.032200 -0.285027 0.957978
v -0.019563 -0.044000 -0.090663
vn -0.032200 -0.285027 0.957978
v -0.018523 -0.056966 -0.094486
vn -0.032200 -0.285027 0.957978
v 0.001381 -0.055520 -0.093386
vn 0.567988 0.426513 -0.703901
v -0.018523 -0.056966 -0.094486
vn 0.567988 0.426513 -0.703901
v -0.021331 -0.044000 -0.088895
vn 0.567988 0.426513 -0.703901
v 0.001165 -0.052253 -0.075744
vn -0.819285 0.068185 -0.569318
v -0.035442 0.021825 -0.107472
vn -0.819285 0.068185 -0.569318
v -0.037232 -0.006139 -0.108245
vn -0.819285 0.068185 -0.569318
v -0.043214 -0.003768 -0.099352
vn -0.780907 -0.482555 -0.396642
v -0.037232 -0.006139 -0.108245
vn -0.780907 -0.482555 -0.396642
v -0.022146 -0.030553 -0.108245
vn -0.780907 -0.482555 -0.396642
v -0.043214 -0.003768 -0.099352
vn 0.495483 0.107671 -0.861918
v -0.035672 0.017296 -0.259803
vn 0.495483 0.107671 -0.861918
v -0.007209 0.042274 -0.240321
vn 0.495483 0.107671 -0.861918
v -0.033136 0.000000 -0.260506
vn 0.510525 0.085595 -0.855592
v -0.007209 0.042274 -0.240321
vn 0.510525 0.085595 -0.855592
v -0.035672 0.017296 -0.259803
vn 0.510525 0.085595 -0.855592
v -0.034412 0.023022 -0.258479
vn -0.999778 -0.002005 -0.020992
v 0.060239 -0.022291 -0.103764
vn -0.999778 -0.002005 -0.020992
v 0.060452 0.019419 -0.117904
vn -0.999778 -0.002005 -0.020992
v 0.060706 0.015318 -0.129609
vn 0.798291 0.602247 0.005512
v -0.062753 0.003154 -0.279244
vn 0.798291 0.602247 0.005512
v -0.064314 0.003485 -0.089326
vn 0.798291 0.602247 0.005512
v -0.036786 -0.031826 -0.217986
vn 0.697943 -0.714315 0.051277
v -0.061341 0.001436 -0.158323
vn 0.697943 -0.714315 0.051277
v -0.060452 0.002837 -0.150903
vn 0.697943 -0.714315 0.051277
v -0.064314 0.003485 -0.089326
vn -0.001386 0.360181 -0.932881
v -0.041268 -0.030154 -0.079337
vn -0.001386 0.360181 -0.932881
v 0.036585 -0.033974 -0.080928
vn -0.001386 0.360181 -0.932881
v 0.023216 -0.044000 -0.084779
vn 0.294847 -0.557572 0.776002
v -0.022991 -0.046148 -0.182103
vn 0.294847 -0.557572 0.776002
v -0.022977 -0.050698 -0.185378
vn 0.294847 -0.557572 0.776002
v -0.020447 -0.050698 -0.186339
vn 0.208423 0.809728 0.548544
v -0.018308 -0.054340 -0.181777
vn 0.208423 0.809728 0.548544
v -0.020447 -0.050698 -0.186339
vn 0.208423 0.809728 0.548544
v -0.022977 -0.050698 -0.185378
vn -0.033330 -0.995587 -0.087719
v -0.020447 -0.050698 -0.186339
vn -0.033330 -0.995587 -0.087719
v 0.018647 -0.055736 -0.144017
vn -0.033330 -0.995587 -0.087719
v -0.022977 -0.050698 -0.185378
vn 0.474304 -0.862250 0.177652
v -0.053029 0.025823 -0.195180
vn 0.474304 -0.862250 0.177652
v -0.062753 0.003154 -0.279244
vn 0.474304 -0.862250 0.177652
v -0.034412 0.023022 -0.258479
vn 0.402176 -0.901793 0.158187
v -0.053029 0.025823 -0.195180
vn 0.402176 -0.901793 0.158187
v -0.034412 0.023022 -0.258479
vn 0.402176 -0.901793 0.158187
v -0.024201 0.027619 -0.258236
vn -0.411458 0.656294 -0.632440
v 0.060010 0.021546 -0.209067
vn -0.411458 0.656294 -0.632440
v 0.062816 0.020507 -0.211971
vn -0.411458 0.656294 -0.632440
v 0.057251 -0.016315 -0.246562
vn -0.880430 -0.081870 0.467055
v -0.029682 -0.009969 -0.074931
vn -0.880430 -0.081870 0.467055
v -0.032530 0.011840 -0.076476
vn -0.880430 -0.081870 0.467055
v -0.043214 -0.003768 -0.099352
vn 0.842025 -0.537343 0.047501
v -0.060452 0.020710 -0.121444
vn 0.842025 -0.537343 0.047501
v -0.062753 0.003154 -0.279244
vn 0.842025 -0.537343 0.047501
v -0.053029 0.025823 -0.195180
vn 0.482695 0.482695 0.730761
v -0.029682 -0.009969 -0.074931
vn 0.482695 0.482695 0.730761
v -0.025317 0.025317 -0.101122
vn 0.482695 0.482695 0.730761
v -0.027721 0.027721 -0.101122
vn -0.553660 -0.553659 0.622031
v -0.025317 0.025317 -0.101122
vn -0.553660 -0.553659 0.622031
v -0.004271 0.033901 -0.074748
vn -0.553660 -0.553659 0.622031
v -0.027721 0.027721 -0.101122
vn 0.698989 0.698989 -0.151093
v -0.025317 0.025317 -0.101122
vn 0.698989 0.698989 -0.151093
v -0.028504 0.027762 -0.104551
vn 0.698989 0.698989 -0.151093
v -0.027721 0.027721 -0.101122
vn -0.694709 -0.694708 0.186442
v -0.027721 0.027721 -0.101122
vn -0.694709 -0.694708 0.186442
v -0.025222 0.024292 -0.104588
vn -0.694709 -0.694708 0.186442
v -0.025317 0.025317 -0.101122
vn -0.080737 -0.222630 0.971554
v 0.037154 -0.015390 -0.076622
vn -0.080737 -0.222630 0.971554
v 0.021704 -0.007035 -0.075991
vn -0.080737 -0.222630 0.971554
v 0.036585 -0.033974 -0.080928
vn 0.348217 0.927729 0.134400
v 0.027721 -0.027721 -0.101122
vn 0.348217 0.927729 0.134400
v -0.029682 -0.009969 -0.074931
vn 0.348217 0.927729 0.134400
v 0.036585 -0.033974 -0.080928
vn -0.838327 -0.502029 0.212543
v 0.036585 -0.033974 -0.080928
vn -0.838327 -0.502029 0.212543
v 0.021704 -0.007035 -0.075991
vn -0.838327 -0.502029 0.212543
v 0.027721 -0.027721 -0.101122
vn 0.162824 -0.892539 -0.420550
v -0.004271 0.033901 -0.074748
vn 0.162824 -0.892539 -0.420550
v -0.014350 0.032945 -0.076622
vn 0.162824 -0.892539 -0.420550
v -0.027428 0.036039 -0.088251
vn 0.531775 0.211374 0.820083
v -0.037154 0.015390 -0.076622
vn 0.531775 0.211374 0.820083
v -0.029682 -0.009969 -0.074931
vn 0.531775 0.211374 0.820083
v -0.027428 0.036039 -0.088251
vn -0.369248 -0.776675 0.510325
v -0.027721 0.027721 -0.101122
vn -0.369248 -0.776675 0.510325
v -0.004271 0.033901 -0.074748
vn -0.369248 -0.776675 0.510325
v -0.027428 0.036039 -0.088251
vn 0.998878 -0.046755 0.007517
v -0.027428 0.036039 -0.088251
vn 0.998878 -0.046755 0.007517
v -0.029682 -0.009969 -0.074931
vn 0.998878 -0.046755 0.007517
v -0.027721 0.027721 -0.101122
vn -0.999196 -0.023923 0.032186
v -0.062753 0.003154 -0.279244
vn -0.999196 -0.023923 0.032186
v -0.061144 -0.016586 -0.243971
vn -0.999196 -0.023923 0.032186
v -0.058116 0.032469 -0.113484
vn -0.999631 -0.007608 0.026063
v -0.058116 0.032469 -0.113484
vn -0.999631 -0.007608 0.026063
v -0.061144 -0.016586 -0.243971
vn -0.999631 -0.007608 0.026063
v -0.057617 -0.027214 -0.111789
vn -0.456614 -0.844231 0.280673
v 0.024523 0.024978 -0.266413
vn -0.456614 -0.844231 0.280673
v 0.018133 0.029279 -0.263873
vn -0.456614 -0.844231 0.280673
v 0.001096 0.026741 -0.299224
vn 0.471706 -0.868045 0.154892
v 0.019671 -0.056559 -0.155992
vn 0.471706 -0.868045 0.154892
v 0.036585 -0.033974 -0.080928
vn 0.471706 -0.868045 0.154892
v 0.021331 -0.044000 -0.090663
vn 0.468111 -0.877506 0.104191
v 0.036585 -0.033974 -0.080928
vn 0.468111 -0.877506 0.104191
v 0.001165 -0.052253 -0.075744
vn 0.468111 -0.877506 0.104191
v 0.019563 -0.044000 -0.088895
vn 0.256831 -0.950091 -0.177102
v 0.019671 -0.056559 -0.155992
vn 0.256831 -0.950091 -0.177102
v 0.018928 -0.051780 -0.182705
vn 0.256831 -0.950091 -0.177102
v 0.020447 -0.050692 -0.186344
vn -0.259725 0.965683 -0.000018
v 0.018928 -0.051780 -0.182705
vn -0.259725 0.965683 -0.000018
v 0.022977 -0.050691 -0.179686
vn -0.259725 0.965683 -0.000018
v 0.022977 -0.050691 -0.185383
vn -0.034433 -0.951014 0.307225
v 0.060010 0.021546 -0.209067
vn -0.034433 -0.951014 0.307225
v 0.032766 0.000005 -0.278801
vn -0.034433 -0.951014 0.307225
v 0.062816 0.020507 -0.211971
vn -0.727637 -0.521675 0.445420
v 0.060010 0.021546 -0.209067
vn -0.727637 -0.521675 0.445420
v 0.001096 0.026741 -0.299224
vn -0.727637 -0.521675 0.445420
v 0.032766 0.000005 -0.278801
vn 0.453123 -0.868667 0.200244
v -0.024201 0.027619 -0.258236
vn 0.453123 -0.868667 0.200244
v -0.019224 0.029582 -0.260981
vn 0.453123 -0.868667 0.200244
v -0.022282 0.037699 -0.218851
vn -0.830005 0.557756 0.000000
v 0.027305 0.003313 -0.291525
vn -0.830005 0.557756 0.000000
v 0.027305 0.003313 -0.282525
vn -0.830005 0.557756 0.000000
v 0.030256 0.007705 -0.278589
vn 0.894149 -0.322764 -0.310356
v 0.027305 0.003313 -0.282525
vn 0.894149 -0.322764 -0.310356
v 0.027636 0.009472 -0.287977
vn 0.894149 -0.322764 -0.310356
v 0.030256 0.007705 -0.278589
vn 0.998561 -0.053619 0.000000
v 0.027305 0.003313 -0.291525
vn 0.998561 -0.053619 0.000000
v 0.027636 0.009472 -0.287977
vn 0.998561 -0.053619 0.000000
v 0.027305 0.003313 -0.282525
vn -0.996609 -0.017635 -0.080369
v 0.027708 -0.009225 -0.284765
vn -0.996609 -0.017635 -0.080369
v 0.027305 0.003313 -0.282525
vn -0.996609 -0.017635 -0.080369
v 0.027636 0.009472 -0.287977
vn 0.971243 0.234242 0.042634
v -0.032814 0.002030 -0.278989
vn 0.971243 0.234242 0.042634
v -0.034917 0.010626 -0.278327
vn 0.971243 0.234242 0.042634
v -0.033136 0.000000 -0.260506
vn -0.971243 -0.234242 -0.042634
v -0.034917 0.010626 -0.278327
vn -0.971243 -0.234242 -0.042634
v -0.032814 0.002030 -0.278989
vn -0.971243 -0.234242 -0.042634
v -0.033136 0.000000 -0.260506
vn 0.000000 0.000000 -1.000000
v 0.025317 -0.025317 -0.101122
vn 0.000000 0.000000 -1.000000
v 0.033084 -0.022240 -0.101122
vn 0.000000 0.000000 -1.000000
v 0.027721 -0.027721 -0.101122
vn 0.285889 0.285889 -0.914623
v 0.027721 -0.027721 -0.101122
vn 0.285889 0.285889 -0.914623
v 0.020476 -0.030810 -0.104352
vn 0.285889 0.285889 -0.914623
v 0.025317 -0.025317 -0.101122
vn -0.653616 -0.653616 0.381540
v 0.021704 -0.007035 -0.075991
vn -0.653616 -0.653616 0.381540
v 0.025317 -0.025317 -0.101122
vn -0.653616 -0.653616 0.381540
v 0.027721 -0.027721 -0.101122
vn 0.482695 0.482695 0.730761
v 0.025317 -0.025317 -0.101122
vn 0.482695 0.482695 0.730761
v -0.029682 -0.009969 -0.074931
vn 0.482695 0.482695 0.730761
v 0.027721 -0.027721 -0.101122
vn -0.755570 -0.430340 -0.493885
v -0.022146 -0.030553 -0.108245
vn -0.755570 -0.430340 -0.493885
v -0.041268 -0.030154 -0.079337
vn -0.755570 -0.430340 -0.493885
v -0.043214 -0.003768 -0.099352
vn -0.232560 -0.962369 -0.140578
v -0.022146 -0.030553 -0.108245
vn -0.232560 -0.962369 -0.140578
v 0.005750 -0.037294 -0.108245
vn -0.232560 -0.962369 -0.140578
v -0.041268 -0.030154 -0.079337
vn 0.897070 -0.302516 -0.322101
v 0.030320 -0.022463 -0.108245
vn 0.897070 -0.302516 -0.322101
v 0.040855 0.007955 -0.107472
vn 0.897070 -0.302516 -0.322101
v 0.028188 -0.038776 -0.098862
vn 0.707063 -0.706935 -0.017432
v 0.028436 0.028437 -0.076622
vn 0.707063 -0.706935 -0.017432
v 0.025317 0.025317 -0.076622
vn 0.707063 -0.706935 -0.017432
v 0.027878 0.028563 -0.104361
vn -0.706999 0.706870 -0.022075
v 0.025317 0.025317 -0.076622
vn -0.706999 0.706870 -0.022075
v 0.028436 0.028437 -0.076622
vn -0.706999 0.706870 -0.022075
v 0.026538 0.025837 -0.099054
vn -0.130503 0.130479 0.982825
v 0.025317 0.025317 -0.076622
vn -0.130503 0.130479 0.982825
v 0.028436 0.028437 -0.076622
vn -0.130503 0.130479 0.982825
v 0.010520 0.041424 -0.080725
vn 0.160568 -0.160539 0.973881
v 0.038354 0.017901 -0.079994
vn 0.160568 -0.160539 0.973881
v 0.028436 0.028437 -0.076622
vn 0.160568 -0.160539 0.973881
v 0.025317 0.025317 -0.076622
vn -0.707063 0.706935 -0.017433
v -0.028436 -0.028437 -0.076622
vn -0.707063 0.706935 -0.017433
v -0.025317 -0.025317 -0.076622
vn -0.707063 0.706935 -0.017433
v -0.027878 -0.028563 -0.104361
vn 0.706999 -0.706870 -0.022075
v -0.025317 -0.025317 -0.076622
vn 0.706999 -0.706870 -0.022075
v -0.028436 -0.028437 -0.076622
vn 0.706999 -0.706870 -0.022075
v -0.026538 -0.025837 -0.099054
vn 0.269976 -0.269927 0.924258
v -0.025317 -0.025317 -0.076622
vn 0.269976 -0.269927 0.924258
v -0.028436 -0.028437 -0.076622
vn 0.269976 -0.269927 0.924258
v -0.022431 -0.043489 -0.082772
vn -0.446738 0.446657 0.775192
v -0.043214 -0.003768 -0.099352
vn -0.446738 0.446657 0.775192
v -0.028436 -0.028437 -0.076622
vn -0.446738 0.446657 0.775192
v -0.025317 -0.025317 -0.076622
vn -0.847175 -0.529581 -0.042878
v 0.010520 0.041424 -0.080725
vn -0.847175 -0.529581 -0.042878
v 0.015235 0.035532 -0.101122
vn -0.847175 -0.529581 -0.042878
v 0.017149 0.030459 -0.076283
vn 0.104674 0.484341 0.868595
v 0.010520 0.041424 -0.080725
vn 0.104674 0.484341 0.868595
v -0.005890 0.037473 -0.076544
vn 0.104674 0.484341 0.868595
v -0.004271 0.033901 -0.074748
vn 0.365959 0.530891 0.764348
v 0.025317 0.025317 -0.076622
vn 0.365959 0.530891 0.764348
v 0.010520 0.041424 -0.080725
vn 0.365959 0.530891 0.764348
v 0.017149 0.030459 -0.076283
vn 0.532660 -0.772278 0.346208
v 0.015235 0.035532 -0.101122
vn 0.532660 -0.772278 0.346208
v 0.010520 0.041424 -0.080725
vn 0.532660 -0.772278 0.346208
v -0.004271 0.033901 -0.074748
vn -0.610108 0.730995 0.305637
v 0.060239 -0.022291 -0.103764
vn -0.610108 0.730995 0.305637
v 0.061341 0.001444 -0.158329
vn -0.610108 0.730995 0.305637
v 0.060010 0.021546 -0.209067
vn 0.424787 0.904925 -0.025830
v 0.018647 -0.055736 -0.144017
vn 0.424787 0.904925 -0.025830
v 0.019671 -0.056559 -0.155992
vn 0.424787 0.904925 -0.025830
v -0.036786 -0.031826 -0.217986
vn -0.687430 0.722925 0.069419
v 0.020447 -0.050691 -0.178724
vn -0.687430 0.722925 0.069419
v 0.018647 -0.055736 -0.144017
vn -0.687430 0.722925 0.069419
v 0.038097 -0.029840 -0.221087
vn -0.981272 0.167304 -0.095468
v 0.018647 -0.055736 -0.144017
vn -0.981272 0.167304 -0.095468
v 0.022977 -0.050691 -0.179686
vn -0.981272 0.167304 -0.095468
v 0.019671 -0.056559 -0.155992
vn -0.000688 -1.000000 0.000688
v -0.008884 -0.044000 -0.090663
vn -0.000688 -1.000000 0.000688
v -0.007116 -0.044000 -0.088895
vn -0.000688 -1.000000 0.000688
v -0.016715 -0.043995 -0.090672
vn 0.000018 -0.843394 -0.537295
v -0.008884 -0.044000 -0.090663
vn 0.000018 -0.843394 -0.537295
v -0.016715 -0.043995 -0.090672
vn 0.000018 -0.843394 -0.537295
v 0.028188 -0.038776 -0.098862
vn 0.867288 0.497608 0.014046
v -0.019719 -0.054334 -0.094866
vn 0.867288 0.497608 0.014046
v -0.018308 -0.054340 -0.181777
vn 0.867288 0.497608 0.014046
v -0.020447 -0.050698 -0.178719
vn 0.318124 -0.444708 -0.837277
v -0.022991 -0.046148 -0.182103
vn 0.318124 -0.444708 -0.837277
v -0.020447 -0.050698 -0.178719
vn 0.318124 -0.444708 -0.837277
v -0.022977 -0.050698 -0.179680
vn 0.251961 0.704811 -0.663142
v -0.018308 -0.054340 -0.181777
vn 0.251961 0.704811 -0.663142
v -0.022977 -0.050698 -0.179680
vn 0.251961 0.704811 -0.663142
v -0.020447 -0.050698 -0.178719
vn 0.167142 0.710474 -0.683586
v 0.008464 0.046998 -0.149471
vn 0.167142 0.710474 -0.683586
v 0.043845 0.030617 -0.157846
vn 0.167142 0.710474 -0.683586
v 0.010586 0.044458 -0.151593
vn 0.269777 0.225325 0.936189
v 0.043845 0.030617 -0.157846
vn 0.269777 0.225325 0.936189
v 0.008464 0.046998 -0.151593
vn 0.269777 0.225325 0.936189
v 0.010586 0.044458 -0.151593
vn 0.753052 -0.358335 0.551823
v 0.027305 0.003313 -0.291525
vn 0.753052 -0.358335 0.551823
v 0.027636 0.009472 -0.287977
vn 0.753052 -0.358335 0.551823
v 0.022312 -0.000265 -0.287034
vn -0.637594 0.288603 -0.714270
v 0.027254 -0.013125 -0.082622
vn -0.637594 0.288603 -0.714270
v 0.016853 -0.029191 -0.079829
vn -0.637594 0.288603 -0.714270
v 0.038354 0.017901 -0.079994
vn -0.471760 0.881711 -0.005224
v -0.013149 0.033443 -0.101122
vn -0.471760 0.881711 -0.005224
v -0.014350 0.032945 -0.076622
vn -0.471760 0.881711 -0.005224
v -0.005890 0.037473 -0.076544
vn 0.005445 -0.027345 0.999611
v -0.014350 0.032945 -0.076622
vn 0.005445 -0.027345 0.999611
v 0.000000 0.035803 -0.076622
vn 0.005445 -0.027345 0.999611
v -0.005890 0.037473 -0.076544
vn -0.378080 0.696069 0.610364
v -0.027428 0.036039 -0.088251
vn -0.378080 0.696069 0.610364
v -0.014350 0.032945 -0.076622
vn -0.378080 0.696069 0.610364
v -0.005890 0.037473 -0.076544
vn 0.468915 -0.874130 -0.126553
v -0.015553 0.035848 -0.101122
vn 0.468915 -0.874130 -0.126553
v -0.005890 0.037473 -0.076544
vn 0.468915 -0.874130 -0.126553
v -0.014350 0.032945 -0.076622
vn -0.153111 0.980517 0.123062
v 0.016051 -0.034646 -0.101122
vn -0.153111 0.980517 0.123062
v 0.006933 -0.039211 -0.076089
vn -0.153111 0.980517 0.123062
v 0.036585 -0.033974 -0.080928
vn 0.093439 0.336629 0.936990
v 0.036585 -0.033974 -0.080928
vn 0.093439 0.336629 0.936990
v 0.000000 -0.035803 -0.076622
vn 0.093439 0.336629 0.936990
v 0.006933 -0.039211 -0.076089
vn 0.153368 -0.980654 -0.121635
v 0.013704 -0.034645 -0.104362
vn 0.153368 -0.980654 -0.121635
v 0.036585 -0.033974 -0.080928
vn 0.153368 -0.980654 -0.121635
v 0.006933 -0.039211 -0.076089
vn 0.187965 -0.959265 0.210900
v -0.007295 0.039503 -0.233701
vn 0.187965 -0.959265 0.210900
v -0.012044 0.038623 -0.233470
vn 0.187965 -0.959265 0.210900
v 0.001096 0.026741 -0.299224
vn 0.043626 -0.994588 -0.094298
v 0.027408 -0.007228 -0.277299
vn 0.043626 -0.994588 -0.094298
v 0.020955 -0.007620 -0.276153
vn 0.043626 -0.994588 -0.094298
v 0.020955 -0.006165 -0.291504
vn 0.732314 0.284381 -0.618743
v 0.027305 -0.003313 -0.282525
vn 0.732314 0.284381 -0.618743
v 0.027708 -0.009225 -0.284765
vn 0.732314 0.284381 -0.618743
v 0.022312 -0.000265 -0.287034
vn 0.895347 0.074339 -0.439122
v 0.037154 -0.015390 -0.076622
vn 0.895347 0.074339 -0.439122
v 0.036585 -0.033974 -0.080928
vn 0.895347 0.074339 -0.439122
v 0.028188 -0.038776 -0.098862
vn -0.099939 -0.991580 0.082344
v 0.005750 -0.037294 -0.108245
vn -0.099939 -0.991580 0.082344
v 0.028188 -0.038776 -0.098862
vn -0.099939 -0.991580 0.082344
v -0.041268 -0.030154 -0.079337
vn 0.444092 0.893857 -0.061664
v 0.000000 -0.035803 -0.076622
vn 0.444092 0.893857 -0.061664
v 0.006933 -0.039211 -0.076089
vn 0.444092 0.893857 -0.061664
v -0.000749 -0.036937 -0.098453
vn -0.184713 -0.226234 0.956399
v -0.022431 -0.043489 -0.082772
vn -0.184713 -0.226234 0.956399
v 0.006933 -0.039211 -0.076089
vn -0.184713 -0.226234 0.956399
v 0.000000 -0.035803 -0.076622
vn -0.444113 -0.893805 0.062265
v 0.006933 -0.039211 -0.076089
vn -0.444113 -0.893805 0.062265
v 0.000000 -0.035803 -0.076622
vn -0.444113 -0.893805 0.062265
v 0.000556 -0.038023 -0.104527
vn -0.152520 -0.498410 -0.853419
v -0.004271 0.033901 -0.074748
vn -0.152520 -0.498410 -0.853419
v -0.005890 0.037473 -0.076544
vn -0.152520 -0.498410 -0.853419
v 0.000000 0.035803 -0.076622
vn 0.271792 0.952654 0.136303
v -0.005890 0.037473 -0.076544
vn 0.271792 0.952654 0.136303
v 0.000000 0.035803 -0.076622
vn 0.271792 0.952654 0.136303
v -0.000484 0.039910 -0.104361
vn -0.272919 -0.960242 -0.058746
v 0.000000 0.035803 -0.076622
vn -0.272919 -0.960242 -0.058746
v -0.005890 0.037473 -0.076544
vn -0.272919 -0.960242 -0.058746
v 0.000493 0.037035 -0.099042
vn -0.615379 0.767343 -0.180258
v 0.001096 0.026741 -0.299224
vn -0.615379 0.767343 -0.180258
v -0.003175 0.033467 -0.256011
vn -0.615379 0.767343 -0.180258
v -0.003175 0.036450 -0.243311
vn 0.447209 -0.893806 -0.033381
v -0.037157 0.032441 -0.159744
vn 0.447209 -0.893806 -0.033381
v -0.043693 0.029002 -0.155231
vn 0.447209 -0.893806 -0.033381
v -0.053029 0.025823 -0.195180
vn 0.717948 -0.430476 0.547029
v -0.019719 -0.054334 -0.094866
vn 0.717948 -0.430476 0.547029
v -0.016715 -0.043995 -0.090672
vn 0.717948 -0.430476 0.547029
v -0.022431 -0.043489 -0.082772
vn 0.706257 0.706258 0.049001
v -0.015553 0.035848 -0.101122
vn 0.706257 0.706258 0.049001
v -0.014350 0.032945 -0.076622
vn 0.706257 0.706258 0.049001
v -0.013149 0.033443 -0.101122
vn 0.693550 0.693550 -0.194876
v -0.013149 0.033443 -0.101122
vn 0.693550 0.693550 -0.194876
v -0.015235 0.033765 -0.107406
vn 0.693550 0.693550 -0.194876
v -0.015553 0.035848 -0.101122
vn -0.693500 -0.693500 -0.195232
v -0.013149 0.033443 -0.101122
vn -0.693500 -0.693500 -0.195232
v -0.015553 0.035848 -0.101122
vn -0.693500 -0.693500 -0.195232
v -0.013468 0.035532 -0.107406
vn -0.672534 -0.672535 0.308860
v -0.013149 0.033443 -0.101122
vn -0.672534 -0.672535 0.308860
v -0.005890 0.037473 -0.076544
vn -0.672534 -0.672535 0.308860
v -0.015553 0.035848 -0.101122
vn -0.849327 -0.527231 0.025892
v 0.060452 0.020718 -0.121451
vn -0.849327 -0.527231 0.025892
v 0.061604 0.015649 -0.186882
vn -0.849327 -0.527231 0.025892
v 0.061976 0.016452 -0.158330
vn 0.753207 -0.616160 0.230275
v 0.019671 -0.056559 -0.155992
vn 0.753207 -0.616160 0.230275
v 0.004186 -0.050140 -0.088165
vn 0.753207 -0.616160 0.230275
v 0.001381 -0.055520 -0.093386
vn 0.526564 -0.773977 0.351696
v -0.024383 0.024808 -0.265329
vn 0.526564 -0.773977 0.351696
v -0.029449 0.021538 -0.264941
vn 0.526564 -0.773977 0.351696
v 0.001096 0.026741 -0.299224
vn 0.165177 0.980550 0.106014
v 0.013468 0.033765 -0.101122
vn 0.165177 0.980550 0.106014
v -0.004271 0.033901 -0.074748
vn 0.165177 0.980550 0.106014
v 0.017149 0.030459 -0.076283
vn -0.964049 -0.080879 -0.253117
v 0.060239 -0.022291 -0.103764
vn -0.964049 -0.080879 -0.253117
v 0.052443 0.038999 -0.093656
vn -0.964049 -0.080879 -0.253117
v 0.060452 0.019419 -0.117904
vn -0.025517 0.188408 -0.981759
v -0.029682 -0.009969 -0.074931
vn -0.025517 0.188408 -0.981759
v 0.016853 -0.029191 -0.079829
vn -0.025517 0.188408 -0.981759
v 0.000000 -0.033000 -0.080122
vn -0.014064 0.466262 -0.884535
v -0.041268 -0.030154 -0.079337
vn -0.014064 0.466262 -0.884535
v 0.023622 -0.044000 -0.087668
vn -0.014064 0.466262 -0.884535
v 0.001381 -0.055520 -0.093386
vn -0.959891 0.258059 0.109611
v -0.034558 0.015664 -0.103246
vn -0.959891 0.258059 0.109611
v -0.035130 0.013038 -0.102066
vn -0.959891 0.258059 0.109611
v -0.032530 0.011840 -0.076476
vn -0.112804 0.990248 0.081752
v 0.016051 -0.034646 -0.101122
vn -0.112804 0.990248 0.081752
v 0.036585 -0.033974 -0.080928
vn -0.112804 0.990248 0.081752
v 0.013704 -0.034645 -0.104362
vn 0.153334 -0.936886 0.314220
v 0.035848 -0.013149 -0.101122
vn 0.153334 -0.936886 0.314220
v 0.021704 -0.007035 -0.075991
vn 0.153334 -0.936886 0.314220
v 0.034062 -0.014987 -0.105733
vn -0.693521 0.693521 0.195083
v 0.013468 0.033765 -0.101122
vn -0.693521 0.693521 0.195083
v 0.017149 0.030459 -0.076283
vn -0.693521 0.693521 0.195083
v 0.015235 0.035532 -0.101122
vn -0.700217 0.700217 -0.139253
v 0.013468 0.033765 -0.101122
vn -0.700217 0.700217 -0.139253
v 0.015235 0.035532 -0.101122
vn -0.700217 0.700217 -0.139253
v 0.015601 0.034648 -0.107406
vn 0.637658 -0.637658 0.432187
v 0.015235 0.035532 -0.101122
vn 0.637658 -0.637658 0.432187
v -0.004271 0.033901 -0.074748
vn 0.637658 -0.637658 0.432187
v 0.013468 0.033765 -0.101122
vn 0.700217 -0.700217 -0.139252
v 0.013468 0.033765 -0.101122
vn 0.700217 -0.700217 -0.139252
v 0.013102 0.034648 -0.107406
vn 0.700217 -0.700217 -0.139252
v 0.015235 0.035532 -0.101122
vn 0.095694 0.963026 0.251841
v 0.022977 -0.050691 -0.179686
vn 0.095694 0.963026 0.251841
v 0.020447 -0.050691 -0.178724
vn 0.095694 0.963026 0.251841
v 0.019671 -0.056559 -0.155992
vn -0.188372 -0.847785 -0.495759
v 0.020447 -0.050691 -0.178724
vn -0.188372 -0.847785 -0.495759
v 0.038097 -0.029840 -0.221087
vn -0.188372 -0.847785 -0.495759
v 0.022977 -0.050691 -0.179686
vn -0.055647 -0.987653 -0.146442
v 0.018647 -0.055736 -0.144017
vn -0.055647 -0.987653 -0.146442
v 0.020447 -0.050691 -0.178724
vn -0.055647 -0.987653 -0.146442
v 0.022977 -0.050691 -0.179686
vn 0.950737 0.212911 -0.225319
v 0.030256 0.007705 -0.278589
vn 0.950737 0.212911 -0.225319
v 0.030256 -0.007696 -0.293141
vn 0.950737 0.212911 -0.225319
v 0.027636 0.009472 -0.287977
vn 0.385924 0.907949 -0.163375
v 0.001381 -0.055520 -0.093386
vn 0.385924 0.907949 -0.163375
v -0.022431 -0.043489 -0.082772
vn 0.385924 0.907949 -0.163375
v 0.001165 -0.052253 -0.075744
vn 0.030592 0.217378 0.975608
v 0.036585 -0.033974 -0.080928
vn 0.030592 0.217378 0.975608
v -0.041268 -0.030154 -0.079337
vn 0.030592 0.217378 0.975608
v 0.001165 -0.052253 -0.075744
vn -0.576182 0.260352 -0.774746
v 0.021704 -0.007035 -0.075991
vn -0.576182 0.260352 -0.774746
v 0.038354 0.017901 -0.079994
vn -0.576182 0.260352 -0.774746
v 0.016853 -0.029191 -0.079829
vn 0.941755 -0.230952 0.244456
v 0.030256 -0.007696 -0.293141
vn 0.941755 -0.230952 0.244456
v 0.030256 0.007705 -0.278589
vn 0.941755 -0.230952 0.244456
v 0.027708 -0.009225 -0.284765
vn 0.527184 0.847215 0.065605
v 0.023109 0.035661 -0.107472
vn 0.527184 0.847215 0.065605
v 0.010520 0.041424 -0.080725
vn 0.527184 0.847215 0.065605
v 0.027314 0.032553 -0.101122
vn -0.210510 -0.048047 0.976410
v 0.027254 0.013125 -0.082622
vn -0.210510 -0.048047 0.976410
v 0.030250 0.000000 -0.082622
vn -0.210510 -0.048047 0.976410
v 0.038354 0.017901 -0.079994
vn 0.336310 -0.542467 -0.769821
v -0.015503 0.056871 -0.105622
vn 0.336310 -0.542467 -0.769821
v 0.000000 0.056552 -0.098625
vn 0.336310 -0.542467 -0.769821
v -0.064314 0.003485 -0.089326
vn -0.525401 -0.819321 -0.229493
v 0.017149 0.030459 -0.076283
vn -0.525401 -0.819321 -0.229493
v 0.038354 0.017901 -0.079994
vn -0.525401 -0.819321 -0.229493
v 0.025317 0.025317 -0.076622
vn -0.454681 -0.861674 0.225351
v 0.028598 0.025477 -0.257413
vn -0.454681 -0.861674 0.225351
v 0.060010 0.021546 -0.209067
vn -0.454681 -0.861674 0.225351
v 0.020784 0.034105 -0.240188
vn 0.719996 0.543058 0.432080
v 0.022312 -0.000265 -0.287034
vn 0.719996 0.543058 0.432080
v 0.027708 -0.009225 -0.284765
vn 0.719996 0.543058 0.432080
v 0.027305 -0.003313 -0.291525
vn 0.668680 0.000000 0.743551
v 0.022312 -0.000265 -0.287034
vn 0.668680 0.000000 0.743551
v 0.027305 -0.003313 -0.291525
vn 0.668680 0.000000 0.743551
v 0.027305 0.003313 -0.291525
vn 0.497166 -0.852699 0.160407
v 0.001165 -0.052253 -0.075744
vn 0.497166 -0.852699 0.160407
v 0.019671 -0.056559 -0.155992
vn 0.497166 -0.852699 0.160407
v 0.019563 -0.044000 -0.088895
vn -0.330484 -0.686255 0.647946
v 0.006731 0.029492 -0.082622
vn -0.330484 -0.686255 0.647946
v 0.018861 0.023650 -0.082622
vn -0.330484 -0.686255 0.647946
v 0.017149 0.030459 -0.076283
vn -0.714733 0.699398 0.000005
v 0.027721 -0.027721 -0.101122
vn -0.714733 0.699398 0.000005
v 0.033084 -0.022240 -0.101122
vn -0.714733 0.699398 0.000005
v 0.033084 -0.022240 -0.105110
vn -0.604799 -0.796378 -0.000006
v 0.033084 -0.022240 -0.101122
vn -0.604799 -0.796378 -0.000006
v 0.029424 -0.019460 -0.101122
vn -0.604799 -0.796378 -0.000006
v 0.033084 -0.022240 -0.105110
vn -0.094597 0.963885 0.248952
v 0.020447 -0.050692 -0.186344
vn -0.094597 0.963885 0.248952
v 0.018928 -0.051780 -0.182705
vn -0.094597 0.963885 0.248952
v 0.022977 -0.050691 -0.185383
vn -0.168318 0.880589 0.442981
v 0.038097 -0.029840 -0.221087
vn -0.168318 0.880589 0.442981
v 0.020447 -0.050692 -0.186344
vn -0.168318 0.880589 0.442981
v 0.022977 -0.050691 -0.185383
vn 0.157726 -0.895998 -0.415103
v 0.020447 -0.050692 -0.186344
vn 0.157726 -0.895998 -0.415103
v 0.057251 -0.016315 -0.246562
vn 0.157726 -0.895998 -0.415103
v 0.022977 -0.050691 -0.185383
vn 0.071271 -0.979664 -0.187561
v 0.022977 -0.050691 -0.185383
vn 0.071271 -0.979664 -0.187561
v 0.019671 -0.056559 -0.155992
vn 0.071271 -0.979664 -0.187561
v 0.020447 -0.050692 -0.186344
vn 0.444252 -0.886045 0.132529
v -0.053029 0.025823 -0.195180
vn 0.444252 -0.886045 0.132529
v -0.022282 0.037699 -0.218851
vn 0.444252 -0.886045 0.132529
v -0.023220 0.040418 -0.197526
vn 0.536566 0.684488 -0.493530
v -0.022431 -0.043489 -0.082772
vn 0.536566 0.684488 -0.493530
v -0.019719 -0.054334 -0.094866
vn 0.536566 0.684488 -0.493530
v -0.030480 -0.039912 -0.086563
vn 0.328323 0.927613 0.178154
v -0.030480 -0.039912 -0.086563
vn 0.328323 0.927613 0.178154
v -0.022431 -0.043489 -0.082772
vn 0.328323 0.927613 0.178154
v -0.016715 -0.043995 -0.090672
vn -0.192608 0.437463 -0.878367
v 0.028188 -0.038776 -0.098862
vn -0.192608 0.437463 -0.878367
v -0.030480 -0.039912 -0.086563
vn -0.192608 0.437463 -0.878367
v -0.041268 -0.030154 -0.079337
vn 0.827398 0.553115 -0.097340
v -0.022991 -0.046148 -0.182103
vn 0.827398 0.553115 -0.097340
v -0.020447 -0.050698 -0.186339
vn 0.827398 0.553115 -0.097340
v -0.036786 -0.031826 -0.217986
vn -0.167136 -0.882365 -0.439883
v -0.036786 -0.031826 -0.217986
vn -0.167136 -0.882365 -0.439883
v -0.020447 -0.050698 -0.186339
vn -0.167136 -0.882365 -0.439883
v -0.022977 -0.050698 -0.185378
vn 0.181228 -0.966601 0.181216
v 0.019671 -0.056559 -0.155992
vn 0.181228 -0.966601 0.181216
v 0.021331 -0.044000 -0.090663
vn 0.181228 -0.966601 0.181216
v 0.019563 -0.044000 -0.088895
vn -0.702269 0.117045 -0.702224
v 0.021331 -0.044000 -0.090663
vn -0.702269 0.117045 -0.702224
v 0.019563 -0.044000 -0.088895
vn -0.702269 0.117045 -0.702224
v 0.021697 -0.036500 -0.089779
vn 0.702269 0.117045 0.702224
v 0.019563 -0.044000 -0.088895
vn 0.702269 0.117045 0.702224
v 0.021331 -0.044000 -0.090663
vn 0.702269 0.117045 0.702224
v 0.019197 -0.036500 -0.089779
vn 0.348974 -0.869742 0.348951
v 0.036585 -0.033974 -0.080928
vn 0.348974 -0.869742 0.348951
v 0.019563 -0.044000 -0.088895
vn 0.348974 -0.869742 0.348951
v 0.021331 -0.044000 -0.090663
vn -0.702269 0.117045 -0.702224
v -0.019563 -0.044000 -0.090663
vn -0.702269 0.117045 -0.702224
v -0.021331 -0.044000 -0.088895
vn -0.702269 0.117045 -0.702224
v -0.019197 -0.036500 -0.089779
vn 0.699126 -0.150025 0.699081
v -0.019563 -0.044000 -0.090663
vn 0.699126 -0.150025 0.699081
v -0.021331 -0.044000 -0.088895
vn 0.699126 -0.150025 0.699081
v -0.018523 -0.056966 -0.094486
vn -0.471319 -0.745483 -0.471289
v -0.021331 -0.044000 -0.088895
vn -0.471319 -0.745483 -0.471289
v -0.019563 -0.044000 -0.090663
vn -0.471319 -0.745483 -0.471289
v 0.001381 -0.055520 -0.093386
vn 0.702269 0.117045 0.702224
v -0.021331 -0.044000 -0.088895
vn 0.702269 0.117045 0.702224
v -0.019563 -0.044000 -0.090663
vn 0.702269 0.117045 0.702224
v -0.021697 -0.036500 -0.089779
vn -0.701472 0.028222 -0.712138
v 0.060239 -0.022291 -0.103764
vn -0.701472 0.028222 -0.712138
v 0.036585 -0.033974 -0.080928
vn -0.701472 0.028222 -0.712138
v 0.052443 0.038999 -0.093656
vn -0.314957 -0.923705 0.218110
v 0.018133 0.029279 -0.263873
vn -0.314957 -0.923705 0.218110
v 0.009821 0.033342 -0.258667
vn -0.314957 -0.923705 0.218110
v 0.001096 0.026741 -0.299224
vn -0.288481 0.957486 -0.000018
v 0.008464 0.046998 -0.151593
vn -0.288481 0.957486 -0.000018
v -0.007209 0.042274 -0.240321
vn -0.288481 0.957486 -0.000018
v 0.008464 0.046998 -0.149471
vn 0.058107 -0.803302 0.592731
v 0.021704 -0.007035 -0.075991
vn 0.058107 -0.803302 0.592731
v -0.029682 -0.009969 -0.074931
vn 0.058107 -0.803302 0.592731
v 0.025317 -0.025317 -0.101122
vn -0.765838 0.441654 0.467369
v -0.029682 -0.009969 -0.074931
vn -0.765838 0.441654 0.467369
v -0.004271 0.033901 -0.074748
vn -0.765838 0.441654 0.467369
v -0.025317 0.025317 -0.101122
vn -0.504629 0.852455 -0.136636
v -0.058116 0.032469 -0.113484
vn -0.504629 0.852455 -0.136636
v -0.007209 0.042274 -0.240321
vn -0.504629 0.852455 -0.136636
v -0.062753 0.003154 -0.279244
vn -0.465157 0.867441 -0.176568
v 0.001096 0.026741 -0.299224
vn -0.465157 0.867441 -0.176568
v -0.003175 0.032315 -0.260590
vn -0.465157 0.867441 -0.176568
v 0.000000 0.034538 -0.258032
vn -0.055655 0.038895 -0.997692
v -0.007295 0.039503 -0.233701
vn -0.055655 0.038895 -0.997692
v -0.011764 0.033289 -0.233694
vn -0.055655 0.038895 -0.997692
v -0.012044 0.038623 -0.233470
vn 0.567286 -0.823521 0.000000
v -0.060452 0.020710 -0.121444
vn 0.567286 -0.823521 0.000000
v -0.053029 0.025823 -0.195180
vn 0.567286 -0.823521 0.000000
v -0.060452 0.020710 -0.115015
vn -0.957905 -0.269582 -0.098709
v 0.052443 0.038999 -0.093656
vn -0.957905 -0.269582 -0.098709
v 0.060452 0.020718 -0.121451
vn -0.957905 -0.269582 -0.098709
v 0.060452 0.019419 -0.117904
vn 0.000000 -0.970008 0.243072
v 0.006750 -0.036500 -0.089779
vn 0.000000 -0.970008 0.243072
v 0.028188 -0.038776 -0.098862
vn 0.000000 -0.970008 0.243072
v 0.009250 -0.036500 -0.089779
vn 0.000000 -0.685981 -0.727620
v 0.009250 -0.036500 -0.089779
vn 0.000000 -0.685981 -0.727620
v -0.030480 -0.039912 -0.086563
vn 0.000000 -0.685981 -0.727620
v 0.006750 -0.036500 -0.089779
vn 0.000000 -0.117044 0.993127
v -0.009250 -0.036500 -0.089779
vn 0.000000 -0.117044 0.993127
v -0.008884 -0.044000 -0.090663
vn 0.000000 -0.117044 0.993127
v -0.006750 -0.036500 -0.089779
vn 0.000000 -0.117044 -0.993127
v -0.006750 -0.036500 -0.089779
vn 0.000000 -0.117044 -0.993127
v -0.007116 -0.044000 -0.088895
vn 0.000000 -0.117044 -0.993127
v -0.009250 -0.036500 -0.089779
vn 0.000000 -0.117044 0.993127
v -0.019563 -0.044000 -0.090663
vn 0.000000 -0.117044 0.993127
v -0.019197 -0.036500 -0.089779
vn 0.000000 -0.117044 0.993127
v -0.021697 -0.036500 -0.089779
vn 0.000000 -0.117044 -0.993127
v -0.019197 -0.036500 -0.089779
vn 0.000000 -0.117044 -0.993127
v -0.021331 -0.044000 -0.088895
vn 0.000000 -0.117044 -0.993127
v -0.021697 -0.036500 -0.089779
vn 0.000000 -0.117044 -0.993127
v 0.019563 -0.044000 -0.088895
vn 0.000000 -0.117044 -0.993127
v 0.019197 -0.036500 -0.089779
vn 0.000000 -0.117044 -0.993127
v 0.021697 -0.036500 -0.089779
vn 0.000000 -0.117044 0.993127
v 0.019197 -0.036500 -0.089779
vn 0.000000 -0.117044 0.993127
v 0.021331 -0.044000 -0.090663
vn 0.000000 -0.117044 0.993127
v 0.021697 -0.036500 -0.089779
vn 0.708245 0.705904 0.009445
v -0.022991 -0.046148 -0.182103
vn 0.708245 0.705904 0.009445
v -0.036786 -0.031826 -0.217986
vn 0.708245 0.705904 0.009445
v -0.030480 -0.039912 -0.086563
vn -0.438288 -0.518319 -0.734335
v -0.058116 0.032469 -0.113484
vn -0.438288 -0.518319 -0.734335
v -0.041268 -0.030154 -0.079337
vn -0.438288 -0.518319 -0.734335
v -0.064314 0.003485 -0.089326
vn -0.042401 -0.992849 0.111595
v -0.022977 -0.050698 -0.179680
vn -0.042401 -0.992849 0.111595
v -0.020447 -0.050698 -0.178719
vn -0.042401 -0.992849 0.111595
v -0.030480 -0.039912 -0.086563
vn -0.016512 0.998919 0.043458
v -0.022977 -0.050698 -0.179680
vn -0.016512 0.998919 0.043458
v -0.019719 -0.054334 -0.094866
vn -0.016512 0.998919 0.043458
v -0.020447 -0.050698 -0.178719
vn 0.753784 -0.457803 -0.471409
v 0.022312 -0.000265 -0.287034
vn 0.753784 -0.457803 -0.471409
v 0.027636 0.009472 -0.287977
vn 0.753784 -0.457803 -0.471409
v 0.027305 0.003313 -0.282525
vn 0.718426 -0.684497 0.123809
v 0.001096 0.026741 -0.299224
vn 0.718426 -0.684497 0.123809
v 0.000000 0.030615 -0.271444
vn 0.718426 -0.684497 0.123809
v -0.001143 0.029463 -0.271182
vn 0.181931 0.942843 0.279191
v 0.025343 0.002929 -0.276153
vn 0.181931 0.942843 0.279191
v 0.026143 0.006546 -0.288889
vn 0.181931 0.942843 0.279191
v 0.020955 0.003775 -0.276153
vn -0.786585 0.605711 -0.119994
v -0.028679 0.030607 -0.107472
vn -0.786585 0.605711 -0.119994
v -0.035442 0.021825 -0.107472
vn -0.786585 0.605711 -0.119994
v -0.027428 0.036039 -0.088251
vn 0.415250 -0.891754 0.179842
v 0.001096 0.026741 -0.299224
vn 0.415250 -0.891754 0.179842
v 0.000000 0.034538 -0.258032
vn 0.415250 -0.891754 0.179842
v -0.003175 0.033467 -0.256011
vn 0.535943 -0.843651 0.031918
v -0.003175 0.036450 -0.243311
vn 0.535943 -0.843651 0.031918
v 0.000000 0.038563 -0.240778
vn 0.535943 -0.843651 0.031918
v -0.002159 0.037230 -0.239762
vn -0.123761 0.976044 -0.178945
v 0.001096 0.026741 -0.299224
vn -0.123761 0.976044 -0.178945
v -0.003175 0.036450 -0.243311
vn -0.123761 0.976044 -0.178945
v -0.002159 0.037230 -0.239762
vn 0.088074 0.751324 -0.654031
v -0.019719 -0.054334 -0.094866
vn 0.088074 0.751324 -0.654031
v -0.022431 -0.043489 -0.082772
vn 0.088074 0.751324 -0.654031
v 0.001381 -0.055520 -0.093386
vn 0.055075 0.998377 0.014519
v 0.001381 -0.055520 -0.093386
vn 0.055075 0.998377 0.014519
v 0.018647 -0.055736 -0.144017
vn 0.055075 0.998377 0.014519
v -0.019719 -0.054334 -0.094866
vn -0.648024 0.516780 0.559467
v 0.027254 -0.013125 -0.082622
vn -0.648024 0.516780 0.559467
v 0.018861 -0.023650 -0.082622
vn -0.648024 0.516780 0.559467
v 0.016853 -0.029191 -0.079829
vn -0.145107 0.989125 0.023987
v 0.008094 0.041716 -0.107472
vn -0.145107 0.989125 0.023987
v -0.027428 0.036039 -0.088251
vn -0.145107 0.989125 0.023987
v 0.010520 0.041424 -0.080725
vn 0.725864 -0.341947 0.596820
v -0.033303 0.020465 -0.260869
vn 0.725864 -0.341947 0.596820
v -0.035672 0.017296 -0.259803
vn 0.725864 -0.341947 0.596820
v -0.029449 0.021538 -0.264941
vn 0.788308 -0.326524 0.521491
v 0.027408 -0.007228 -0.277299
vn 0.788308 -0.326524 0.521491
v 0.026371 0.002241 -0.269803
vn 0.788308 -0.326524 0.521491
v 0.024130 -0.003170 -0.269803
vn -0.322670 0.315281 -0.892458
v 0.026164 -0.006365 -0.293458
vn -0.322670 0.315281 -0.892458
v 0.020955 -0.006165 -0.291504
vn -0.322670 0.315281 -0.892458
v 0.026143 0.006546 -0.288889
vn -0.573477 0.383038 -0.724159
v 0.020955 0.005972 -0.285084
vn -0.573477 0.383038 -0.724159
v 0.026143 0.006546 -0.288889
vn -0.573477 0.383038 -0.724159
v 0.020955 -0.006165 -0.291504
vn -0.421149 -0.892745 0.160127
v -0.021331 -0.044000 -0.088895
vn -0.421149 -0.892745 0.160127
v 0.001381 -0.055520 -0.093386
vn -0.421149 -0.892745 0.160127
v 0.001165 -0.052253 -0.075744
vn 0.725450 -0.284919 -0.626532
v -0.027254 0.013125 -0.082622
vn 0.725450 -0.284919 -0.626532
v -0.029682 -0.009969 -0.074931
vn 0.725450 -0.284919 -0.626532
v -0.030250 0.000000 -0.080122
vn 0.446259 -0.892703 0.062721
v 0.001381 -0.055520 -0.093386
vn 0.446259 -0.892703 0.062721
v 0.023622 -0.044000 -0.087668
vn 0.446259 -0.892703 0.062721
v 0.023216 -0.044000 -0.084779
vn -0.004911 0.999988 -0.000690
v 0.027099 -0.043984 -0.089397
vn -0.004911 0.999988 -0.000690
v 0.023622 -0.044000 -0.087668
vn -0.004911 0.999988 -0.000690
v 0.023216 -0.044000 -0.084779
vn 0.212241 0.976762 0.029830
v 0.023622 -0.044000 -0.087668
vn 0.212241 0.976762 0.029830
v -0.041268 -0.030154 -0.079337
vn 0.212241 0.976762 0.029830
v 0.023216 -0.044000 -0.084779
vn 0.004911 -0.999988 0.000690
v 0.023622 -0.044000 -0.087668
vn 0.004911 -0.999988 0.000690
v 0.027099 -0.043984 -0.089397
vn 0.004911 -0.999988 0.000690
v 0.023216 -0.044000 -0.084779
vn -0.101073 0.975723 -0.194292
v 0.018647 -0.055736 -0.144017
vn -0.101073 0.975723 -0.194292
v 0.023622 -0.044000 -0.087668
vn -0.101073 0.975723 -0.194292
v 0.027099 -0.043984 -0.089397
vn 0.785319 -0.619091 0.000006
v 0.029424 -0.019460 -0.101122
vn 0.785319 -0.619091 0.000006
v 0.020476 -0.030810 -0.104352
vn 0.785319 -0.619091 0.000006
v 0.029424 -0.019460 -0.105110
vn -0.101530 -0.822100 -0.560217
v -0.022431 -0.043489 -0.082772
vn -0.101530 -0.822100 -0.560217
v -0.030480 -0.039912 -0.086563
vn -0.101530 -0.822100 -0.560217
v 0.028188 -0.038776 -0.098862
vn 0.771752 -0.635906 -0.004748
v -0.043693 0.029002 -0.155231
vn 0.771752 -0.635906 -0.004748
v -0.041792 0.031290 -0.152532
vn 0.771752 -0.635906 -0.004748
v -0.064314 0.003485 -0.089326
vn -0.882073 0.352480 0.312579
v 0.026143 0.006546 -0.288889
vn -0.882073 0.352480 0.312579
v 0.030256 0.007705 -0.278589
vn -0.882073 0.352480 0.312579
v 0.027636 0.009472 -0.287977
vn -0.170976 0.652136 0.738570
v -0.064314 0.003485 -0.089326
vn -0.170976 0.652136 0.738570
v 0.052443 0.038999 -0.093656
vn -0.170976 0.652136 0.738570
v -0.058116 0.032469 -0.113484
vn -0.036850 -0.764665 -0.643374
v -0.030480 -0.039912 -0.086563
vn -0.036850 -0.764665 -0.643374
v 0.023216 -0.044000 -0.084779
vn -0.036850 -0.764665 -0.643374
v -0.022431 -0.043489 -0.082772
vn 0.882848 -0.112309 0.456032
v 0.052443 0.038999 -0.093656
vn 0.882848 -0.112309 0.456032
v 0.036585 -0.033974 -0.080928
vn 0.882848 -0.112309 0.456032
v 0.062268 -0.026063 -0.128700
vn -0.498364 -0.866586 -0.025733
v 0.052443 0.038999 -0.093656
vn -0.498364 -0.866586 -0.025733
v 0.022699 0.056236 -0.098075
vn -0.498364 -0.866586 -0.025733
v 0.024528 0.056372 -0.138074
vn 0.014525 -0.887617 -0.460354
v 0.038097 -0.029840 -0.221087
vn 0.014525 -0.887617 -0.460354
v 0.032766 0.000005 -0.278801
vn 0.014525 -0.887617 -0.460354
v 0.057251 -0.016315 -0.246562
vn 0.963149 0.219584 0.155331
v 0.040855 0.007955 -0.107472
vn 0.963149 0.219584 0.155331
v 0.038635 0.017695 -0.107472
vn 0.963149 0.219584 0.155331
v 0.036801 0.021248 -0.101122
vn -0.272054 0.781436 0.561555
v -0.036786 -0.031826 -0.217986
vn -0.272054 0.781436 0.561555
v -0.033136 0.000000 -0.260506
vn -0.272054 0.781436 0.561555
v -0.062753 0.003154 -0.279244
vn 0.725423 -0.540919 0.425638
v -0.019224 0.029582 -0.260981
vn 0.725423 -0.540919 0.425638
v -0.018714 0.028722 -0.262945
vn 0.725423 -0.540919 0.425638
v 0.001096 0.026741 -0.299224
vn -0.087947 0.968856 -0.231482
v 0.018928 -0.051780 -0.182705
vn -0.087947 0.968856 -0.231482
v 0.020447 -0.050691 -0.178724
vn -0.087947 0.968856 -0.231482
v 0.022977 -0.050691 -0.179686
vn -0.205332 0.008713 -0.978653
v -0.030480 -0.039912 -0.086563
vn -0.205332 0.008713 -0.978653
v 0.028188 -0.038776 -0.098862
vn -0.205332 0.008713 -0.978653
v 0.001381 -0.055520 -0.093386
vn -0.112732 0.882685 -0.456243
v 0.009250 -0.036500 -0.089779
vn -0.112732 0.882685 -0.456243
v 0.028188 -0.038776 -0.098862
vn -0.112732 0.882685 -0.456243
v -0.030480 -0.039912 -0.086563
vn 0.121836 -0.856175 0.502117
v 0.006750 -0.036500 -0.089779
vn 0.121836 -0.856175 0.502117
v -0.030480 -0.039912 -0.086563
vn 0.121836 -0.856175 0.502117
v 0.028188 -0.038776 -0.098862
vn -0.000016 0.990257 0.139253
v 0.013102 0.034648 -0.107406
vn -0.000016 0.990257 0.139253
v 0.013468 0.033765 -0.101122
vn -0.000016 0.990257 0.139253
v 0.015601 0.034648 -0.107406
vn 0.000016 -0.990257 0.139253
v 0.015235 0.035532 -0.101122
vn 0.000016 -0.990257 0.139253
v 0.013102 0.034648 -0.107406
vn 0.000016 -0.990257 0.139253
v 0.015601 0.034648 -0.107406
vn -0.682502 0.682479 0.261559
v -0.015235 0.033765 -0.107406
vn -0.682502 0.682479 0.261559
v -0.013149 0.033443 -0.101122
vn -0.682502 0.682479 0.261559
v -0.013468 0.035532 -0.107406
vn 0.682659 -0.682636 0.260739
v -0.015553 0.035848 -0.101122
vn 0.682659 -0.682636 0.260739
v -0.015235 0.033765 -0.107406
vn 0.682659 -0.682636 0.260739
v -0.013468 0.035532 -0.107406
vn 0.006084 -0.226532 0.973985
v -0.029682 -0.009969 -0.074931
vn 0.006084 -0.226532 0.973985
v -0.022431 -0.043489 -0.082772
vn 0.006084 -0.226532 0.973985
v 0.036585 -0.033974 -0.080928
vn 0.407056 -0.845258 0.346187
v -0.006731 0.029492 -0.082622
vn 0.407056 -0.845258 0.346187
v -0.004271 0.033901 -0.074748
vn 0.407056 -0.845258 0.346187
v -0.018861 0.023650 -0.082622
vn 0.881267 -0.472201 0.019866
v -0.027878 -0.028563 -0.104361
vn 0.881267 -0.472201 0.019866
v -0.026538 -0.025837 -0.099054
vn 0.881267 -0.472201 0.019866
v -0.028436 -0.028437 -0.076622
vn -0.881267 0.472201 0.019866
v 0.027878 0.028563 -0.104361
vn -0.881267 0.472201 0.019866
v 0.026538 0.025837 -0.099054
vn -0.881267 0.472201 0.019866
v 0.028436 0.028437 -0.076622
vn -0.180416 0.983477 0.014950
v 0.040215 0.000000 -0.076622
vn -0.180416 0.983477 0.014950
v 0.039888 0.000362 -0.104363
vn -0.180416 0.983477 0.014950
v 0.035685 -0.000412 -0.104197
vn 0.448032 0.891779 -0.063228
v 0.000556 -0.038023 -0.104527
vn 0.448032 0.891779 -0.063228
v -0.000749 -0.036937 -0.098453
vn 0.448032 0.891779 -0.063228
v 0.006933 -0.039211 -0.076089
vn -0.752068 -0.627635 -0.201166
v -0.000484 0.039910 -0.104361
vn -0.752068 -0.627635 -0.201166
v 0.000493 0.037035 -0.099042
vn -0.752068 -0.627635 -0.201166
v -0.005890 0.037473 -0.076544
vn 0.980761 -0.171176 0.093846
v -0.035130 0.013038 -0.102066
vn 0.980761 -0.171176 0.093846
v -0.034558 0.015664 -0.103246
vn 0.980761 -0.171176 0.093846
v -0.037154 0.015390 -0.076622
vn -0.164031 0.979268 0.118857
v 0.016051 -0.034646 -0.101122
vn -0.164031 0.979268 0.118857
v 0.013704 -0.034645 -0.104362
vn -0.164031 0.979268 0.118857
v 0.006933 -0.039211 -0.076089
vn 0.360734 0.913126 -0.189924
v 0.001096 0.026741 -0.299224
vn 0.360734 0.913126 -0.189924
v -0.007209 0.042274 -0.240321
vn 0.360734 0.913126 -0.189924
v 0.062816 0.020507 -0.211971
vn 0.725827 0.494580 -0.478085
v 0.032766 0.000005 -0.278801
vn 0.725827 0.494580 -0.478085
v 0.001096 0.026741 -0.299224
vn 0.725827 0.494580 -0.478085
v 0.062816 0.020507 -0.211971
vn -0.822657 0.560522 0.095138
v 0.035848 -0.013149 -0.101122
vn -0.822657 0.560522 0.095138
v 0.034062 -0.014987 -0.105733
vn -0.822657 0.560522 0.095138
v 0.037154 -0.015390 -0.076622
vn -0.370940 -0.928090 -0.032449
v -0.036786 -0.031826 -0.217986
vn -0.370940 -0.928090 -0.032449
v 0.019671 -0.056559 -0.155992
vn -0.370940 -0.928090 -0.032449
v -0.057617 -0.027214 -0.111789
vn 0.182328 -0.170536 0.968336
v 0.027408 -0.007228 -0.277299
vn 0.182328 -0.170536 0.968336
v 0.025343 -0.002929 -0.276153
vn 0.182328 -0.170536 0.968336
v 0.020955 -0.007620 -0.276153
vn -0.904035 -0.384250 -0.187278
v 0.025343 -0.002929 -0.276153
vn -0.904035 -0.384250 -0.187278
v 0.027408 -0.007228 -0.277299
vn -0.904035 -0.384250 -0.187278
v 0.024130 -0.003170 -0.269803
vn 0.380688 0.908999 -0.169698
v 0.052443 0.038999 -0.093656
vn 0.380688 0.908999 -0.169698
v 0.043845 0.030617 -0.157846
vn 0.380688 0.908999 -0.169698
v 0.008464 0.046998 -0.149471
vn -0.221939 -0.782185 -0.582177
v 0.038097 -0.029840 -0.221087
vn -0.221939 -0.782185 -0.582177
v 0.057251 -0.016315 -0.246562
vn -0.221939 -0.782185 -0.582177
v 0.020447 -0.050692 -0.186344
vn -0.513616 -0.856049 -0.058129
v 0.033547 0.035355 -0.178598
vn -0.513616 -0.856049 -0.058129
v 0.060010 0.021546 -0.209067
vn -0.513616 -0.856049 -0.058129
v 0.039182 0.030696 -0.159775
vn -0.999475 -0.029299 0.013844
v 0.061976 0.009599 -0.172832
vn -0.999475 -0.029299 0.013844
v 0.061976 0.016452 -0.158330
vn -0.999475 -0.029299 0.013844
v 0.061604 0.015649 -0.186882
vn 0.999808 0.017724 -0.008375
v -0.061976 0.009592 -0.172826
vn 0.999808 0.017724 -0.008375
v -0.062753 0.003154 -0.279244
vn 0.999808 0.017724 -0.008375
v -0.061976 0.016444 -0.158323
vn 0.861249 0.507016 0.034421
v -0.022991 -0.046148 -0.182103
vn 0.861249 0.507016 0.034421
v -0.030480 -0.039912 -0.086563
vn 0.861249 0.507016 0.034421
v -0.020447 -0.050698 -0.178719
vn -0.917633 0.387062 -0.090187
v 0.001096 0.026741 -0.299224
vn -0.917633 0.387062 -0.090187
v 0.000000 0.029071 -0.278071
vn -0.917633 0.387062 -0.090187
v 0.000000 0.030615 -0.271444
vn -0.129397 -0.983317 0.127843
v 0.039182 0.030696 -0.159775
vn -0.129397 -0.983317 0.127843
v 0.060010 0.021546 -0.209067
vn -0.129397 -0.983317 0.127843
v 0.041681 0.031230 -0.153135
vn -0.082431 -0.986178 0.143729
v 0.041681 0.031230 -0.153135
vn -0.082431 -0.986178 0.143729
v 0.060010 0.021546 -0.209067
vn -0.082431 -0.986178 0.143729
v 0.052443 0.038999 -0.093656
vn 0.615002 0.788526 0.000000
v -0.018308 -0.054340 -0.181777
vn 0.615002 0.788526 0.000000
v -0.022977 -0.050698 -0.185378
vn 0.615002 0.788526 0.000000
v -0.022977 -0.050698 -0.179680
vn 0.800084 0.599867 -0.005019
v -0.019719 -0.054334 -0.094866
vn 0.800084 0.599867 -0.005019
v -0.022977 -0.050698 -0.179680
vn 0.800084 0.599867 -0.005019
v -0.030480 -0.039912 -0.086563
vn -0.669374 -0.718095 0.190469
v 0.010586 0.044458 -0.151593
vn -0.669374 -0.718095 0.190469
v 0.011764 0.044458 -0.147450
vn -0.669374 -0.718095 0.190469
v 0.008464 0.046998 -0.149471
vn 0.020221 -0.097453 0.995035
v -0.027719 0.024363 -0.258484
vn 0.020221 -0.097453 0.995035
v -0.024201 0.027619 -0.258236
vn 0.020221 -0.097453 0.995035
v -0.034412 0.023022 -0.258479
# 1251 vertices, 0 vertices normals

f 1//1 2//2 3//3
f 4//4 5//5 6//6
f 7//7 8//8 9//9
f 10//10 11//11 12//12
f 13//13 14//14 15//15
f 16//16 17//17 18//18
f 19//19 20//20 21//21
f 22//22 23//23 24//24
f 25//25 26//26 27//27
f 28//28 29//29 30//30
f 31//31 32//32 33//33
f 34//34 35//35 36//36
f 37//37 38//38 39//39
f 40//40 41//41 42//42
f 43//43 44//44 45//45
f 46//46 47//47 48//48
f 49//49 50//50 51//51
f 52//52 53//53 54//54
f 55//55 56//56 57//57
f 58//58 59//59 60//60
f 61//61 62//62 63//63
f 64//64 65//65 66//66
f 67//67 68//68 69//69
f 70//70 71//71 72//72
f 73//73 74//74 75//75
f 76//76 77//77 78//78
f 79//79 80//80 81//81
f 82//82 83//83 84//84
f 85//85 86//86 87//87
f 88//88 89//89 90//90
f 91//91 92//92 93//93
f 94//94 95//95 96//96
f 97//97 98//98 99//99
f 100//100 101//101 102//102
f 103//103 104//104 105//105
f 106//106 107//107 108//108
f 109//109 110//110 111//111
f 112//112 113//113 114//114
f 115//115 116//116 117//117
f 118//118 119//119 120//120
f 121//121 122//122 123//123
f 124//124 125//125 126//126
f 127//127 128//128 129//129
f 130//130 131//131 132//132
f 133//133 134//134 135//135
f 136//136 137//137 138//138
f 139//139 140//140 141//141
f 142//142 143//143 144//144
f 145//145 146//146 147//147
f 148//148 149//149 150//150
f 151//151 152//152 153//153
f 154//154 155//155 156//156
f 157//157 158//158 159//159
f 160//160 161//161 162//162
f 163//163 164//164 165//165
f 166//166 167//167 168//168
f 169//169 170//170 171//171
f 172//172 173//173 174//174
f 175//175 176//176 177//177
f 178//178 179//179 180//180
f 181//181 182//182 183//183
f 184//184 185//185 186//186
f 187//187 188//188 189//189
f 190//190 191//191 192//192
f 193//193 194//194 195//195
f 196//196 197//197 198//198
f 199//199 200//200 201//201
f 202//202 203//203 204//204
f 205//205 206//206 207//207
f 208//208 209//209 210//210
f 211//211 212//212 213//213
f 214//214 215//215 216//216
f 217//217 218//218 219//219
f 220//220 221//221 222//222
f 223//223 224//224 225//225
f 226//226 227//227 228//228
f 229//229 230//230 231//231
f 232//232 233//233 234//234
f 235//235 236//236 237//237
f 238//238 239//239 240//240
f 241//241 242//242 243//243
f 244//244 245//245 246//246
f 247//247 248//248 249//249
f 250//250 251//251 252//252
f 253//253 254//254 255//255
f 256//256 257//257 258//258
f 259//259 260//260 261//261
f 262//262 263//263 264//264
f 265//265 266//266 267//267
f 268//268 269//269 270//270
f 271//271 272//272 273//273
f 274//274 275//275 276//276
f 277//277 278//278 279//279
f 280//280 281//281 282//282
f 283//283 284//284 285//285
f 286//286 287//287 288//288
f 289//289 290//290 291//291
f 292//292 293//293 294//294
f 295//295 296//296 297//297
f 298//298 299//299 300//300
f 301//301 302//302 303//303
f 304//304 305//305 306//306
f 307//307 308//308 309//309
f 310//310 311//311 312//312
f 313//313 314//314 315//315
f 316//316 317//317 318//318
f 319//319 320//320 321//321
f 322//322 323//323 324//324
f 325//325 326//326 327//327
f 328//328 329//329 330//330
f 331//331 332//332 333//333
f 334//334 335//335 336//336
f 337//337 338//338 339//339
f 340//340 341//341 342//342
f 343//343 344//344 345//345
f 346//346 347//347 348//348
f 349//349 350//350 351//351
f 352//352 353//353 354//354
f 355//355 356//356 357//357
f 358//358 359//359 360//360
f 361//361 362//362 363//363
f 364//364 365//365 366//366
f 367//367 368//368 369//369
f 370//370 371//371 372//372
f 373//373 374//374 375//375
f 376//376 377//377 378//378
f 379//379 380//380 381//381
f 382//382 383//383 384//384
f 385//385 386//386 387//387
f 388//388 389//389 390//390
f 391//391 392//392 393//393
f 394//394 395//395 396//396
f 397//397 398//398 399//399
f 400//400 401//401 402//402
f 403//403 404//404 405//405
f 406//406 407//407 408//408
f 409//409 410//410 411//411
f 412//412 413//413 414//414
f 415//415 416//416 417//417
f 418//418 419//419 420//420
f 421//421 422//422 423//423
f 424//424 425//425 426//426
f 427//427 428//428 429//429
f 430//430 431//431 432//432
f 433//433 434//434 435//435
f 436//436 437//437 438//438
f 439//439 440//440 441//441
f 442//442 443//443 444//444
f 445//445 446//446 447//447
f 448//448 449//449 450//450
f 451//451 452//452 453//453
f 454//454 455//455 456//456
f 457//457 458//458 459//459
f 460//460 461//461 462//462
f 463//463 464//464 465//465
f 466//466 467//467 468//468
f 469//469 470//470 471//471
f 472//472 473//473 474//474
f 475//475 476//476 477//477
f 478//478 479//479 480//480
f 481//481 482//482 483//483
f 484//484 485//485 486//486
f 487//487 488//488 489//489
f 490//490 491//491 492//492
f 493//493 494//494 495//495
f 496//496 497//497 498//498
f 499//499 500//500 501//501
f 502//502 503//503 504//504
f 505//505 506//506 507//507
f 508//508 509//509 510//510
f 511//511 512//512 513//513
f 514//514 515//515 516//516
f 517//517 518//518 519//519
f 520//520 521//521 522//522
f 523//523 524//524 525//525
f 526//526 527//527 528//528
f 529//529 530//530 531//531
f 532//532 533//533 534//534
f 535//535 536//536 537//537
f 538//538 539//539 540//540
f 541//541 542//542 543//543
f 544//544 545//545 546//546
f 547//547 548//548 549//549
f 550//550 551//551 552//552
f 553//553 554//554 555//555
f 556//556 557//557 558//558
f 559//559 560//560 561//561
f 562//562 563//563 564//564
f 565//565 566//566 567//567
f 568//568 569//569 570//570
f 571//571 572//572 573//573
f 574//574 575//575 576//576
f 577//577 578//578 579//579
f 580//580 581//581 582//582
f 583//583 584//584 585//585
f 586//586 587//587 588//588
f 589//589 590//590 591//591
f 592//592 593//593 594//594
f 595//595 596//596 597//597
f 598//598 599//599 600//600
f 601//601 602//602 603//603
f 604//604 605//605 606//606
f 607//607 608//608 609//609
f 610//610 611//611 612//612
f 613//613 614//614 615//615
f 616//616 617//617 618//618
f 619//619 620//620 621//621
f 622//622 623//623 624//624
f 625//625 626//626 627//627
f 628//628 629//629 630//630
f 631//631 632//632 633//633
f 634//634 635//635 636//636
f 637//637 638//638 639//639
f 640//640 641//641 642//642
f 643//643 644//644 645//645
f 646//646 647//647 648//648
f 649//649 650//650 651//651
f 652//652 653//653 654//654
f 655//655 656//656 657//657
f 658//658 659//659 660//660
f 661//661 662//662 663//663
f 664//664 665//665 666//666
f 667//667 668//668 669//669
f 670//670 671//671 672//672
f 673//673 674//674 675//675
f 676//676 677//677 678//678
f 679//679 680//680 681//681
f 682//682 683//683 684//684
f 685//685 686//686 687//687
f 688//688 689//689 690//690
f 691//691 692//692 693//693
f 694//694 695//695 696//696
f 697//697 698//698 699//699
f 700//700 701//701 702//702
f 703//703 704//704 705//705
f 706//706 707//707 708//708
f 709//709 710//710 711//711
f 712//712 713//713 714//714
f 715//715 716//716 717//717
f 718//718 719//719 720//720
f 721//721 722//722 723//723
f 724//724 725//725 726//726
f 727//727 728//728 729//729
f 730//730 731//731 732//732
f 733//733 734//734 735//735
f 736//736 737//737 738//738
f 739//739 740//740 741//741
f 742//742 743//743 744//744
f 745//745 746//746 747//747
f 748//748 749//749 750//750
f 751//751 752//752 753//753
f 754//754 755//755 756//756
f 757//757 758//758 759//759
f 760//760 761//761 762//762
f 763//763 764//764 765//765
f 766//766 767//767 768//768
f 769//769 770//770 771//771
f 772//772 773//773 774//774
f 775//775 776//776 777//777
f 778//778 779//779 780//780
f 781//781 782//782 783//783
f 784//784 785//785 786//786
f 787//787 788//788 789//789
f 790//790 791//791 792//792
f 793//793 794//794 795//795
f 796//796 797//797 798//798
f 799//799 800//800 801//801
f 802//802 803//803 804//804
f 805//805 806//806 807//807
f 808//808 809//809 810//810
f 811//811 812//812 813//813
f 814//814 815//815 816//816
f 817//817 818//818 819//819
f 820//820 821//821 822//822
f 823//823 824//824 825//825
f 826//826 827//827 828//828
f 829//829 830//830 831//831
f 832//832 833//833 834//834
f 835//835 836//836 837//837
f 838//838 839//839 840//840
f 841//841 842//842 843//843
f 844//844 845//845 846//846
f 847//847 848//848 849//849
f 850//850 851//851 852//852
f 853//853 854//854 855//855
f 856//856 857//857 858//858
f 859//859 860//860 861//861
f 862//862 863//863 864//864
f 865//865 866//866 867//867
f 868//868 869//869 870//870
f 871//871 872//872 873//873
f 874//874 875//875 876//876
f 877//877 878//878 879//879
f 880//880 881//881 882//882
f 883//883 884//884 885//885
f 886//886 887//887 888//888
f 889//889 890//890 891//891
f 892//892 893//893 894//894
f 895//895 896//896 897//897
f 898//898 899//899 900//900
f 901//901 902//902 903//903
f 904//904 905//905 906//906
f 907//907 908//908 909//909
f 910//910 911//911 912//912
f 913//913 914//914 915//915
f 916//916 917//917 918//918
f 919//919 920//920 921//921
f 922//922 923//923 924//924
f 925//925 926//926 927//927
f 928//928 929//929 930//930
f 931//931 932//932 933//933
f 934//934 935//935 936//936
f 937//937 938//938 939//939
f 940//940 941//941 942//942
f 943//943 944//944 945//945
f 946//946 947//947 948//948
f 949//949 950//950 951//951
f 952//952 953//953 954//954
f 955//955 956//956 957//957
f 958//958 959//959 960//960
f 961//961 962//962 963//963
f 964//964 965//965 966//966
f 967//967 968//968 969//969
f 970//970 971//971 972//972
f 973//973 974//974 975//975
f 976//976 977//977 978//978
f 979//979 980//980 981//981
f 982//982 983//983 984//984
f 985//985 986//986 987//987
f 988//988 989//989 990//990
f 991//991 992//992 993//993
f 994//994 995//995 996//996
f 997//997 998//998 999//999
f 1000//1000 1001//1001 1002//1002
f 1003//1003 1004//1004 1005//1005
f 1006//1006 1007//1007 1008//1008
f 1009//1009 1010//1010 1011//1011
f 1012//1012 1013//1013 1014//1014
f 1015//1015 1016//1016 1017//1017
f 1018//1018 1019//1019 1020//1020
f 1021//1021 1022//1022 1023//1023
f 1024//1024 1025//1025 1026//1026
f 1027//1027 1028//1028 1029//1029
f 1030//1030 1031//1031 1032//1032
f 1033//1033 1034//1034 1035//1035
f 1036//1036 1037//1037 1038//1038
f 1039//1039 1040//1040 1041//1041
f 1042//1042 1043//1043 1044//1044
f 1045//1045 1046//1046 1047//1047
f 1048//1048 1049//1049 1050//1050
f 1051//1051 1052//1052 1053//1053
f 1054//1054 1055//1055 1056//1056
f 1057//1057 1058//1058 1059//1059
f 1060//1060 1061//1061 1062//1062
f 1063//1063 1064//1064 1065//1065
f 1066//1066 1067//1067 1068//1068
f 1069//1069 1070//1070 1071//1071
f 1072//1072 1073//1073 1074//1074
f 1075//1075 1076//1076 1077//1077
f 1078//1078 1079//1079 1080//1080
f 1081//1081 1082//1082 1083//1083
f 1084//1084 1085//1085 1086//1086
f 1087//1087 1088//1088 1089//1089
f 1090//1090 1091//1091 1092//1092
f 1093//1093 1094//1094 1095//1095
f 1096//1096 1097//1097 1098//1098
f 1099//1099 1100//1100 1101//1101
f 1102//1102 1103//1103 1104//1104
f 1105//1105 1106//1106 1107//1107
f 1108//1108 1109//1109 1110//1110
f 1111//1111 1112//1112 1113//1113
f 1114//1114 1115//1115 1116//1116
f 1117//1117 1118//1118 1119//1119
f 1120//1120 1121//1121 1122//1122
f 1123//1123 1124//1124 1125//1125
f 1126//1126 1127//1127 1128//1128
f 1129//1129 1130//1130 1131//1131
f 1132//1132 1133//1133 1134//1134
f 1135//1135 1136//1136 1137//1137
f 1138//1138 1139//1139 1140//1140
f 1141//1141 1142//1142 1143//1143
f 1144//1144 1145//1145 1146//1146
f 1147//1147 1148//1148 1149//1149
f 1150//1150 1151//1151 1152//1152
f 1153//1153 1154//1154 1155//1155
f 1156//1156 1157//1157 1158//1158
f 1159//1159 1160//1160 1161//1161
f 1162//1162 1163//1163 1164//1164
f 1165//1165 1166//1166 1167//1167
f 1168//1168 1169//1169 1170//1170
f 1171//1171 1172//1172 1173//1173
f 1174//1174 1175//1175 1176//1176
f 1177//1177 1178//1178 1179//1179
f 1180//1180 1181//1181 1182//1182
f 1183//1183 1184//1184 1185//1185
f 1186//1186 1187//1187 1188//1188
f 1189//1189 1190//1190 1191//1191
f 1192//1192 1193//1193 1194//1194
f 1195//1195 1196//1196 1197//1197
f 1198//1198 1199//1199 1200//1200
f 1201//1201 1202//1202 1203//1203
f 1204//1204 1205//1205 1206//1206
f 1207//1207 1208//1208 1209//1209
f 1210//1210 1211//1211 1212//1212
f 1213//1213 1214//1214 1215//1215
f 1216//1216 1217//1217 1218//1218
f 1219//1219 1220//1220 1221//1221
f 1222//1222 1223//1223 1224//1224
f 1225//1225 1226//1226 1227//1227
f 1228//1228 1229//1229 1230//1230
f 1231//1231 1232//1232 1233//1233
f 1234//1234 1235//1235 1236//1236
f 1237//1237 1238//1238 1239//1239
f 1240//1240 1241//1241 1242//1242
f 1243//1243 1244//1244 1245//1245
f 1246//1246 1247//1247 1248//1248
f 1249//1249 1250//1250 1251//1251
# 417 faces, 0 coords texture

# End of File