####
#
# OBJ File Generated by Meshlab
#
####
# Object aj5_Left.obj
#
# Vertices: 1230
# Faces: 410
#
####
vn -0.621264 0.782764 0.036209
v 0.060246 -0.021724 0.217368
vn -0.621264 0.782764 0.036209
v 0.058603 -0.017299 0.093537
vn -0.621264 0.782764 0.036209
v 0.020537 -0.049105 0.127982
vn 0.694658 0.459237 -0.553670
v 0.062306 0.021064 0.221438
vn 0.694658 0.459237 -0.553670
v -0.015741 0.010647 0.114875
vn 0.694658 0.459237 -0.553670
v -0.036959 0.068941 0.136606
vn -0.422240 -0.749319 0.510131
v -0.069113 -0.010255 0.099981
vn -0.422240 -0.749319 0.510131
v -0.018288 -0.042813 0.094226
vn -0.422240 -0.749319 0.510131
v -0.016261 -0.039260 0.101122
vn 0.871999 -0.489082 -0.020427
v -0.065098 -0.009655 0.257020
vn 0.871999 -0.489082 -0.020427
v -0.069113 -0.010255 0.099981
vn 0.871999 -0.489082 -0.020427
v -0.046574 0.027660 0.154356
vn -0.170021 -0.854777 0.490356
v -0.018288 -0.042813 0.094226
vn -0.170021 -0.854777 0.490356
v 0.000000 -0.042494 0.101122
vn -0.170021 -0.854777 0.490356
v -0.016261 -0.039260 0.101122
vn 0.969891 0.192924 -0.148636
v 0.030634 0.027693 0.062941
vn 0.969891 0.192924 -0.148636
v 0.038798 0.016071 0.101122
vn 0.969891 0.192924 -0.148636
v 0.041994 0.000000 0.101122
vn -0.809041 -0.586814 0.033197
v -0.003630 0.030636 0.271775
vn -0.809041 -0.586814 0.033197
v -0.036959 0.068941 0.136606
vn -0.809041 -0.586814 0.033197
v -0.011049 0.038734 0.234110
vn -0.615744 0.779332 0.116192
v 0.025292 -0.042324 0.084859
vn -0.615744 0.779332 0.116192
v 0.058603 -0.017299 0.093537
vn -0.615744 0.779332 0.116192
v 0.020204 -0.043827 0.067975
vn 0.000000 0.047532 -0.998870
v 0.023235 -0.044000 0.084779
vn 0.000000 0.047532 -0.998870
v -0.023216 -0.044000 0.084779
vn 0.000000 0.047532 -0.998870
v 0.025292 -0.042324 0.084859
vn 0.624546 0.780485 -0.028037
v 0.020472 0.027622 0.265708
vn 0.624546 0.780485 -0.028037
v 0.032460 0.018007 0.265110
vn 0.624546 0.780485 -0.028037
v -0.036959 0.068941 0.136606
vn 0.952119 -0.301659 0.049706
v 0.032814 0.002030 0.278989
vn 0.952119 -0.301659 0.049706
v 0.022263 -0.050972 0.159427
vn 0.952119 -0.301659 0.049706
v 0.033136 0.000000 0.260506
vn -0.539826 -0.837714 0.082607
v 0.033136 0.000000 0.260506
vn -0.539826 -0.837714 0.082607
v 0.060246 -0.021724 0.217368
vn -0.539826 -0.837714 0.082607
v 0.032814 0.002030 0.278989
vn 0.118052 0.371888 0.920740
v -0.056678 0.017344 0.245036
vn 0.118052 0.371888 0.920740
v -0.065098 -0.009655 0.257020
vn 0.118052 0.371888 0.920740
v -0.033107 0.027096 0.238074
vn 0.844636 -0.534853 0.022831
v -0.069113 -0.010255 0.099981
vn 0.844636 -0.534853 0.022831
v -0.043887 0.029166 0.090249
vn 0.844636 -0.534853 0.022831
v -0.046574 0.027660 0.154356
vn 0.917771 0.383055 -0.104715
v -0.014351 -0.032945 0.101122
vn 0.917771 0.383055 -0.104715
v -0.015389 -0.037154 0.076622
vn 0.917771 0.383055 -0.104715
v -0.017844 -0.031340 0.076373
vn -0.921153 -0.387339 0.038024
v -0.014977 -0.035731 0.101122
vn -0.921153 -0.387339 0.038024
v -0.017844 -0.031340 0.076373
vn -0.921153 -0.387339 0.038024
v -0.015389 -0.037154 0.076622
vn -0.282877 -0.946775 -0.153612
v 0.033123 0.027100 0.237977
vn -0.282877 -0.946775 -0.153612
v 0.035496 0.030373 0.213430
vn -0.282877 -0.946775 -0.153612
v 0.062306 0.021064 0.221438
vn -0.249523 0.373436 -0.893467
v 0.030634 0.027693 0.062941
vn -0.249523 0.373436 -0.893467
v -0.030048 0.030048 0.080872
vn -0.249523 0.373436 -0.893467
v -0.016262 0.039260 0.080872
vn -0.989463 0.097883 0.106682
v -0.029273 0.007265 0.290862
vn -0.989463 0.097883 0.106682
v -0.030405 0.007000 0.280602
vn -0.989463 0.097883 0.106682
v -0.030405 -0.007000 0.293447
vn 0.123477 0.987917 0.093665
v -0.029273 0.007265 0.290862
vn 0.123477 0.987917 0.093665
v -0.020955 0.006165 0.291504
vn 0.123477 0.987917 0.093665
v -0.020955 0.007620 0.276153
vn 0.989324 -0.102001 -0.104086
v -0.027305 0.003313 0.291525
vn 0.989324 -0.102001 -0.104086
v -0.027870 -0.004720 0.294029
vn 0.989324 -0.102001 -0.104086
v -0.027529 0.008195 0.284611
vn -0.161956 -0.943184 0.290129
v 0.007922 0.038157 0.089028
vn -0.161956 -0.943184 0.290129
v -0.009559 0.036174 0.072823
vn -0.161956 -0.943184 0.290129
v 0.013149 0.033443 0.076622
vn 0.000000 -0.993090 -0.117355
v 0.020537 -0.049105 0.127982
vn 0.000000 -0.993090 -0.117355
v -0.023216 -0.044000 0.084779
vn 0.000000 -0.993090 -0.117355
v 0.023235 -0.044000 0.084779
vn -0.959378 -0.190733 -0.207880
v -0.030405 0.007000 0.280602
vn -0.959378 -0.190733 -0.207880
v -0.029128 -0.006161 0.286781
vn -0.959378 -0.190733 -0.207880
v -0.030405 -0.007000 0.293447
vn 0.850611 0.020298 -0.525404
v -0.027399 0.003741 0.282644
vn 0.850611 0.020298 -0.525404
v -0.027305 -0.003313 0.282525
vn 0.850611 0.020298 -0.525404
v -0.030405 -0.003090 0.277514
vn 0.917906 0.005557 0.396759
v -0.027305 -0.003313 0.282525
vn 0.917906 0.005557 0.396759
v -0.027399 0.003741 0.282644
vn 0.917906 0.005557 0.396759
v -0.029128 -0.006161 0.286781
vn 0.248349 0.706017 0.663222
v -0.009729 -0.049100 0.085277
vn 0.248349 0.706017 0.663222
v -0.018645 -0.047034 0.086417
vn 0.248349 0.706017 0.663222
v -0.018572 -0.055401 0.095296
vn -0.495112 0.775980 0.390792
v -0.032766 0.000005 0.278801
vn -0.495112 0.775980 0.390792
v -0.036959 0.068941 0.136606
vn -0.495112 0.775980 0.390792
v -0.065098 -0.009655 0.257020
vn -0.735896 -0.491709 -0.465489
v -0.037154 -0.015390 0.076622
vn -0.735896 -0.491709 -0.465489
v -0.030048 -0.030048 0.080872
vn -0.735896 -0.491709 -0.465489
v -0.039260 -0.016262 0.080872
vn -0.353119 -0.414388 -0.838803
v -0.037154 -0.015390 0.076622
vn -0.353119 -0.414388 -0.838803
v -0.017844 -0.031340 0.076373
vn -0.353119 -0.414388 -0.838803
v -0.030048 -0.030048 0.080872
vn -0.486005 -0.241199 -0.840013
v -0.017844 -0.031340 0.076373
vn -0.486005 -0.241199 -0.840013
v -0.015389 -0.037154 0.076622
vn -0.486005 -0.241199 -0.840013
v -0.069113 -0.010255 0.099981
vn -0.642824 0.705445 0.298538
v -0.030452 0.020776 0.264432
vn -0.642824 0.705445 0.298538
v -0.036959 0.068941 0.136606
vn -0.642824 0.705445 0.298538
v -0.034886 0.018550 0.260145
vn -0.703589 -0.367934 -0.607937
v 0.034299 -0.012196 0.088974
vn -0.703589 -0.367934 -0.607937
v 0.007922 0.038157 0.089028
vn -0.703589 -0.367934 -0.607937
v 0.032530 0.011840 0.076476
vn -0.592772 -0.240093 0.768750
v -0.029128 -0.006161 0.286781
vn -0.592772 -0.240093 0.768750
v -0.020955 -0.002355 0.294272
vn -0.592772 -0.240093 0.768750
v -0.029273 0.007265 0.290862
vn -0.954298 -0.257828 -0.151127
v -0.027305 0.003313 0.291525
vn -0.954298 -0.257828 -0.151127
v -0.028905 0.009022 0.291889
vn -0.954298 -0.257828 -0.151127
v -0.027529 0.008195 0.284611
vn 0.962938 0.269708 0.002771
v -0.027305 0.003313 0.291525
vn 0.962938 0.269708 0.002771
v -0.027399 0.003741 0.282644
vn 0.962938 0.269708 0.002771
v -0.028905 0.009022 0.291889
vn 0.843600 0.104896 0.526627
v -0.027305 0.003313 0.291525
vn 0.843600 0.104896 0.526627
v -0.030405 0.003090 0.296535
vn 0.843600 0.104896 0.526627
v -0.027870 -0.004720 0.294029
vn 0.999165 -0.025332 -0.032064
v -0.018645 -0.047034 0.086417
vn 0.999165 -0.025332 -0.032064
v -0.018288 -0.042813 0.094226
vn 0.999165 -0.025332 -0.032064
v -0.018572 -0.055401 0.095296
vn -0.420512 -0.846771 0.325803
v 0.020537 -0.049105 0.127982
vn -0.420512 -0.846771 0.325803
v -0.018288 -0.042813 0.094226
vn -0.420512 -0.846771 0.325803
v -0.023216 -0.044000 0.084779
vn 0.252326 0.855558 -0.452054
v 0.000861 -0.047271 0.068982
vn 0.252326 0.855558 -0.452054
v -0.000710 -0.047004 0.068610
vn 0.252326 0.855558 -0.452054
v -0.069113 -0.010255 0.099981
vn -0.292009 0.956411 0.002869
v 0.025292 -0.042324 0.084859
vn -0.292009 0.956411 0.002869
v 0.020204 -0.043827 0.067975
vn -0.292009 0.956411 0.002869
v 0.002579 -0.049208 0.067975
vn 0.427023 0.687796 0.587016
v 0.022263 -0.050972 0.159427
vn 0.427023 0.687796 0.587016
v 0.058603 -0.017299 0.093537
vn 0.427023 0.687796 0.587016
v -0.015741 0.010647 0.114875
vn 0.062576 -0.866846 -0.494634
v 0.010647 -0.055988 0.190219
vn 0.062576 -0.866846 -0.494634
v -0.018525 -0.053440 0.182062
vn 0.062576 -0.866846 -0.494634
v -0.069113 -0.010255 0.099981
vn 0.264517 0.949148 0.170728
v 0.027099 -0.043993 0.089391
vn 0.264517 0.949148 0.170728
v 0.023622 -0.043993 0.094779
vn 0.264517 0.949148 0.170728
v 0.020537 -0.049105 0.127982
vn -0.645766 0.763486 -0.008670
v 0.058603 -0.017299 0.093537
vn -0.645766 0.763486 -0.008670
v 0.027099 -0.043993 0.089391
vn -0.645766 0.763486 -0.008670
v 0.020537 -0.049105 0.127982
vn 0.283278 0.942801 0.175725
v 0.020472 0.027622 0.265708
vn 0.283278 0.942801 0.175725
v -0.036959 0.068941 0.136606
vn 0.283278 0.942801 0.175725
v 0.003175 0.033773 0.260590
vn -0.217712 0.973276 0.073036
v -0.018572 -0.055401 0.095296
vn -0.217712 0.973276 0.073036
v 0.010647 -0.055988 0.190219
vn -0.217712 0.973276 0.073036
v 0.020537 -0.049105 0.127982
vn -0.124910 -0.547250 -0.827596
v 0.007922 0.038157 0.089028
vn -0.124910 -0.547250 -0.827596
v 0.018705 0.023455 0.097122
vn -0.124910 -0.547250 -0.827596
v -0.006675 0.029248 0.097122
vn -0.643248 -0.021592 0.765353
v -0.022062 -0.000000 0.287025
vn -0.643248 -0.021592 0.765353
v -0.027399 0.003741 0.282644
vn -0.643248 -0.021592 0.765353
v -0.027305 -0.003313 0.282525
vn 0.359017 -0.784883 -0.505040
v -0.036959 0.068941 0.136606
vn 0.359017 -0.784883 -0.505040
v 0.032460 0.018007 0.265110
vn 0.359017 -0.784883 -0.505040
v 0.034917 0.010626 0.278327
vn 0.176871 -0.370682 0.911763
v -0.012960 -0.031288 0.079622
vn 0.176871 -0.370682 0.911763
v 0.014687 -0.033216 0.073475
vn 0.176871 -0.370682 0.911763
v -0.031639 -0.024196 0.086129
vn 0.894388 0.353271 -0.274353
v 0.022263 -0.050972 0.159427
vn 0.894388 0.353271 -0.274353
v -0.015741 0.010647 0.114875
vn 0.894388 0.353271 -0.274353
v 0.033136 0.000000 0.260506
vn -0.098968 0.912917 -0.395964
v 0.060246 -0.021724 0.217368
vn -0.098968 0.912917 -0.395964
v 0.022263 -0.050972 0.159427
vn -0.098968 0.912917 -0.395964
v 0.032814 0.002030 0.278989
vn 0.813143 0.573490 0.099538
v 0.025292 -0.042324 0.084859
vn 0.813143 0.573490 0.099538
v -0.015741 0.010647 0.114875
vn 0.813143 0.573490 0.099538
v 0.022263 -0.050972 0.159427
vn 0.399679 0.028001 0.916228
v -0.015741 0.010647 0.114875
vn 0.399679 0.028001 0.916228
v 0.040353 0.032340 0.089742
vn 0.399679 0.028001 0.916228
v 0.022699 0.054531 0.096766
vn -0.161267 -0.810754 0.562735
v -0.015389 -0.037154 0.076622
vn -0.161267 -0.810754 0.562735
v 0.000000 -0.040215 0.076622
vn -0.161267 -0.810754 0.562735
v -0.069113 -0.010255 0.099981
vn 0.000000 0.954166 -0.299277
v -0.012960 -0.031288 0.079622
vn 0.000000 0.954166 -0.299277
v 0.012960 -0.031288 0.079622
vn 0.000000 0.954166 -0.299277
v 0.014687 -0.033216 0.073475
vn -0.515944 0.765241 -0.384978
v 0.012960 -0.031288 0.079622
vn -0.515944 0.765241 -0.384978
v 0.034299 -0.012196 0.088974
vn -0.515944 0.765241 -0.384978
v 0.014687 -0.033216 0.073475
vn -0.999529 -0.030097 -0.005954
v 0.057358 0.023695 0.095462
vn -0.999529 -0.030097 -0.005954
v 0.058603 -0.017299 0.093537
vn -0.999529 -0.030097 -0.005954
v 0.056703 0.023638 0.205622
vn 0.451972 0.892032 0.000007
v -0.069113 -0.010255 0.099981
vn 0.451972 0.892032 0.000007
v -0.030048 -0.030048 0.100622
vn 0.451972 0.892032 0.000007
v -0.030048 -0.030048 0.080872
vn 0.657954 0.492486 0.569696
v -0.031639 -0.024196 0.086129
vn 0.657954 0.492486 0.569696
v -0.017844 -0.031340 0.076373
vn 0.657954 0.492486 0.569696
v -0.032530 -0.011840 0.076476
vn -0.291591 0.159284 -0.943188
v 0.030634 0.027693 0.062941
vn -0.291591 0.159284 -0.943188
v -0.037154 -0.015390 0.076622
vn -0.291591 0.159284 -0.943188
v -0.042494 0.000000 0.080872
vn 0.559442 -0.779916 -0.280636
v -0.012960 0.031288 0.079622
vn 0.559442 -0.779916 -0.280636
v -0.029615 0.020875 0.075357
vn 0.559442 -0.779916 -0.280636
v -0.009559 0.036174 0.072823
vn 0.000000 -0.812058 -0.583576
v 0.012960 0.031288 0.079622
vn 0.000000 -0.812058 -0.583576
v -0.012960 0.031288 0.079622
vn 0.000000 -0.812058 -0.583576
v -0.009559 0.036174 0.072823
vn 0.166810 0.929484 -0.328989
v 0.013149 0.033443 0.076622
vn 0.166810 0.929484 -0.328989
v -0.009559 0.036174 0.072823
vn 0.166810 0.929484 -0.328989
v 0.000000 0.035803 0.076622
vn -0.455490 -0.810609 -0.368024
v 0.032460 0.018007 0.265110
vn -0.455490 -0.810609 -0.368024
v 0.062306 0.021064 0.221438
vn -0.455490 -0.810609 -0.368024
v 0.034917 0.010626 0.278327
vn 0.374557 -0.231388 -0.897868
v -0.012960 0.031288 0.079622
vn 0.374557 -0.231388 -0.897868
v -0.031639 -0.024196 0.086129
vn 0.374557 -0.231388 -0.897868
v -0.029615 0.020875 0.075357
vn 0.525303 0.850915 0.000016
v -0.018525 -0.053440 0.182062
vn 0.525303 0.850915 0.000016
v -0.022977 -0.050691 0.179686
vn 0.525303 0.850915 0.000016
v -0.022977 -0.050691 0.185383
vn 0.315882 0.838817 -0.443400
v 0.012960 0.031288 0.079622
vn 0.315882 0.838817 -0.443400
v -0.009559 0.036174 0.072823
vn 0.315882 0.838817 -0.443400
v 0.007922 0.038157 0.089028
vn 0.980794 0.066353 -0.183412
v -0.027870 -0.004720 0.294029
vn 0.980794 0.066353 -0.183412
v -0.029128 -0.006161 0.286781
vn 0.980794 0.066353 -0.183412
v -0.029273 0.007265 0.290862
vn -0.721663 -0.159313 -0.673663
v -0.027305 0.003313 0.291525
vn -0.721663 -0.159313 -0.673663
v -0.027870 -0.004720 0.294029
vn -0.721663 -0.159313 -0.673663
v -0.028905 0.009022 0.291889
vn -0.006958 0.802067 -0.597194
v -0.031639 -0.024196 0.086129
vn -0.006958 0.802067 -0.597194
v 0.014687 -0.033216 0.073475
vn -0.006958 0.802067 -0.597194
v -0.017844 -0.031340 0.076373
vn -0.802722 -0.564418 0.192534
v 0.058603 -0.017299 0.093537
vn -0.802722 -0.564418 0.192534
v 0.062306 0.021064 0.221438
vn -0.802722 -0.564418 0.192534
v 0.056703 0.023638 0.205622
vn -0.654634 -0.729276 -0.199026
v -0.026519 0.028219 0.101122
vn -0.654634 -0.729276 -0.199026
v -0.023897 0.024936 0.104529
vn -0.654634 -0.729276 -0.199026
v -0.027537 0.028164 0.104674
vn 0.654634 0.729276 -0.199026
v 0.026519 -0.028219 0.101122
vn 0.654634 0.729276 -0.199026
v 0.023897 -0.024936 0.104529
vn 0.654634 0.729276 -0.199026
v 0.027537 -0.028164 0.104674
vn 0.891221 0.203415 -0.405399
v -0.027029 -0.013017 0.101872
vn 0.891221 0.203415 -0.405399
v -0.031639 -0.024196 0.086129
vn 0.891221 0.203415 -0.405399
v -0.030000 0.000000 0.101872
vn -0.700779 -0.166984 -0.693560
v -0.022062 -0.000000 0.287025
vn -0.700779 -0.166984 -0.693560
v -0.027870 -0.004720 0.294029
vn -0.700779 -0.166984 -0.693560
v -0.027305 0.003313 0.291525
vn -0.012200 0.396865 -0.917796
v -0.023216 -0.044000 0.084779
vn -0.012200 0.396865 -0.917796
v -0.069113 -0.010255 0.099981
vn -0.012200 0.396865 -0.917796
v 0.025292 -0.042324 0.084859
vn -0.066197 0.948008 0.311284
v -0.018713 0.028728 0.262952
vn -0.066197 0.948008 0.311284
v -0.011049 0.038734 0.234110
vn -0.066197 0.948008 0.311284
v -0.036959 0.068941 0.136606
vn -0.780059 0.070519 0.621719
v -0.023622 -0.044000 0.087668
vn -0.780059 0.070519 0.621719
v -0.018572 -0.055401 0.095296
vn -0.780059 0.070519 0.621719
v -0.018288 -0.042813 0.094226
vn 0.635231 0.671556 0.381436
v -0.018572 -0.055401 0.095296
vn 0.635231 0.671556 0.381436
v -0.027099 -0.043984 0.089397
vn 0.635231 0.671556 0.381436
v -0.069113 -0.010255 0.099981
vn 0.572024 -0.732446 0.369204
v 0.058603 -0.017299 0.093537
vn 0.572024 -0.732446 0.369204
v 0.023622 -0.043993 0.094779
vn 0.572024 -0.732446 0.369204
v 0.027099 -0.043993 0.089391
vn 0.659116 0.752042 0.000014
v -0.069113 -0.010255 0.099981
vn 0.659116 0.752042 0.000014
v -0.022977 -0.050691 0.185383
vn 0.659116 0.752042 0.000014
v -0.022977 -0.050691 0.179686
vn 0.013458 -0.999854 0.010488
v -0.018288 -0.042813 0.094226
vn 0.013458 -0.999854 0.010488
v 0.025292 -0.042324 0.084859
vn 0.013458 -0.999854 0.010488
v 0.000000 -0.042494 0.101122
vn 0.523821 -0.735626 0.429494
v 0.025292 -0.042324 0.084859
vn 0.523821 -0.735626 0.429494
v 0.029694 -0.029694 0.101122
vn 0.523821 -0.735626 0.429494
v 0.016261 -0.039260 0.101122
vn -0.453370 -0.451498 0.768508
v 0.011025 0.044450 0.150525
vn -0.453370 -0.451498 0.768508
v -0.036959 0.068941 0.136606
vn -0.453370 -0.451498 0.768508
v -0.015741 0.010647 0.114875
vn 0.479655 0.454402 -0.750633
v 0.008025 0.044450 0.150525
vn 0.479655 0.454402 -0.750633
v -0.015741 0.010647 0.114875
vn 0.479655 0.454402 -0.750633
v -0.036959 0.068941 0.136606
vn -0.977137 0.178576 0.115389
v -0.036959 0.068941 0.136606
vn -0.977137 0.178576 0.115389
v -0.038024 -0.017198 0.260901
vn -0.977137 0.178576 0.115389
v -0.032766 0.000005 0.278801
vn 0.106958 0.381237 -0.918269
v -0.015741 0.010647 0.114875
vn 0.106958 0.381237 -0.918269
v -0.069113 -0.010255 0.099981
vn 0.106958 0.381237 -0.918269
v -0.036959 0.068941 0.136606
vn 0.946454 0.300578 0.117807
v -0.032766 0.000005 0.278801
vn 0.946454 0.300578 0.117807
v -0.015741 0.010647 0.114875
vn 0.946454 0.300578 0.117807
v -0.036959 0.068941 0.136606
vn -0.022429 0.398093 0.917071
v -0.015741 0.010647 0.114875
vn -0.022429 0.398093 0.917071
v 0.022699 0.054531 0.096766
vn -0.022429 0.398093 0.917071
v 0.000000 0.054076 0.096408
vn 0.718036 -0.685913 -0.118102
v -0.065098 -0.009655 0.257020
vn 0.718036 -0.685913 -0.118102
v -0.032229 0.032216 0.213677
vn 0.718036 -0.685913 -0.118102
v -0.033107 0.027096 0.238074
vn 0.555322 0.831098 -0.029891
v 0.030634 0.027693 0.062941
vn 0.555322 0.831098 -0.029891
v 0.016070 0.038798 0.101122
vn 0.555322 0.831098 -0.029891
v 0.029694 0.029694 0.101122
vn -0.899166 -0.070147 -0.431948
v -0.027305 -0.003313 0.282525
vn -0.899166 -0.070147 -0.431948
v -0.028905 -0.007106 0.286472
vn -0.899166 -0.070147 -0.431948
v -0.029128 -0.006161 0.286781
vn -0.821415 0.569576 0.029338
v -0.027305 -0.003313 0.282525
vn -0.821415 0.569576 0.029338
v -0.029128 -0.006161 0.286781
vn -0.821415 0.569576 0.029338
v -0.027870 -0.004720 0.294029
vn 0.998643 0.012510 0.050548
v -0.027305 -0.003313 0.282525
vn 0.998643 0.012510 0.050548
v -0.027399 0.003741 0.282644
vn 0.998643 0.012510 0.050548
v -0.027870 -0.004720 0.294029
vn -0.541467 -0.055841 0.838865
v 0.043833 0.028580 0.087057
vn -0.541467 -0.055841 0.838865
v 0.058603 -0.017299 0.093537
vn -0.541467 -0.055841 0.838865
v 0.057358 0.023695 0.095462
vn 0.513758 0.359078 -0.779176
v -0.027399 0.003741 0.282644
vn 0.513758 0.359078 -0.779176
v -0.030405 -0.003090 0.277514
vn 0.513758 0.359078 -0.779176
v -0.027529 0.008195 0.284611
vn 0.970440 -0.073306 0.229941
v -0.027399 0.003741 0.282644
vn 0.970440 -0.073306 0.229941
v -0.027529 0.008195 0.284611
vn 0.970440 -0.073306 0.229941
v -0.029128 -0.006161 0.286781
vn 0.482787 -0.809258 -0.334691
v -0.027305 -0.003313 0.282525
vn 0.482787 -0.809258 -0.334691
v -0.029128 -0.006161 0.286781
vn 0.482787 -0.809258 -0.334691
v -0.030405 -0.003090 0.277514
vn -0.991541 -0.037981 0.124109
v -0.030405 0.007000 0.280602
vn -0.991541 -0.037981 0.124109
v -0.030405 -0.003090 0.277514
vn -0.991541 -0.037981 0.124109
v -0.029128 -0.006161 0.286781
vn -0.985791 0.049155 -0.160623
v -0.030405 -0.007000 0.293447
vn -0.985791 0.049155 -0.160623
v -0.030405 0.003090 0.296535
vn -0.985791 0.049155 -0.160623
v -0.029273 0.007265 0.290862
vn 0.829361 0.199166 0.522008
v -0.027305 0.003313 0.291525
vn 0.829361 0.199166 0.522008
v -0.028905 0.009022 0.291889
vn 0.829361 0.199166 0.522008
v -0.030405 0.003090 0.296535
vn 0.066896 -0.881925 -0.466619
v 0.036301 0.001202 0.101122
vn 0.066896 -0.881925 -0.466619
v 0.039387 -0.000443 0.104674
vn 0.066896 -0.881925 -0.466619
v 0.034530 -0.000735 0.104529
vn 0.881925 0.066896 -0.466619
v -0.001202 0.036301 0.101122
vn 0.881925 0.066896 -0.466619
v 0.000443 0.039387 0.104674
vn 0.881925 0.066896 -0.466619
v 0.000735 0.034530 0.104529
vn -0.066896 0.881925 -0.466619
v -0.036301 -0.001202 0.101122
vn -0.066896 0.881925 -0.466619
v -0.039387 0.000443 0.104674
vn -0.066896 0.881925 -0.466619
v -0.034530 0.000735 0.104529
vn -0.881925 -0.066895 -0.466619
v 0.001202 -0.036301 0.101122
vn -0.881925 -0.066895 -0.466619
v -0.000443 -0.039387 0.104674
vn -0.881925 -0.066895 -0.466619
v -0.000735 -0.034530 0.104529
vn 0.501726 0.629144 -0.593674
v -0.027029 -0.013017 0.101872
vn 0.501726 0.629144 -0.593674
v -0.006676 -0.029248 0.101872
vn 0.501726 0.629144 -0.593674
v -0.031639 -0.024196 0.086129
vn 0.564783 0.694957 0.445033
v -0.009729 -0.049100 0.085277
vn 0.564783 0.694957 0.445033
v 0.000861 -0.047271 0.068982
vn 0.564783 0.694957 0.445033
v -0.069113 -0.010255 0.099981
vn -0.164131 -0.984421 0.063057
v -0.019791 -0.054646 0.131940
vn -0.164131 -0.984421 0.063057
v 0.010647 -0.055988 0.190219
vn -0.164131 -0.984421 0.063057
v -0.022977 -0.050691 0.185383
vn 0.351847 -0.257060 -0.900069
v -0.069113 -0.010255 0.099981
vn 0.351847 -0.257060 -0.900069
v -0.015741 0.010647 0.114875
vn 0.351847 -0.257060 -0.900069
v -0.019791 -0.054646 0.131940
vn -0.220176 -0.862764 0.455149
v 0.000000 -0.040215 0.076622
vn -0.220176 -0.862764 0.455149
v 0.025292 -0.042324 0.084859
vn -0.220176 -0.862764 0.455149
v -0.069113 -0.010255 0.099981
vn -0.717612 0.687057 0.113954
v 0.017985 -0.056485 0.183132
vn -0.717612 0.687057 0.113954
v 0.021399 -0.053238 0.185056
vn -0.717612 0.687057 0.113954
v 0.022977 -0.050698 0.179680
vn -0.255986 0.050919 -0.965339
v -0.039260 0.016262 0.080872
vn -0.255986 0.050919 -0.965339
v 0.030634 0.027693 0.062941
vn -0.255986 0.050919 -0.965339
v -0.042494 0.000000 0.080872
vn -0.423703 -0.532407 0.732815
v -0.029128 -0.006161 0.286781
vn -0.423703 -0.532407 0.732815
v -0.020955 -0.006165 0.291504
vn -0.423703 -0.532407 0.732815
v -0.020955 -0.002355 0.294272
vn 0.469435 -0.462561 0.752109
v 0.000000 0.054076 0.096408
vn 0.469435 -0.462561 0.752109
v 0.000000 0.055030 0.096995
vn 0.469435 -0.462561 0.752109
v -0.069113 -0.010255 0.099981
vn -0.404768 0.478153 0.779444
v -0.015741 0.010647 0.114875
vn -0.404768 0.478153 0.779444
v 0.000000 0.054076 0.096408
vn -0.404768 0.478153 0.779444
v -0.069113 -0.010255 0.099981
vn 0.644821 0.753847 0.126175
v 0.026262 -0.000166 0.261773
vn 0.644821 0.753847 0.126175
v 0.023995 0.003191 0.253303
vn 0.644821 0.753847 0.126175
v 0.021881 0.002249 0.269737
vn -0.606520 0.752739 -0.255965
v -0.009559 0.036174 0.072823
vn -0.606520 0.752739 -0.255965
v -0.029615 0.020875 0.075357
vn -0.606520 0.752739 -0.255965
v -0.021441 0.027824 0.076421
vn -0.576313 -0.670918 -0.466618
v 0.026519 -0.024819 0.101122
vn -0.576313 -0.670918 -0.466618
v 0.027537 -0.028164 0.104674
vn -0.576313 -0.670918 -0.466618
v 0.023897 -0.024936 0.104529
vn 0.576313 0.670918 -0.466618
v -0.026519 0.024819 0.101122
vn 0.576313 0.670918 -0.466618
v -0.027537 0.028164 0.104674
vn 0.576313 0.670918 -0.466618
v -0.023897 0.024936 0.104529
vn -0.882016 -0.441312 -0.165204
v -0.036959 0.068941 0.136606
vn -0.882016 -0.441312 -0.165204
v -0.033651 0.009121 0.278738
vn -0.882016 -0.441312 -0.165204
v -0.034886 0.018550 0.260145
vn 0.884054 0.357252 -0.301363
v 0.033136 0.000000 0.260506
vn 0.884054 0.357252 -0.301363
v -0.036959 0.068941 0.136606
vn 0.884054 0.357252 -0.301363
v 0.034917 0.010626 0.278327
vn -0.772744 0.576134 -0.266339
v 0.034917 0.010626 0.278327
vn -0.772744 0.576134 -0.266339
v 0.062306 0.021064 0.221438
vn -0.772744 0.576134 -0.266339
v 0.033136 0.000000 0.260506
vn 0.000000 -1.000000 0.000000
v 0.023622 -0.043993 0.087662
vn 0.000000 -1.000000 0.000000
v 0.027099 -0.043993 0.089391
vn 0.000000 -1.000000 0.000000
v 0.023622 -0.043993 0.094779
vn 0.000000 1.000000 0.000000
v 0.027099 -0.043993 0.089391
vn 0.000000 1.000000 0.000000
v 0.023622 -0.043993 0.087662
vn 0.000000 1.000000 0.000000
v 0.023622 -0.043993 0.094779
vn -0.811914 -0.146418 -0.565118
v 0.037469 0.022088 0.256857
vn -0.811914 -0.146418 -0.565118
v 0.062306 0.021064 0.221438
vn -0.811914 -0.146418 -0.565118
v 0.032460 0.018007 0.265110
vn 0.039440 0.964578 0.260834
v -0.036959 0.068941 0.136606
vn 0.039440 0.964578 0.260834
v 0.000000 0.031039 0.271182
vn 0.039440 0.964578 0.260834
v 0.003175 0.033773 0.260590
vn -0.739369 0.671003 0.055576
v 0.017985 -0.056485 0.183132
vn -0.739369 0.671003 0.055576
v 0.022977 -0.050698 0.179680
vn -0.739369 0.671003 0.055576
v 0.020537 -0.049105 0.127982
vn 0.790480 -0.609912 -0.056106
v 0.021399 -0.053238 0.185056
vn 0.790480 -0.609912 -0.056106
v 0.020537 -0.049105 0.127982
vn 0.790480 -0.609912 -0.056106
v 0.022977 -0.050698 0.179680
vn 0.748565 -0.655011 -0.103009
v -0.037807 0.030850 0.197781
vn 0.748565 -0.655011 -0.103009
v -0.065098 -0.009655 0.257020
vn 0.748565 -0.655011 -0.103009
v -0.046574 0.027660 0.154356
vn -0.936969 0.290894 0.193571
v -0.036959 0.068941 0.136606
vn -0.936969 0.290894 0.193571
v -0.069113 -0.010255 0.099981
vn -0.936969 0.290894 0.193571
v -0.038024 -0.017198 0.260901
vn -0.144200 0.607016 0.781497
v 0.034299 -0.012196 0.088974
vn -0.144200 0.607016 0.781497
v -0.031639 -0.024196 0.086129
vn -0.144200 0.607016 0.781497
v 0.006675 -0.029248 0.097122
vn -0.124231 0.729755 0.672327
v 0.010647 -0.055988 0.190219
vn -0.124231 0.729755 0.672327
v -0.020447 -0.050691 0.178724
vn -0.124231 0.729755 0.672327
v -0.018525 -0.053440 0.182062
vn 0.813859 0.393018 0.427983
v -0.032530 -0.011840 0.076476
vn 0.813859 0.393018 0.427983
v -0.037503 -0.001700 0.076622
vn 0.813859 0.393018 0.427983
v -0.031639 -0.024196 0.086129
vn 0.971513 0.231130 -0.052358
v -0.031639 -0.024196 0.086129
vn 0.971513 0.231130 -0.052358
v -0.037503 -0.001700 0.076622
vn 0.971513 0.231130 -0.052358
v -0.036301 -0.001202 0.101122
vn -0.546465 0.307760 -0.778884
v 0.030634 0.027693 0.062941
vn -0.546465 0.307760 -0.778884
v -0.031639 -0.024196 0.086129
vn -0.546465 0.307760 -0.778884
v -0.038705 0.001202 0.101122
vn -0.959215 0.087333 0.268849
v 0.030634 0.027693 0.062941
vn -0.959215 0.087333 0.268849
v 0.034299 -0.012196 0.088974
vn -0.959215 0.087333 0.268849
v 0.038705 -0.001202 0.101122
vn 0.981387 -0.186850 0.044350
v 0.034299 -0.012196 0.088974
vn 0.981387 -0.186850 0.044350
v 0.037503 0.001700 0.076622
vn 0.981387 -0.186850 0.044350
v 0.036301 0.001202 0.101122
vn -0.719380 -0.361424 -0.593182
v 0.032530 0.011840 0.076476
vn -0.719380 -0.361424 -0.593182
v 0.037503 0.001700 0.076622
vn -0.719380 -0.361424 -0.593182
v 0.034299 -0.012196 0.088974
vn -0.002957 -0.522534 0.852614
v 0.000000 0.054076 0.096408
vn -0.002957 -0.522534 0.852614
v 0.022699 0.054531 0.096766
vn -0.002957 -0.522534 0.852614
v 0.000000 0.055021 0.096987
vn 0.465784 -0.256137 -0.847018
v 0.007922 0.038157 0.089028
vn 0.465784 -0.256137 -0.847018
v -0.031639 -0.024196 0.086129
vn 0.465784 -0.256137 -0.847018
v -0.012960 0.031288 0.079622
vn -0.183586 0.278040 -0.942863
v 0.007922 0.038157 0.089028
vn -0.183586 0.278040 -0.942863
v 0.037154 0.015390 0.076622
vn -0.183586 0.278040 -0.942863
v 0.032530 0.011840 0.076476
vn 0.608730 -0.793325 0.009125
v 0.035855 0.014675 0.101122
vn 0.608730 -0.793325 0.009125
v 0.032530 0.011840 0.076476
vn 0.608730 -0.793325 0.009125
v 0.037154 0.015390 0.076622
vn -0.444762 0.550205 0.706726
v 0.030634 0.027693 0.062941
vn -0.444762 0.550205 0.706726
v 0.032530 0.011840 0.076476
vn -0.444762 0.550205 0.706726
v 0.037154 0.015390 0.076622
vn -0.608730 0.793325 -0.009125
v 0.035855 0.014675 0.101122
vn -0.608730 0.793325 -0.009125
v 0.037154 0.015390 0.076622
vn -0.608730 0.793325 -0.009125
v 0.032530 0.011840 0.076476
vn 0.530463 -0.669547 0.519919
v 0.030634 0.027693 0.062941
vn 0.530463 -0.669547 0.519919
v -0.032530 -0.011840 0.076476
vn 0.530463 -0.669547 0.519919
v -0.037154 -0.015390 0.076622
vn 0.608730 -0.793325 -0.009125
v -0.035855 -0.014675 0.101122
vn 0.608730 -0.793325 -0.009125
v -0.037154 -0.015390 0.076622
vn 0.608730 -0.793325 -0.009125
v -0.032530 -0.011840 0.076476
vn -0.022618 -0.011776 -0.999675
v -0.017844 -0.031340 0.076373
vn -0.022618 -0.011776 -0.999675
v -0.037154 -0.015390 0.076622
vn -0.022618 -0.011776 -0.999675
v -0.032530 -0.011840 0.076476
vn -0.608730 0.793325 0.009125
v -0.035855 -0.014675 0.101122
vn -0.608730 0.793325 0.009125
v -0.032530 -0.011840 0.076476
vn -0.608730 0.793325 0.009125
v -0.037154 -0.015390 0.076622
vn -0.052781 0.978572 -0.199027
v 0.038705 -0.001202 0.101122
vn -0.052781 0.978572 -0.199027
v 0.034530 -0.000735 0.104529
vn -0.052781 0.978572 -0.199027
v 0.039387 -0.000443 0.104674
vn -0.978572 -0.052781 -0.199026
v 0.001202 0.038705 0.101122
vn -0.978572 -0.052781 -0.199026
v 0.000735 0.034530 0.104529
vn -0.978572 -0.052781 -0.199026
v 0.000443 0.039387 0.104674
vn 0.978572 0.052781 -0.199026
v -0.001202 -0.038705 0.101122
vn 0.978572 0.052781 -0.199026
v -0.000735 -0.034530 0.104529
vn 0.978572 0.052781 -0.199026
v -0.000443 -0.039387 0.104674
vn 0.052781 -0.978572 -0.199026
v -0.038705 0.001202 0.101122
vn 0.052781 -0.978572 -0.199026
v -0.034530 0.000735 0.104529
vn 0.052781 -0.978572 -0.199026
v -0.039387 0.000443 0.104674
vn -0.067700 0.975919 0.207361
v -0.035731 0.014977 0.101122
vn -0.067700 0.975919 0.207361
v 0.030634 0.027693 0.062941
vn -0.067700 0.975919 0.207361
v -0.029615 0.020875 0.075357
vn 0.518466 -0.257892 0.815282
v -0.035731 0.014977 0.101122
vn 0.518466 -0.257892 0.815282
v -0.031639 -0.024196 0.086129
vn 0.518466 -0.257892 0.815282
v 0.030634 0.027693 0.062941
vn 0.025773 0.987661 0.154474
v 0.020537 -0.049105 0.127982
vn 0.025773 0.987661 0.154474
v 0.023622 -0.043993 0.094779
vn 0.025773 0.987661 0.154474
v -0.018288 -0.042813 0.094226
vn -0.890432 -0.416426 0.183630
v 0.002579 -0.049208 0.067975
vn -0.890432 -0.416426 0.183630
v 0.022263 -0.050972 0.159427
vn -0.890432 -0.416426 0.183630
v -0.015741 0.010647 0.114875
vn 0.320428 0.644779 -0.693964
v 0.025292 -0.042324 0.084859
vn 0.320428 0.644779 -0.693964
v 0.002579 -0.049208 0.067975
vn 0.320428 0.644779 -0.693964
v 0.000861 -0.047271 0.068982
vn -0.915447 -0.203861 -0.346984
v -0.015741 0.010647 0.114875
vn -0.915447 -0.203861 -0.346984
v -0.065098 -0.009655 0.257020
vn -0.915447 -0.203861 -0.346984
v -0.036959 0.068941 0.136606
vn 0.538516 -0.476444 -0.694983
v -0.037521 0.021357 0.257128
vn 0.538516 -0.476444 -0.694983
v -0.065098 -0.009655 0.257020
vn 0.538516 -0.476444 -0.694983
v -0.056678 0.017344 0.245036
vn -0.316485 -0.947662 -0.042116
v 0.035496 0.030373 0.213430
vn -0.316485 -0.947662 -0.042116
v 0.056703 0.023638 0.205622
vn -0.316485 -0.947662 -0.042116
v 0.062306 0.021064 0.221438
vn 0.623535 -0.426080 0.655485
v -0.031639 -0.024196 0.086129
vn 0.623535 -0.426080 0.655485
v 0.007922 0.038157 0.089028
vn 0.623535 -0.426080 0.655485
v -0.006675 0.029248 0.097122
vn -0.365340 0.870489 0.329812
v -0.024523 0.024978 0.266413
vn -0.365340 0.870489 0.329812
v -0.018713 0.028728 0.262952
vn -0.365340 0.870489 0.329812
v -0.036959 0.068941 0.136606
vn 0.033732 0.010003 0.999381
v -0.069113 -0.010255 0.099981
vn 0.033732 0.010003 0.999381
v 0.000000 0.055030 0.096995
vn 0.033732 0.010003 0.999381
v -0.024488 0.055366 0.097818
vn -0.887632 -0.427457 0.171436
v 0.034299 -0.012196 0.088974
vn -0.887632 -0.427457 0.171436
v 0.030000 0.000000 0.097122
vn -0.887632 -0.427457 0.171436
v 0.018705 0.023455 0.097122
vn -0.284778 -0.688020 0.667480
v -0.009729 -0.049100 0.085277
vn -0.284778 -0.688020 0.667480
v -0.069113 -0.010255 0.099981
vn -0.284778 -0.688020 0.667480
v -0.023216 -0.044000 0.084779
vn -0.985611 0.000000 -0.169030
v -0.027305 0.007620 0.276153
vn -0.985611 0.000000 -0.169030
v -0.027305 -0.003766 0.276153
vn -0.985611 0.000000 -0.169030
v -0.029128 -0.006161 0.286781
vn -0.993843 0.105608 -0.033504
v -0.027305 0.007620 0.276153
vn -0.993843 0.105608 -0.033504
v -0.029128 -0.006161 0.286781
vn -0.993843 0.105608 -0.033504
v -0.027529 0.008195 0.284611
vn 0.933259 0.014415 -0.358915
v -0.028905 0.009022 0.291889
vn 0.933259 0.014415 -0.358915
v -0.027870 -0.004720 0.294029
vn 0.933259 0.014415 -0.358915
v -0.029273 0.007265 0.290862
vn 0.241078 -0.302306 0.922222
v -0.031639 -0.024196 0.086129
vn 0.241078 -0.302306 0.922222
v -0.006675 0.029248 0.097122
vn 0.241078 -0.302306 0.922222
v -0.027029 0.013017 0.097122
vn 0.350260 0.240616 0.905219
v -0.015741 0.010647 0.114875
vn 0.350260 0.240616 0.905219
v 0.058603 -0.017299 0.093537
vn 0.350260 0.240616 0.905219
v 0.043833 0.028580 0.087057
vn 0.899934 -0.179009 -0.397586
v 0.030634 0.027693 0.062941
vn 0.899934 -0.179009 -0.397586
v 0.041994 0.000000 0.101122
vn 0.899934 -0.179009 -0.397586
v 0.038798 -0.016071 0.101122
vn 0.548315 0.047389 -0.834928
v -0.065098 -0.009655 0.257020
vn 0.548315 0.047389 -0.834928
v -0.033651 0.009121 0.278738
vn 0.548315 0.047389 -0.834928
v -0.032766 0.000005 0.278801
vn -0.011915 0.999437 0.031360
v 0.020537 -0.049105 0.127982
vn -0.011915 0.999437 0.031360
v 0.020447 -0.050698 0.178719
vn -0.011915 0.999437 0.031360
v 0.022977 -0.050698 0.179680
vn 0.011915 -0.999437 -0.031360
v 0.020537 -0.049105 0.127982
vn 0.011915 -0.999437 -0.031360
v 0.022977 -0.050698 0.179680
vn 0.011915 -0.999437 -0.031360
v 0.020447 -0.050698 0.178719
vn 0.771171 0.186298 -0.608760
v -0.030405 -0.003090 0.277514
vn 0.771171 0.186298 -0.608760
v -0.030405 0.007000 0.280602
vn 0.771171 0.186298 -0.608760
v -0.027529 0.008195 0.284611
vn -0.971243 0.234242 -0.042634
v 0.032814 0.002030 0.278989
vn -0.971243 0.234242 -0.042634
v 0.034917 0.010626 0.278327
vn -0.971243 0.234242 -0.042634
v 0.033136 0.000000 0.260506
vn 0.971243 -0.234242 0.042634
v 0.034917 0.010626 0.278327
vn 0.971243 -0.234242 0.042634
v 0.032814 0.002030 0.278989
vn 0.971243 -0.234242 0.042634
v 0.033136 0.000000 0.260506
vn 0.152823 -0.982929 -0.102448
v 0.022263 -0.050972 0.159427
vn 0.152823 -0.982929 -0.102448
v 0.010647 -0.055988 0.190219
vn 0.152823 -0.982929 -0.102448
v -0.019791 -0.054646 0.131940
vn -0.313534 -0.617032 0.721782
v -0.018288 -0.042813 0.094226
vn -0.313534 -0.617032 0.721782
v -0.069113 -0.010255 0.099981
vn -0.313534 -0.617032 0.721782
v -0.027099 -0.043984 0.089397
vn 0.805820 0.017497 -0.591902
v 0.060246 -0.021724 0.217368
vn 0.805820 0.017497 -0.591902
v -0.015741 0.010647 0.114875
vn 0.805820 0.017497 -0.591902
v 0.062306 0.021064 0.221438
vn -0.575852 0.814436 0.071337
v -0.027305 -0.003313 0.282525
vn -0.575852 0.814436 0.071337
v -0.027870 -0.004720 0.294029
vn -0.575852 0.814436 0.071337
v -0.022062 -0.000000 0.287025
vn -0.707792 -0.587668 -0.392016
v -0.027305 0.003313 0.291525
vn -0.707792 -0.587668 -0.392016
v -0.027529 0.008195 0.284611
vn -0.707792 -0.587668 -0.392016
v -0.022062 -0.000000 0.287025
vn 0.652650 -0.657369 -0.376714
v -0.065098 -0.009655 0.257020
vn 0.652650 -0.657369 -0.376714
v -0.034886 0.018550 0.260145
vn 0.652650 -0.657369 -0.376714
v -0.033651 0.009121 0.278738
vn 0.463487 -0.409409 -0.785852
v -0.065098 -0.009655 0.257020
vn 0.463487 -0.409409 -0.785852
v -0.037521 0.021357 0.257128
vn 0.463487 -0.409409 -0.785852
v -0.034886 0.018550 0.260145
vn -0.565722 -0.815049 -0.125114
v 0.014687 -0.033216 0.073475
vn -0.565722 -0.815049 -0.125114
v 0.025292 -0.042324 0.084859
vn -0.565722 -0.815049 -0.125114
v 0.016051 -0.034645 0.076622
vn -0.120952 -0.859142 -0.497237
v 0.025292 -0.042324 0.084859
vn -0.120952 -0.859142 -0.497237
v -0.017844 -0.031340 0.076373
vn -0.120952 -0.859142 -0.497237
v 0.013149 -0.035848 0.076622
vn -0.190077 0.981678 -0.013352
v -0.009729 -0.049100 0.085277
vn -0.190077 0.981678 -0.013352
v 0.025292 -0.042324 0.084859
vn -0.190077 0.981678 -0.013352
v 0.000861 -0.047271 0.068982
vn -0.094707 0.434248 -0.895801
v -0.009729 -0.049100 0.085277
vn -0.094707 0.434248 -0.895801
v -0.015741 0.010647 0.114875
vn -0.094707 0.434248 -0.895801
v 0.025292 -0.042324 0.084859
vn 0.054640 -0.973854 0.220506
v 0.030634 0.027693 0.062941
vn 0.054640 -0.973854 0.220506
v -0.015235 0.033765 0.101122
vn 0.054640 -0.973854 0.220506
v -0.021441 0.027824 0.076421
vn 0.235029 0.963368 0.129161
v -0.015235 0.033765 0.101122
vn 0.235029 0.963368 0.129161
v 0.030634 0.027693 0.062941
vn 0.235029 0.963368 0.129161
v -0.009559 0.036174 0.072823
vn -0.138887 -0.956625 0.256084
v 0.030634 0.027693 0.062941
vn -0.138887 -0.956625 0.256084
v 0.000000 0.035803 0.076622
vn -0.138887 -0.956625 0.256084
v -0.009559 0.036174 0.072823
vn -0.173604 -0.967341 0.184700
v 0.013149 0.033443 0.076622
vn -0.173604 -0.967341 0.184700
v 0.000000 0.035803 0.076622
vn -0.173604 -0.967341 0.184700
v 0.030634 0.027693 0.062941
vn 0.259320 0.963004 -0.073325
v 0.015601 0.034648 0.101122
vn 0.259320 0.963004 -0.073325
v 0.030634 0.027693 0.062941
vn 0.259320 0.963004 -0.073325
v 0.013149 0.033443 0.076622
vn -0.278936 -0.959176 0.046645
v 0.013102 0.034648 0.101122
vn -0.278936 -0.959176 0.046645
v 0.013149 0.033443 0.076622
vn -0.278936 -0.959176 0.046645
v 0.030634 0.027693 0.062941
vn 0.138565 -0.981308 0.133543
v -0.026519 0.024819 0.101122
vn 0.138565 -0.981308 0.133543
v -0.029615 0.020875 0.075357
vn 0.138565 -0.981308 0.133543
v 0.030634 0.027693 0.062941
vn -0.644149 0.763879 -0.039503
v -0.026519 0.024819 0.101122
vn -0.644149 0.763879 -0.039503
v -0.021441 0.027824 0.076421
vn -0.644149 0.763879 -0.039503
v -0.029615 0.020875 0.075357
vn -0.913656 0.309184 -0.263888
v 0.026519 -0.024819 0.101122
vn -0.913656 0.309184 -0.263888
v 0.034299 -0.012196 0.088974
vn -0.913656 0.309184 -0.263888
v 0.025292 -0.042324 0.084859
vn 0.774340 -0.616105 -0.144264
v 0.026519 -0.024819 0.101122
vn 0.774340 -0.616105 -0.144264
v 0.014687 -0.033216 0.073475
vn 0.774340 -0.616105 -0.144264
v 0.034299 -0.012196 0.088974
vn -0.877486 0.202976 0.434533
v 0.030634 0.027693 0.062941
vn -0.877486 0.202976 0.434533
v 0.025292 -0.042324 0.084859
vn -0.877486 0.202976 0.434533
v 0.034299 -0.012196 0.088974
vn -0.999412 -0.033080 0.009031
v -0.027305 0.003313 0.291525
vn -0.999412 -0.033080 0.009031
v -0.027529 0.008195 0.284611
vn -0.999412 -0.033080 0.009031
v -0.027399 0.003741 0.282644
vn 0.998846 0.008171 0.047331
v -0.027870 -0.004720 0.294029
vn 0.998846 0.008171 0.047331
v -0.027399 0.003741 0.282644
vn 0.998846 0.008171 0.047331
v -0.027529 0.008195 0.284611
vn -0.721534 -0.297190 0.625353
v -0.022062 -0.000000 0.287025
vn -0.721534 -0.297190 0.625353
v -0.027529 0.008195 0.284611
vn -0.721534 -0.297190 0.625353
v -0.027399 0.003741 0.282644
vn 0.920356 -0.391072 -0.002651
v -0.027305 -0.003313 0.282525
vn 0.920356 -0.391072 -0.002651
v -0.027870 -0.004720 0.294029
vn 0.920356 -0.391072 -0.002651
v -0.028905 -0.007106 0.286472
vn 0.000000 0.000000 1.000000
v 0.000000 -0.033866 0.079622
vn 0.000000 0.000000 1.000000
v 0.012960 -0.031288 0.079622
vn 0.000000 0.000000 1.000000
v -0.012960 -0.031288 0.079622
vn 0.000000 0.000000 -1.000000
v 0.012960 -0.031288 0.079622
vn 0.000000 0.000000 -1.000000
v 0.000000 -0.033866 0.079622
vn 0.000000 0.000000 -1.000000
v -0.012960 -0.031288 0.079622
vn 0.000000 0.000000 1.000000
v 0.000000 0.033866 0.079622
vn 0.000000 0.000000 1.000000
v -0.012960 0.031288 0.079622
vn 0.000000 0.000000 1.000000
v 0.012960 0.031288 0.079622
vn 0.000000 0.000000 -1.000000
v -0.012960 0.031288 0.079622
vn 0.000000 0.000000 -1.000000
v 0.000000 0.033866 0.079622
vn 0.000000 0.000000 -1.000000
v 0.012960 0.031288 0.079622
vn 0.961235 -0.000096 0.275730
v -0.026519 0.028219 0.101122
vn 0.961235 -0.000096 0.275730
v -0.027537 0.028164 0.104674
vn 0.961235 -0.000096 0.275730
v -0.026519 0.024819 0.101122
vn 0.555499 -0.000056 0.831517
v -0.026519 0.028219 0.101122
vn 0.555499 -0.000056 0.831517
v -0.026519 0.024819 0.101122
vn 0.555499 -0.000056 0.831517
v 0.030634 0.027693 0.062941
vn -0.792431 0.000079 0.609962
v -0.026519 0.024819 0.101122
vn -0.792431 0.000079 0.609962
v -0.023897 0.024936 0.104529
vn -0.792431 0.000079 0.609962
v -0.026519 0.028219 0.101122
vn -0.979517 0.000098 -0.201361
v -0.026519 0.024819 0.101122
vn -0.979517 0.000098 -0.201361
v -0.026519 0.028219 0.101122
vn -0.979517 0.000098 -0.201361
v -0.021441 0.027824 0.076421
vn -0.704879 0.705021 -0.078042
v -0.001202 -0.038705 0.101122
vn -0.704879 0.705021 -0.078042
v 0.001202 -0.036301 0.101122
vn -0.704879 0.705021 -0.078042
v 0.000000 -0.040215 0.076622
vn 0.560277 -0.560389 0.609962
v 0.001202 -0.036301 0.101122
vn 0.560277 -0.560389 0.609962
v -0.000735 -0.034530 0.104529
vn 0.560277 -0.560389 0.609962
v -0.001202 -0.038705 0.101122
vn -0.679628 0.679764 0.275730
v -0.001202 -0.038705 0.101122
vn -0.679628 0.679764 0.275730
v -0.000443 -0.039387 0.104674
vn -0.679628 0.679764 0.275730
v 0.001202 -0.036301 0.101122
vn 0.583068 -0.583185 -0.565620
v 0.001202 -0.036301 0.101122
vn 0.583068 -0.583185 -0.565620
v -0.001202 -0.038705 0.101122
vn 0.583068 -0.583185 -0.565620
v -0.017844 -0.031340 0.076373
vn 0.526609 0.526503 -0.667441
v 0.036301 0.001202 0.101122
vn 0.526609 0.526503 -0.667441
v 0.038705 -0.001202 0.101122
vn 0.526609 0.526503 -0.667441
v 0.034299 -0.012196 0.088974
vn -0.706328 -0.706186 -0.049001
v 0.038705 -0.001202 0.101122
vn -0.706328 -0.706186 -0.049001
v 0.036301 0.001202 0.101122
vn -0.706328 -0.706186 -0.049001
v 0.037503 0.001700 0.076622
vn -0.679764 -0.679627 0.275731
v 0.038705 -0.001202 0.101122
vn -0.679764 -0.679627 0.275731
v 0.039387 -0.000443 0.104674
vn -0.679764 -0.679627 0.275731
v 0.036301 0.001202 0.101122
vn 0.560389 0.560277 0.609962
v 0.036301 0.001202 0.101122
vn 0.560389 0.560277 0.609962
v 0.034530 -0.000735 0.104529
vn 0.560389 0.560277 0.609962
v 0.038705 -0.001202 0.101122
vn 0.792431 -0.000079 0.609962
v 0.026519 -0.024819 0.101122
vn 0.792431 -0.000079 0.609962
v 0.023897 -0.024936 0.104529
vn 0.792431 -0.000079 0.609962
v 0.026519 -0.028219 0.101122
vn -0.997175 0.000100 0.075107
v 0.026519 -0.028219 0.101122
vn -0.997175 0.000100 0.075107
v 0.026519 -0.024819 0.101122
vn -0.997175 0.000100 0.075107
v 0.025292 -0.042324 0.084859
vn 0.919356 -0.000092 -0.393426
v 0.026519 -0.024819 0.101122
vn 0.919356 -0.000092 -0.393426
v 0.026519 -0.028219 0.101122
vn 0.919356 -0.000092 -0.393426
v 0.014687 -0.033216 0.073475
vn -0.961235 0.000096 0.275730
v 0.026519 -0.028219 0.101122
vn -0.961235 0.000096 0.275730
v 0.027537 -0.028164 0.104674
vn -0.961235 0.000096 0.275730
v 0.026519 -0.024819 0.101122
vn -0.706186 0.706328 -0.049010
v -0.001202 0.036301 0.101122
vn -0.706186 0.706328 -0.049010
v 0.001202 0.038705 0.101122
vn -0.706186 0.706328 -0.049010
v 0.000000 0.035803 0.076622
vn -0.560277 0.560389 0.609962
v -0.001202 0.036301 0.101122
vn -0.560277 0.560389 0.609962
v 0.000735 0.034530 0.104529
vn -0.560277 0.560389 0.609962
v 0.001202 0.038705 0.101122
vn 0.565905 -0.566019 0.599478
v 0.001202 0.038705 0.101122
vn 0.565905 -0.566019 0.599478
v -0.001202 0.036301 0.101122
vn 0.565905 -0.566019 0.599478
v 0.030634 0.027693 0.062941
vn 0.679627 -0.679764 0.275731
v 0.001202 0.038705 0.101122
vn 0.679627 -0.679764 0.275731
v 0.000443 0.039387 0.104674
vn 0.679627 -0.679764 0.275731
v -0.001202 0.036301 0.101122
vn 0.706328 0.706186 -0.049001
v -0.037503 -0.001700 0.076622
vn 0.706328 0.706186 -0.049001
v -0.038705 0.001202 0.101122
vn 0.706328 0.706186 -0.049001
v -0.036301 -0.001202 0.101122
vn -0.560389 -0.560277 0.609962
v -0.038705 0.001202 0.101122
vn -0.560389 -0.560277 0.609962
v -0.036301 -0.001202 0.101122
vn -0.560389 -0.560277 0.609962
v -0.034530 0.000735 0.104529
vn 0.679764 0.679628 0.275730
v -0.036301 -0.001202 0.101122
vn 0.679764 0.679628 0.275730
v -0.038705 0.001202 0.101122
vn 0.679764 0.679628 0.275730
v -0.039387 0.000443 0.104674
vn -0.535004 -0.534896 0.653955
v -0.031639 -0.024196 0.086129
vn -0.535004 -0.534896 0.653955
v -0.036301 -0.001202 0.101122
vn -0.535004 -0.534896 0.653955
v -0.038705 0.001202 0.101122
vn -0.662211 -0.686038 -0.301378
v 0.037154 0.015390 0.076622
vn -0.662211 -0.686038 -0.301378
v 0.007922 0.038157 0.089028
vn -0.662211 -0.686038 -0.301378
v 0.030634 0.027693 0.062941
vn 0.234405 -0.565826 -0.790503
v 0.025292 -0.042324 0.084859
vn 0.234405 -0.565826 -0.790503
v 0.013149 -0.035848 0.076622
vn 0.234405 -0.565826 -0.790503
v 0.016051 -0.034645 0.076622
vn 0.381165 -0.920087 0.090294
v 0.013149 -0.033443 0.101122
vn 0.381165 -0.920087 0.090294
v 0.013149 -0.035848 0.076622
vn 0.381165 -0.920087 0.090294
v 0.016051 -0.034645 0.076622
vn -0.101971 -0.738006 -0.667045
v -0.017844 -0.031340 0.076373
vn -0.101971 -0.738006 -0.667045
v 0.014687 -0.033216 0.073475
vn -0.101971 -0.738006 -0.667045
v 0.013149 -0.035848 0.076622
vn -0.382617 0.923592 0.024134
v 0.014675 -0.035855 0.101122
vn -0.382617 0.923592 0.024134
v 0.016051 -0.034645 0.076622
vn -0.382617 0.923592 0.024134
v 0.013149 -0.035848 0.076622
vn -0.839413 -0.440076 0.318935
v 0.007922 0.038157 0.089028
vn -0.839413 -0.440076 0.318935
v 0.034299 -0.012196 0.088974
vn -0.839413 -0.440076 0.318935
v 0.018705 0.023455 0.097122
vn 0.043624 -0.292354 0.955315
v -0.030405 0.003090 0.296535
vn 0.043624 -0.292354 0.955315
v -0.030405 -0.007000 0.293447
vn 0.043624 -0.292354 0.955315
v -0.027870 -0.004720 0.294029
vn 0.664061 -0.746940 0.033228
v -0.030405 -0.007000 0.293447
vn 0.664061 -0.746940 0.033228
v -0.029128 -0.006161 0.286781
vn 0.664061 -0.746940 0.033228
v -0.027870 -0.004720 0.294029
vn 0.025011 -0.621716 0.782843
v -0.069113 -0.010255 0.099981
vn 0.025011 -0.621716 0.782843
v -0.000710 -0.047004 0.068610
vn 0.025011 -0.621716 0.782843
v -0.015741 0.010647 0.114875
vn -0.256665 0.958712 0.122451
v 0.025292 -0.042324 0.084859
vn -0.256665 0.958712 0.122451
v -0.018572 -0.055401 0.095296
vn -0.256665 0.958712 0.122451
v 0.020537 -0.049105 0.127982
vn 0.142629 -0.985994 -0.086442
v -0.019791 -0.054646 0.131940
vn 0.142629 -0.985994 -0.086442
v -0.009729 -0.049100 0.085277
vn 0.142629 -0.985994 -0.086442
v 0.022263 -0.050972 0.159427
vn 0.664533 0.746763 -0.027222
v -0.020447 -0.050691 0.178724
vn 0.664533 0.746763 -0.027222
v -0.018572 -0.055401 0.095296
vn 0.664533 0.746763 -0.027222
v -0.069113 -0.010255 0.099981
vn 0.169509 0.984450 -0.046092
v -0.018572 -0.055401 0.095296
vn 0.169509 0.984450 -0.046092
v -0.022977 -0.050691 0.179686
vn 0.169509 0.984450 -0.046092
v 0.010647 -0.055988 0.190219
vn 0.133596 0.954575 -0.266343
v 0.030634 0.027693 0.062941
vn 0.133596 0.954575 -0.266343
v -0.016262 0.039260 0.080872
vn 0.133596 0.954575 -0.266343
v 0.000000 0.042494 0.100622
vn -0.054931 -0.994032 0.094245
v -0.029128 -0.006161 0.286781
vn -0.054931 -0.994032 0.094245
v -0.020955 -0.007620 0.276153
vn -0.054931 -0.994032 0.094245
v -0.020955 -0.006165 0.291504
vn -0.191225 0.348854 0.917460
v -0.069113 -0.010255 0.099981
vn -0.191225 0.348854 0.917460
v -0.040841 0.031926 0.089835
vn -0.191225 0.348854 0.917460
v -0.043887 0.029166 0.090249
vn -0.825534 -0.522524 0.213219
v 0.013149 -0.033443 0.101122
vn -0.825534 -0.522524 0.213219
v 0.014675 -0.035855 0.101122
vn -0.825534 -0.522524 0.213219
v 0.015235 -0.033765 0.108415
vn -0.842670 -0.533370 -0.073646
v 0.014675 -0.035855 0.101122
vn -0.842670 -0.533370 -0.073646
v 0.013149 -0.033443 0.101122
vn -0.842670 -0.533370 -0.073646
v 0.016051 -0.034645 0.076622
vn 0.843803 0.534087 -0.052409
v 0.014675 -0.035855 0.101122
vn 0.843803 0.534087 -0.052409
v 0.013149 -0.035848 0.076622
vn 0.843803 0.534087 -0.052409
v 0.013149 -0.033443 0.101122
vn 0.838627 0.530811 0.122248
v 0.014675 -0.035855 0.101122
vn 0.838627 0.530811 0.122248
v 0.013149 -0.033443 0.101122
vn 0.838627 0.530811 0.122248
v 0.013468 -0.035532 0.107999
vn -0.953221 0.214261 0.213219
v -0.014351 -0.032945 0.101122
vn -0.953221 0.214261 0.213219
v -0.014977 -0.035731 0.101122
vn -0.953221 0.214261 0.213219
v -0.013102 -0.034648 0.108415
vn 0.968339 -0.217659 0.122248
v -0.014977 -0.035731 0.101122
vn 0.968339 -0.217659 0.122248
v -0.014351 -0.032945 0.101122
vn 0.968339 -0.217659 0.122248
v -0.015601 -0.034648 0.107999
vn -0.964584 0.216815 0.150230
v -0.014977 -0.035731 0.101122
vn -0.964584 0.216815 0.150230
v -0.014351 -0.032945 0.101122
vn -0.964584 0.216815 0.150230
v -0.017844 -0.031340 0.076373
vn 0.975650 -0.219302 -0.003699
v -0.014977 -0.035731 0.101122
vn 0.975650 -0.219302 -0.003699
v -0.015389 -0.037154 0.076622
vn 0.975650 -0.219302 -0.003699
v -0.014351 -0.032945 0.101122
vn -0.534654 0.844700 0.025031
v -0.035855 -0.014675 0.101122
vn -0.534654 0.844700 0.025031
v -0.033443 -0.013149 0.101122
vn -0.534654 0.844700 0.025031
v -0.032530 -0.011840 0.076476
vn -0.522523 0.825534 0.213219
v -0.033443 -0.013149 0.101122
vn -0.522523 0.825534 0.213219
v -0.035855 -0.014675 0.101122
vn -0.522523 0.825534 0.213219
v -0.033765 -0.015235 0.108415
vn 0.530810 -0.838627 0.122248
v -0.035855 -0.014675 0.101122
vn 0.530810 -0.838627 0.122248
v -0.033443 -0.013149 0.101122
vn 0.530810 -0.838627 0.122248
v -0.035532 -0.013468 0.107999
vn 0.534654 -0.844700 -0.025031
v -0.035855 -0.014675 0.101122
vn 0.534654 -0.844700 -0.025031
v -0.032530 -0.011840 0.076476
vn 0.534654 -0.844700 -0.025031
v -0.033443 -0.013149 0.101122
vn -0.217659 -0.968339 0.122248
v -0.035731 0.014977 0.101122
vn -0.217659 -0.968339 0.122248
v -0.032945 0.014351 0.101122
vn -0.217659 -0.968339 0.122248
v -0.034648 0.015601 0.107999
vn 0.081751 0.363701 -0.927921
v -0.035731 0.014977 0.101122
vn 0.081751 0.363701 -0.927921
v -0.032945 0.014351 0.101122
vn 0.081751 0.363701 -0.927921
v -0.031639 -0.024196 0.086129
vn -0.211431 -0.940632 -0.265536
v -0.035731 0.014977 0.101122
vn -0.211431 -0.940632 -0.265536
v -0.029615 0.020875 0.075357
vn -0.211431 -0.940632 -0.265536
v -0.032945 0.014351 0.101122
vn 0.214261 0.953221 0.213219
v -0.032945 0.014351 0.101122
vn 0.214261 0.953221 0.213219
v -0.035731 0.014977 0.101122
vn 0.214261 0.953221 0.213219
v -0.034648 0.013102 0.108415
vn 0.522524 -0.825534 0.213219
v 0.033443 0.013149 0.101122
vn 0.522524 -0.825534 0.213219
v 0.035855 0.014675 0.101122
vn 0.522524 -0.825534 0.213219
v 0.033765 0.015235 0.108415
vn -0.534654 0.844700 -0.025031
v 0.035855 0.014675 0.101122
vn -0.534654 0.844700 -0.025031
v 0.032530 0.011840 0.076476
vn -0.534654 0.844700 -0.025031
v 0.033443 0.013149 0.101122
vn -0.530811 0.838627 0.122248
v 0.035855 0.014675 0.101122
vn -0.530811 0.838627 0.122248
v 0.033443 0.013149 0.101122
vn -0.530811 0.838627 0.122248
v 0.035532 0.013468 0.107999
vn 0.534654 -0.844700 0.025031
v 0.035855 0.014675 0.101122
vn 0.534654 -0.844700 0.025031
v 0.033443 0.013149 0.101122
vn 0.534654 -0.844700 0.025031
v 0.032530 0.011840 0.076476
vn 0.000000 0.998793 -0.049122
v 0.013102 0.034648 0.101122
vn 0.000000 0.998793 -0.049122
v 0.015601 0.034648 0.101122
vn 0.000000 0.998793 -0.049122
v 0.013149 0.033443 0.076622
vn 0.000000 -0.983810 0.179215
v 0.015601 0.034648 0.101122
vn 0.000000 -0.983810 0.179215
v 0.013102 0.034648 0.101122
vn 0.000000 -0.983810 0.179215
v 0.030634 0.027693 0.062941
vn 0.000000 -0.995093 0.098946
v 0.013102 0.034648 0.101122
vn 0.000000 -0.995093 0.098946
v 0.015601 0.034648 0.101122
vn 0.000000 -0.995093 0.098946
v 0.015434 0.035273 0.107406
vn 0.000000 0.995093 0.098947
v 0.015601 0.034648 0.101122
vn 0.000000 0.995093 0.098947
v 0.013102 0.034648 0.101122
vn 0.000000 0.995093 0.098947
v 0.013270 0.034024 0.107406
vn 0.704762 -0.704762 0.081372
v -0.013468 0.035532 0.101122
vn 0.704762 -0.704762 0.081372
v -0.015235 0.033765 0.101122
vn 0.704762 -0.704762 0.081372
v -0.009559 0.036174 0.072823
vn -0.703637 0.703637 0.098947
v -0.013468 0.035532 0.101122
vn -0.703637 0.703637 0.098947
v -0.015235 0.033765 0.101122
vn -0.703637 0.703637 0.098947
v -0.014675 0.033441 0.107406
vn 0.703637 -0.703637 0.098946
v -0.015235 0.033765 0.101122
vn 0.703637 -0.703637 0.098946
v -0.013468 0.035532 0.101122
vn 0.703637 -0.703637 0.098946
v -0.014028 0.035855 0.107406
vn -0.707087 0.707087 0.007559
v -0.015235 0.033765 0.101122
vn -0.707087 0.707087 0.007559
v -0.013468 0.035532 0.101122
vn -0.707087 0.707087 0.007559
v -0.021441 0.027824 0.076421
vn -0.586498 0.807520 -0.062704
v -0.013468 0.035532 0.101122
vn -0.586498 0.807520 -0.062704
v -0.009559 0.036174 0.072823
vn -0.586498 0.807520 -0.062704
v -0.021441 0.027824 0.076421
vn 0.000000 -0.494121 -0.869393
v 0.011025 0.044450 0.150525
vn 0.000000 -0.494121 -0.869393
v 0.008025 0.044450 0.150525
vn 0.000000 -0.494121 -0.869393
v -0.036959 0.068941 0.136606
vn 0.000000 -0.142966 -0.989728
v 0.008025 0.044450 0.150525
vn 0.000000 -0.142966 -0.989728
v 0.011025 0.044450 0.150525
vn 0.000000 -0.142966 -0.989728
v 0.010150 0.036957 0.151607
vn 0.000000 -0.142966 0.989728
v 0.011025 0.044450 0.150525
vn 0.000000 -0.142966 0.989728
v 0.008025 0.044450 0.150525
vn 0.000000 -0.142966 0.989728
v 0.008900 0.036957 0.149443
vn 0.000000 0.725649 -0.688065
v 0.008025 0.044450 0.150525
vn 0.000000 0.725649 -0.688065
v 0.011025 0.044450 0.150525
vn 0.000000 0.725649 -0.688065
v -0.015741 0.010647 0.114875
vn 0.814308 -0.544103 0.202126
v 0.025292 -0.042324 0.084859
vn 0.814308 -0.544103 0.202126
v 0.038798 -0.016071 0.101122
vn 0.814308 -0.544103 0.202126
v 0.029694 -0.029694 0.101122
vn -0.980222 0.159675 -0.116913
v 0.021881 0.002249 0.269737
vn -0.980222 0.159675 -0.116913
v 0.023995 0.003191 0.253303
vn -0.980222 0.159675 -0.116913
v 0.022821 -0.001829 0.256290
vn 0.296377 0.574512 -0.762953
v 0.025292 -0.042324 0.084859
vn 0.296377 0.574512 -0.762953
v 0.000000 -0.040215 0.076622
vn 0.296377 0.574512 -0.762953
v -0.017844 -0.031340 0.076373
vn 0.445437 0.894694 -0.033287
v 0.000000 -0.040215 0.076622
vn 0.445437 0.894694 -0.033287
v -0.017844 -0.031340 0.076373
vn 0.445437 0.894694 -0.033287
v -0.001202 -0.038705 0.101122
vn -0.441201 -0.882547 0.162640
v -0.017844 -0.031340 0.076373
vn -0.441201 -0.882547 0.162640
v 0.000000 -0.040215 0.076622
vn -0.441201 -0.882547 0.162640
v 0.001202 -0.036301 0.101122
vn -0.009290 -0.046704 -0.998866
v -0.015389 -0.037154 0.076622
vn -0.009290 -0.046704 -0.998866
v -0.017844 -0.031340 0.076373
vn -0.009290 -0.046704 -0.998866
v 0.000000 -0.040215 0.076622
vn 0.201390 0.971509 -0.124954
v 0.030634 0.027693 0.062941
vn 0.201390 0.971509 -0.124954
v 0.000000 0.035803 0.076622
vn 0.201390 0.971509 -0.124954
v 0.001202 0.038705 0.101122
vn -0.252883 -0.967470 0.007258
v 0.000000 0.035803 0.076622
vn -0.252883 -0.967470 0.007258
v 0.030634 0.027693 0.062941
vn -0.252883 -0.967470 0.007258
v -0.001202 0.036301 0.101122
vn 0.887134 -0.198162 -0.416804
v 0.025292 -0.042324 0.084859
vn 0.887134 -0.198162 -0.416804
v 0.030634 0.027693 0.062941
vn 0.887134 -0.198162 -0.416804
v 0.038798 -0.016071 0.101122
vn 0.045509 0.121929 0.991495
v -0.069113 -0.010255 0.099981
vn 0.045509 0.121929 0.991495
v -0.016261 -0.039260 0.101122
vn 0.045509 0.121929 0.991495
v -0.030048 -0.030048 0.100622
vn -0.598633 0.288284 -0.747349
v 0.034299 -0.012196 0.088974
vn -0.598633 0.288284 -0.747349
v 0.018705 -0.023455 0.097122
vn -0.598633 0.288284 -0.747349
v 0.030000 0.000000 0.097122
vn 0.532672 0.843004 0.074866
v -0.023622 -0.044000 0.087668
vn 0.532672 0.843004 0.074866
v -0.018645 -0.047034 0.086417
vn 0.532672 0.843004 0.074866
v -0.023216 -0.044000 0.084779
vn 0.249902 0.723753 0.643219
v -0.018645 -0.047034 0.086417
vn 0.249902 0.723753 0.643219
v -0.009729 -0.049100 0.085277
vn 0.249902 0.723753 0.643219
v -0.023216 -0.044000 0.084779
vn -0.532672 -0.843004 -0.074866
v -0.023622 -0.044000 0.087668
vn -0.532672 -0.843004 -0.074866
v -0.023216 -0.044000 0.084779
vn -0.532672 -0.843004 -0.074866
v -0.018645 -0.047034 0.086417
vn 0.601969 0.690621 -0.400844
v -0.018645 -0.047034 0.086417
vn 0.601969 0.690621 -0.400844
v -0.023216 -0.044000 0.084779
vn 0.601969 0.690621 -0.400844
v -0.018288 -0.042813 0.094226
vn 0.071316 0.977106 0.200443
v -0.006676 -0.029248 0.101872
vn 0.071316 0.977106 0.200443
v 0.006675 -0.029248 0.097122
vn 0.071316 0.977106 0.200443
v -0.031639 -0.024196 0.086129
vn -0.409005 0.912277 0.021578
v -0.029273 0.007265 0.290862
vn -0.409005 0.912277 0.021578
v -0.027529 0.008195 0.284611
vn -0.409005 0.912277 0.021578
v -0.030405 0.007000 0.280602
vn 0.649733 -0.757056 0.068650
v -0.027305 0.007620 0.276153
vn 0.649733 -0.757056 0.068650
v -0.027529 0.008195 0.284611
vn 0.649733 -0.757056 0.068650
v -0.029273 0.007265 0.290862
vn -0.605614 0.795124 0.031768
v 0.023622 -0.043993 0.094779
vn -0.605614 0.795124 0.031768
v 0.058603 -0.017299 0.093537
vn -0.605614 0.795124 0.031768
v 0.025292 -0.042324 0.084859
vn -0.016905 0.961194 0.275354
v -0.036959 0.068941 0.136606
vn -0.016905 0.961194 0.275354
v 0.000000 0.029100 0.277949
vn -0.016905 0.961194 0.275354
v 0.000000 0.031039 0.271182
vn -0.096622 0.951108 0.293357
v -0.003630 0.030636 0.271775
vn -0.096622 0.951108 0.293357
v 0.000000 0.029100 0.277949
vn -0.096622 0.951108 0.293357
v -0.036959 0.068941 0.136606
vn -0.499414 -0.822868 -0.271059
v -0.027305 -0.003766 0.276153
vn -0.499414 -0.822868 -0.271059
v -0.020955 -0.007620 0.276153
vn -0.499414 -0.822868 -0.271059
v -0.029128 -0.006161 0.286781
vn 0.291050 -0.953270 -0.081034
v 0.002579 -0.049208 0.067975
vn 0.291050 -0.953270 -0.081034
v 0.020204 -0.043827 0.067975
vn 0.291050 -0.953270 -0.081034
v 0.022263 -0.050972 0.159427
vn 0.600395 -0.796111 -0.075721
v 0.020204 -0.043827 0.067975
vn 0.600395 -0.796111 -0.075721
v 0.058603 -0.017299 0.093537
vn 0.600395 -0.796111 -0.075721
v 0.022263 -0.050972 0.159427
vn 0.831439 0.555549 -0.008650
v 0.030634 0.027693 0.062941
vn 0.831439 0.555549 -0.008650
v 0.029694 0.029694 0.101122
vn 0.831439 0.555549 -0.008650
v 0.038798 0.016071 0.101122
vn 0.278754 0.625778 -0.728490
v -0.000710 -0.047004 0.068610
vn 0.278754 0.625778 -0.728490
v 0.000861 -0.047271 0.068982
vn 0.278754 0.625778 -0.728490
v 0.002579 -0.049208 0.067975
vn -0.566997 -0.819649 -0.081790
v -0.018525 -0.053440 0.182062
vn -0.566997 -0.819649 -0.081790
v -0.022977 -0.050691 0.185383
vn -0.566997 -0.819649 -0.081790
v -0.069113 -0.010255 0.099981
vn -0.674068 -0.738527 0.014463
v -0.069113 -0.010255 0.099981
vn -0.674068 -0.738527 0.014463
v -0.019791 -0.054646 0.131940
vn -0.674068 -0.738527 0.014463
v -0.022977 -0.050691 0.185383
vn 0.088999 0.917959 0.386563
v -0.069113 -0.010255 0.099981
vn 0.088999 0.917959 0.386563
v -0.022977 -0.050691 0.185383
vn 0.088999 0.917959 0.386563
v 0.010647 -0.055988 0.190219
vn -0.316790 -0.643187 0.697105
v 0.000861 -0.047271 0.068982
vn -0.316790 -0.643187 0.697105
v 0.002579 -0.049208 0.067975
vn -0.316790 -0.643187 0.697105
v -0.015741 0.010647 0.114875
vn 0.287722 -0.925912 -0.244749
v -0.018713 0.028728 0.262952
vn 0.287722 -0.925912 -0.244749
v -0.020790 0.034119 0.240117
vn 0.287722 -0.925912 -0.244749
v -0.011049 0.038734 0.234110
vn -0.232339 0.970087 0.070359
v 0.010647 -0.055988 0.190219
vn -0.232339 0.970087 0.070359
v 0.022263 -0.050972 0.159427
vn -0.232339 0.970087 0.070359
v 0.020537 -0.049105 0.127982
vn 0.306979 -0.274033 0.911411
v -0.017844 -0.031340 0.076373
vn 0.306979 -0.274033 0.911411
v -0.069113 -0.010255 0.099981
vn 0.306979 -0.274033 0.911411
v -0.030048 -0.030048 0.080872
vn -0.050438 0.484230 -0.873486
v -0.031639 -0.024196 0.086129
vn -0.050438 0.484230 -0.873486
v 0.034299 -0.012196 0.088974
vn -0.050438 0.484230 -0.873486
v 0.012960 -0.031288 0.079622
vn -0.682420 0.726502 0.080611
v 0.020537 -0.049105 0.127982
vn -0.682420 0.726502 0.080611
v 0.022263 -0.050972 0.159427
vn -0.682420 0.726502 0.080611
v 0.060246 -0.021724 0.217368
vn 0.225674 0.955153 -0.191712
v 0.030634 0.027693 0.062941
vn 0.225674 0.955153 -0.191712
v 0.000000 0.042494 0.100622
vn 0.225674 0.955153 -0.191712
v 0.016070 0.038798 0.101122
vn 0.011915 -0.999437 -0.031360
v 0.022977 -0.050698 0.179680
vn 0.011915 -0.999437 -0.031360
v 0.020447 -0.050698 0.178719
vn 0.011915 -0.999437 -0.031360
v 0.020537 -0.049105 0.127982
vn -0.011915 0.999437 0.031360
v 0.022977 -0.050698 0.179680
vn -0.011915 0.999437 0.031360
v 0.020537 -0.049105 0.127982
vn -0.011915 0.999437 0.031360
v 0.020447 -0.050698 0.178719
vn 0.330272 -0.797238 -0.505304
v 0.014687 -0.033216 0.073475
vn 0.330272 -0.797238 -0.505304
v 0.016051 -0.034645 0.076622
vn 0.330272 -0.797238 -0.505304
v 0.013149 -0.035848 0.076622
vn 0.000000 0.676062 -0.736845
v -0.031639 -0.024196 0.086129
vn 0.000000 0.676062 -0.736845
v 0.012960 -0.031288 0.079622
vn 0.000000 0.676062 -0.736845
v -0.012960 -0.031288 0.079622
vn 0.000000 -0.807563 0.589782
v 0.007922 0.038157 0.089028
vn 0.000000 -0.807563 0.589782
v -0.012960 0.031288 0.079622
vn 0.000000 -0.807563 0.589782
v 0.012960 0.031288 0.079622
vn -0.233141 -0.948069 -0.216358
v -0.038024 -0.017198 0.260901
vn -0.233141 -0.948069 -0.216358
v -0.065098 -0.009655 0.257020
vn -0.233141 -0.948069 -0.216358
v -0.015741 0.010647 0.114875
vn 0.269796 0.962860 -0.010576
v -0.038024 -0.017198 0.260901
vn 0.269796 0.962860 -0.010576
v -0.069113 -0.010255 0.099981
vn 0.269796 0.962860 -0.010576
v -0.065098 -0.009655 0.257020
vn 0.263098 -0.861719 0.433842
v 0.002526 -0.048199 0.070012
vn 0.263098 -0.861719 0.433842
v 0.002579 -0.049208 0.067975
vn 0.263098 -0.861719 0.433842
v 0.020204 -0.043827 0.067975
vn -0.263098 0.861719 -0.433842
v 0.002526 -0.048199 0.070012
vn -0.263098 0.861719 -0.433842
v 0.020204 -0.043827 0.067975
vn -0.263098 0.861719 -0.433842
v 0.002579 -0.049208 0.067975
vn -0.461691 -0.799520 0.384198
v -0.000710 -0.047004 0.068610
vn -0.461691 -0.799520 0.384198
v 0.002579 -0.049208 0.067975
vn -0.461691 -0.799520 0.384198
v 0.002526 -0.048199 0.070012
vn 0.609391 0.716612 -0.339279
v 0.002526 -0.048199 0.070012
vn 0.609391 0.716612 -0.339279
v 0.002579 -0.049208 0.067975
vn 0.609391 0.716612 -0.339279
v 0.000861 -0.047271 0.068982
vn 0.677350 -0.714222 -0.176303
v -0.065098 -0.009655 0.257020
vn 0.677350 -0.714222 -0.176303
v -0.037807 0.030850 0.197781
vn 0.677350 -0.714222 -0.176303
v -0.032229 0.032216 0.213677
vn -0.340058 -0.940404 0.000627
v 0.043833 0.028580 0.087057
vn -0.340058 -0.940404 0.000627
v 0.057358 0.023695 0.095462
vn -0.340058 -0.940404 0.000627
v 0.056712 0.023963 0.146514
vn -0.998799 0.046676 0.014916
v 0.062306 0.021064 0.221438
vn -0.998799 0.046676 0.014916
v 0.058603 -0.017299 0.093537
vn -0.998799 0.046676 0.014916
v 0.060246 -0.021724 0.217368
vn -0.974547 0.222008 -0.031169
v -0.029273 0.007265 0.290862
vn -0.974547 0.222008 -0.031169
v -0.030405 0.003090 0.296535
vn -0.974547 0.222008 -0.031169
v -0.028905 0.009022 0.291889
vn 0.489863 -0.200657 0.848393
v -0.009083 -0.036500 0.090404
vn 0.489863 -0.200657 0.848393
v -0.018288 -0.042813 0.094226
vn 0.489863 -0.200657 0.848393
v -0.006917 -0.036500 0.089154
vn -0.128629 -0.966347 -0.222772
v -0.006917 -0.036500 0.089154
vn -0.128629 -0.966347 -0.222772
v 0.020537 -0.049105 0.127982
vn -0.128629 -0.966347 -0.222772
v -0.009083 -0.036500 0.090404
vn -0.152535 -0.952336 -0.264175
v 0.009083 -0.036500 0.089154
vn -0.152535 -0.952336 -0.264175
v 0.020537 -0.049105 0.127982
vn -0.152535 -0.952336 -0.264175
v 0.006917 -0.036500 0.090404
vn 0.280964 -0.827212 0.486601
v 0.006917 -0.036500 0.090404
vn 0.280964 -0.827212 0.486601
v -0.018288 -0.042813 0.094226
vn 0.280964 -0.827212 0.486601
v 0.009083 -0.036500 0.089154
vn 0.853377 0.170835 -0.492507
v 0.008900 0.036957 0.149443
vn 0.853377 0.170835 -0.492507
v 0.008025 0.044450 0.150525
vn 0.853377 0.170835 -0.492507
v 0.010150 0.036957 0.151607
vn -0.853377 0.170835 0.492507
v 0.011025 0.044450 0.150525
vn -0.853377 0.170835 0.492507
v 0.008900 0.036957 0.149443
vn -0.853377 0.170835 0.492507
v 0.010150 0.036957 0.151607
vn -0.049522 0.700687 0.711748
v -0.000710 -0.047004 0.068610
vn -0.049522 0.700687 0.711748
v 0.002526 -0.048199 0.070012
vn -0.049522 0.700687 0.711748
v 0.000861 -0.047271 0.068982
vn -0.278096 -0.644259 0.712456
v -0.000710 -0.047004 0.068610
vn -0.278096 -0.644259 0.712456
v 0.000861 -0.047271 0.068982
vn -0.278096 -0.644259 0.712456
v -0.015741 0.010647 0.114875
vn -0.004911 -0.999988 -0.000690
v -0.023622 -0.044000 0.087668
vn -0.004911 -0.999988 -0.000690
v -0.027099 -0.043984 0.089397
vn -0.004911 -0.999988 -0.000690
v -0.023216 -0.044000 0.084779
vn 0.060217 -0.989659 0.130185
v -0.027099 -0.043984 0.089397
vn 0.060217 -0.989659 0.130185
v -0.023622 -0.044000 0.087668
vn 0.060217 -0.989659 0.130185
v -0.018288 -0.042813 0.094226
vn 0.004911 0.999988 0.000690
v -0.027099 -0.043984 0.089397
vn 0.004911 0.999988 0.000690
v -0.023622 -0.044000 0.087668
vn 0.004911 0.999988 0.000690
v -0.023216 -0.044000 0.084779
vn 0.350531 0.623114 0.699183
v -0.027099 -0.043984 0.089397
vn 0.350531 0.623114 0.699183
v -0.018572 -0.055401 0.095296
vn 0.350531 0.623114 0.699183
v -0.023622 -0.044000 0.087668
vn 0.705879 -0.705635 -0.061760
v 0.021399 -0.053238 0.185056
vn 0.705879 -0.705635 -0.061760
v 0.017985 -0.056485 0.183132
vn 0.705879 -0.705635 -0.061760
v 0.020537 -0.049105 0.127982
vn 0.461945 -0.191118 0.866072
v -0.015741 0.010647 0.114875
vn 0.461945 -0.191118 0.866072
v 0.043833 0.028580 0.087057
vn 0.461945 -0.191118 0.866072
v 0.040353 0.032340 0.089742
vn 0.187207 -0.941179 0.281310
v 0.025292 -0.042324 0.084859
vn 0.187207 -0.941179 0.281310
v 0.016261 -0.039260 0.101122
vn 0.187207 -0.941179 0.281310
v 0.000000 -0.042494 0.101122
vn -0.977654 0.005715 -0.210143
v -0.019791 -0.054646 0.131940
vn -0.977654 0.005715 -0.210143
v -0.015741 0.010647 0.114875
vn -0.977654 0.005715 -0.210143
v -0.009729 -0.049100 0.085277
vn 0.000238 -0.956961 0.290217
v 0.021881 0.002249 0.269737
vn 0.000238 -0.956961 0.290217
v 0.022821 -0.001829 0.256290
vn 0.000238 -0.956961 0.290217
v 0.026262 -0.000166 0.261773
vn -0.149776 0.926577 0.344995
v 0.009083 -0.036500 0.089154
vn -0.149776 0.926577 0.344995
v -0.018288 -0.042813 0.094226
vn -0.149776 0.926577 0.344995
v 0.020537 -0.049105 0.127982
vn 0.172777 -0.913243 -0.368965
v 0.006917 -0.036500 0.090404
vn 0.172777 -0.913243 -0.368965
v 0.020537 -0.049105 0.127982
vn 0.172777 -0.913243 -0.368965
v -0.018288 -0.042813 0.094226
vn 0.324999 -0.789302 -0.520939
v -0.009083 -0.036500 0.090404
vn 0.324999 -0.789302 -0.520939
v 0.020537 -0.049105 0.127982
vn 0.324999 -0.789302 -0.520939
v -0.018288 -0.042813 0.094226
vn -0.264178 0.846783 0.461701
v -0.006917 -0.036500 0.089154
vn -0.264178 0.846783 0.461701
v -0.018288 -0.042813 0.094226
vn -0.264178 0.846783 0.461701
v 0.020537 -0.049105 0.127982
vn -0.961182 0.257564 -0.098946
v -0.013468 0.035532 0.101122
vn -0.961182 0.257564 -0.098946
v -0.014675 0.033441 0.107406
vn -0.961182 0.257564 -0.098946
v -0.014028 0.035855 0.107406
vn 0.961182 -0.257564 -0.098946
v -0.015235 0.033765 0.101122
vn 0.961182 -0.257564 -0.098946
v -0.014028 0.035855 0.107406
vn 0.961182 -0.257564 -0.098946
v -0.014675 0.033441 0.107406
vn 0.497533 -0.861784 -0.098947
v 0.013102 0.034648 0.101122
vn 0.497533 -0.861784 -0.098947
v 0.015434 0.035273 0.107406
vn 0.497533 -0.861784 -0.098947
v 0.013270 0.034024 0.107406
vn -0.497533 0.861784 -0.098946
v 0.015601 0.034648 0.101122
vn -0.497533 0.861784 -0.098946
v 0.013270 0.034024 0.107406
vn -0.497533 0.861784 -0.098946
v 0.015434 0.035273 0.107406
vn 0.262163 -0.959759 -0.100661
v 0.025292 -0.042324 0.084859
vn 0.262163 -0.959759 -0.100661
v 0.022263 -0.050972 0.159427
vn 0.262163 -0.959759 -0.100661
v -0.018572 -0.055401 0.095296
vn -0.409077 0.890539 0.198990
v -0.009729 -0.049100 0.085277
vn -0.409077 0.890539 0.198990
v -0.018572 -0.055401 0.095296
vn -0.409077 0.890539 0.198990
v 0.022263 -0.050972 0.159427
vn -0.868044 -0.172665 -0.465495
v -0.037154 -0.015390 0.076622
vn -0.868044 -0.172665 -0.465495
v -0.039260 -0.016262 0.080872
vn -0.868044 -0.172665 -0.465495
v -0.042494 0.000000 0.080872
vn -0.032424 0.308850 0.950558
v -0.029273 0.007265 0.290862
vn -0.032424 0.308850 0.950558
v -0.020955 -0.002355 0.294272
vn -0.032424 0.308850 0.950558
v -0.020955 0.006165 0.291504
vn -0.971574 -0.038871 -0.233523
v -0.032945 0.014351 0.101122
vn -0.971574 -0.038871 -0.233523
v -0.034648 0.013102 0.108415
vn -0.971574 -0.038871 -0.233523
v -0.034648 0.015601 0.107999
vn 0.987872 -0.025494 -0.153161
v -0.035731 0.014977 0.101122
vn 0.987872 -0.025494 -0.153161
v -0.034648 0.015601 0.107999
vn 0.987872 -0.025494 -0.153161
v -0.034648 0.013102 0.108415
vn 0.659521 0.714493 -0.233522
v 0.033443 0.013149 0.101122
vn 0.659521 0.714493 -0.233522
v 0.033765 0.015235 0.108415
vn 0.659521 0.714493 -0.233522
v 0.035532 0.013468 0.107999
vn -0.716559 -0.680504 -0.153160
v 0.035855 0.014675 0.101122
vn -0.716559 -0.680504 -0.153160
v 0.035532 0.013468 0.107999
vn -0.716559 -0.680504 -0.153160
v 0.033765 0.015235 0.108415
vn 0.714493 -0.659521 -0.233522
v 0.013149 -0.033443 0.101122
vn 0.714493 -0.659521 -0.233522
v 0.015235 -0.033765 0.108415
vn 0.714493 -0.659521 -0.233522
v 0.013468 -0.035532 0.107999
vn -0.680504 0.716559 -0.153160
v 0.014675 -0.035855 0.101122
vn -0.680504 0.716559 -0.153160
v 0.013468 -0.035532 0.107999
vn -0.680504 0.716559 -0.153160
v 0.015235 -0.033765 0.108415
vn 0.716558 0.680504 -0.153160
v -0.035855 -0.014675 0.101122
vn 0.716558 0.680504 -0.153160
v -0.035532 -0.013468 0.107999
vn 0.716558 0.680504 -0.153160
v -0.033765 -0.015235 0.108415
vn -0.659520 -0.714493 -0.233522
v -0.033443 -0.013149 0.101122
vn -0.659520 -0.714493 -0.233522
v -0.033765 -0.015235 0.108415
vn -0.659520 -0.714493 -0.233522
v -0.035532 -0.013468 0.107999
vn 0.038871 -0.971574 -0.233523
v -0.014351 -0.032945 0.101122
vn 0.038871 -0.971574 -0.233523
v -0.013102 -0.034648 0.108415
vn 0.038871 -0.971574 -0.233523
v -0.015601 -0.034648 0.107999
vn 0.025494 0.987872 -0.153161
v -0.014977 -0.035731 0.101122
vn 0.025494 0.987872 -0.153161
v -0.015601 -0.034648 0.107999
vn 0.025494 0.987872 -0.153161
v -0.013102 -0.034648 0.108415
vn 0.669163 -0.741879 -0.042866
v 0.025292 -0.042324 0.084859
vn 0.669163 -0.741879 -0.042866
v 0.020537 -0.049105 0.127982
vn 0.669163 -0.741879 -0.042866
v 0.023622 -0.043993 0.087662
vn 0.025496 0.985119 0.169975
v 0.023622 -0.043993 0.094779
vn 0.025496 0.985119 0.169975
v 0.025292 -0.042324 0.084859
vn 0.025496 0.985119 0.169975
v -0.018288 -0.042813 0.094226
vn 0.144366 0.913665 0.379967
v -0.020447 -0.050691 0.178724
vn 0.144366 0.913665 0.379967
v -0.069113 -0.010255 0.099981
vn 0.144366 0.913665 0.379967
v -0.022977 -0.050691 0.179686
vn 0.021599 -0.998150 0.056831
v -0.018572 -0.055401 0.095296
vn 0.021599 -0.998150 0.056831
v -0.020447 -0.050691 0.178724
vn 0.021599 -0.998150 0.056831
v -0.022977 -0.050691 0.179686
vn -0.083892 -0.971703 -0.220808
v -0.022977 -0.050691 0.179686
vn -0.083892 -0.971703 -0.220808
v -0.020447 -0.050691 0.178724
vn -0.083892 -0.971703 -0.220808
v 0.010647 -0.055988 0.190219
vn 0.208033 0.810513 0.547532
v -0.018525 -0.053440 0.182062
vn 0.208033 0.810513 0.547532
v -0.020447 -0.050691 0.178724
vn 0.208033 0.810513 0.547532
v -0.022977 -0.050691 0.179686
vn 0.979853 -0.056129 0.191669
v -0.028905 0.009022 0.291889
vn 0.979853 -0.056129 0.191669
v -0.027399 0.003741 0.282644
vn 0.979853 -0.056129 0.191669
v -0.027529 0.008195 0.284611
vn 0.000000 0.999709 0.024125
v -0.029273 0.007265 0.290862
vn 0.000000 0.999709 0.024125
v -0.020955 0.007620 0.276153
vn 0.000000 0.999709 0.024125
v -0.027305 0.007620 0.276153
vn 0.820081 -0.421825 -0.386691
v 0.023995 0.003191 0.253303
vn 0.820081 -0.421825 -0.386691
v 0.026262 -0.000166 0.261773
vn 0.820081 -0.421825 -0.386691
v 0.022821 -0.001829 0.256290
vn -0.400803 0.832276 0.382981
v 0.034299 -0.012196 0.088974
vn -0.400803 0.832276 0.382981
v 0.006675 -0.029248 0.097122
vn -0.400803 0.832276 0.382981
v 0.018705 -0.023455 0.097122
vn -0.931174 -0.291108 0.219478
v -0.029128 -0.006161 0.286781
vn -0.931174 -0.291108 0.219478
v -0.028905 -0.007106 0.286472
vn -0.931174 -0.291108 0.219478
v -0.027870 -0.004720 0.294029
vn 0.929938 -0.360359 0.073186
v -0.015741 0.010647 0.114875
vn 0.929938 -0.360359 0.073186
v -0.032766 0.000005 0.278801
vn 0.929938 -0.360359 0.073186
v -0.038024 -0.017198 0.260901
vn -0.510295 -0.853077 0.108902
v 0.060246 -0.021724 0.217368
vn -0.510295 -0.853077 0.108902
v 0.033136 0.000000 0.260506
vn -0.510295 -0.853077 0.108902
v -0.015741 0.010647 0.114875
vn -0.832686 -0.413749 -0.368031
v 0.030634 0.027693 0.062941
vn -0.832686 -0.413749 -0.368031
v 0.037503 0.001700 0.076622
vn -0.832686 -0.413749 -0.368031
v 0.032530 0.011840 0.076476
vn 0.968995 0.246399 -0.018351
v 0.038705 -0.001202 0.101122
vn 0.968995 0.246399 -0.018351
v 0.037503 0.001700 0.076622
vn 0.968995 0.246399 -0.018351
v 0.030634 0.027693 0.062941
vn 0.168033 0.068217 0.983418
v 0.030634 0.027693 0.062941
vn 0.168033 0.068217 0.983418
v -0.037503 -0.001700 0.076622
vn 0.168033 0.068217 0.983418
v -0.032530 -0.011840 0.076476
vn 0.414288 -0.901230 0.127082
v -0.037503 -0.001700 0.076622
vn 0.414288 -0.901230 0.127082
v 0.030634 0.027693 0.062941
vn 0.414288 -0.901230 0.127082
v -0.038705 0.001202 0.101122
vn -0.044270 -0.939932 0.338479
v 0.013149 0.033443 0.076622
vn -0.044270 -0.939932 0.338479
v 0.030634 0.027693 0.062941
vn -0.044270 -0.939932 0.338479
v 0.007922 0.038157 0.089028
vn -0.296391 -0.937811 -0.180728
v 0.033123 0.027100 0.237977
vn -0.296391 -0.937811 -0.180728
v 0.062306 0.021064 0.221438
vn -0.296391 -0.937811 -0.180728
v 0.037469 0.022088 0.256857
vn -0.272159 0.181851 -0.944912
v 0.030634 0.027693 0.062941
vn -0.272159 0.181851 -0.944912
v -0.039260 0.016262 0.080872
vn -0.272159 0.181851 -0.944912
v -0.030048 0.030048 0.080872
vn 0.631314 -0.771094 -0.082802
v 0.025292 -0.042324 0.084859
vn 0.631314 -0.771094 -0.082802
v 0.023622 -0.043993 0.087662
vn 0.631314 -0.771094 -0.082802
v 0.023235 -0.044000 0.084779
vn -0.001331 -0.999996 0.002676
v 0.023622 -0.043993 0.087662
vn -0.001331 -0.999996 0.002676
v 0.023235 -0.044000 0.084779
vn -0.001331 -0.999996 0.002676
v 0.027099 -0.043993 0.089391
vn 0.001331 0.999996 -0.002676
v 0.023622 -0.043993 0.087662
vn 0.001331 0.999996 -0.002676
v 0.027099 -0.043993 0.089391
vn 0.001331 0.999996 -0.002676
v 0.023235 -0.044000 0.084779
vn 0.521769 -0.850380 -0.067902
v 0.023235 -0.044000 0.084779
vn 0.521769 -0.850380 -0.067902
v 0.023622 -0.043993 0.087662
vn 0.521769 -0.850380 -0.067902
v 0.020537 -0.049105 0.127982
vn -0.995159 -0.096703 -0.017533
v -0.032766 0.000005 0.278801
vn -0.995159 -0.096703 -0.017533
v -0.033651 0.009121 0.278738
vn -0.995159 -0.096703 -0.017533
v -0.036959 0.068941 0.136606
vn -0.992110 0.014790 -0.124491
v -0.032945 0.014351 0.101122
vn -0.992110 0.014790 -0.124491
v -0.029615 0.020875 0.075357
vn -0.992110 0.014790 -0.124491
v -0.031639 -0.024196 0.086129
vn -0.825682 0.562791 0.038933
v -0.024488 0.055366 0.097818
vn -0.825682 0.562791 0.038933
v -0.040841 0.031926 0.089835
vn -0.825682 0.562791 0.038933
v -0.069113 -0.010255 0.099981
vn 0.974012 -0.166134 0.153949
v -0.027029 0.013017 0.097122
vn 0.974012 -0.166134 0.153949
v -0.030000 0.000000 0.101872
vn 0.974012 -0.166134 0.153949
v -0.031639 -0.024196 0.086129
vn 0.064644 -0.958842 -0.276484
v -0.003630 0.030636 0.271775
vn 0.064644 -0.958842 -0.276484
v 0.000000 0.030786 0.272100
vn 0.064644 -0.958842 -0.276484
v 0.000000 0.029100 0.277949
vn 0.011534 0.876537 0.481197
v 0.033136 0.000000 0.260506
vn 0.011534 0.876537 0.481197
v 0.062306 0.021064 0.221438
vn 0.011534 0.876537 0.481197
v -0.036959 0.068941 0.136606
vn 1.000000 0.000000 0.000000
v -0.030405 0.003090 0.296535
vn 1.000000 0.000000 0.000000
v -0.030405 -0.002590 0.296165
vn 1.000000 0.000000 0.000000
v -0.030405 -0.007000 0.293447
vn -1.000000 0.000000 0.000000
v -0.030405 -0.007000 0.293447
vn -1.000000 0.000000 0.000000
v -0.030405 -0.002590 0.296165
vn -1.000000 0.000000 0.000000
v -0.030405 0.003090 0.296535
vn 1.000000 0.000000 0.000000
v -0.030405 -0.003090 0.277514
vn 1.000000 0.000000 0.000000
v -0.030405 0.002590 0.277884
vn 1.000000 0.000000 0.000000
v -0.030405 0.007000 0.280602
vn -1.000000 0.000000 0.000000
v -0.030405 0.007000 0.280602
vn -1.000000 0.000000 0.000000
v -0.030405 0.002590 0.277884
vn -1.000000 0.000000 0.000000
v -0.030405 -0.003090 0.277514
vn -0.340543 -0.932467 -0.120567
v 0.036072 0.031095 0.206225
vn -0.340543 -0.932467 -0.120567
v 0.056703 0.023638 0.205622
vn -0.340543 -0.932467 -0.120567
v 0.035496 0.030373 0.213430
vn 0.807172 0.414466 -0.420347
v 0.025292 -0.042324 0.084859
vn 0.807172 0.414466 -0.420347
v 0.014687 -0.033216 0.073475
vn 0.807172 0.414466 -0.420347
v 0.026519 -0.028219 0.101122
vn -0.001727 0.999865 -0.016351
v 0.030634 0.027693 0.062941
vn -0.001727 0.999865 -0.016351
v -0.021441 0.027824 0.076421
vn -0.001727 0.999865 -0.016351
v -0.026519 0.028219 0.101122
vn -0.616505 0.725914 0.304911
v -0.030452 0.020776 0.264432
vn -0.616505 0.725914 0.304911
v -0.024523 0.024978 0.266413
vn -0.616505 0.725914 0.304911
v -0.036959 0.068941 0.136606
# 1230 vertices, 0 vertices normals

f 1//1 2//2 3//3
f 4//4 5//5 6//6
f 7//7 8//8 9//9
f 10//10 11//11 12//12
f 13//13 14//14 15//15
f 16//16 17//17 18//18
f 19//19 20//20 21//21
f 22//22 23//23 24//24
f 25//25 26//26 27//27
f 28//28 29//29 30//30
f 31//31 32//32 33//33
f 34//34 35//35 36//36
f 37//37 38//38 39//39
f 40//40 41//41 42//42
f 43//43 44//44 45//45
f 46//46 47//47 48//48
f 49//49 50//50 51//51
f 52//52 53//53 54//54
f 55//55 56//56 57//57
f 58//58 59//59 60//60
f 61//61 62//62 63//63
f 64//64 65//65 66//66
f 67//67 68//68 69//69
f 70//70 71//71 72//72
f 73//73 74//74 75//75
f 76//76 77//77 78//78
f 79//79 80//80 81//81
f 82//82 83//83 84//84
f 85//85 86//86 87//87
f 88//88 89//89 90//90
f 91//91 92//92 93//93
f 94//94 95//95 96//96
f 97//97 98//98 99//99
f 100//100 101//101 102//102
f 103//103 104//104 105//105
f 106//106 107//107 108//108
f 109//109 110//110 111//111
f 112//112 113//113 114//114
f 115//115 116//116 117//117
f 118//118 119//119 120//120
f 121//121 122//122 123//123
f 124//124 125//125 126//126
f 127//127 128//128 129//129
f 130//130 131//131 132//132
f 133//133 134//134 135//135
f 136//136 137//137 138//138
f 139//139 140//140 141//141
f 142//142 143//143 144//144
f 145//145 146//146 147//147
f 148//148 149//149 150//150
f 151//151 152//152 153//153
f 154//154 155//155 156//156
f 157//157 158//158 159//159
f 160//160 161//161 162//162
f 163//163 164//164 165//165
f 166//166 167//167 168//168
f 169//169 170//170 171//171
f 172//172 173//173 174//174
f 175//175 176//176 177//177
f 178//178 179//179 180//180
f 181//181 182//182 183//183
f 184//184 185//185 186//186
f 187//187 188//188 189//189
f 190//190 191//191 192//192
f 193//193 194//194 195//195
f 196//196 197//197 198//198
f 199//199 200//200 201//201
f 202//202 203//203 204//204
f 205//205 206//206 207//207
f 208//208 209//209 210//210
f 211//211 212//212 213//213
f 214//214 215//215 216//216
f 217//217 218//218 219//219
f 220//220 221//221 222//222
f 223//223 224//224 225//225
f 226//226 227//227 228//228
f 229//229 230//230 231//231
f 232//232 233//233 234//234
f 235//235 236//236 237//237
f 238//238 239//239 240//240
f 241//241 242//242 243//243
f 244//244 245//245 246//246
f 247//247 248//248 249//249
f 250//250 251//251 252//252
f 253//253 254//254 255//255
f 256//256 257//257 258//258
f 259//259 260//260 261//261
f 262//262 263//263 264//264
f 265//265 266//266 267//267
f 268//268 269//269 270//270
f 271//271 272//272 273//273
f 274//274 275//275 276//276
f 277//277 278//278 279//279
f 280//280 281//281 282//282
f 283//283 284//284 285//285
f 286//286 287//287 288//288
f 289//289 290//290 291//291
f 292//292 293//293 294//294
f 295//295 296//296 297//297
f 298//298 299//299 300//300
f 301//301 302//302 303//303
f 304//304 305//305 306//306
f 307//307 308//308 309//309
f 310//310 311//311 312//312
f 313//313 314//314 315//315
f 316//316 317//317 318//318
f 319//319 320//320 321//321
f 322//322 323//323 324//324
f 325//325 326//326 327//327
f 328//328 329//329 330//330
f 331//331 332//332 333//333
f 334//334 335//335 336//336
f 337//337 338//338 339//339
f 340//340 341//341 342//342
f 343//343 344//344 345//345
f 346//346 347//347 348//348
f 349//349 350//350 351//351
f 352//352 353//353 354//354
f 355//355 356//356 357//357
f 358//358 359//359 360//360
f 361//361 362//362 363//363
f 364//364 365//365 366//366
f 367//367 368//368 369//369
f 370//370 371//371 372//372
f 373//373 374//374 375//375
f 376//376 377//377 378//378
f 379//379 380//380 381//381
f 382//382 383//383 384//384
f 385//385 386//386 387//387
f 388//388 389//389 390//390
f 391//391 392//392 393//393
f 394//394 395//395 396//396
f 397//397 398//398 399//399
f 400//400 401//401 402//402
f 403//403 404//404 405//405
f 406//406 407//407 408//408
f 409//409 410//410 411//411
f 412//412 413//413 414//414
f 415//415 416//416 417//417
f 418//418 419//419 420//420
f 421//421 422//422 423//423
f 424//424 425//425 426//426
f 427//427 428//428 429//429
f 430//430 431//431 432//432
f 433//433 434//434 435//435
f 436//436 437//437 438//438
f 439//439 440//440 441//441
f 442//442 443//443 444//444
f 445//445 446//446 447//447
f 448//448 449//449 450//450
f 451//451 452//452 453//453
f 454//454 455//455 456//456
f 457//457 458//458 459//459
f 460//460 461//461 462//462
f 463//463 464//464 465//465
f 466//466 467//467 468//468
f 469//469 470//470 471//471
f 472//472 473//473 474//474
f 475//475 476//476 477//477
f 478//478 479//479 480//480
f 481//481 482//482 483//483
f 484//484 485//485 486//486
f 487//487 488//488 489//489
f 490//490 491//491 492//492
f 493//493 494//494 495//495
f 496//496 497//497 498//498
f 499//499 500//500 501//501
f 502//502 503//503 504//504
f 505//505 506//506 507//507
f 508//508 509//509 510//510
f 511//511 512//512 513//513
f 514//514 515//515 516//516
f 517//517 518//518 519//519
f 520//520 521//521 522//522
f 523//523 524//524 525//525
f 526//526 527//527 528//528
f 529//529 530//530 531//531
f 532//532 533//533 534//534
f 535//535 536//536 537//537
f 538//538 539//539 540//540
f 541//541 542//542 543//543
f 544//544 545//545 546//546
f 547//547 548//548 549//549
f 550//550 551//551 552//552
f 553//553 554//554 555//555
f 556//556 557//557 558//558
f 559//559 560//560 561//561
f 562//562 563//563 564//564
f 565//565 566//566 567//567
f 568//568 569//569 570//570
f 571//571 572//572 573//573
f 574//574 575//575 576//576
f 577//577 578//578 579//579
f 580//580 581//581 582//582
f 583//583 584//584 585//585
f 586//586 587//587 588//588
f 589//589 590//590 591//591
f 592//592 593//593 594//594
f 595//595 596//596 597//597
f 598//598 599//599 600//600
f 601//601 602//602 603//603
f 604//604 605//605 606//606
f 607//607 608//608 609//609
f 610//610 611//611 612//612
f 613//613 614//614 615//615
f 616//616 617//617 618//618
f 619//619 620//620 621//621
f 622//622 623//623 624//624
f 625//625 626//626 627//627
f 628//628 629//629 630//630
f 631//631 632//632 633//633
f 634//634 635//635 636//636
f 637//637 638//638 639//639
f 640//640 641//641 642//642
f 643//643 644//644 645//645
f 646//646 647//647 648//648
f 649//649 650//650 651//651
f 652//652 653//653 654//654
f 655//655 656//656 657//657
f 658//658 659//659 660//660
f 661//661 662//662 663//663
f 664//664 665//665 666//666
f 667//667 668//668 669//669
f 670//670 671//671 672//672
f 673//673 674//674 675//675
f 676//676 677//677 678//678
f 679//679 680//680 681//681
f 682//682 683//683 684//684
f 685//685 686//686 687//687
f 688//688 689//689 690//690
f 691//691 692//692 693//693
f 694//694 695//695 696//696
f 697//697 698//698 699//699
f 700//700 701//701 702//702
f 703//703 704//704 705//705
f 706//706 707//707 708//708
f 709//709 710//710 711//711
f 712//712 713//713 714//714
f 715//715 716//716 717//717
f 718//718 719//719 720//720
f 721//721 722//722 723//723
f 724//724 725//725 726//726
f 727//727 728//728 729//729
f 730//730 731//731 732//732
f 733//733 734//734 735//735
f 736//736 737//737 738//738
f 739//739 740//740 741//741
f 742//742 743//743 744//744
f 745//745 746//746 747//747
f 748//748 749//749 750//750
f 751//751 752//752 753//753
f 754//754 755//755 756//756
f 757//757 758//758 759//759
f 760//760 761//761 762//762
f 763//763 764//764 765//765
f 766//766 767//767 768//768
f 769//769 770//770 771//771
f 772//772 773//773 774//774
f 775//775 776//776 777//777
f 778//778 779//779 780//780
f 781//781 782//782 783//783
f 784//784 785//785 786//786
f 787//787 788//788 789//789
f 790//790 791//791 792//792
f 793//793 794//794 795//795
f 796//796 797//797 798//798
f 799//799 800//800 801//801
f 802//802 803//803 804//804
f 805//805 806//806 807//807
f 808//808 809//809 810//810
f 811//811 812//812 813//813
f 814//814 815//815 816//816
f 817//817 818//818 819//819
f 820//820 821//821 822//822
f 823//823 824//824 825//825
f 826//826 827//827 828//828
f 829//829 830//830 831//831
f 832//832 833//833 834//834
f 835//835 836//836 837//837
f 838//838 839//839 840//840
f 841//841 842//842 843//843
f 844//844 845//845 846//846
f 847//847 848//848 849//849
f 850//850 851//851 852//852
f 853//853 854//854 855//855
f 856//856 857//857 858//858
f 859//859 860//860 861//861
f 862//862 863//863 864//864
f 865//865 866//866 867//867
f 868//868 869//869 870//870
f 871//871 872//872 873//873
f 874//874 875//875 876//876
f 877//877 878//878 879//879
f 880//880 881//881 882//882
f 883//883 884//884 885//885
f 886//886 887//887 888//888
f 889//889 890//890 891//891
f 892//892 893//893 894//894
f 895//895 896//896 897//897
f 898//898 899//899 900//900
f 901//901 902//902 903//903
f 904//904 905//905 906//906
f 907//907 908//908 909//909
f 910//910 911//911 912//912
f 913//913 914//914 915//915
f 916//916 917//917 918//918
f 919//919 920//920 921//921
f 922//922 923//923 924//924
f 925//925 926//926 927//927
f 928//928 929//929 930//930
f 931//931 932//932 933//933
f 934//934 935//935 936//936
f 937//937 938//938 939//939
f 940//940 941//941 942//942
f 943//943 944//944 945//945
f 946//946 947//947 948//948
f 949//949 950//950 951//951
f 952//952 953//953 954//954
f 955//955 956//956 957//957
f 958//958 959//959 960//960
f 961//961 962//962 963//963
f 964//964 965//965 966//966
f 967//967 968//968 969//969
f 970//970 971//971 972//972
f 973//973 974//974 975//975
f 976//976 977//977 978//978
f 979//979 980//980 981//981
f 982//982 983//983 984//984
f 985//985 986//986 987//987
f 988//988 989//989 990//990
f 991//991 992//992 993//993
f 994//994 995//995 996//996
f 997//997 998//998 999//999
f 1000//1000 1001//1001 1002//1002
f 1003//1003 1004//1004 1005//1005
f 1006//1006 1007//1007 1008//1008
f 1009//1009 1010//1010 1011//1011
f 1012//1012 1013//1013 1014//1014
f 1015//1015 1016//1016 1017//1017
f 1018//1018 1019//1019 1020//1020
f 1021//1021 1022//1022 1023//1023
f 1024//1024 1025//1025 1026//1026
f 1027//1027 1028//1028 1029//1029
f 1030//1030 1031//1031 1032//1032
f 1033//1033 1034//1034 1035//1035
f 1036//1036 1037//1037 1038//1038
f 1039//1039 1040//1040 1041//1041
f 1042//1042 1043//1043 1044//1044
f 1045//1045 1046//1046 1047//1047
f 1048//1048 1049//1049 1050//1050
f 1051//1051 1052//1052 1053//1053
f 1054//1054 1055//1055 1056//1056
f 1057//1057 1058//1058 1059//1059
f 1060//1060 1061//1061 1062//1062
f 1063//1063 1064//1064 1065//1065
f 1066//1066 1067//1067 1068//1068
f 1069//1069 1070//1070 1071//1071
f 1072//1072 1073//1073 1074//1074
f 1075//1075 1076//1076 1077//1077
f 1078//1078 1079//1079 1080//1080
f 1081//1081 1082//1082 1083//1083
f 1084//1084 1085//1085 1086//1086
f 1087//1087 1088//1088 1089//1089
f 1090//1090 1091//1091 1092//1092
f 1093//1093 1094//1094 1095//1095
f 1096//1096 1097//1097 1098//1098
f 1099//1099 1100//1100 1101//1101
f 1102//1102 1103//1103 1104//1104
f 1105//1105 1106//1106 1107//1107
f 1108//1108 1109//1109 1110//1110
f 1111//1111 1112//1112 1113//1113
f 1114//1114 1115//1115 1116//1116
f 1117//1117 1118//1118 1119//1119
f 1120//1120 1121//1121 1122//1122
f 1123//1123 1124//1124 1125//1125
f 1126//1126 1127//1127 1128//1128
f 1129//1129 1130//1130 1131//1131
f 1132//1132 1133//1133 1134//1134
f 1135//1135 1136//1136 1137//1137
f 1138//1138 1139//1139 1140//1140
f 1141//1141 1142//1142 1143//1143
f 1144//1144 1145//1145 1146//1146
f 1147//1147 1148//1148 1149//1149
f 1150//1150 1151//1151 1152//1152
f 1153//1153 1154//1154 1155//1155
f 1156//1156 1157//1157 1158//1158
f 1159//1159 1160//1160 1161//1161
f 1162//1162 1163//1163 1164//1164
f 1165//1165 1166//1166 1167//1167
f 1168//1168 1169//1169 1170//1170
f 1171//1171 1172//1172 1173//1173
f 1174//1174 1175//1175 1176//1176
f 1177//1177 1178//1178 1179//1179
f 1180//1180 1181//1181 1182//1182
f 1183//1183 1184//1184 1185//1185
f 1186//1186 1187//1187 1188//1188
f 1189//1189 1190//1190 1191//1191
f 1192//1192 1193//1193 1194//1194
f 1195//1195 1196//1196 1197//1197
f 1198//1198 1199//1199 1200//1200
f 1201//1201 1202//1202 1203//1203
f 1204//1204 1205//1205 1206//1206
f 1207//1207 1208//1208 1209//1209
f 1210//1210 1211//1211 1212//1212
f 1213//1213 1214//1214 1215//1215
f 1216//1216 1217//1217 1218//1218
f 1219//1219 1220//1220 1221//1221
f 1222//1222 1223//1223 1224//1224
f 1225//1225 1226//1226 1227//1227
f 1228//1228 1229//1229 1230//1230
# 410 faces, 0 coords texture

# End of File