####
#
# OBJ File Generated by Meshlab
#
####
# Object nj1_chull.obj
#
# Vertices: 774
# Faces: 258
#
####
vn -0.802711 -0.093583 -0.588980
v 0.020509 0.012896 -0.012414
vn -0.802711 -0.093583 -0.588980
v 0.025276 0.019266 -0.019923
vn -0.802711 -0.093583 -0.588980
v 0.028972 -0.000617 -0.021801
vn -0.072229 0.266356 -0.961165
v 0.011579 0.025483 -0.025854
vn -0.072229 0.266356 -0.961165
v -0.016184 0.021913 -0.024757
vn -0.072229 0.266356 -0.961165
v 0.038800 0.036466 -0.024856
vn -0.041097 -0.018560 0.998983
v 0.044167 0.000536 -0.013128
vn -0.041097 -0.018560 0.998983
v 0.028779 0.033479 -0.013149
vn -0.041097 -0.018560 0.998983
v 0.027050 0.007112 -0.013710
vn -0.272019 0.459189 -0.845666
v 0.100954 0.049690 -0.006198
vn -0.272019 0.459189 -0.845666
v 0.052892 0.012874 -0.010729
vn -0.272019 0.459189 -0.845666
v 0.046941 0.025325 -0.002054
vn -0.885540 -0.413510 0.211728
v 0.028779 0.033479 -0.013149
vn -0.885540 -0.413510 0.211728
v 0.044167 0.000536 -0.013128
vn -0.885540 -0.413510 0.211728
v 0.037559 0.028409 0.013671
vn -0.491629 0.865362 -0.097205
v 0.086824 0.055725 0.007685
vn -0.491629 0.865362 -0.097205
v 0.074539 0.046747 -0.010108
vn -0.491629 0.865362 -0.097205
v 0.037559 0.028409 0.013671
vn -0.099424 -0.012833 -0.994962
v 0.001775 -0.003806 -0.014000
vn -0.099424 -0.012833 -0.994962
v 0.000366 0.016646 -0.014123
vn -0.099424 -0.012833 -0.994962
v 0.018876 -0.002245 -0.015729
vn 0.101613 -0.026470 -0.994472
v -0.001775 0.003806 -0.014000
vn 0.101613 -0.026470 -0.994472
v -0.018782 0.004304 -0.015751
vn 0.101613 -0.026470 -0.994472
v 0.000366 0.016646 -0.014123
vn 0.114867 -0.965327 -0.234414
v 0.001102 0.021722 -0.015500
vn 0.114867 -0.965327 -0.234414
v -0.016184 0.021913 -0.024757
vn 0.114867 -0.965327 -0.234414
v 0.011579 0.025483 -0.025854
vn -0.956885 0.016297 -0.290008
v 0.100954 0.049690 -0.006198
vn -0.956885 0.016297 -0.290008
v 0.104000 0.064697 -0.015405
vn -0.956885 0.016297 -0.290008
v 0.104000 0.037630 -0.016926
vn 0.876013 -0.279005 0.393392
v -0.001033 -0.026553 -0.010097
vn 0.876013 -0.279005 0.393392
v 0.005831 -0.026845 -0.025589
vn 0.876013 -0.279005 0.393392
v 0.002936 -0.021715 -0.015504
vn 0.612868 -0.790167 -0.005457
v 0.018371 -0.020523 -0.014033
vn 0.612868 -0.790167 -0.005457
v 0.016689 -0.021749 -0.025414
vn 0.612868 -0.790167 -0.005457
v 0.052868 0.006309 -0.024965
vn -0.988213 -0.151983 -0.018355
v 0.101982 0.049297 0.004543
vn -0.988213 -0.151983 -0.018355
v 0.105839 0.024571 0.001622
vn -0.988213 -0.151983 -0.018355
v 0.104000 0.034998 0.014294
vn -0.891792 -0.405119 0.201460
v 0.044167 0.000536 -0.013128
vn -0.891792 -0.405119 0.201460
v 0.046126 0.007515 0.009578
vn -0.891792 -0.405119 0.201460
v 0.037559 0.028409 0.013671
vn 0.000000 0.000000 1.000000
v -0.017244 0.015421 -0.009000
vn 0.000000 0.000000 1.000000
v -0.017621 0.006414 -0.009000
vn 0.000000 0.000000 1.000000
v 0.001104 0.020245 -0.009000
vn 0.092120 -0.011583 -0.995681
v -0.014581 0.016139 -0.015500
vn 0.092120 -0.011583 -0.995681
v 0.000366 0.016646 -0.014123
vn 0.092120 -0.011583 -0.995681
v -0.018782 0.004304 -0.015751
vn 0.608486 -0.793536 -0.006675
v 0.100954 0.049690 -0.006198
vn 0.608486 -0.793536 -0.006675
v 0.046126 0.007515 0.009578
vn 0.608486 -0.793536 -0.006675
v 0.052892 0.012874 -0.010729
vn 0.997696 0.011762 -0.066822
v 0.107762 0.059203 -0.006593
vn 0.997696 0.011762 -0.066822
v 0.107000 0.044211 -0.020609
vn 0.997696 0.011762 -0.066822
v 0.107000 0.068294 -0.016370
vn -0.985035 0.158738 -0.067148
v 0.100954 0.049690 -0.006198
vn -0.985035 0.158738 -0.067148
v 0.102275 0.058804 -0.004031
vn -0.985035 0.158738 -0.067148
v 0.104000 0.064697 -0.015405
vn 0.709957 0.650454 -0.269945
v -0.021172 -0.012923 -0.014447
vn 0.709957 0.650454 -0.269945
v -0.015561 -0.017701 -0.011203
vn 0.709957 0.650454 -0.269945
v -0.019581 -0.018908 -0.024684
vn 0.328269 -0.254615 0.909621
v -0.001775 0.003806 -0.008000
vn 0.328269 -0.254615 0.909621
v 0.007143 0.019673 -0.006777
vn 0.328269 -0.254615 0.909621
v -0.015693 -0.003985 -0.005158
vn -0.194005 0.136420 0.971469
v 0.001775 -0.003806 -0.008000
vn -0.194005 0.136420 0.971469
v -0.000305 -0.016755 -0.006597
vn -0.194005 0.136420 0.971469
v 0.015430 0.000509 -0.005879
vn 0.389945 0.525331 0.756287
v -0.001033 -0.026553 -0.010097
vn 0.389945 0.525331 0.756287
v 0.002936 -0.021715 -0.015504
vn 0.389945 0.525331 0.756287
v -0.002773 -0.019631 -0.014008
vn 0.888929 0.415376 -0.193051
v 0.038800 0.036466 -0.024856
vn 0.888929 0.415376 -0.193051
v 0.052892 0.012874 -0.010729
vn 0.888929 0.415376 -0.193051
v 0.052868 0.006309 -0.024965
vn 0.891593 -0.411788 0.188395
v 0.046126 0.007515 0.009578
vn 0.891593 -0.411788 0.188395
v 0.052868 0.006309 -0.024965
vn 0.891593 -0.411788 0.188395
v 0.052892 0.012874 -0.010729
vn -0.332533 0.729069 -0.598231
v 0.017431 -0.013279 -0.015504
vn -0.332533 0.729069 -0.598231
v 0.016689 -0.021749 -0.025414
vn -0.332533 0.729069 -0.598231
v 0.005831 -0.026845 -0.025589
vn 0.306805 -0.950064 0.057001
v -0.001033 -0.026553 -0.010097
vn 0.306805 -0.950064 0.057001
v 0.016689 -0.021749 -0.025414
vn 0.306805 -0.950064 0.057001
v 0.018371 -0.020523 -0.014033
vn -0.983343 -0.015269 0.181116
v 0.101982 0.049297 0.004543
vn -0.983343 -0.015269 0.181116
v 0.104000 0.034998 0.014294
vn -0.983343 -0.015269 0.181116
v 0.104000 0.066218 0.016926
vn -0.189125 -0.845922 -0.498646
v 0.013736 0.020206 -0.017720
vn -0.189125 -0.845922 -0.498646
v 0.001102 0.021722 -0.015500
vn -0.189125 -0.845922 -0.498646
v 0.011579 0.025483 -0.025854
vn 0.566846 0.570118 0.594685
v 0.006233 0.029104 -0.014951
vn 0.566846 0.570118 0.594685
v 0.007143 0.019673 -0.006777
vn 0.566846 0.570118 0.594685
v 0.027050 0.007112 -0.013710
vn -0.165477 -0.846813 -0.505495
v 0.013736 0.020206 -0.017720
vn -0.165477 -0.846813 -0.505495
v 0.011579 0.025483 -0.025854
vn -0.165477 -0.846813 -0.505495
v 0.025276 0.019266 -0.019923
vn -0.255722 0.966354 0.027668
v 0.028779 0.033479 -0.013149
vn -0.255722 0.966354 0.027668
v 0.038800 0.036466 -0.024856
vn -0.255722 0.966354 0.027668
v -0.016184 0.021913 -0.024757
vn -0.054620 0.977715 0.202706
v 0.028779 0.033479 -0.013149
vn -0.054620 0.977715 0.202706
v 0.037559 0.028409 0.013671
vn -0.054620 0.977715 0.202706
v 0.038800 0.036466 -0.024856
vn 0.183037 -0.116185 0.976216
v 0.037559 0.028409 0.013671
vn 0.183037 -0.116185 0.976216
v 0.046126 0.007515 0.009578
vn 0.183037 -0.116185 0.976216
v 0.086824 0.055725 0.007685
vn -0.257417 -0.308042 0.915886
v -0.000305 -0.016755 -0.006597
vn -0.257417 -0.308042 0.915886
v -0.015561 -0.017701 -0.011203
vn -0.257417 -0.308042 0.915886
v -0.001033 -0.026553 -0.010097
vn 0.435043 -0.748586 -0.500357
v 0.046941 0.025325 -0.002054
vn 0.435043 -0.748586 -0.500357
v 0.074539 0.046747 -0.010108
vn 0.435043 -0.748586 -0.500357
v 0.102275 0.058804 -0.004031
vn -0.087795 0.010722 -0.996081
v 0.014581 -0.016139 -0.015500
vn -0.087795 0.010722 -0.996081
v -0.002773 -0.019631 -0.014008
vn -0.087795 0.010722 -0.996081
v 0.018876 -0.002245 -0.015729
vn -0.769833 0.512503 -0.380392
v 0.017431 -0.013279 -0.015504
vn -0.769833 0.512503 -0.380392
v 0.028972 -0.000617 -0.021801
vn -0.769833 0.512503 -0.380392
v 0.016689 -0.021749 -0.025414
vn 0.000000 0.000000 1.000000
v 0.017244 -0.015421 -0.009000
vn 0.000000 0.000000 1.000000
v 0.017621 -0.006414 -0.009000
vn 0.000000 0.000000 1.000000
v -0.001104 -0.020245 -0.009000
vn -0.034327 -0.000900 0.999410
v 0.018371 -0.020523 -0.014033
vn -0.034327 -0.000900 0.999410
v 0.044167 0.000536 -0.013128
vn -0.034327 -0.000900 0.999410
v 0.027050 0.007112 -0.013710
vn -0.549210 0.306260 -0.777543
v -0.021795 0.018231 -0.022244
vn -0.549210 0.306260 -0.777543
v -0.016184 0.021913 -0.024757
vn -0.549210 0.306260 -0.777543
v -0.025403 0.002225 -0.026000
vn -0.689567 0.123440 -0.713625
v -0.021479 0.010923 -0.012000
vn -0.689567 0.123440 -0.713625
v -0.017431 0.013279 -0.015504
vn -0.689567 0.123440 -0.713625
v -0.018782 0.004304 -0.015751
vn -0.925954 -0.362717 0.105096
v -0.017446 -0.021258 -0.013984
vn -0.925954 -0.362717 0.105096
v -0.026330 0.002341 -0.010810
vn -0.925954 -0.362717 0.105096
v -0.019581 -0.018908 -0.024684
vn 0.686697 -0.709388 0.158794
v 0.052868 0.006309 -0.024965
vn 0.686697 -0.709388 0.158794
v 0.046126 0.007515 0.009578
vn 0.686697 -0.709388 0.158794
v 0.044167 0.000536 -0.013128
vn 0.628337 -0.773315 0.084718
v 0.044167 0.000536 -0.013128
vn 0.628337 -0.773315 0.084718
v 0.018371 -0.020523 -0.014033
vn 0.628337 -0.773315 0.084718
v 0.052868 0.006309 -0.024965
vn 0.102299 -0.004017 -0.994746
v -0.001775 0.003806 -0.014000
vn 0.102299 -0.004017 -0.994746
v -0.002773 -0.019631 -0.014008
vn 0.102299 -0.004017 -0.994746
v -0.018782 0.004304 -0.015751
vn -0.103273 0.030183 -0.994195
v 0.001775 -0.003806 -0.014000
vn -0.103273 0.030183 -0.994195
v 0.018876 -0.002245 -0.015729
vn -0.103273 0.030183 -0.994195
v -0.002773 -0.019631 -0.014008
vn -0.987973 0.131166 -0.081879
v 0.102275 0.058804 -0.004031
vn -0.987973 0.131166 -0.081879
v 0.104924 0.078961 -0.003704
vn -0.987973 0.131166 -0.081879
v 0.104000 0.064697 -0.015405
vn -0.708434 0.582547 -0.398447
v 0.009088 0.016072 -0.015500
vn -0.708434 0.582547 -0.398447
v 0.007143 0.019673 -0.006777
vn -0.708434 0.582547 -0.398447
v 0.013736 0.020206 -0.017720
vn 0.290203 0.011041 0.956901
v 0.107000 0.035554 0.016370
vn 0.290203 0.011041 0.956901
v 0.108954 0.058382 0.015514
vn 0.290203 0.011041 0.956901
v 0.104000 0.066218 0.016926
vn 0.995622 0.051209 -0.078190
v 0.108954 0.058382 0.015514
vn 0.995622 0.051209 -0.078190
v 0.107220 0.068407 0.000000
vn 0.995622 0.051209 -0.078190
v 0.106707 0.078381 0.000000
vn -1.000000 0.000000 0.000000
v 0.104000 0.044970 0.018776
vn -1.000000 0.000000 0.000000
v 0.104000 0.066218 0.016926
vn -1.000000 0.000000 0.000000
v 0.104000 0.034998 0.014294
vn 0.651718 0.013870 0.758335
v 0.104000 0.044970 0.018776
vn 0.651718 0.013870 0.758335
v 0.107000 0.035554 0.016370
vn 0.651718 0.013870 0.758335
v 0.104000 0.059076 0.018518
vn 0.961231 -0.253957 -0.107426
v -0.017431 0.013279 -0.015504
vn 0.961231 -0.253957 -0.107426
v -0.021715 -0.002936 -0.015504
vn 0.961231 -0.253957 -0.107426
v -0.016184 0.021913 -0.024757
vn -0.457527 0.271740 0.846656
v 0.006233 0.029104 -0.014951
vn -0.457527 0.271740 0.846656
v -0.016184 0.021913 -0.024757
vn -0.457527 0.271740 0.846656
v 0.000366 0.016646 -0.014123
vn 0.684940 -0.104403 -0.721080
v 0.021479 -0.010923 -0.012000
vn 0.684940 -0.104403 -0.721080
v 0.017431 -0.013279 -0.015504
vn 0.684940 -0.104403 -0.721080
v 0.018876 -0.002245 -0.015729
vn 0.999273 -0.033123 -0.018898
v 0.107762 0.059203 -0.006593
vn 0.999273 -0.033123 -0.018898
v 0.107000 0.038152 -0.009989
vn 0.999273 -0.033123 -0.018898
v 0.107000 0.044211 -0.020609
vn -0.483258 -0.075938 -0.872178
v 0.104000 0.058878 -0.018776
vn -0.483258 -0.075938 -0.872178
v 0.106473 0.051961 -0.019544
vn -0.483258 -0.075938 -0.872178
v 0.104000 0.037630 -0.016926
vn 0.238663 0.168342 -0.956400
v 0.104000 0.058878 -0.018776
vn 0.238663 0.168342 -0.956400
v 0.107000 0.068294 -0.016370
vn 0.238663 0.168342 -0.956400
v 0.107000 0.044211 -0.020609
vn -0.215929 0.627520 0.748060
v 0.001104 0.020245 -0.009000
vn -0.215929 0.627520 0.748060
v 0.007143 0.019673 -0.006777
vn -0.215929 0.627520 0.748060
v 0.006233 0.029104 -0.014951
vn -0.285985 0.387178 0.876531
v 0.001104 0.020245 -0.009000
vn -0.285985 0.387178 0.876531
v -0.017621 0.006414 -0.009000
vn -0.285985 0.387178 0.876531
v 0.007143 0.019673 -0.006777
vn 0.945922 0.017145 -0.323940
v -0.021715 -0.002936 -0.015504
vn 0.945922 0.017145 -0.323940
v -0.021172 -0.012923 -0.014447
vn 0.945922 0.017145 -0.323940
v -0.025403 0.002225 -0.026000
vn 0.815033 -0.352616 -0.459765
v -0.021715 -0.002936 -0.015504
vn 0.815033 -0.352616 -0.459765
v -0.025403 0.002225 -0.026000
vn 0.815033 -0.352616 -0.459765
v -0.016184 0.021913 -0.024757
vn 0.207933 -0.829506 -0.518348
v -0.010948 -0.014640 -0.014251
vn 0.207933 -0.829506 -0.518348
v -0.000305 -0.016755 -0.006597
vn 0.207933 -0.829506 -0.518348
v -0.015561 -0.017701 -0.011203
vn 0.121350 0.984789 -0.124358
v -0.015561 -0.017701 -0.011203
vn 0.121350 0.984789 -0.124358
v -0.002773 -0.019631 -0.014008
vn 0.121350 0.984789 -0.124358
v -0.019581 -0.018908 -0.024684
vn 0.902999 0.083458 -0.421459
v -0.001104 -0.020245 -0.009000
vn 0.902999 0.083458 -0.421459
v -0.000305 -0.016755 -0.006597
vn 0.902999 0.083458 -0.421459
v -0.001033 -0.026553 -0.010097
vn 0.426322 -0.577173 0.696506
v -0.001104 -0.020245 -0.009000
vn 0.426322 -0.577173 0.696506
v 0.017621 -0.006414 -0.009000
vn 0.426322 -0.577173 0.696506
v -0.000305 -0.016755 -0.006597
vn -0.207365 0.008680 0.978225
v -0.017244 0.015421 -0.009000
vn -0.207365 0.008680 0.978225
v -0.026330 0.002341 -0.010810
vn -0.207365 0.008680 0.978225
v -0.017621 0.006414 -0.009000
vn 0.998036 0.051333 -0.035913
v 0.107000 0.065696 -0.009989
vn 0.998036 0.051333 -0.035913
v 0.106707 0.078381 0.000000
vn 0.998036 0.051333 -0.035913
v 0.107220 0.068407 0.000000
vn 0.583397 0.665819 -0.465116
v 0.105000 0.065299 -0.023166
vn 0.583397 0.665819 -0.465116
v 0.104924 0.078961 -0.003704
vn 0.583397 0.665819 -0.465116
v 0.107000 0.068294 -0.016370
vn -0.189971 -0.685901 -0.702461
v 0.020509 0.012896 -0.012414
vn -0.189971 -0.685901 -0.702461
v 0.013736 0.020206 -0.017720
vn -0.189971 -0.685901 -0.702461
v 0.025276 0.019266 -0.019923
vn 0.998036 -0.051333 0.035913
v 0.107000 0.038152 0.009989
vn 0.998036 -0.051333 0.035913
v 0.106707 0.025467 0.000000
vn 0.998036 -0.051333 0.035913
v 0.107220 0.035441 0.000000
vn -0.891076 0.045832 -0.451534
v 0.105839 0.024571 0.001622
vn -0.891076 0.045832 -0.451534
v 0.107220 0.035441 0.000000
vn -0.891076 0.045832 -0.451534
v 0.106707 0.025467 0.000000
vn -0.076433 -0.218890 -0.972751
v 0.025276 0.019266 -0.019923
vn -0.076433 -0.218890 -0.972751
v 0.038800 0.036466 -0.024856
vn -0.076433 -0.218890 -0.972751
v 0.043058 0.015901 -0.020563
vn -0.154320 0.931239 -0.330119
v 0.006233 0.029104 -0.014951
vn -0.154320 0.931239 -0.330119
v 0.028779 0.033479 -0.013149
vn -0.154320 0.931239 -0.330119
v -0.016184 0.021913 -0.024757
vn -0.076538 -0.016192 0.996935
v 0.028779 0.033479 -0.013149
vn -0.076538 -0.016192 0.996935
v 0.006233 0.029104 -0.014951
vn -0.076538 -0.016192 0.996935
v 0.027050 0.007112 -0.013710
vn 0.413637 -0.888201 0.200010
v -0.001033 -0.026553 -0.010097
vn 0.413637 -0.888201 0.200010
v 0.005831 -0.026845 -0.025589
vn 0.413637 -0.888201 0.200010
v 0.016689 -0.021749 -0.025414
vn -0.269916 -0.950348 -0.154864
v -0.001033 -0.026553 -0.010097
vn -0.269916 -0.950348 -0.154864
v -0.017446 -0.021258 -0.013984
vn -0.269916 -0.950348 -0.154864
v -0.019581 -0.018908 -0.024684
vn -0.597793 0.751523 -0.279028
v -0.001033 -0.026553 -0.010097
vn -0.597793 0.751523 -0.279028
v 0.014581 -0.016139 -0.015500
vn -0.597793 0.751523 -0.279028
v 0.005831 -0.026845 -0.025589
vn -0.597597 0.659142 -0.456519
v 0.006954 -0.018597 -0.009065
vn -0.597597 0.659142 -0.456519
v 0.014581 -0.016139 -0.015500
vn -0.597597 0.659142 -0.456519
v -0.001033 -0.026553 -0.010097
vn 0.989217 -0.134370 -0.058255
v 0.105839 0.024571 0.001622
vn 0.989217 -0.134370 -0.058255
v 0.107000 0.038152 -0.009989
vn 0.989217 -0.134370 -0.058255
v 0.107220 0.035441 0.000000
vn -0.696946 -0.617073 -0.365359
v 0.105043 0.041747 -0.025869
vn -0.696946 -0.617073 -0.365359
v 0.105839 0.024571 0.001622
vn -0.696946 -0.617073 -0.365359
v 0.104000 0.037630 -0.016926
vn 0.959030 -0.226955 -0.169567
v 0.105839 0.024571 0.001622
vn 0.959030 -0.226955 -0.169567
v 0.105043 0.041747 -0.025869
vn 0.959030 -0.226955 -0.169567
v 0.107000 0.038152 -0.009989
vn -0.677948 -0.316073 0.663689
v 0.104000 0.058878 -0.018776
vn -0.677948 -0.316073 0.663689
v 0.105043 0.041747 -0.025869
vn -0.677948 -0.316073 0.663689
v 0.106473 0.051961 -0.019544
vn 0.510516 -0.807012 -0.296825
v -0.006954 0.018597 -0.009065
vn 0.510516 -0.807012 -0.296825
v -0.014581 0.016139 -0.015500
vn 0.510516 -0.807012 -0.296825
v 0.006233 0.029104 -0.014951
vn 0.459630 -0.715619 -0.525956
v 0.006233 0.029104 -0.014951
vn 0.459630 -0.715619 -0.525956
v -0.014581 0.016139 -0.015500
vn 0.459630 -0.715619 -0.525956
v -0.016184 0.021913 -0.024757
vn 0.469190 -0.019639 0.882879
v 0.017244 -0.015421 -0.009000
vn 0.469190 -0.019639 0.882879
v 0.027050 0.007112 -0.013710
vn 0.469190 -0.019639 0.882879
v 0.017621 -0.006414 -0.009000
vn -0.397658 -0.231082 0.887958
v -0.015561 -0.017701 -0.011203
vn -0.397658 -0.231082 0.887958
v -0.012954 -0.013722 -0.009000
vn -0.397658 -0.231082 0.887958
v -0.026330 0.002341 -0.010810
vn -0.552200 -0.311870 0.773183
v -0.015561 -0.017701 -0.011203
vn -0.552200 -0.311870 0.773183
v -0.026330 0.002341 -0.010810
vn -0.552200 -0.311870 0.773183
v -0.017446 -0.021258 -0.013984
vn 0.997288 -0.068159 -0.027751
v 0.105839 0.024571 0.001622
vn 0.997288 -0.068159 -0.027751
v 0.107000 0.038152 0.009989
vn 0.997288 -0.068159 -0.027751
v 0.107000 0.035554 0.016370
vn 0.876245 0.475055 -0.080735
v 0.052892 0.012874 -0.010729
vn 0.876245 0.475055 -0.080735
v 0.038800 0.036466 -0.024856
vn 0.876245 0.475055 -0.080735
v 0.046941 0.025325 -0.002054
vn -0.123666 -0.006978 0.992299
v -0.001775 0.003806 -0.008000
vn -0.123666 -0.006978 0.992299
v 0.015430 0.000509 -0.005879
vn -0.123666 -0.006978 0.992299
v 0.007143 0.019673 -0.006777
vn -0.205240 0.279653 -0.937908
v 0.028972 -0.000617 -0.021801
vn -0.205240 0.279653 -0.937908
v 0.052868 0.006309 -0.024965
vn -0.205240 0.279653 -0.937908
v 0.016689 -0.021749 -0.025414
vn -0.607908 -0.280900 -0.742659
v 0.043058 0.015901 -0.020563
vn -0.607908 -0.280900 -0.742659
v 0.038800 0.036466 -0.024856
vn -0.607908 -0.280900 -0.742659
v 0.052868 0.006309 -0.024965
vn 0.994269 0.094440 -0.050103
v 0.107220 0.068407 0.000000
vn 0.994269 0.094440 -0.050103
v 0.108954 0.058382 0.015514
vn 0.994269 0.094440 -0.050103
v 0.107762 0.059203 -0.006593
vn -0.348087 0.911394 -0.219538
v 0.102275 0.058804 -0.004031
vn -0.348087 0.911394 -0.219538
v 0.074539 0.046747 -0.010108
vn -0.348087 0.911394 -0.219538
v 0.086824 0.055725 0.007685
vn 0.966859 0.064896 0.246926
v 0.105000 0.065299 0.023166
vn 0.966859 0.064896 0.246926
v 0.105020 0.051893 0.026611
vn 0.966859 0.064896 0.246926
v 0.107000 0.051924 0.018850
vn -0.991890 0.002324 0.127076
v 0.104000 0.044970 0.018776
vn -0.991890 0.002324 0.127076
v 0.105020 0.051893 0.026611
vn -0.991890 0.002324 0.127076
v 0.104000 0.059076 0.018518
vn 0.966972 -0.065072 0.246436
v 0.105020 0.051893 0.026611
vn 0.966972 -0.065072 0.246436
v 0.105000 0.038549 0.023166
vn 0.966972 -0.065072 0.246436
v 0.107000 0.051924 0.018850
vn -0.985520 -0.040998 0.164526
v 0.104000 0.044970 0.018776
vn -0.985520 -0.040998 0.164526
v 0.105000 0.038549 0.023166
vn -0.985520 -0.040998 0.164526
v 0.105020 0.051893 0.026611
vn 0.611493 -0.156165 0.775686
v 0.015430 0.000509 -0.005879
vn 0.611493 -0.156165 0.775686
v 0.017621 -0.006414 -0.009000
vn 0.611493 -0.156165 0.775686
v 0.027050 0.007112 -0.013710
vn -0.610149 -0.433346 0.663272
v -0.015693 -0.003985 -0.005158
vn -0.610149 -0.433346 0.663272
v -0.026330 0.002341 -0.010810
vn -0.610149 -0.433346 0.663272
v -0.012954 -0.013722 -0.009000
vn 0.994636 0.092185 -0.046925
v 0.107000 0.065696 -0.009989
vn 0.994636 0.092185 -0.046925
v 0.107220 0.068407 0.000000
vn 0.994636 0.092185 -0.046925
v 0.107762 0.059203 -0.006593
vn -0.195156 -0.230323 -0.953344
v 0.000366 0.016646 -0.014123
vn -0.195156 -0.230323 -0.953344
v 0.001102 0.021722 -0.015500
vn -0.195156 -0.230323 -0.953344
v 0.013736 0.020206 -0.017720
vn -0.498155 -0.683035 0.534140
v 0.020509 0.012896 -0.012414
vn -0.498155 -0.683035 0.534140
v 0.028972 -0.000617 -0.021801
vn -0.498155 -0.683035 0.534140
v 0.027050 0.007112 -0.013710
vn 0.454444 -0.069283 -0.888077
v -0.021172 -0.012923 -0.014447
vn 0.454444 -0.069283 -0.888077
v -0.021715 -0.002936 -0.015504
vn 0.454444 -0.069283 -0.888077
v -0.015561 -0.017701 -0.011203
vn 0.591793 -0.801493 -0.085965
v 0.101982 0.049297 0.004543
vn 0.591793 -0.801493 -0.085965
v 0.046126 0.007515 0.009578
vn 0.591793 -0.801493 -0.085965
v 0.100954 0.049690 -0.006198
vn -0.265223 -0.417532 0.869094
v -0.015693 -0.003985 -0.005158
vn -0.265223 -0.417532 0.869094
v -0.012954 -0.013722 -0.009000
vn -0.265223 -0.417532 0.869094
v -0.000305 -0.016755 -0.006597
vn 0.159249 0.081024 0.983908
v 0.001775 -0.003806 -0.008000
vn 0.159249 0.081024 0.983908
v -0.015693 -0.003985 -0.005158
vn 0.159249 0.081024 0.983908
v -0.000305 -0.016755 -0.006597
vn 0.535641 -0.027550 -0.843996
v 0.104000 0.029848 -0.001861
vn 0.535641 -0.027550 -0.843996
v 0.107220 0.035441 0.000000
vn 0.535641 -0.027550 -0.843996
v 0.106707 0.025467 0.000000
vn -0.535641 0.027550 0.843996
v 0.104000 0.029848 -0.001861
vn -0.535641 0.027550 0.843996
v 0.106707 0.025467 0.000000
vn -0.535641 0.027550 0.843996
v 0.107220 0.035441 0.000000
vn 0.000671 0.000313 -1.000000
v -0.001775 0.003806 -0.014000
vn 0.000671 0.000313 -1.000000
v 0.001775 -0.003806 -0.014000
vn 0.000671 0.000313 -1.000000
v -0.002773 -0.019631 -0.014008
vn -0.015129 -0.007055 -0.999861
v 0.001775 -0.003806 -0.014000
vn -0.015129 -0.007055 -0.999861
v -0.001775 0.003806 -0.014000
vn -0.015129 -0.007055 -0.999861
v 0.000366 0.016646 -0.014123
vn -0.133891 -0.062443 0.989027
v -0.001775 0.003806 -0.008000
vn -0.133891 -0.062443 0.989027
v 0.001775 -0.003806 -0.008000
vn -0.133891 -0.062443 0.989027
v 0.015430 0.000509 -0.005879
vn 0.159399 0.074339 0.984411
v 0.001775 -0.003806 -0.008000
vn 0.159399 0.074339 0.984411
v -0.001775 0.003806 -0.008000
vn 0.159399 0.074339 0.984411
v -0.015693 -0.003985 -0.005158
vn -0.186868 0.252797 -0.949302
v 0.100954 0.049690 -0.006198
vn -0.186868 0.252797 -0.949302
v 0.046941 0.025325 -0.002054
vn -0.186868 0.252797 -0.949302
v 0.102275 0.058804 -0.004031
vn -0.099026 -0.382073 -0.918811
v 0.013736 0.020206 -0.017720
vn -0.099026 -0.382073 -0.918811
v 0.027050 0.007112 -0.013710
vn -0.099026 -0.382073 -0.918811
v 0.009088 0.016072 -0.015500
vn 0.301422 0.172793 -0.937703
v 0.009088 0.016072 -0.015500
vn 0.301422 0.172793 -0.937703
v 0.020509 0.012896 -0.012414
vn 0.301422 0.172793 -0.937703
v 0.018876 -0.002245 -0.015729
vn -0.358347 -0.570782 0.738780
v 0.009088 0.016072 -0.015500
vn -0.358347 -0.570782 0.738780
v 0.027050 0.007112 -0.013710
vn -0.358347 -0.570782 0.738780
v 0.020509 0.012896 -0.012414
vn -0.166663 -0.980117 0.107679
v -0.010948 -0.014640 -0.014251
vn -0.166663 -0.980117 0.107679
v -0.012954 -0.013722 -0.009000
vn -0.166663 -0.980117 0.107679
v -0.021172 -0.012923 -0.014447
vn -0.670695 0.643585 -0.368735
v -0.015561 -0.017701 -0.011203
vn -0.670695 0.643585 -0.368735
v -0.012954 -0.013722 -0.009000
vn -0.670695 0.643585 -0.368735
v -0.010948 -0.014640 -0.014251
vn -0.897893 0.391373 0.201532
v 0.105000 0.065299 0.023166
vn -0.897893 0.391373 0.201532
v 0.104924 0.078961 -0.003704
vn -0.897893 0.391373 0.201532
v 0.104000 0.066218 0.016926
vn -0.839474 -0.540618 0.054910
v 0.105000 0.065299 0.023166
vn -0.839474 -0.540618 0.054910
v 0.104000 0.066218 0.016926
vn -0.839474 -0.540618 0.054910
v 0.108954 0.058382 0.015514
vn 0.770734 0.297130 -0.563634
v 0.104000 0.059076 0.018518
vn 0.770734 0.297130 -0.563634
v 0.105000 0.065299 0.023166
vn 0.770734 0.297130 -0.563634
v 0.107000 0.051924 0.018850
vn -0.986430 0.039481 0.159366
v 0.104000 0.059076 0.018518
vn -0.986430 0.039481 0.159366
v 0.105020 0.051893 0.026611
vn -0.986430 0.039481 0.159366
v 0.105000 0.065299 0.023166
vn 0.816824 0.233462 0.527535
v 0.104000 0.058878 -0.018776
vn 0.816824 0.233462 0.527535
v 0.106473 0.051961 -0.019544
vn 0.816824 0.233462 0.527535
v 0.105000 0.065299 -0.023166
vn 0.951170 -0.260903 -0.164941
v 0.104000 0.058878 -0.018776
vn 0.951170 -0.260903 -0.164941
v 0.105000 0.065299 -0.023166
vn 0.951170 -0.260903 -0.164941
v 0.107000 0.068294 -0.016370
vn -0.980938 0.157222 -0.114197
v 0.104924 0.078961 -0.003704
vn -0.980938 0.157222 -0.114197
v 0.105000 0.065299 -0.023166
vn -0.980938 0.157222 -0.114197
v 0.104000 0.064697 -0.015405
vn -0.980876 0.020423 -0.193561
v 0.104000 0.058878 -0.018776
vn -0.980876 0.020423 -0.193561
v 0.105000 0.065299 -0.023166
vn -0.980876 0.020423 -0.193561
v 0.105043 0.041747 -0.025869
vn 0.161919 -0.098134 0.981912
v 0.101982 0.049297 0.004543
vn 0.161919 -0.098134 0.981912
v 0.086824 0.055725 0.007685
vn 0.161919 -0.098134 0.981912
v 0.046126 0.007515 0.009578
vn 0.048040 -0.175769 0.983259
v 0.017244 -0.015421 -0.009000
vn 0.048040 -0.175769 0.983259
v 0.006954 -0.018597 -0.009065
vn 0.048040 -0.175769 0.983259
v -0.001033 -0.026553 -0.010097
vn 0.843988 -0.270475 0.463171
v 0.018371 -0.020523 -0.014033
vn 0.843988 -0.270475 0.463171
v 0.027050 0.007112 -0.013710
vn 0.843988 -0.270475 0.463171
v 0.017244 -0.015421 -0.009000
vn -0.340454 0.922488 0.181950
v 0.074539 0.046747 -0.010108
vn -0.340454 0.922488 0.181950
v 0.038800 0.036466 -0.024856
vn -0.340454 0.922488 0.181950
v 0.037559 0.028409 0.013671
vn 0.426507 -0.743254 -0.515428
v 0.038800 0.036466 -0.024856
vn 0.426507 -0.743254 -0.515428
v 0.074539 0.046747 -0.010108
vn 0.426507 -0.743254 -0.515428
v 0.046941 0.025325 -0.002054
vn -0.970539 0.233091 -0.061009
v -0.026330 0.002341 -0.010810
vn -0.970539 0.233091 -0.061009
v -0.021795 0.018231 -0.022244
vn -0.970539 0.233091 -0.061009
v -0.025403 0.002225 -0.026000
vn -0.785014 0.493492 0.374457
v -0.021795 0.018231 -0.022244
vn -0.785014 0.493492 0.374457
v -0.026330 0.002341 -0.010810
vn -0.785014 0.493492 0.374457
v -0.017244 0.015421 -0.009000
vn -0.132922 -0.062028 -0.989184
v -0.026330 0.002341 -0.010810
vn -0.132922 -0.062028 -0.989184
v -0.021479 0.010923 -0.012000
vn -0.132922 -0.062028 -0.989184
v -0.017988 0.003442 -0.012000
vn -0.902158 -0.420991 0.094220
v -0.021479 0.010923 -0.012000
vn -0.902158 -0.420991 0.094220
v -0.018782 0.004304 -0.015751
vn -0.902158 -0.420991 0.094220
v -0.017988 0.003442 -0.012000
vn 0.854904 0.398940 0.331640
v 0.021479 -0.010923 -0.012000
vn 0.854904 0.398940 0.331640
v 0.018876 -0.002245 -0.015729
vn 0.854904 0.398940 0.331640
v 0.017988 -0.003442 -0.012000
vn 0.901165 0.420527 0.105159
v 0.015430 0.000509 -0.005879
vn 0.901165 0.420527 0.105159
v 0.021479 -0.010923 -0.012000
vn 0.901165 0.420527 0.105159
v 0.017988 -0.003442 -0.012000
vn -0.299881 -0.947018 -0.115018
v -0.001033 -0.026553 -0.010097
vn -0.299881 -0.947018 -0.115018
v -0.019581 -0.018908 -0.024684
vn -0.299881 -0.947018 -0.115018
v 0.005831 -0.026845 -0.025589
vn 0.266568 0.894419 -0.359105
v -0.002773 -0.019631 -0.014008
vn 0.266568 0.894419 -0.359105
v 0.005831 -0.026845 -0.025589
vn 0.266568 0.894419 -0.359105
v -0.019581 -0.018908 -0.024684
vn 0.358376 -0.859031 0.365557
v 0.028972 -0.000617 -0.021801
vn 0.358376 -0.859031 0.365557
v 0.015430 0.000509 -0.005879
vn 0.358376 -0.859031 0.365557
v 0.018876 -0.002245 -0.015729
vn 0.943519 0.175501 0.281019
v 0.017988 -0.003442 -0.012000
vn 0.943519 0.175501 0.281019
v 0.018876 -0.002245 -0.015729
vn 0.943519 0.175501 0.281019
v 0.015430 0.000509 -0.005879
vn -0.093009 0.965894 0.241656
v -0.017988 0.003442 -0.012000
vn -0.093009 0.965894 0.241656
v -0.018782 0.004304 -0.015751
vn -0.093009 0.965894 0.241656
v -0.026330 0.002341 -0.010810
vn -0.572829 0.204983 -0.793630
v -0.021715 -0.002936 -0.015504
vn -0.572829 0.204983 -0.793630
v -0.026330 0.002341 -0.010810
vn -0.572829 0.204983 -0.793630
v -0.018782 0.004304 -0.015751
vn 0.054878 -0.056242 -0.996908
v -0.010948 -0.014640 -0.014251
vn 0.054878 -0.056242 -0.996908
v -0.021715 -0.002936 -0.015504
vn 0.054878 -0.056242 -0.996908
v -0.018782 0.004304 -0.015751
vn -0.816591 -0.498230 0.291456
v 0.105839 0.024571 0.001622
vn -0.816591 -0.498230 0.291456
v 0.105000 0.038549 0.023166
vn -0.816591 -0.498230 0.291456
v 0.104000 0.034998 0.014294
vn 0.951170 0.260903 0.164941
v 0.104000 0.044970 0.018776
vn 0.951170 0.260903 0.164941
v 0.105000 0.038549 0.023166
vn 0.951170 0.260903 0.164941
v 0.107000 0.035554 0.016370
vn 0.558779 -0.685608 0.466591
v 0.105000 0.038549 0.023166
vn 0.558779 -0.685608 0.466591
v 0.105839 0.024571 0.001622
vn 0.558779 -0.685608 0.466591
v 0.107000 0.035554 0.016370
vn -0.988837 -0.061083 0.135904
v 0.104000 0.044970 0.018776
vn -0.988837 -0.061083 0.135904
v 0.104000 0.034998 0.014294
vn -0.988837 -0.061083 0.135904
v 0.105000 0.038549 0.023166
vn -0.988900 0.115157 0.093894
v 0.102275 0.058804 -0.004031
vn -0.988900 0.115157 0.093894
v 0.101982 0.049297 0.004543
vn -0.988900 0.115157 0.093894
v 0.104000 0.071848 -0.001861
vn -0.197974 0.656320 0.728046
v -0.017244 0.015421 -0.009000
vn -0.197974 0.656320 0.728046
v -0.006954 0.018597 -0.009065
vn -0.197974 0.656320 0.728046
v 0.006233 0.029104 -0.014951
vn -0.414151 0.851017 0.322875
v -0.021795 0.018231 -0.022244
vn -0.414151 0.851017 0.322875
v -0.017244 0.015421 -0.009000
vn -0.414151 0.851017 0.322875
v 0.006233 0.029104 -0.014951
vn 0.719742 -0.321517 0.615303
v -0.021479 0.010923 -0.012000
vn 0.719742 -0.321517 0.615303
v -0.026330 0.002341 -0.010810
vn 0.719742 -0.321517 0.615303
v -0.017431 0.013279 -0.015504
vn 0.607606 -0.160529 0.777847
v -0.026330 0.002341 -0.010810
vn 0.607606 -0.160529 0.777847
v -0.021715 -0.002936 -0.015504
vn 0.607606 -0.160529 0.777847
v -0.017431 0.013279 -0.015504
vn -0.319599 -0.573128 0.754573
v 0.021479 -0.010923 -0.012000
vn -0.319599 -0.573128 0.754573
v 0.015430 0.000509 -0.005879
vn -0.319599 -0.573128 0.754573
v 0.017431 -0.013279 -0.015504
vn -0.706409 0.333350 -0.624391
v 0.015430 0.000509 -0.005879
vn -0.706409 0.333350 -0.624391
v 0.028972 -0.000617 -0.021801
vn -0.706409 0.333350 -0.624391
v 0.017431 -0.013279 -0.015504
vn -0.523013 0.191103 -0.830624
v 0.000366 0.016646 -0.014123
vn -0.523013 0.191103 -0.830624
v -0.006954 0.018597 -0.009065
vn -0.523013 0.191103 -0.830624
v 0.006233 0.029104 -0.014951
vn 0.453753 -0.349173 -0.819869
v -0.002773 -0.019631 -0.014008
vn 0.453753 -0.349173 -0.819869
v 0.006954 -0.018597 -0.009065
vn 0.453753 -0.349173 -0.819869
v -0.001033 -0.026553 -0.010097
vn -0.985846 0.162808 -0.040026
v 0.106473 0.051961 -0.019544
vn -0.985846 0.162808 -0.040026
v 0.105043 0.041747 -0.025869
vn -0.985846 0.162808 -0.040026
v 0.104000 0.037630 -0.016926
vn -0.089854 -0.141584 0.985840
v 0.104000 0.058878 -0.018776
vn -0.089854 -0.141584 0.985840
v 0.107000 0.044211 -0.020609
vn -0.089854 -0.141584 0.985840
v 0.106473 0.051961 -0.019544
vn -0.987194 -0.131950 0.089654
v 0.100954 0.049690 -0.006198
vn -0.987194 -0.131950 0.089654
v 0.104000 0.029848 -0.001861
vn -0.987194 -0.131950 0.089654
v 0.101982 0.049297 0.004543
vn 0.448254 0.234260 0.862665
v 0.007143 0.019673 -0.006777
vn 0.448254 0.234260 0.862665
v 0.015430 0.000509 -0.005879
vn 0.448254 0.234260 0.862665
v 0.027050 0.007112 -0.013710
vn -0.855300 0.254160 0.451515
v 0.106707 0.078381 0.000000
vn -0.855300 0.254160 0.451515
v 0.104924 0.078961 -0.003704
vn -0.855300 0.254160 0.451515
v 0.108954 0.058382 0.015514
vn 0.924797 0.340191 0.170354
v 0.108954 0.058382 0.015514
vn 0.924797 0.340191 0.170354
v 0.104924 0.078961 -0.003704
vn 0.924797 0.340191 0.170354
v 0.105000 0.065299 0.023166
vn 0.995625 -0.086543 -0.035236
v 0.107000 0.035554 0.016370
vn 0.995625 -0.086543 -0.035236
v 0.107000 0.038152 0.009989
vn 0.995625 -0.086543 -0.035236
v 0.108954 0.058382 0.015514
vn 0.992586 -0.109996 0.051714
v 0.107000 0.038152 0.009989
vn 0.992586 -0.109996 0.051714
v 0.107220 0.035441 0.000000
vn 0.992586 -0.109996 0.051714
v 0.108954 0.058382 0.015514
vn -0.004041 0.214290 -0.976762
v 0.018876 -0.002245 -0.015729
vn -0.004041 0.214290 -0.976762
v 0.020509 0.012896 -0.012414
vn -0.004041 0.214290 -0.976762
v 0.027050 0.007112 -0.013710
vn -0.241710 0.296539 0.923927
v -0.015693 -0.003985 -0.005158
vn -0.241710 0.296539 0.923927
v 0.007143 0.019673 -0.006777
vn -0.241710 0.296539 0.923927
v -0.017621 0.006414 -0.009000
vn -0.317699 0.276221 0.907066
v -0.015693 -0.003985 -0.005158
vn -0.317699 0.276221 0.907066
v -0.017621 0.006414 -0.009000
vn -0.317699 0.276221 0.907066
v -0.026330 0.002341 -0.010810
vn 0.300459 -0.311343 0.901549
v 0.015430 0.000509 -0.005879
vn 0.300459 -0.311343 0.901549
v -0.000305 -0.016755 -0.006597
vn 0.300459 -0.311343 0.901549
v 0.017621 -0.006414 -0.009000
vn -0.791944 0.530349 0.302579
v 0.104000 0.037630 -0.016926
vn -0.791944 0.530349 0.302579
v 0.107000 0.038152 -0.009989
vn -0.791944 0.530349 0.302579
v 0.107000 0.044211 -0.020609
vn 0.791944 -0.530349 -0.302579
v 0.104000 0.037630 -0.016926
vn 0.791944 -0.530349 -0.302579
v 0.107000 0.044211 -0.020609
vn 0.791944 -0.530349 -0.302579
v 0.107000 0.038152 -0.009989
vn 0.962161 0.032802 -0.270502
v 0.105043 0.041747 -0.025869
vn 0.962161 0.032802 -0.270502
v 0.105000 0.065299 -0.023166
vn 0.962161 0.032802 -0.270502
v 0.106473 0.051961 -0.019544
vn 0.726720 -0.306972 -0.614529
v 0.104000 0.044970 0.018776
vn 0.726720 -0.306972 -0.614529
v 0.107000 0.051924 0.018850
vn 0.726720 -0.306972 -0.614529
v 0.105000 0.038549 0.023166
vn 0.066902 -0.018246 -0.997593
v 0.104000 0.044970 0.018776
vn 0.066902 -0.018246 -0.997593
v 0.104000 0.059076 0.018518
vn 0.066902 -0.018246 -0.997593
v 0.107000 0.051924 0.018850
vn 0.985895 -0.036414 -0.163358
v 0.104000 0.059076 0.018518
vn 0.985895 -0.036414 -0.163358
v 0.104000 0.066218 0.016926
vn 0.985895 -0.036414 -0.163358
v 0.105000 0.065299 0.023166
vn -0.985895 0.036414 0.163358
v 0.104000 0.059076 0.018518
vn -0.985895 0.036414 0.163358
v 0.105000 0.065299 0.023166
vn -0.985895 0.036414 0.163358
v 0.104000 0.066218 0.016926
vn 0.923345 0.083540 0.374774
v 0.104000 0.059076 0.018518
vn 0.923345 0.083540 0.374774
v 0.107000 0.035554 0.016370
vn 0.923345 0.083540 0.374774
v 0.104000 0.066218 0.016926
vn -1.000000 0.000000 0.000000
v 0.104000 0.044970 0.018776
vn -1.000000 0.000000 0.000000
v 0.104000 0.059076 0.018518
vn -1.000000 0.000000 0.000000
v 0.104000 0.066218 0.016926
vn -0.989998 0.070719 -0.122074
v 0.104000 0.058878 -0.018776
vn -0.989998 0.070719 -0.122074
v 0.104000 0.064697 -0.015405
vn -0.989998 0.070719 -0.122074
v 0.105000 0.065299 -0.023166
vn -1.000000 0.000000 0.000000
v 0.104000 0.058878 -0.018776
vn -1.000000 0.000000 0.000000
v 0.104000 0.037630 -0.016926
vn -1.000000 0.000000 0.000000
v 0.104000 0.064697 -0.015405
vn 0.336753 -0.622512 0.706453
v 0.018371 -0.020523 -0.014033
vn 0.336753 -0.622512 0.706453
v 0.017244 -0.015421 -0.009000
vn 0.336753 -0.622512 0.706453
v -0.001033 -0.026553 -0.010097
vn 0.091086 0.630381 0.770924
v -0.010948 -0.014640 -0.014251
vn 0.091086 0.630381 0.770924
v -0.021172 -0.012923 -0.014447
vn 0.091086 0.630381 0.770924
v -0.015561 -0.017701 -0.011203
vn 0.556342 0.092683 -0.825769
v -0.021172 -0.012923 -0.014447
vn 0.556342 0.092683 -0.825769
v -0.012954 -0.013722 -0.009000
vn 0.556342 0.092683 -0.825769
v -0.015561 -0.017701 -0.011203
vn -0.252997 -0.336450 0.907080
v -0.012954 -0.013722 -0.009000
vn -0.252997 -0.336450 0.907080
v -0.015561 -0.017701 -0.011203
vn -0.252997 -0.336450 0.907080
v -0.000305 -0.016755 -0.006597
vn 0.874016 0.312911 -0.371728
v 0.104924 0.078961 -0.003704
vn 0.874016 0.312911 -0.371728
v 0.106707 0.078381 0.000000
vn 0.874016 0.312911 -0.371728
v 0.107000 0.065696 -0.009989
vn 0.198551 -0.411264 -0.889629
v 0.025276 0.019266 -0.019923
vn 0.198551 -0.411264 -0.889629
v 0.011579 0.025483 -0.025854
vn 0.198551 -0.411264 -0.889629
v 0.038800 0.036466 -0.024856
vn 0.035951 -0.136740 0.989954
v 0.017244 -0.015421 -0.009000
vn 0.035951 -0.136740 0.989954
v -0.001104 -0.020245 -0.009000
vn 0.035951 -0.136740 0.989954
v 0.006954 -0.018597 -0.009065
vn -0.195556 0.963412 0.183290
v -0.002773 -0.019631 -0.014008
vn -0.195556 0.963412 0.183290
v -0.001104 -0.020245 -0.009000
vn -0.195556 0.963412 0.183290
v 0.006954 -0.018597 -0.009065
vn 0.191812 -0.924931 0.328193
v 0.002936 -0.021715 -0.015504
vn 0.191812 -0.924931 0.328193
v 0.006954 -0.018597 -0.009065
vn 0.191812 -0.924931 0.328193
v -0.001104 -0.020245 -0.009000
vn 0.042854 -0.170709 0.984389
v 0.006954 -0.018597 -0.009065
vn 0.042854 -0.170709 0.984389
v -0.001104 -0.020245 -0.009000
vn 0.042854 -0.170709 0.984389
v -0.001033 -0.026553 -0.010097
vn -0.162892 0.818219 -0.551348
v 0.000366 0.016646 -0.014123
vn -0.162892 0.818219 -0.551348
v -0.006954 0.018597 -0.009065
vn -0.162892 0.818219 -0.551348
v 0.001104 0.020245 -0.009000
vn -0.035951 0.136740 0.989954
v -0.017244 0.015421 -0.009000
vn -0.035951 0.136740 0.989954
v 0.001104 0.020245 -0.009000
vn -0.035951 0.136740 0.989954
v -0.006954 0.018597 -0.009065
vn -0.129789 0.603582 0.786666
v -0.006954 0.018597 -0.009065
vn -0.129789 0.603582 0.786666
v 0.001104 0.020245 -0.009000
vn -0.129789 0.603582 0.786666
v 0.006233 0.029104 -0.014951
vn 0.197265 -0.955967 -0.217286
v 0.001102 0.021722 -0.015500
vn 0.197265 -0.955967 -0.217286
v 0.001104 0.020245 -0.009000
vn 0.197265 -0.955967 -0.217286
v -0.006954 0.018597 -0.009065
vn 0.397039 -0.850047 -0.346094
v 0.104000 0.034998 0.014294
vn 0.397039 -0.850047 -0.346094
v 0.107000 0.038152 0.009989
vn 0.397039 -0.850047 -0.346094
v 0.107000 0.035554 0.016370
vn -0.397039 0.850047 0.346094
v 0.104000 0.034998 0.014294
vn -0.397039 0.850047 0.346094
v 0.107000 0.035554 0.016370
vn -0.397039 0.850047 0.346094
v 0.107000 0.038152 0.009989
vn -0.692777 0.690644 -0.207535
v -0.017431 0.013279 -0.015504
vn -0.692777 0.690644 -0.207535
v -0.017244 0.015421 -0.009000
vn -0.692777 0.690644 -0.207535
v -0.014581 0.016139 -0.015500
vn 0.692777 -0.690644 0.207535
v -0.017431 0.013279 -0.015504
vn 0.692777 -0.690644 0.207535
v -0.014581 0.016139 -0.015500
vn 0.692777 -0.690644 0.207535
v -0.017244 0.015421 -0.009000
vn 0.617649 -0.614803 -0.490436
v -0.014581 0.016139 -0.015500
vn 0.617649 -0.614803 -0.490436
v -0.017431 0.013279 -0.015504
vn 0.617649 -0.614803 -0.490436
v -0.016184 0.021913 -0.024757
vn -0.030848 0.032137 -0.999007
v -0.017431 0.013279 -0.015504
vn -0.030848 0.032137 -0.999007
v -0.014581 0.016139 -0.015500
vn -0.030848 0.032137 -0.999007
v -0.018782 0.004304 -0.015751
vn -0.702114 0.699473 -0.133319
v 0.014581 -0.016139 -0.015500
vn -0.702114 0.699473 -0.133319
v 0.017431 -0.013279 -0.015504
vn -0.702114 0.699473 -0.133319
v 0.005831 -0.026845 -0.025589
vn 0.692777 -0.690644 -0.207535
v 0.017431 -0.013279 -0.015504
vn 0.692777 -0.690644 -0.207535
v 0.017244 -0.015421 -0.009000
vn 0.692777 -0.690644 -0.207535
v 0.014581 -0.016139 -0.015500
vn 0.021932 -0.023253 -0.999489
v 0.017431 -0.013279 -0.015504
vn 0.021932 -0.023253 -0.999489
v 0.014581 -0.016139 -0.015500
vn 0.021932 -0.023253 -0.999489
v 0.018876 -0.002245 -0.015729
vn -0.692777 0.690644 0.207535
v 0.017431 -0.013279 -0.015504
vn -0.692777 0.690644 0.207535
v 0.014581 -0.016139 -0.015500
vn -0.692777 0.690644 0.207535
v 0.017244 -0.015421 -0.009000
vn 0.906287 0.422664 0.000000
v -0.001775 0.003806 -0.014000
vn 0.906287 0.422664 0.000000
v -0.001775 0.003806 -0.008000
vn 0.906287 0.422664 0.000000
v 0.001775 -0.003806 -0.008000
vn -0.906287 -0.422664 0.000000
v 0.001775 -0.003806 -0.014000
vn -0.906287 -0.422664 0.000000
v -0.001775 0.003806 -0.008000
vn -0.906287 -0.422664 0.000000
v -0.001775 0.003806 -0.014000
vn -0.906287 -0.422664 0.000000
v 0.001775 -0.003806 -0.014000
vn -0.906287 -0.422664 0.000000
v 0.001775 -0.003806 -0.008000
vn -0.906287 -0.422664 0.000000
v -0.001775 0.003806 -0.008000
vn 0.906287 0.422664 0.000000
v -0.001775 0.003806 -0.014000
vn 0.906287 0.422664 0.000000
v 0.001775 -0.003806 -0.008000
vn 0.906287 0.422664 0.000000
v 0.001775 -0.003806 -0.014000
vn 0.223821 0.893164 -0.390081
v 0.005831 -0.026845 -0.025589
vn 0.223821 0.893164 -0.390081
v -0.002773 -0.019631 -0.014008
vn 0.223821 0.893164 -0.390081
v 0.002936 -0.021715 -0.015504
vn -0.343095 -0.939300 -0.000820
v 0.002936 -0.021715 -0.015504
vn -0.343095 -0.939300 -0.000820
v -0.001104 -0.020245 -0.009000
vn -0.343095 -0.939300 -0.000820
v -0.002773 -0.019631 -0.014008
vn 0.171981 0.840251 -0.514199
v -0.002773 -0.019631 -0.014008
vn 0.171981 0.840251 -0.514199
v 0.006954 -0.018597 -0.009065
vn 0.171981 0.840251 -0.514199
v 0.002936 -0.021715 -0.015504
vn 0.448698 -0.294000 -0.843939
v -0.016184 0.021913 -0.024757
vn 0.448698 -0.294000 -0.843939
v 0.001102 0.021722 -0.015500
vn 0.448698 -0.294000 -0.843939
v 0.000366 0.016646 -0.014123
vn -0.987652 0.152701 0.035002
v 0.000366 0.016646 -0.014123
vn -0.987652 0.152701 0.035002
v 0.001104 0.020245 -0.009000
vn -0.987652 0.152701 0.035002
v 0.001102 0.021722 -0.015500
vn 0.587029 0.131579 0.798802
v 0.001102 0.021722 -0.015500
vn 0.587029 0.131579 0.798802
v -0.006954 0.018597 -0.009065
vn 0.587029 0.131579 0.798802
v 0.000366 0.016646 -0.014123
vn 0.924510 -0.331066 -0.188882
v 0.105043 0.041747 -0.025869
vn 0.924510 -0.331066 -0.188882
v 0.107000 0.044211 -0.020609
vn 0.924510 -0.331066 -0.188882
v 0.107000 0.038152 -0.009989
vn 0.911894 0.116106 -0.393662
v 0.107000 0.044211 -0.020609
vn 0.911894 0.116106 -0.393662
v 0.105043 0.041747 -0.025869
vn 0.911894 0.116106 -0.393662
v 0.106473 0.051961 -0.019544
vn 0.997748 -0.038077 -0.055212
v 0.108954 0.058382 0.015514
vn 0.997748 -0.038077 -0.055212
v 0.107220 0.035441 0.000000
vn 0.997748 -0.038077 -0.055212
v 0.107762 0.059203 -0.006593
vn -0.194835 0.237474 -0.951654
v 0.043058 0.015901 -0.020563
vn -0.194835 0.237474 -0.951654
v 0.052868 0.006309 -0.024965
vn -0.194835 0.237474 -0.951654
v 0.028972 -0.000617 -0.021801
vn -0.018698 0.090572 -0.995714
v 0.043058 0.015901 -0.020563
vn -0.018698 0.090572 -0.995714
v 0.028972 -0.000617 -0.021801
vn -0.018698 0.090572 -0.995714
v 0.025276 0.019266 -0.019923
vn 0.399787 0.607053 0.686773
v 0.101982 0.049297 0.004543
vn 0.399787 0.607053 0.686773
v 0.102275 0.058804 -0.004031
vn 0.399787 0.607053 0.686773
v 0.086824 0.055725 0.007685
vn -0.024797 -0.089096 -0.995714
v -0.010948 -0.014640 -0.014251
vn -0.024797 -0.089096 -0.995714
v -0.018782 0.004304 -0.015751
vn -0.024797 -0.089096 -0.995714
v -0.002773 -0.019631 -0.014008
vn -0.160231 -0.073316 -0.984353
v 0.018876 -0.002245 -0.015729
vn -0.160231 -0.073316 -0.984353
v 0.000366 0.016646 -0.014123
vn -0.160231 -0.073316 -0.984353
v 0.009088 0.016072 -0.015500
vn -0.414115 0.851178 0.322497
v -0.021795 0.018231 -0.022244
vn -0.414115 0.851178 0.322497
v 0.006233 0.029104 -0.014951
vn -0.414115 0.851178 0.322497
v -0.016184 0.021913 -0.024757
vn -0.521544 -0.026825 0.852803
v 0.104000 0.071848 -0.001861
vn -0.521544 -0.026825 0.852803
v 0.107220 0.068407 0.000000
vn -0.521544 -0.026825 0.852803
v 0.106707 0.078381 0.000000
vn 0.521544 0.026825 -0.852803
v 0.104000 0.071848 -0.001861
vn 0.521544 0.026825 -0.852803
v 0.106707 0.078381 0.000000
vn 0.521544 0.026825 -0.852803
v 0.107220 0.068407 0.000000
vn -0.800756 -0.373672 0.468144
v -0.021479 0.010923 -0.012000
vn -0.800756 -0.373672 0.468144
v -0.017988 0.003442 -0.012000
vn -0.800756 -0.373672 0.468144
v -0.017621 0.006414 -0.009000
vn 0.800756 0.373672 -0.468144
v -0.017988 0.003442 -0.012000
vn 0.800756 0.373672 -0.468144
v -0.021479 0.010923 -0.012000
vn 0.800756 0.373672 -0.468144
v -0.017621 0.006414 -0.009000
vn -0.800756 -0.373672 -0.468144
v 0.017988 -0.003442 -0.012000
vn -0.800756 -0.373672 -0.468144
v 0.021479 -0.010923 -0.012000
vn -0.800756 -0.373672 -0.468144
v 0.017621 -0.006414 -0.009000
vn 0.800756 0.373672 0.468144
v 0.021479 -0.010923 -0.012000
vn 0.800756 0.373672 0.468144
v 0.017988 -0.003442 -0.012000
vn 0.800756 0.373672 0.468144
v 0.017621 -0.006414 -0.009000
vn 0.056676 0.924253 -0.377551
v -0.002773 -0.019631 -0.014008
vn 0.056676 0.924253 -0.377551
v -0.015561 -0.017701 -0.011203
vn 0.056676 0.924253 -0.377551
v -0.000305 -0.016755 -0.006597
vn -0.474728 -0.755606 0.451323
v -0.010948 -0.014640 -0.014251
vn -0.474728 -0.755606 0.451323
v -0.002773 -0.019631 -0.014008
vn -0.474728 -0.755606 0.451323
v -0.000305 -0.016755 -0.006597
vn 0.286897 -0.949559 0.126601
v 0.000366 0.016646 -0.014123
vn 0.286897 -0.949559 0.126601
v 0.013736 0.020206 -0.017720
vn 0.286897 -0.949559 0.126601
v 0.007143 0.019673 -0.006777
vn 0.000610 0.924383 -0.381465
v 0.009088 0.016072 -0.015500
vn 0.000610 0.924383 -0.381465
v 0.000366 0.016646 -0.014123
vn 0.000610 0.924383 -0.381465
v 0.007143 0.019673 -0.006777
vn 0.902232 -0.279474 0.328439
v 0.105839 0.024571 0.001622
vn 0.902232 -0.279474 0.328439
v 0.106707 0.025467 0.000000
vn 0.902232 -0.279474 0.328439
v 0.107000 0.038152 0.009989
vn -0.961628 -0.268449 -0.056635
v -0.026330 0.002341 -0.010810
vn -0.961628 -0.268449 -0.056635
v -0.025403 0.002225 -0.026000
vn -0.961628 -0.268449 -0.056635
v -0.019581 -0.018908 -0.024684
vn 0.964154 0.265291 -0.005255
v -0.021172 -0.012923 -0.014447
vn 0.964154 0.265291 -0.005255
v -0.019581 -0.018908 -0.024684
vn 0.964154 0.265291 -0.005255
v -0.025403 0.002225 -0.026000
vn -0.991472 0.130209 0.005458
v 0.102275 0.058804 -0.004031
vn -0.991472 0.130209 0.005458
v 0.104000 0.071848 -0.001861
vn -0.991472 0.130209 0.005458
v 0.104924 0.078961 -0.003704
vn -0.955419 -0.176957 0.236351
v 0.101982 0.049297 0.004543
vn -0.955419 -0.176957 0.236351
v 0.104000 0.029848 -0.001861
vn -0.955419 -0.176957 0.236351
v 0.105839 0.024571 0.001622
vn 0.999047 -0.031246 -0.030483
v 0.107000 0.038152 -0.009989
vn 0.999047 -0.031246 -0.030483
v 0.107762 0.059203 -0.006593
vn 0.999047 -0.031246 -0.030483
v 0.107220 0.035441 0.000000
vn -0.994368 0.104117 0.019775
v 0.101982 0.049297 0.004543
vn -0.994368 0.104117 0.019775
v 0.104000 0.066218 0.016926
vn -0.994368 0.104117 0.019775
v 0.104924 0.078961 -0.003704
vn -0.503583 0.277414 0.818197
v 0.101982 0.049297 0.004543
vn -0.503583 0.277414 0.818197
v 0.104924 0.078961 -0.003704
vn -0.503583 0.277414 0.818197
v 0.104000 0.071848 -0.001861
vn 0.913510 0.052045 -0.403473
v 0.100954 0.049690 -0.006198
vn 0.913510 0.052045 -0.403473
v 0.105839 0.024571 0.001622
vn 0.913510 0.052045 -0.403473
v 0.104000 0.029848 -0.001861
vn -0.977650 -0.204852 -0.047297
v 0.100954 0.049690 -0.006198
vn -0.977650 -0.204852 -0.047297
v 0.104000 0.037630 -0.016926
vn -0.977650 -0.204852 -0.047297
v 0.105839 0.024571 0.001622
vn -0.489080 0.569753 -0.660441
v 0.027050 0.007112 -0.013710
vn -0.489080 0.569753 -0.660441
v 0.028972 -0.000617 -0.021801
vn -0.489080 0.569753 -0.660441
v 0.018876 -0.002245 -0.015729
vn -0.317378 -0.384759 -0.866736
v -0.015561 -0.017701 -0.011203
vn -0.317378 -0.384759 -0.866736
v -0.021715 -0.002936 -0.015504
vn -0.317378 -0.384759 -0.866736
v -0.010948 -0.014640 -0.014251
vn 0.001331 0.933642 -0.358204
v -0.006954 0.018597 -0.009065
vn 0.001331 0.933642 -0.358204
v 0.000366 0.016646 -0.014123
vn 0.001331 0.933642 -0.358204
v -0.014581 0.016139 -0.015500
vn 0.182045 -0.970977 -0.155121
v 0.006954 -0.018597 -0.009065
vn 0.182045 -0.970977 -0.155121
v -0.002773 -0.019631 -0.014008
vn 0.182045 -0.970977 -0.155121
v 0.014581 -0.016139 -0.015500
vn 0.584678 0.713016 0.386989
v 0.013736 0.020206 -0.017720
vn 0.584678 0.713016 0.386989
v 0.007143 0.019673 -0.006777
vn 0.584678 0.713016 0.386989
v 0.027050 0.007112 -0.013710
vn -0.527757 -0.433109 -0.730677
v 0.020509 0.012896 -0.012414
vn -0.527757 -0.433109 -0.730677
v 0.027050 0.007112 -0.013710
vn -0.527757 -0.433109 -0.730677
v 0.007143 0.019673 -0.006777
vn -0.342313 -0.459402 0.819617
v -0.017446 -0.021258 -0.013984
vn -0.342313 -0.459402 0.819617
v -0.001033 -0.026553 -0.010097
vn -0.342313 -0.459402 0.819617
v -0.015561 -0.017701 -0.011203
vn -0.538409 -0.761224 -0.361460
v 0.013736 0.020206 -0.017720
vn -0.538409 -0.761224 -0.361460
v 0.020509 0.012896 -0.012414
vn -0.538409 -0.761224 -0.361460
v 0.007143 0.019673 -0.006777
vn -0.703254 0.658455 0.268088
v 0.104000 0.064697 -0.015405
vn -0.703254 0.658455 0.268088
v 0.107000 0.065696 -0.009989
vn -0.703254 0.658455 0.268088
v 0.107000 0.068294 -0.016370
vn 0.703254 -0.658455 -0.268088
v 0.104000 0.064697 -0.015405
vn 0.703254 -0.658455 -0.268088
v 0.107000 0.068294 -0.016370
vn 0.703254 -0.658455 -0.268088
v 0.107000 0.065696 -0.009989
vn 0.987287 0.147214 0.059938
v 0.107762 0.059203 -0.006593
vn 0.987287 0.147214 0.059938
v 0.107000 0.068294 -0.016370
vn 0.987287 0.147214 0.059938
v 0.107000 0.065696 -0.009989
vn 0.990116 0.129897 0.052887
v 0.104924 0.078961 -0.003704
vn 0.990116 0.129897 0.052887
v 0.107000 0.065696 -0.009989
vn 0.990116 0.129897 0.052887
v 0.107000 0.068294 -0.016370
# 774 vertices, 0 vertices normals

f 1//1 2//2 3//3
f 4//4 5//5 6//6
f 7//7 8//8 9//9
f 10//10 11//11 12//12
f 13//13 14//14 15//15
f 16//16 17//17 18//18
f 19//19 20//20 21//21
f 22//22 23//23 24//24
f 25//25 26//26 27//27
f 28//28 29//29 30//30
f 31//31 32//32 33//33
f 34//34 35//35 36//36
f 37//37 38//38 39//39
f 40//40 41//41 42//42
f 43//43 44//44 45//45
f 46//46 47//47 48//48
f 49//49 50//50 51//51
f 52//52 53//53 54//54
f 55//55 56//56 57//57
f 58//58 59//59 60//60
f 61//61 62//62 63//63
f 64//64 65//65 66//66
f 67//67 68//68 69//69
f 70//70 71//71 72//72
f 73//73 74//74 75//75
f 76//76 77//77 78//78
f 79//79 80//80 81//81
f 82//82 83//83 84//84
f 85//85 86//86 87//87
f 88//88 89//89 90//90
f 91//91 92//92 93//93
f 94//94 95//95 96//96
f 97//97 98//98 99//99
f 100//100 101//101 102//102
f 103//103 104//104 105//105
f 106//106 107//107 108//108
f 109//109 110//110 111//111
f 112//112 113//113 114//114
f 115//115 116//116 117//117
f 118//118 119//119 120//120
f 121//121 122//122 123//123
f 124//124 125//125 126//126
f 127//127 128//128 129//129
f 130//130 131//131 132//132
f 133//133 134//134 135//135
f 136//136 137//137 138//138
f 139//139 140//140 141//141
f 142//142 143//143 144//144
f 145//145 146//146 147//147
f 148//148 149//149 150//150
f 151//151 152//152 153//153
f 154//154 155//155 156//156
f 157//157 158//158 159//159
f 160//160 161//161 162//162
f 163//163 164//164 165//165
f 166//166 167//167 168//168
f 169//169 170//170 171//171
f 172//172 173//173 174//174
f 175//175 176//176 177//177
f 178//178 179//179 180//180
f 181//181 182//182 183//183
f 184//184 185//185 186//186
f 187//187 188//188 189//189
f 190//190 191//191 192//192
f 193//193 194//194 195//195
f 196//196 197//197 198//198
f 199//199 200//200 201//201
f 202//202 203//203 204//204
f 205//205 206//206 207//207
f 208//208 209//209 210//210
f 211//211 212//212 213//213
f 214//214 215//215 216//216
f 217//217 218//218 219//219
f 220//220 221//221 222//222
f 223//223 224//224 225//225
f 226//226 227//227 228//228
f 229//229 230//230 231//231
f 232//232 233//233 234//234
f 235//235 236//236 237//237
f 238//238 239//239 240//240
f 241//241 242//242 243//243
f 244//244 245//245 246//246
f 247//247 248//248 249//249
f 250//250 251//251 252//252
f 253//253 254//254 255//255
f 256//256 257//257 258//258
f 259//259 260//260 261//261
f 262//262 263//263 264//264
f 265//265 266//266 267//267
f 268//268 269//269 270//270
f 271//271 272//272 273//273
f 274//274 275//275 276//276
f 277//277 278//278 279//279
f 280//280 281//281 282//282
f 283//283 284//284 285//285
f 286//286 287//287 288//288
f 289//289 290//290 291//291
f 292//292 293//293 294//294
f 295//295 296//296 297//297
f 298//298 299//299 300//300
f 301//301 302//302 303//303
f 304//304 305//305 306//306
f 307//307 308//308 309//309
f 310//310 311//311 312//312
f 313//313 314//314 315//315
f 316//316 317//317 318//318
f 319//319 320//320 321//321
f 322//322 323//323 324//324
f 325//325 326//326 327//327
f 328//328 329//329 330//330
f 331//331 332//332 333//333
f 334//334 335//335 336//336
f 337//337 338//338 339//339
f 340//340 341//341 342//342
f 343//343 344//344 345//345
f 346//346 347//347 348//348
f 349//349 350//350 351//351
f 352//352 353//353 354//354
f 355//355 356//356 357//357
f 358//358 359//359 360//360
f 361//361 362//362 363//363
f 364//364 365//365 366//366
f 367//367 368//368 369//369
f 370//370 371//371 372//372
f 373//373 374//374 375//375
f 376//376 377//377 378//378
f 379//379 380//380 381//381
f 382//382 383//383 384//384
f 385//385 386//386 387//387
f 388//388 389//389 390//390
f 391//391 392//392 393//393
f 394//394 395//395 396//396
f 397//397 398//398 399//399
f 400//400 401//401 402//402
f 403//403 404//404 405//405
f 406//406 407//407 408//408
f 409//409 410//410 411//411
f 412//412 413//413 414//414
f 415//415 416//416 417//417
f 418//418 419//419 420//420
f 421//421 422//422 423//423
f 424//424 425//425 426//426
f 427//427 428//428 429//429
f 430//430 431//431 432//432
f 433//433 434//434 435//435
f 436//436 437//437 438//438
f 439//439 440//440 441//441
f 442//442 443//443 444//444
f 445//445 446//446 447//447
f 448//448 449//449 450//450
f 451//451 452//452 453//453
f 454//454 455//455 456//456
f 457//457 458//458 459//459
f 460//460 461//461 462//462
f 463//463 464//464 465//465
f 466//466 467//467 468//468
f 469//469 470//470 471//471
f 472//472 473//473 474//474
f 475//475 476//476 477//477
f 478//478 479//479 480//480
f 481//481 482//482 483//483
f 484//484 485//485 486//486
f 487//487 488//488 489//489
f 490//490 491//491 492//492
f 493//493 494//494 495//495
f 496//496 497//497 498//498
f 499//499 500//500 501//501
f 502//502 503//503 504//504
f 505//505 506//506 507//507
f 508//508 509//509 510//510
f 511//511 512//512 513//513
f 514//514 515//515 516//516
f 517//517 518//518 519//519
f 520//520 521//521 522//522
f 523//523 524//524 525//525
f 526//526 527//527 528//528
f 529//529 530//530 531//531
f 532//532 533//533 534//534
f 535//535 536//536 537//537
f 538//538 539//539 540//540
f 541//541 542//542 543//543
f 544//544 545//545 546//546
f 547//547 548//548 549//549
f 550//550 551//551 552//552
f 553//553 554//554 555//555
f 556//556 557//557 558//558
f 559//559 560//560 561//561
f 562//562 563//563 564//564
f 565//565 566//566 567//567
f 568//568 569//569 570//570
f 571//571 572//572 573//573
f 574//574 575//575 576//576
f 577//577 578//578 579//579
f 580//580 581//581 582//582
f 583//583 584//584 585//585
f 586//586 587//587 588//588
f 589//589 590//590 591//591
f 592//592 593//593 594//594
f 595//595 596//596 597//597
f 598//598 599//599 600//600
f 601//601 602//602 603//603
f 604//604 605//605 606//606
f 607//607 608//608 609//609
f 610//610 611//611 612//612
f 613//613 614//614 615//615
f 616//616 617//617 618//618
f 619//619 620//620 621//621
f 622//622 623//623 624//624
f 625//625 626//626 627//627
f 628//628 629//629 630//630
f 631//631 632//632 633//633
f 634//634 635//635 636//636
f 637//637 638//638 639//639
f 640//640 641//641 642//642
f 643//643 644//644 645//645
f 646//646 647//647 648//648
f 649//649 650//650 651//651
f 652//652 653//653 654//654
f 655//655 656//656 657//657
f 658//658 659//659 660//660
f 661//661 662//662 663//663
f 664//664 665//665 666//666
f 667//667 668//668 669//669
f 670//670 671//671 672//672
f 673//673 674//674 675//675
f 676//676 677//677 678//678
f 679//679 680//680 681//681
f 682//682 683//683 684//684
f 685//685 686//686 687//687
f 688//688 689//689 690//690
f 691//691 692//692 693//693
f 694//694 695//695 696//696
f 697//697 698//698 699//699
f 700//700 701//701 702//702
f 703//703 704//704 705//705
f 706//706 707//707 708//708
f 709//709 710//710 711//711
f 712//712 713//713 714//714
f 715//715 716//716 717//717
f 718//718 719//719 720//720
f 721//721 722//722 723//723
f 724//724 725//725 726//726
f 727//727 728//728 729//729
f 730//730 731//731 732//732
f 733//733 734//734 735//735
f 736//736 737//737 738//738
f 739//739 740//740 741//741
f 742//742 743//743 744//744
f 745//745 746//746 747//747
f 748//748 749//749 750//750
f 751//751 752//752 753//753
f 754//754 755//755 756//756
f 757//757 758//758 759//759
f 760//760 761//761 762//762
f 763//763 764//764 765//765
f 766//766 767//767 768//768
f 769//769 770//770 771//771
f 772//772 773//773 774//774
# 258 faces, 0 coords texture

# End of File