####
#
# OBJ File Generated by Meshlab
#
####
# Object nj2.obj
#
# Vertices: 708
# Faces: 236
#
####
vn -0.737141 -0.108879 -0.666909
v -0.049624 -0.027607 0.167422
vn -0.737141 -0.108879 -0.666909
v -0.098780 -0.012793 0.219336
vn -0.737141 -0.108879 -0.666909
v -0.069083 -0.008722 0.185848
vn 0.994547 0.007165 0.104044
v -0.027096 -0.034171 0.182978
vn 0.994547 0.007165 0.104044
v -0.027858 0.033838 0.185578
vn 0.994547 0.007165 0.104044
v -0.027610 -0.007808 0.186079
vn 0.246276 0.946148 -0.210124
v 0.019830 0.012420 0.178143
vn 0.246276 0.946148 -0.210124
v -0.011874 0.020567 0.177669
vn 0.246276 0.946148 -0.210124
v 0.010690 0.021207 0.206997
vn 0.002159 0.000000 -0.999998
v 0.000886 0.042491 0.144549
vn 0.002159 0.000000 -0.999998
v 0.036851 -0.020944 0.144626
vn 0.002159 0.000000 -0.999998
v 0.000886 -0.042491 0.144549
vn -0.753161 -0.648123 -0.112626
v 0.005021 0.029569 0.161661
vn -0.753161 -0.648123 -0.112626
v 0.012173 0.020064 0.168529
vn -0.753161 -0.648123 -0.112626
v 0.010520 0.017040 0.196985
vn -0.772206 0.634790 -0.027186
v -0.011874 0.020567 0.177669
vn -0.772206 0.634790 -0.027186
v -0.027964 0.000796 0.173021
vn -0.772206 0.634790 -0.027186
v -0.014156 0.019059 0.207256
vn 0.959765 -0.280645 0.009505
v 0.020567 -0.011874 0.177669
vn 0.959765 -0.280645 0.009505
v 0.024047 0.000000 0.176950
vn 0.959765 -0.280645 0.009505
v 0.023749 0.000000 0.206997
vn 0.068529 0.981265 0.180064
v -0.029764 -0.013544 0.197166
vn 0.068529 0.981265 0.180064
v -0.069083 -0.008722 0.185848
vn 0.068529 0.981265 0.180064
v -0.098780 -0.012793 0.219336
vn 0.022272 -0.942052 0.334727
v -0.027096 -0.034171 0.182978
vn 0.022272 -0.942052 0.334727
v -0.025667 -0.024150 0.211086
vn 0.022272 -0.942052 0.334727
v -0.069167 -0.024687 0.212470
vn -0.010872 0.011963 0.999869
v -0.027610 -0.007808 0.186079
vn -0.010872 0.011963 0.999869
v -0.027858 0.033838 0.185578
vn -0.010872 0.011963 0.999869
v -0.068507 0.024632 0.185246
vn 0.000000 0.000000 -1.000000
v 0.000886 0.042491 0.144549
vn 0.000000 0.000000 -1.000000
v 0.000886 -0.042491 0.144549
vn 0.000000 0.000000 -1.000000
v -0.029098 -0.030977 0.144549
vn 0.936042 0.214531 -0.278930
v -0.010954 -0.017413 0.195708
vn 0.936042 0.214531 -0.278930
v -0.023500 0.000000 0.166997
vn 0.936042 0.214531 -0.278930
v -0.019357 0.011176 0.189497
vn -0.789172 0.614102 -0.009306
v -0.027964 0.000796 0.173021
vn -0.789172 0.614102 -0.009306
v -0.022039 0.008849 0.201997
vn -0.789172 0.614102 -0.009306
v -0.014156 0.019059 0.207256
vn -0.934698 -0.218264 -0.280537
v 0.023500 0.000000 0.166997
vn -0.934698 -0.218264 -0.280537
v 0.019357 -0.011176 0.189497
vn -0.934698 -0.218264 -0.280537
v 0.010520 0.017040 0.196985
vn -0.311717 -0.943380 0.113430
v 0.000000 -0.023749 0.177669
vn -0.311717 -0.943380 0.113430
v 0.009330 -0.023118 0.208553
vn -0.311717 -0.943380 0.113430
v -0.020449 -0.013412 0.207444
vn 0.006175 -0.010815 0.999922
v -0.027905 -0.005551 0.147342
vn 0.006175 -0.010815 0.999922
v 0.024196 0.024196 0.147342
vn 0.006175 -0.010815 0.999922
v 0.000775 0.036288 0.147617
vn -0.026569 0.969230 -0.244718
v -0.005139 -0.027415 0.167539
vn -0.026569 0.969230 -0.244718
v 0.020767 -0.028443 0.160655
vn -0.026569 0.969230 -0.244718
v -0.018029 -0.029779 0.159573
vn -0.050092 -0.998724 -0.006463
v -0.049006 -0.013444 0.265486
vn -0.050092 -0.998724 -0.006463
v -0.045664 -0.013228 0.206232
vn -0.050092 -0.998724 -0.006463
v -0.026906 -0.014334 0.231706
vn 0.000093 1.000000 0.000012
v -0.098467 -0.012786 0.257202
vn 0.000093 1.000000 0.000012
v -0.023174 -0.012793 0.256620
vn 0.000093 1.000000 0.000012
v -0.019092 -0.012793 0.225607
vn -0.681089 -0.696459 -0.225972
v -0.024047 0.000000 0.176950
vn -0.681089 -0.696459 -0.225972
v 0.000000 -0.023749 0.177669
vn -0.681089 -0.696459 -0.225972
v -0.020449 -0.013412 0.207444
vn 0.441067 -0.862675 -0.247491
v 0.000022 -0.043579 0.157890
vn 0.441067 -0.862675 -0.247491
v 0.036851 -0.020944 0.144626
vn 0.441067 -0.862675 -0.247491
v 0.022441 -0.036153 0.171961
vn -0.005972 0.018139 0.999818
v -0.069083 -0.008722 0.185848
vn -0.005972 0.018139 0.999818
v -0.027610 -0.007808 0.186079
vn -0.005972 0.018139 0.999818
v -0.068507 0.024632 0.185246
vn -0.341898 0.815880 -0.466311
v -0.032128 0.025691 0.154787
vn -0.341898 0.815880 -0.466311
v -0.041369 0.028938 0.167243
vn -0.341898 0.815880 -0.466311
v -0.017821 0.038260 0.166290
vn -0.085591 0.995353 0.044128
v -0.011874 0.020567 0.177669
vn -0.085591 0.995353 0.044128
v -0.014156 0.019059 0.207256
vn -0.085591 0.995353 0.044128
v 0.010690 0.021207 0.206997
vn 0.265565 -0.894871 -0.358721
v 0.005021 0.029569 0.161661
vn 0.265565 -0.894871 -0.358721
v 0.010520 0.017040 0.196985
vn 0.265565 -0.894871 -0.358721
v -0.019357 0.011176 0.189497
vn -0.953672 0.297966 0.041544
v 0.020767 -0.028443 0.160655
vn -0.953672 0.297966 0.041544
v 0.029927 0.000000 0.166924
vn -0.953672 0.297966 0.041544
v 0.032485 0.008876 0.161990
vn 0.944483 -0.257342 0.204271
v -0.029927 0.000000 0.166924
vn 0.944483 -0.257342 0.204271
v -0.032524 -0.015909 0.158891
vn 0.944483 -0.257342 0.204271
v -0.021512 0.026971 0.161997
vn -0.376713 0.925840 0.030129
v -0.027858 0.033838 0.185578
vn -0.376713 0.925840 0.030129
v -0.011853 0.040814 0.171347
vn -0.376713 0.925840 0.030129
v -0.041369 0.028938 0.167243
vn 0.048912 -0.998741 0.011165
v -0.060000 -0.013228 0.202959
vn 0.048912 -0.998741 0.011165
v -0.074336 -0.013228 0.265762
vn 0.048912 -0.998741 0.011165
v -0.095866 -0.014646 0.233217
vn -0.086850 0.333046 0.938902
v 0.013417 -0.025438 0.171439
vn -0.086850 0.333046 0.938902
v -0.015942 -0.026532 0.169111
vn -0.086850 0.333046 0.938902
v -0.017578 -0.038314 0.173139
vn 0.762286 0.057250 0.644704
v -0.027096 -0.034171 0.182978
vn 0.762286 0.057250 0.644704
v -0.015942 -0.026532 0.169111
vn 0.762286 0.057250 0.644704
v -0.024389 -0.004232 0.177119
vn -0.784152 0.110718 -0.610613
v -0.032128 0.025691 0.154787
vn -0.784152 0.110718 -0.610613
v -0.044342 0.001524 0.166091
vn -0.784152 0.110718 -0.610613
v -0.041369 0.028938 0.167243
vn 0.196993 0.952195 0.233493
v -0.006963 0.012958 0.217539
vn 0.196993 0.952195 0.233493
v 0.007685 0.012456 0.207231
vn 0.196993 0.952195 0.233493
v -0.009197 0.017464 0.201048
vn -0.578544 -0.662711 -0.475501
v 0.010520 0.017040 0.196985
vn -0.578544 -0.662711 -0.475501
v 0.010925 -0.002790 0.224131
vn -0.578544 -0.662711 -0.475501
v 0.002366 0.009936 0.216807
vn -0.088236 -0.996031 0.011665
v -0.089845 -0.024207 0.206152
vn -0.088236 -0.996031 0.011665
v -0.083733 -0.024500 0.227377
vn -0.088236 -0.996031 0.011665
v -0.080677 -0.024500 0.250488
vn -0.037899 -0.998116 0.048251
v -0.069167 -0.024687 0.212470
vn -0.037899 -0.998116 0.048251
v -0.089845 -0.024207 0.206152
vn -0.037899 -0.998116 0.048251
v -0.049624 -0.027607 0.167422
vn 0.961766 -0.270517 -0.042742
v -0.019989 0.012252 0.168455
vn 0.961766 -0.270517 -0.042742
v -0.019357 0.011176 0.189497
vn 0.961766 -0.270517 -0.042742
v -0.023500 0.000000 0.166997
vn 0.499870 -0.304084 -0.810964
v -0.019989 0.012252 0.168455
vn 0.499870 -0.304084 -0.810964
v -0.029927 0.000000 0.166924
vn 0.499870 -0.304084 -0.810964
v -0.021512 0.026971 0.161997
vn -0.961766 0.270516 -0.042742
v 0.019989 -0.012252 0.168455
vn -0.961766 0.270516 -0.042742
v 0.019357 -0.011176 0.189497
vn -0.961766 0.270516 -0.042742
v 0.023500 0.000000 0.166997
vn -0.541750 0.343533 -0.767132
v 0.019989 -0.012252 0.168455
vn -0.541750 0.343533 -0.767132
v 0.029927 0.000000 0.166924
vn -0.541750 0.343533 -0.767132
v 0.020767 -0.028443 0.160655
vn -0.219068 0.970770 -0.098052
v -0.068507 0.024632 0.185246
vn -0.219068 0.970770 -0.098052
v -0.027858 0.033838 0.185578
vn -0.219068 0.970770 -0.098052
v -0.041369 0.028938 0.167243
vn 0.846061 -0.519717 0.118637
v 0.020567 -0.011874 0.177669
vn 0.846061 -0.519717 0.118637
v 0.023749 0.000000 0.206997
vn 0.846061 -0.519717 0.118637
v 0.009330 -0.023118 0.208553
vn 0.102984 -0.870403 0.481449
v 0.010925 -0.002790 0.224131
vn 0.102984 -0.870403 0.481449
v -0.009672 -0.012059 0.211778
vn 0.102984 -0.870403 0.481449
v 0.007560 -0.012665 0.206997
vn 0.417525 0.892196 -0.172219
v -0.001045 0.042536 0.155853
vn 0.417525 0.892196 -0.172219
v 0.010345 0.040108 0.170888
vn 0.417525 0.892196 -0.172219
v 0.031279 0.027178 0.154654
vn -0.434773 0.825083 -0.360847
v -0.001045 0.042536 0.155853
vn -0.434773 0.825083 -0.360847
v -0.032128 0.025691 0.154787
vn -0.434773 0.825083 -0.360847
v -0.017821 0.038260 0.166290
vn -0.001378 -0.002005 -0.999997
v 0.000886 0.042491 0.144549
vn -0.001378 -0.002005 -0.999997
v 0.039349 0.016059 0.144549
vn -0.001378 -0.002005 -0.999997
v 0.036851 -0.020944 0.144626
vn 0.970183 0.205993 0.127716
v -0.019092 -0.012793 0.225607
vn 0.970183 0.205993 0.127716
v -0.023174 -0.012793 0.256620
vn 0.970183 0.205993 0.127716
v -0.020700 -0.024233 0.256277
vn 0.969500 0.211091 -0.124543
v -0.029764 -0.013544 0.197166
vn 0.969500 0.211091 -0.124543
v -0.025667 -0.024150 0.211086
vn 0.969500 0.211091 -0.124543
v -0.027096 -0.034171 0.182978
vn 0.000097 -0.000170 1.000000
v 0.024196 0.024196 0.147342
vn 0.000097 -0.000170 1.000000
v -0.027905 -0.005551 0.147342
vn 0.000097 -0.000170 1.000000
v 0.029961 -0.019801 0.147334
vn -0.537794 -0.720734 -0.437401
v 0.012173 0.020064 0.168529
vn -0.537794 -0.720734 -0.437401
v 0.005021 0.029569 0.161661
vn -0.537794 -0.720734 -0.437401
v 0.032485 0.008876 0.161990
vn 0.425701 0.405100 -0.809118
v -0.005139 -0.027415 0.167539
vn 0.425701 0.405100 -0.809118
v -0.018029 -0.029779 0.159573
vn 0.425701 0.405100 -0.809118
v -0.032524 -0.015909 0.158891
vn -0.068499 -0.009610 0.997605
v 0.034405 0.024449 0.172054
vn -0.068499 -0.009610 0.997605
v 0.022925 0.020941 0.171232
vn -0.068499 -0.009610 0.997605
v 0.033238 -0.010897 0.171633
vn -0.776452 -0.377152 0.504855
v 0.019357 -0.011176 0.189497
vn -0.776452 -0.377152 0.504855
v 0.020565 -0.000862 0.199060
vn -0.776452 -0.377152 0.504855
v 0.010520 0.017040 0.196985
vn 0.698838 -0.205903 0.685003
v -0.011853 0.040814 0.171347
vn 0.698838 -0.205903 0.685003
v -0.027858 0.033838 0.185578
vn 0.698838 -0.205903 0.685003
v -0.017982 0.023051 0.172260
vn 0.981591 -0.003106 -0.190971
v 0.010925 -0.002790 0.224131
vn 0.981591 -0.003106 -0.190971
v 0.007560 -0.012665 0.206997
vn 0.981591 -0.003106 -0.190971
v 0.007685 0.012456 0.207231
vn 0.495612 -0.858426 -0.132187
v 0.000000 -0.023749 0.177669
vn 0.495612 -0.858426 -0.132187
v 0.020567 -0.011874 0.177669
vn 0.495612 -0.858426 -0.132187
v 0.009330 -0.023118 0.208553
vn 0.997449 -0.065330 -0.028770
v -0.019452 0.005415 0.199286
vn 0.997449 -0.065330 -0.028770
v -0.020449 -0.013412 0.207444
vn 0.997449 -0.065330 -0.028770
v -0.019357 0.011176 0.189497
vn -0.994210 -0.047380 0.096442
v -0.022039 0.008849 0.201997
vn -0.994210 -0.047380 0.096442
v -0.024047 0.000000 0.176950
vn -0.994210 -0.047380 0.096442
v -0.020449 -0.013412 0.207444
vn -0.000976 0.000398 -0.999999
v -0.029364 0.030810 0.144574
vn -0.000976 0.000398 -0.999999
v 0.000886 0.042491 0.144549
vn -0.000976 0.000398 -0.999999
v -0.029098 -0.030977 0.144549
vn -0.025374 -0.999677 -0.001357
v -0.080677 -0.024500 0.250488
vn -0.025374 -0.999677 -0.001357
v -0.092858 -0.024207 0.262488
vn -0.025374 -0.999677 -0.001357
v -0.089845 -0.024207 0.206152
vn -0.003713 -0.998628 0.052225
v -0.071656 -0.024500 0.258395
vn -0.003713 -0.998628 0.052225
v -0.058329 -0.023500 0.278464
vn -0.003713 -0.998628 0.052225
v -0.092858 -0.024207 0.262488
vn -0.159016 0.742855 -0.650293
v -0.049006 -0.013444 0.265486
vn -0.159016 0.742855 -0.650293
v -0.039323 -0.024500 0.250488
vn -0.159016 0.742855 -0.650293
v -0.071656 -0.024500 0.258395
vn -0.738534 0.375304 0.560102
v -0.026906 -0.014334 0.231706
vn -0.738534 0.375304 0.560102
v -0.045664 -0.013228 0.206232
vn -0.738534 0.375304 0.560102
v -0.042926 -0.024500 0.217394
vn -0.028165 0.025007 0.999290
v 0.022441 -0.036153 0.171961
vn -0.028165 0.025007 0.999290
v 0.033238 -0.010897 0.171633
vn -0.028165 0.025007 0.999290
v 0.013417 -0.025438 0.171439
vn 0.025561 0.070149 0.997209
v 0.022441 -0.036153 0.171961
vn 0.025561 0.070149 0.997209
v 0.013417 -0.025438 0.171439
vn 0.025561 0.070149 0.997209
v -0.017578 -0.038314 0.173139
vn 0.604901 0.792275 -0.079972
v -0.095866 -0.014646 0.233217
vn 0.604901 0.792275 -0.079972
v -0.080677 -0.024500 0.250488
vn 0.604901 0.792275 -0.079972
v -0.083733 -0.024500 0.227377
vn -0.250160 -0.967118 -0.045846
v -0.049624 -0.027607 0.167422
vn -0.250160 -0.967118 -0.045846
v -0.027096 -0.034171 0.182978
vn -0.250160 -0.967118 -0.045846
v -0.069167 -0.024687 0.212470
vn 0.738745 0.123918 0.662495
v -0.027096 -0.034171 0.182978
vn 0.738745 0.123918 0.662495
v -0.017578 -0.038314 0.173139
vn 0.738745 0.123918 0.662495
v -0.015942 -0.026532 0.169111
vn -0.259412 0.891969 -0.370267
v -0.005139 -0.027415 0.167539
vn -0.259412 0.891969 -0.370267
v -0.010954 -0.017413 0.195708
vn -0.259412 0.891969 -0.370267
v 0.019357 -0.011176 0.189497
vn -0.388992 -0.368322 0.844408
v 0.000000 -0.023749 0.177669
vn -0.388992 -0.368322 0.844408
v -0.024047 0.000000 0.176950
vn -0.388992 -0.368322 0.844408
v -0.015942 -0.026532 0.169111
vn 0.027257 0.041925 0.998749
v -0.011853 0.040814 0.171347
vn 0.027257 0.041925 0.998749
v -0.017982 0.023051 0.172260
vn 0.027257 0.041925 0.998749
v 0.022925 0.020941 0.171232
vn -0.045292 -0.085019 0.995349
v 0.034405 0.024449 0.172054
vn -0.045292 -0.085019 0.995349
v -0.011853 0.040814 0.171347
vn -0.045292 -0.085019 0.995349
v 0.022925 0.020941 0.171232
vn 0.933523 -0.276802 0.227849
v 0.041367 0.006238 0.159145
vn 0.933523 -0.276802 0.227849
v 0.033238 -0.010897 0.171633
vn 0.933523 -0.276802 0.227849
v 0.036851 -0.020944 0.144626
vn -0.278240 -0.960509 -0.002391
v -0.049624 -0.027607 0.167422
vn -0.278240 -0.960509 -0.002391
v -0.021904 -0.035632 0.165601
vn -0.278240 -0.960509 -0.002391
v -0.027096 -0.034171 0.182978
vn -0.074718 -0.031976 -0.996692
v -0.049624 -0.027607 0.167422
vn -0.074718 -0.031976 -0.996692
v -0.044342 0.001524 0.166091
vn -0.074718 -0.031976 -0.996692
v -0.021904 -0.035632 0.165601
vn -0.519735 -0.001899 -0.854325
v -0.029364 0.030810 0.144574
vn -0.519735 -0.001899 -0.854325
v -0.029098 -0.030977 0.144549
vn -0.519735 -0.001899 -0.854325
v -0.040868 0.000000 0.151640
vn -0.905877 0.339238 -0.253582
v -0.040868 0.000000 0.151640
vn -0.905877 0.339238 -0.253582
v -0.044342 0.001524 0.166091
vn -0.905877 0.339238 -0.253582
v -0.032128 0.025691 0.154787
vn 0.029606 -0.972746 0.229974
v 0.007560 -0.012665 0.206997
vn 0.029606 -0.972746 0.229974
v -0.009672 -0.012059 0.211778
vn 0.029606 -0.972746 0.229974
v -0.020449 -0.013412 0.207444
vn -0.908707 -0.368899 0.195361
v -0.009672 -0.012059 0.211778
vn -0.908707 -0.368899 0.195361
v -0.019452 0.005415 0.199286
vn -0.908707 -0.368899 0.195361
v -0.010954 -0.017413 0.195708
vn -0.749535 -0.098330 0.654621
v 0.032705 0.013760 0.155516
vn -0.749535 -0.098330 0.654621
v 0.024196 0.024196 0.147342
vn -0.749535 -0.098330 0.654621
v 0.029961 -0.019801 0.147334
vn 0.019504 -0.999808 -0.002124
v -0.039323 -0.024500 0.250488
vn 0.019504 -0.999808 -0.002124
v -0.042926 -0.024500 0.217394
vn 0.019504 -0.999808 -0.002124
v -0.025667 -0.024150 0.211086
vn 0.011582 -0.999650 -0.023791
v -0.025667 -0.024150 0.211086
vn 0.011582 -0.999650 -0.023791
v -0.042926 -0.024500 0.217394
vn 0.011582 -0.999650 -0.023791
v -0.069167 -0.024687 0.212470
vn -0.155052 -0.648539 0.745222
v -0.009672 -0.012059 0.211778
vn -0.155052 -0.648539 0.745222
v 0.010925 -0.002790 0.224131
vn -0.155052 -0.648539 0.745222
v -0.013179 -0.002551 0.219323
vn 0.160284 0.613583 -0.773192
v -0.006722 -0.008114 0.216247
vn 0.160284 0.613583 -0.773192
v -0.013179 -0.002551 0.219323
vn 0.160284 0.613583 -0.773192
v 0.010925 -0.002790 0.224131
vn 0.010472 -0.999028 0.042825
v -0.071656 -0.024500 0.258395
vn 0.010472 -0.999028 0.042825
v -0.039323 -0.024500 0.250488
vn 0.010472 -0.999028 0.042825
v -0.058329 -0.023500 0.278464
vn 0.015453 -0.999874 -0.003528
v -0.039323 -0.024500 0.250488
vn 0.015453 -0.999874 -0.003528
v -0.025667 -0.024150 0.211086
vn 0.015453 -0.999874 -0.003528
v -0.020700 -0.024233 0.256277
vn -0.449598 -0.331449 -0.829460
v 0.012173 0.020064 0.168529
vn -0.449598 -0.331449 -0.829460
v 0.032485 0.008876 0.161990
vn -0.449598 -0.331449 -0.829460
v 0.029927 0.000000 0.166924
vn -0.869603 -0.483130 -0.101859
v 0.012173 0.020064 0.168529
vn -0.869603 -0.483130 -0.101859
v 0.023500 0.000000 0.166997
vn -0.869603 -0.483130 -0.101859
v 0.010520 0.017040 0.196985
vn 0.413982 0.355504 -0.837995
v -0.005139 -0.027415 0.167539
vn 0.413982 0.355504 -0.837995
v -0.032524 -0.015909 0.158891
vn 0.413982 0.355504 -0.837995
v -0.029927 0.000000 0.166924
vn 0.830823 0.555934 -0.025895
v -0.005139 -0.027415 0.167539
vn 0.830823 0.555934 -0.025895
v -0.023500 0.000000 0.166997
vn 0.830823 0.555934 -0.025895
v -0.010954 -0.017413 0.195708
vn -0.648233 0.300637 -0.699580
v -0.049624 -0.027607 0.167422
vn -0.648233 0.300637 -0.699580
v -0.089845 -0.024207 0.206152
vn -0.648233 0.300637 -0.699580
v -0.098780 -0.012793 0.219336
vn -0.904948 -0.309119 0.292428
v -0.098467 -0.012786 0.257202
vn -0.904948 -0.309119 0.292428
v -0.102147 -0.024207 0.233743
vn -0.904948 -0.309119 0.292428
v -0.092858 -0.024207 0.262488
vn 0.637193 0.121855 0.761010
v -0.060000 -0.013228 0.202959
vn 0.637193 0.121855 0.761010
v -0.095866 -0.014646 0.233217
vn 0.637193 0.121855 0.761010
v -0.069167 -0.024687 0.212470
vn -0.140023 0.679349 0.720332
v -0.045664 -0.013228 0.206232
vn -0.140023 0.679349 0.720332
v -0.069167 -0.024687 0.212470
vn -0.140023 0.679349 0.720332
v -0.042926 -0.024500 0.217394
vn 0.675585 0.227666 0.701251
v 0.024047 0.000000 0.176950
vn 0.675585 0.227666 0.701251
v 0.033238 -0.010897 0.171633
vn 0.675585 0.227666 0.701251
v 0.022925 0.020941 0.171232
vn 0.655200 -0.022961 0.755106
v -0.024047 0.000000 0.176950
vn 0.655200 -0.022961 0.755106
v -0.024389 -0.004232 0.177119
vn 0.655200 -0.022961 0.755106
v -0.015942 -0.026532 0.169111
vn 0.538024 -0.268672 -0.798965
v -0.027964 0.000796 0.173021
vn 0.538024 -0.268672 -0.798965
v -0.017982 0.023051 0.172260
vn 0.538024 -0.268672 -0.798965
v -0.024389 -0.004232 0.177119
vn 0.981316 -0.066639 -0.180492
v 0.041367 0.006238 0.159145
vn 0.981316 -0.066639 -0.180492
v 0.036851 -0.020944 0.144626
vn 0.981316 -0.066639 -0.180492
v 0.039349 0.016059 0.144549
vn -0.359504 0.930868 -0.065129
v -0.001045 0.042536 0.155853
vn -0.359504 0.930868 -0.065129
v 0.000886 0.042491 0.144549
vn -0.359504 0.930868 -0.065129
v -0.029364 0.030810 0.144574
vn 0.430222 0.900013 0.069897
v -0.001045 0.042536 0.155853
vn 0.430222 0.900013 0.069897
v 0.031279 0.027178 0.154654
vn 0.430222 0.900013 0.069897
v 0.000886 0.042491 0.144549
vn -0.038734 0.984153 0.173041
v -0.018029 -0.029779 0.159573
vn -0.038734 0.984153 0.173041
v 0.020767 -0.028443 0.160655
vn -0.038734 0.984153 0.173041
v 0.021725 -0.027003 0.152678
vn -0.520829 -0.820628 -0.235173
v 0.032705 0.013760 0.155516
vn -0.520829 -0.820628 -0.235173
v 0.005021 0.029569 0.161661
vn -0.520829 -0.820628 -0.235173
v 0.000775 0.036288 0.147617
vn -0.401394 -0.257542 0.878951
v -0.058719 -0.012974 0.281370
vn -0.401394 -0.257542 0.878951
v -0.092858 -0.024207 0.262488
vn -0.401394 -0.257542 0.878951
v -0.058329 -0.023500 0.278464
vn 0.027493 -0.399241 -0.916434
v 0.005021 0.029569 0.161661
vn 0.027493 -0.399241 -0.916434
v -0.019989 0.012252 0.168455
vn 0.027493 -0.399241 -0.916434
v -0.021512 0.026971 0.161997
vn 0.557356 -0.828168 -0.059097
v -0.019989 0.012252 0.168455
vn 0.557356 -0.828168 -0.059097
v 0.005021 0.029569 0.161661
vn 0.557356 -0.828168 -0.059097
v -0.019357 0.011176 0.189497
vn -0.218234 0.415016 -0.883253
v -0.005139 -0.027415 0.167539
vn -0.218234 0.415016 -0.883253
v 0.019989 -0.012252 0.168455
vn -0.218234 0.415016 -0.883253
v 0.020767 -0.028443 0.160655
vn -0.514169 0.855643 -0.059204
v 0.019989 -0.012252 0.168455
vn -0.514169 0.855643 -0.059204
v -0.005139 -0.027415 0.167539
vn -0.514169 0.855643 -0.059204
v 0.019357 -0.011176 0.189497
vn -0.800719 -0.489339 -0.345537
v 0.020565 -0.000862 0.199060
vn -0.800719 -0.489339 -0.345537
v 0.010925 -0.002790 0.224131
vn -0.800719 -0.489339 -0.345537
v 0.010520 0.017040 0.196985
vn 0.917210 -0.004954 0.398373
v -0.027096 -0.034171 0.182978
vn 0.917210 -0.004954 0.398373
v -0.024389 -0.004232 0.177119
vn 0.917210 -0.004954 0.398373
v -0.027858 0.033838 0.185578
vn 0.773551 -0.069488 0.629913
v -0.024389 -0.004232 0.177119
vn 0.773551 -0.069488 0.629913
v -0.017982 0.023051 0.172260
vn 0.773551 -0.069488 0.629913
v -0.027858 0.033838 0.185578
vn 0.513647 -0.857219 -0.036644
v 0.000886 -0.042491 0.144549
vn 0.513647 -0.857219 -0.036644
v 0.036851 -0.020944 0.144626
vn 0.513647 -0.857219 -0.036644
v 0.000022 -0.043579 0.157890
vn 0.846390 0.521207 0.109397
v 0.019830 0.012420 0.178143
vn 0.846390 0.521207 0.109397
v 0.010690 0.021207 0.206997
vn 0.846390 0.521207 0.109397
v 0.023749 0.000000 0.206997
vn 0.007306 -0.009339 0.999930
v 0.007560 -0.012665 0.206997
vn 0.007306 -0.009339 0.999930
v 0.023749 0.000000 0.206997
vn 0.007306 -0.009339 0.999930
v 0.007685 0.012456 0.207231
vn 0.911512 -0.398701 -0.100907
v -0.019092 -0.012793 0.225607
vn 0.911512 -0.398701 -0.100907
v -0.020700 -0.024233 0.256277
vn 0.911512 -0.398701 -0.100907
v -0.025667 -0.024150 0.211086
vn -0.101496 0.967152 0.233057
v -0.001045 0.042536 0.155853
vn -0.101496 0.967152 0.233057
v -0.017821 0.038260 0.166290
vn -0.101496 0.967152 0.233057
v 0.010345 0.040108 0.170888
vn -0.463215 0.836157 0.293724
v -0.032128 0.025691 0.154787
vn -0.463215 0.836157 0.293724
v -0.001045 0.042536 0.155853
vn -0.463215 0.836157 0.293724
v -0.029364 0.030810 0.144574
vn 0.515599 0.750295 -0.413781
v 0.031279 0.027178 0.154654
vn 0.515599 0.750295 -0.413781
v 0.039349 0.016059 0.144549
vn 0.515599 0.750295 -0.413781
v 0.000886 0.042491 0.144549
vn 0.868298 0.458774 0.188642
v 0.031279 0.027178 0.154654
vn 0.868298 0.458774 0.188642
v 0.041367 0.006238 0.159145
vn 0.868298 0.458774 0.188642
v 0.039349 0.016059 0.144549
vn 0.794493 0.281893 -0.537882
v -0.095866 -0.014646 0.233217
vn 0.794493 0.281893 -0.537882
v -0.074336 -0.013228 0.265762
vn 0.794493 0.281893 -0.537882
v -0.080677 -0.024500 0.250488
vn -0.316172 -0.925176 -0.209965
v -0.009197 0.017464 0.201048
vn -0.316172 -0.925176 -0.209965
v 0.002366 0.009936 0.216807
vn -0.316172 -0.925176 -0.209965
v -0.006963 0.012958 0.217539
vn 0.206538 0.911912 0.354625
v 0.002366 0.009936 0.216807
vn 0.206538 0.911912 0.354625
v 0.007685 0.012456 0.207231
vn 0.206538 0.911912 0.354625
v -0.005397 0.009871 0.221497
vn 0.406002 -0.628636 0.663310
v 0.002366 0.009936 0.216807
vn 0.406002 -0.628636 0.663310
v -0.005397 0.009871 0.221497
vn 0.406002 -0.628636 0.663310
v -0.013179 0.002551 0.219323
vn -0.108895 -0.096549 -0.989353
v 0.002366 0.009936 0.216807
vn -0.108895 -0.096549 -0.989353
v -0.010126 0.001587 0.218997
vn -0.108895 -0.096549 -0.989353
v -0.006963 0.012958 0.217539
vn 0.858531 -0.034436 0.511604
v 0.034405 0.024449 0.172054
vn 0.858531 -0.034436 0.511604
v 0.033238 -0.010897 0.171633
vn 0.858531 -0.034436 0.511604
v 0.041367 0.006238 0.159145
vn 0.544025 0.838390 0.033756
v 0.034405 0.024449 0.172054
vn 0.544025 0.838390 0.033756
v 0.031279 0.027178 0.154654
vn 0.544025 0.838390 0.033756
v 0.010345 0.040108 0.170888
vn 0.089774 -0.954082 -0.285776
v -0.020221 0.029687 0.153335
vn 0.089774 -0.954082 -0.285776
v 0.005021 0.029569 0.161661
vn 0.089774 -0.954082 -0.285776
v -0.021512 0.026971 0.161997
vn 0.741123 -0.581737 -0.335138
v -0.019452 0.005415 0.199286
vn 0.741123 -0.581737 -0.335138
v -0.019357 0.011176 0.189497
vn 0.741123 -0.581737 -0.335138
v -0.009197 0.017464 0.201048
vn 0.069107 -0.900448 0.429439
v -0.019357 0.011176 0.189497
vn 0.069107 -0.900448 0.429439
v 0.010520 0.017040 0.196985
vn 0.069107 -0.900448 0.429439
v -0.009197 0.017464 0.201048
vn -0.364557 -0.927691 -0.080551
v -0.029098 -0.030977 0.144549
vn -0.364557 -0.927691 -0.080551
v 0.000022 -0.043579 0.157890
vn -0.364557 -0.927691 -0.080551
v -0.021904 -0.035632 0.165601
vn -0.931284 -0.310071 -0.191225
v -0.040868 0.000000 0.151640
vn -0.931284 -0.310071 -0.191225
v -0.029098 -0.030977 0.144549
vn -0.931284 -0.310071 -0.191225
v -0.044342 0.001524 0.166091
vn -0.984108 0.112520 -0.137373
v -0.044784 0.015767 0.180924
vn -0.984108 0.112520 -0.137373
v -0.041369 0.028938 0.167243
vn -0.984108 0.112520 -0.137373
v -0.044342 0.001524 0.166091
vn -0.956378 0.292026 0.007830
v -0.098467 -0.012786 0.257202
vn -0.956378 0.292026 0.007830
v -0.098780 -0.012793 0.219336
vn -0.956378 0.292026 0.007830
v -0.102147 -0.024207 0.233743
vn 0.000014 1.000000 -0.000184
v -0.098780 -0.012793 0.219336
vn 0.000014 1.000000 -0.000184
v -0.098467 -0.012786 0.257202
vn 0.000014 1.000000 -0.000184
v -0.019092 -0.012793 0.225607
vn 0.303155 -0.525080 0.795228
v 0.020567 -0.011874 0.177669
vn 0.303155 -0.525080 0.795228
v 0.000000 -0.023749 0.177669
vn 0.303155 -0.525080 0.795228
v 0.013417 -0.025438 0.171439
vn 0.012906 -0.957718 0.287419
v 0.000000 -0.023749 0.177669
vn 0.012906 -0.957718 0.287419
v -0.015942 -0.026532 0.169111
vn 0.012906 -0.957718 0.287419
v 0.013417 -0.025438 0.171439
vn -0.573960 0.816495 0.062492
v -0.026906 -0.014334 0.231706
vn -0.573960 0.816495 0.062492
v -0.042926 -0.024500 0.217394
vn -0.573960 0.816495 0.062492
v -0.039323 -0.024500 0.250488
vn 0.784019 0.342865 0.517453
v -0.010954 -0.017413 0.195708
vn 0.784019 0.342865 0.517453
v -0.019357 0.011176 0.189497
vn 0.784019 0.342865 0.517453
v -0.020449 -0.013412 0.207444
vn 0.008286 0.948511 -0.316635
v -0.009672 -0.012059 0.211778
vn 0.008286 0.948511 -0.316635
v -0.010954 -0.017413 0.195708
vn 0.008286 0.948511 -0.316635
v -0.020449 -0.013412 0.207444
vn -0.666929 0.547147 -0.505801
v 0.006387 -0.017473 0.199786
vn -0.666929 0.547147 -0.505801
v 0.020565 -0.000862 0.199060
vn -0.666929 0.547147 -0.505801
v 0.019357 -0.011176 0.189497
vn -0.097384 0.898832 0.427338
v 0.006387 -0.017473 0.199786
vn -0.097384 0.898832 0.427338
v 0.019357 -0.011176 0.189497
vn -0.097384 0.898832 0.427338
v -0.010954 -0.017413 0.195708
vn 0.947152 0.320649 0.009381
v 0.024047 0.000000 0.176950
vn 0.947152 0.320649 0.009381
v 0.019830 0.012420 0.178143
vn 0.947152 0.320649 0.009381
v 0.023749 0.000000 0.206997
vn 0.773728 0.205107 0.599396
v 0.019830 0.012420 0.178143
vn 0.773728 0.205107 0.599396
v 0.024047 0.000000 0.176950
vn 0.773728 0.205107 0.599396
v 0.022925 0.020941 0.171232
vn -0.449266 -0.891428 -0.059298
v -0.021904 -0.035632 0.165601
vn -0.449266 -0.891428 -0.059298
v -0.017578 -0.038314 0.173139
vn -0.449266 -0.891428 -0.059298
v -0.027096 -0.034171 0.182978
vn 0.061067 -0.919636 0.387995
v 0.022441 -0.036153 0.171961
vn 0.061067 -0.919636 0.387995
v -0.017578 -0.038314 0.173139
vn 0.061067 -0.919636 0.387995
v 0.000022 -0.043579 0.157890
vn 0.568316 0.098440 0.816901
v -0.023174 -0.012793 0.256620
vn 0.568316 0.098440 0.816901
v -0.058719 -0.012974 0.281370
vn 0.568316 0.098440 0.816901
v -0.020700 -0.024233 0.256277
vn 0.000151 0.999972 0.007517
v -0.098467 -0.012786 0.257202
vn 0.000151 0.999972 0.007517
v -0.058719 -0.012974 0.281370
vn 0.000151 0.999972 0.007517
v -0.023174 -0.012793 0.256620
vn -0.569369 0.281817 0.772268
v -0.027964 0.000796 0.173021
vn -0.569369 0.281817 0.772268
v -0.011874 0.020567 0.177669
vn -0.569369 0.281817 0.772268
v -0.017982 0.023051 0.172260
vn -0.096248 -0.923766 -0.370664
v -0.009197 0.017464 0.201048
vn -0.096248 -0.923766 -0.370664
v 0.010520 0.017040 0.196985
vn -0.096248 -0.923766 -0.370664
v 0.002366 0.009936 0.216807
vn 0.722163 0.345886 0.599036
v -0.032524 -0.015909 0.158891
vn 0.722163 0.345886 0.599036
v -0.019329 -0.029140 0.150623
vn 0.722163 0.345886 0.599036
v -0.027905 -0.005551 0.147342
vn -0.390252 -0.743511 -0.543043
v 0.032705 0.013760 0.155516
vn -0.390252 -0.743511 -0.543043
v 0.000775 0.036288 0.147617
vn -0.390252 -0.743511 -0.543043
v 0.024196 0.024196 0.147342
vn -0.022132 0.889701 0.456007
v -0.029764 -0.013544 0.197166
vn -0.022132 0.889701 0.456007
v -0.027610 -0.007808 0.186079
vn -0.022132 0.889701 0.456007
v -0.069083 -0.008722 0.185848
vn 0.981937 -0.003096 0.189181
v -0.027096 -0.034171 0.182978
vn 0.981937 -0.003096 0.189181
v -0.027610 -0.007808 0.186079
vn 0.981937 -0.003096 0.189181
v -0.029764 -0.013544 0.197166
vn -0.356721 -0.928966 -0.098858
v -0.029098 -0.030977 0.144549
vn -0.356721 -0.928966 -0.098858
v 0.000886 -0.042491 0.144549
vn -0.356721 -0.928966 -0.098858
v 0.000022 -0.043579 0.157890
vn 0.000000 -1.000000 0.000000
v -0.092858 -0.024207 0.262488
vn 0.000000 -1.000000 0.000000
v -0.102147 -0.024207 0.233743
vn 0.000000 -1.000000 0.000000
v -0.089845 -0.024207 0.206152
vn -0.887183 -0.237551 -0.395569
v -0.098780 -0.012793 0.219336
vn -0.887183 -0.237551 -0.395569
v -0.089845 -0.024207 0.206152
vn -0.887183 -0.237551 -0.395569
v -0.102147 -0.024207 0.233743
vn 0.889303 -0.376813 0.259138
v 0.033238 -0.010897 0.171633
vn 0.889303 -0.376813 0.259138
v 0.022441 -0.036153 0.171961
vn 0.889303 -0.376813 0.259138
v 0.036851 -0.020944 0.144626
vn -0.841827 -0.510681 0.174736
v -0.029098 -0.030977 0.144549
vn -0.841827 -0.510681 0.174736
v -0.021904 -0.035632 0.165601
vn -0.841827 -0.510681 0.174736
v -0.044342 0.001524 0.166091
vn -0.359883 -0.625619 -0.692160
v -0.068507 0.024632 0.185246
vn -0.359883 -0.625619 -0.692160
v -0.041369 0.028938 0.167243
vn -0.359883 -0.625619 -0.692160
v -0.044784 0.015767 0.180924
vn 0.691738 0.720487 -0.048963
v -0.019329 -0.029140 0.150623
vn 0.691738 0.720487 -0.048963
v -0.032524 -0.015909 0.158891
vn 0.691738 0.720487 -0.048963
v -0.018029 -0.029779 0.159573
vn 0.219691 0.654847 -0.723126
v -0.006722 -0.008114 0.216247
vn 0.219691 0.654847 -0.723126
v -0.009672 -0.012059 0.211778
vn 0.219691 0.654847 -0.723126
v -0.013179 -0.002551 0.219323
vn -0.939637 0.330510 -0.088577
v -0.040868 0.000000 0.151640
vn -0.939637 0.330510 -0.088577
v -0.032128 0.025691 0.154787
vn -0.939637 0.330510 -0.088577
v -0.029364 0.030810 0.144574
vn 0.394007 -0.546975 0.738631
v 0.020567 -0.011874 0.177669
vn 0.394007 -0.546975 0.738631
v 0.013417 -0.025438 0.171439
vn 0.394007 -0.546975 0.738631
v 0.033238 -0.010897 0.171633
vn 0.433460 -0.072663 0.898239
v 0.024047 0.000000 0.176950
vn 0.433460 -0.072663 0.898239
v 0.020567 -0.011874 0.177669
vn 0.433460 -0.072663 0.898239
v 0.033238 -0.010897 0.171633
vn -0.807441 -0.030713 0.589148
v -0.014156 0.019059 0.207256
vn -0.807441 -0.030713 0.589148
v -0.019452 0.005415 0.199286
vn -0.807441 -0.030713 0.589148
v -0.009672 -0.012059 0.211778
vn -0.650708 0.537916 -0.535934
v -0.044784 0.015767 0.180924
vn -0.650708 0.537916 -0.535934
v -0.044342 0.001524 0.166091
vn -0.650708 0.537916 -0.535934
v -0.069083 -0.008722 0.185848
vn -0.642334 0.081653 -0.762063
v -0.044342 0.001524 0.166091
vn -0.642334 0.081653 -0.762063
v -0.049624 -0.027607 0.167422
vn -0.642334 0.081653 -0.762063
v -0.069083 -0.008722 0.185848
vn -0.369070 0.928801 -0.033412
v -0.041369 0.028938 0.167243
vn -0.369070 0.928801 -0.033412
v -0.011853 0.040814 0.171347
vn -0.369070 0.928801 -0.033412
v -0.017821 0.038260 0.166290
vn 0.037319 0.150982 0.987832
v 0.029961 -0.019801 0.147334
vn 0.037319 0.150982 0.987832
v -0.027905 -0.005551 0.147342
vn 0.037319 0.150982 0.987832
v -0.019329 -0.029140 0.150623
vn -0.071678 0.645995 0.759969
v 0.021725 -0.027003 0.152678
vn -0.071678 0.645995 0.759969
v 0.029961 -0.019801 0.147334
vn -0.071678 0.645995 0.759969
v -0.019329 -0.029140 0.150623
vn -0.289363 -0.957106 0.014753
v -0.009197 0.017464 0.201048
vn -0.289363 -0.957106 0.014753
v 0.007685 0.012456 0.207231
vn -0.289363 -0.957106 0.014753
v -0.014156 0.019059 0.207256
vn 0.553070 0.543953 -0.631054
v -0.074336 -0.013228 0.265762
vn 0.553070 0.543953 -0.631054
v -0.071656 -0.024500 0.258395
vn 0.553070 0.543953 -0.631054
v -0.080677 -0.024500 0.250488
vn -0.011319 -0.999853 0.012915
v -0.080677 -0.024500 0.250488
vn -0.011319 -0.999853 0.012915
v -0.071656 -0.024500 0.258395
vn -0.011319 -0.999853 0.012915
v -0.092858 -0.024207 0.262488
vn 0.227233 0.136196 -0.964270
v 0.006387 -0.017473 0.199786
vn 0.227233 0.136196 -0.964270
v -0.010954 -0.017413 0.195708
vn 0.227233 0.136196 -0.964270
v -0.009197 0.017464 0.201048
vn -0.008515 0.151762 -0.988380
v -0.009197 0.017464 0.201048
vn -0.008515 0.151762 -0.988380
v -0.010954 -0.017413 0.195708
vn -0.008515 0.151762 -0.988380
v -0.019452 0.005415 0.199286
vn 0.002142 0.999627 -0.027221
v -0.098780 -0.012793 0.219336
vn 0.002142 0.999627 -0.027221
v -0.019092 -0.012793 0.225607
vn 0.002142 0.999627 -0.027221
v -0.029764 -0.013544 0.197166
vn 0.932782 -0.095741 -0.347494
v -0.019092 -0.012793 0.225607
vn 0.932782 -0.095741 -0.347494
v -0.025667 -0.024150 0.211086
vn 0.932782 -0.095741 -0.347494
v -0.029764 -0.013544 0.197166
vn 0.311924 -0.156206 0.937178
v -0.010126 0.001587 0.218997
vn 0.311924 -0.156206 0.937178
v -0.013179 -0.002551 0.219323
vn 0.311924 -0.156206 0.937178
v -0.006722 -0.008114 0.216247
vn -0.430124 -0.000008 -0.902770
v -0.006722 -0.008114 0.216247
vn -0.430124 -0.000008 -0.902770
v -0.013179 -0.002551 0.219323
vn -0.430124 -0.000008 -0.902770
v -0.013179 0.002551 0.219323
vn -0.020810 -0.999753 -0.007803
v -0.089845 -0.024207 0.206152
vn -0.020810 -0.999753 -0.007803
v -0.069167 -0.024687 0.212470
vn -0.020810 -0.999753 -0.007803
v -0.083733 -0.024500 0.227377
vn 0.649496 0.426869 0.629236
v -0.095866 -0.014646 0.233217
vn 0.649496 0.426869 0.629236
v -0.083733 -0.024500 0.227377
vn 0.649496 0.426869 0.629236
v -0.069167 -0.024687 0.212470
vn -0.001479 -0.991533 0.129845
v -0.027964 0.000796 0.173021
vn -0.001479 -0.991533 0.129845
v -0.029927 0.000000 0.166924
vn -0.001479 -0.991533 0.129845
v -0.023500 0.000000 0.166997
vn 0.000000 1.000000 0.000000
v -0.024047 0.000000 0.176950
vn 0.000000 1.000000 0.000000
v -0.023500 0.000000 0.166997
vn 0.000000 1.000000 0.000000
v -0.029927 0.000000 0.166924
vn 0.011317 0.114986 -0.993303
v -0.023500 0.000000 0.166997
vn 0.011317 0.114986 -0.993303
v -0.029927 0.000000 0.166924
vn 0.011317 0.114986 -0.993303
v -0.019989 0.012252 0.168455
vn 0.011392 -0.012143 -0.999861
v -0.029927 0.000000 0.166924
vn 0.011392 -0.012143 -0.999861
v -0.023500 0.000000 0.166997
vn 0.011392 -0.012143 -0.999861
v -0.005139 -0.027415 0.167539
vn -0.011317 -0.114985 -0.993303
v 0.023500 0.000000 0.166997
vn -0.011317 -0.114985 -0.993303
v 0.029927 0.000000 0.166924
vn -0.011317 -0.114985 -0.993303
v 0.019989 -0.012252 0.168455
vn 0.000000 1.000000 0.000000
v 0.024047 0.000000 0.176950
vn 0.000000 1.000000 0.000000
v 0.029927 0.000000 0.166924
vn 0.000000 1.000000 0.000000
v 0.023500 0.000000 0.166997
vn 0.000000 -1.000000 0.000000
v 0.024047 0.000000 0.176950
vn 0.000000 -1.000000 0.000000
v 0.023500 0.000000 0.166997
vn 0.000000 -1.000000 0.000000
v 0.029927 0.000000 0.166924
vn -0.011365 0.069760 -0.997499
v 0.029927 0.000000 0.166924
vn -0.011365 0.069760 -0.997499
v 0.023500 0.000000 0.166997
vn -0.011365 0.069760 -0.997499
v 0.012173 0.020064 0.168529
vn -0.743868 0.624508 -0.238014
v 0.020565 -0.000862 0.199060
vn -0.743868 0.624508 -0.238014
v 0.006387 -0.017473 0.199786
vn -0.743868 0.624508 -0.238014
v 0.010925 -0.002790 0.224131
vn -0.956719 0.246999 0.153882
v 0.021725 -0.027003 0.152678
vn -0.956719 0.246999 0.153882
v 0.032485 0.008876 0.161990
vn -0.956719 0.246999 0.153882
v 0.032705 0.013760 0.155516
vn -0.158379 0.702549 0.693787
v -0.045664 -0.013228 0.206232
vn -0.158379 0.702549 0.693787
v -0.060000 -0.013228 0.202959
vn -0.158379 0.702549 0.693787
v -0.069167 -0.024687 0.212470
vn 0.000821 -0.999993 -0.003597
v -0.045664 -0.013228 0.206232
vn 0.000821 -0.999993 -0.003597
v -0.049006 -0.013444 0.265486
vn 0.000821 -0.999993 -0.003597
v -0.060000 -0.013228 0.202959
vn -0.004472 0.546341 -0.837551
v -0.074336 -0.013228 0.265762
vn -0.004472 0.546341 -0.837551
v -0.049006 -0.013444 0.265486
vn -0.004472 0.546341 -0.837551
v -0.071656 -0.024500 0.258395
vn -0.008543 -0.999962 -0.001950
v -0.060000 -0.013228 0.202959
vn -0.008543 -0.999962 -0.001950
v -0.049006 -0.013444 0.265486
vn -0.008543 -0.999962 -0.001950
v -0.074336 -0.013228 0.265762
vn -0.055782 0.995294 0.079231
v -0.018029 -0.029779 0.159573
vn -0.055782 0.995294 0.079231
v 0.021725 -0.027003 0.152678
vn -0.055782 0.995294 0.079231
v -0.019329 -0.029140 0.150623
vn 0.148611 -0.873807 -0.463008
v 0.005021 0.029569 0.161661
vn 0.148611 -0.873807 -0.463008
v -0.020221 0.029687 0.153335
vn 0.148611 -0.873807 -0.463008
v 0.000775 0.036288 0.147617
vn 0.900893 0.387200 -0.196133
v -0.029098 -0.030977 0.144549
vn 0.900893 0.387200 -0.196133
v -0.041983 -0.001251 0.144049
vn 0.900893 0.387200 -0.196133
v -0.040868 0.000000 0.151640
vn -0.900893 -0.387200 0.196133
v -0.040868 0.000000 0.151640
vn -0.900893 -0.387200 0.196133
v -0.041983 -0.001251 0.144049
vn -0.900893 -0.387200 0.196133
v -0.029098 -0.030977 0.144549
vn 0.002679 -0.999291 0.037540
v -0.039323 -0.024500 0.250488
vn 0.002679 -0.999291 0.037540
v -0.020700 -0.024233 0.256277
vn 0.002679 -0.999291 0.037540
v -0.058329 -0.023500 0.278464
vn 0.492986 -0.214500 0.843181
v -0.058719 -0.012974 0.281370
vn 0.492986 -0.214500 0.843181
v -0.058329 -0.023500 0.278464
vn 0.492986 -0.214500 0.843181
v -0.020700 -0.024233 0.256277
vn 0.904629 0.414914 -0.097434
v 0.034405 0.024449 0.172054
vn 0.904629 0.414914 -0.097434
v 0.041367 0.006238 0.159145
vn 0.904629 0.414914 -0.097434
v 0.031279 0.027178 0.154654
vn 0.632302 0.255629 0.731333
v -0.009197 0.017464 0.201048
vn 0.632302 0.255629 0.731333
v -0.009672 -0.012059 0.211778
vn 0.632302 0.255629 0.731333
v 0.006387 -0.017473 0.199786
vn 0.027829 0.017137 0.999466
v 0.007685 0.012456 0.207231
vn 0.027829 0.017137 0.999466
v 0.023749 0.000000 0.206997
vn 0.027829 0.017137 0.999466
v 0.010690 0.021207 0.206997
vn 0.008353 0.023829 0.999681
v 0.007685 0.012456 0.207231
vn 0.008353 0.023829 0.999681
v 0.010690 0.021207 0.206997
vn 0.008353 0.023829 0.999681
v -0.014156 0.019059 0.207256
vn -0.170874 0.791881 -0.586282
v -0.006722 -0.008114 0.216247
vn -0.170874 0.791881 -0.586282
v 0.006387 -0.017473 0.199786
vn -0.170874 0.791881 -0.586282
v -0.009672 -0.012059 0.211778
vn -0.030229 0.858400 -0.512089
v 0.006387 -0.017473 0.199786
vn -0.030229 0.858400 -0.512089
v -0.006722 -0.008114 0.216247
vn -0.030229 0.858400 -0.512089
v 0.010925 -0.002790 0.224131
vn 0.243189 0.955946 0.164395
v -0.011874 0.020567 0.177669
vn 0.243189 0.955946 0.164395
v 0.019830 0.012420 0.178143
vn 0.243189 0.955946 0.164395
v -0.017982 0.023051 0.172260
vn 0.051587 0.617744 0.784685
v -0.017982 0.023051 0.172260
vn 0.051587 0.617744 0.784685
v 0.019830 0.012420 0.178143
vn 0.051587 0.617744 0.784685
v 0.022925 0.020941 0.171232
vn -0.373504 -0.920696 -0.113199
v -0.017578 -0.038314 0.173139
vn -0.373504 -0.920696 -0.113199
v -0.021904 -0.035632 0.165601
vn -0.373504 -0.920696 -0.113199
v 0.000022 -0.043579 0.157890
vn 0.321575 -0.226491 0.919397
v -0.020221 0.029687 0.153335
vn 0.321575 -0.226491 0.919397
v -0.027905 -0.005551 0.147342
vn 0.321575 -0.226491 0.919397
v 0.000775 0.036288 0.147617
vn 0.956486 -0.237409 0.169622
v -0.020221 0.029687 0.153335
vn 0.956486 -0.237409 0.169622
v -0.032524 -0.015909 0.158891
vn 0.956486 -0.237409 0.169622
v -0.027905 -0.005551 0.147342
vn -0.662469 0.228122 -0.713509
v 0.021725 -0.027003 0.152678
vn -0.662469 0.228122 -0.713509
v 0.032705 0.013760 0.155516
vn -0.662469 0.228122 -0.713509
v 0.029961 -0.019801 0.147334
vn 0.018424 0.883620 -0.467843
v -0.011853 0.040814 0.171347
vn 0.018424 0.883620 -0.467843
v 0.010345 0.040108 0.170888
vn 0.018424 0.883620 -0.467843
v -0.017821 0.038260 0.166290
vn 0.024039 0.110881 0.993543
v 0.034405 0.024449 0.172054
vn 0.024039 0.110881 0.993543
v 0.010345 0.040108 0.170888
vn 0.024039 0.110881 0.993543
v -0.011853 0.040814 0.171347
vn -0.490216 -0.808727 0.325036
v -0.027964 0.000796 0.173021
vn -0.490216 -0.808727 0.325036
v -0.024047 0.000000 0.176950
vn -0.490216 -0.808727 0.325036
v -0.022039 0.008849 0.201997
vn -0.189007 -0.981921 -0.010379
v -0.027964 0.000796 0.173021
vn -0.189007 -0.981921 -0.010379
v -0.023500 0.000000 0.166997
vn -0.189007 -0.981921 -0.010379
v -0.024047 0.000000 0.176950
vn 0.428099 0.868159 -0.251062
v -0.024047 0.000000 0.176950
vn 0.428099 0.868159 -0.251062
v -0.029927 0.000000 0.166924
vn 0.428099 0.868159 -0.251062
v -0.027964 0.000796 0.173021
vn -0.696922 0.084886 0.712106
v -0.024047 0.000000 0.176950
vn -0.696922 0.084886 0.712106
v -0.027964 0.000796 0.173021
vn -0.696922 0.084886 0.712106
v -0.024389 -0.004232 0.177119
vn -0.506131 -0.680183 -0.530266
v 0.032705 0.013760 0.155516
vn -0.506131 -0.680183 -0.530266
v 0.032485 0.008876 0.161990
vn -0.506131 -0.680183 -0.530266
v 0.005021 0.029569 0.161661
vn -0.184475 -0.014542 -0.982730
v -0.068507 0.024632 0.185246
vn -0.184475 -0.014542 -0.982730
v -0.044784 0.015767 0.180924
vn -0.184475 -0.014542 -0.982730
v -0.069083 -0.008722 0.185848
vn 0.566903 0.662781 0.489226
v 0.002366 0.009936 0.216807
vn 0.566903 0.662781 0.489226
v 0.010925 -0.002790 0.224131
vn 0.566903 0.662781 0.489226
v 0.007685 0.012456 0.207231
vn 0.148797 -0.541173 0.827642
v -0.022039 0.008849 0.201997
vn 0.148797 -0.541173 0.827642
v -0.019452 0.005415 0.199286
vn 0.148797 -0.541173 0.827642
v -0.014156 0.019059 0.207256
vn 0.819467 0.190756 0.540450
v -0.019452 0.005415 0.199286
vn 0.819467 0.190756 0.540450
v -0.022039 0.008849 0.201997
vn 0.819467 0.190756 0.540450
v -0.020449 -0.013412 0.207444
vn 0.364410 0.798676 0.478876
v -0.006963 0.012958 0.217539
vn 0.364410 0.798676 0.478876
v -0.005397 0.009871 0.221497
vn 0.364410 0.798676 0.478876
v 0.007685 0.012456 0.207231
vn -0.622724 0.478127 0.619362
v -0.006963 0.012958 0.217539
vn -0.622724 0.478127 0.619362
v -0.013179 0.002551 0.219323
vn -0.622724 0.478127 0.619362
v -0.005397 0.009871 0.221497
vn 0.790023 0.198152 0.580172
v -0.014156 0.019059 0.207256
vn 0.790023 0.198152 0.580172
v -0.009672 -0.012059 0.211778
vn 0.790023 0.198152 0.580172
v -0.009197 0.017464 0.201048
vn -0.951744 0.300989 -0.059904
v 0.021725 -0.027003 0.152678
vn -0.951744 0.300989 -0.059904
v 0.020767 -0.028443 0.160655
vn -0.951744 0.300989 -0.059904
v 0.032485 0.008876 0.161990
vn 0.965406 -0.252605 0.064673
v -0.020221 0.029687 0.153335
vn 0.965406 -0.252605 0.064673
v -0.021512 0.026971 0.161997
vn 0.965406 -0.252605 0.064673
v -0.032524 -0.015909 0.158891
vn -0.513981 0.139297 0.846416
v -0.058719 -0.012974 0.281370
vn -0.513981 0.139297 0.846416
v -0.098467 -0.012786 0.257202
vn -0.513981 0.139297 0.846416
v -0.092858 -0.024207 0.262488
vn 0.127470 0.068783 0.989455
v 0.002366 0.009936 0.216807
vn 0.127470 0.068783 0.989455
v -0.013179 0.002551 0.219323
vn 0.127470 0.068783 0.989455
v -0.010126 0.001587 0.218997
vn 0.106268 0.000006 0.994337
v -0.013179 -0.002551 0.219323
vn 0.106268 0.000006 0.994337
v -0.010126 0.001587 0.218997
vn 0.106268 0.000006 0.994337
v -0.013179 0.002551 0.219323
vn -0.018789 0.266562 -0.963635
v -0.010126 0.001587 0.218997
vn -0.018789 0.266562 -0.963635
v -0.006722 -0.008114 0.216247
vn -0.018789 0.266562 -0.963635
v -0.013179 0.002551 0.219323
vn -0.133701 -0.089345 -0.986986
v -0.010126 0.001587 0.218997
vn -0.133701 -0.089345 -0.986986
v -0.013179 0.002551 0.219323
vn -0.133701 -0.089345 -0.986986
v -0.006963 0.012958 0.217539
vn 0.011819 0.149197 0.988737
v 0.007560 -0.012665 0.206997
vn 0.011819 0.149197 0.988737
v -0.020449 -0.013412 0.207444
vn 0.011819 0.149197 0.988737
v 0.009330 -0.023118 0.208553
vn -0.101445 0.129668 0.986354
v 0.007560 -0.012665 0.206997
vn -0.101445 0.129668 0.986354
v 0.009330 -0.023118 0.208553
vn -0.101445 0.129668 0.986354
v 0.023749 0.000000 0.206997
vn -0.836658 0.010124 -0.547633
v -0.049006 -0.013444 0.265486
vn -0.836658 0.010124 -0.547633
v -0.026906 -0.014334 0.231706
vn -0.836658 0.010124 -0.547633
v -0.039323 -0.024500 0.250488
# 708 vertices, 0 vertices normals

f 1//1 2//2 3//3
f 4//4 5//5 6//6
f 7//7 8//8 9//9
f 10//10 11//11 12//12
f 13//13 14//14 15//15
f 16//16 17//17 18//18
f 19//19 20//20 21//21
f 22//22 23//23 24//24
f 25//25 26//26 27//27
f 28//28 29//29 30//30
f 31//31 32//32 33//33
f 34//34 35//35 36//36
f 37//37 38//38 39//39
f 40//40 41//41 42//42
f 43//43 44//44 45//45
f 46//46 47//47 48//48
f 49//49 50//50 51//51
f 52//52 53//53 54//54
f 55//55 56//56 57//57
f 58//58 59//59 60//60
f 61//61 62//62 63//63
f 64//64 65//65 66//66
f 67//67 68//68 69//69
f 70//70 71//71 72//72
f 73//73 74//74 75//75
f 76//76 77//77 78//78
f 79//79 80//80 81//81
f 82//82 83//83 84//84
f 85//85 86//86 87//87
f 88//88 89//89 90//90
f 91//91 92//92 93//93
f 94//94 95//95 96//96
f 97//97 98//98 99//99
f 100//100 101//101 102//102
f 103//103 104//104 105//105
f 106//106 107//107 108//108
f 109//109 110//110 111//111
f 112//112 113//113 114//114
f 115//115 116//116 117//117
f 118//118 119//119 120//120
f 121//121 122//122 123//123
f 124//124 125//125 126//126
f 127//127 128//128 129//129
f 130//130 131//131 132//132
f 133//133 134//134 135//135
f 136//136 137//137 138//138
f 139//139 140//140 141//141
f 142//142 143//143 144//144
f 145//145 146//146 147//147
f 148//148 149//149 150//150
f 151//151 152//152 153//153
f 154//154 155//155 156//156
f 157//157 158//158 159//159
f 160//160 161//161 162//162
f 163//163 164//164 165//165
f 166//166 167//167 168//168
f 169//169 170//170 171//171
f 172//172 173//173 174//174
f 175//175 176//176 177//177
f 178//178 179//179 180//180
f 181//181 182//182 183//183
f 184//184 185//185 186//186
f 187//187 188//188 189//189
f 190//190 191//191 192//192
f 193//193 194//194 195//195
f 196//196 197//197 198//198
f 199//199 200//200 201//201
f 202//202 203//203 204//204
f 205//205 206//206 207//207
f 208//208 209//209 210//210
f 211//211 212//212 213//213
f 214//214 215//215 216//216
f 217//217 218//218 219//219
f 220//220 221//221 222//222
f 223//223 224//224 225//225
f 226//226 227//227 228//228
f 229//229 230//230 231//231
f 232//232 233//233 234//234
f 235//235 236//236 237//237
f 238//238 239//239 240//240
f 241//241 242//242 243//243
f 244//244 245//245 246//246
f 247//247 248//248 249//249
f 250//250 251//251 252//252
f 253//253 254//254 255//255
f 256//256 257//257 258//258
f 259//259 260//260 261//261
f 262//262 263//263 264//264
f 265//265 266//266 267//267
f 268//268 269//269 270//270
f 271//271 272//272 273//273
f 274//274 275//275 276//276
f 277//277 278//278 279//279
f 280//280 281//281 282//282
f 283//283 284//284 285//285
f 286//286 287//287 288//288
f 289//289 290//290 291//291
f 292//292 293//293 294//294
f 295//295 296//296 297//297
f 298//298 299//299 300//300
f 301//301 302//302 303//303
f 304//304 305//305 306//306
f 307//307 308//308 309//309
f 310//310 311//311 312//312
f 313//313 314//314 315//315
f 316//316 317//317 318//318
f 319//319 320//320 321//321
f 322//322 323//323 324//324
f 325//325 326//326 327//327
f 328//328 329//329 330//330
f 331//331 332//332 333//333
f 334//334 335//335 336//336
f 337//337 338//338 339//339
f 340//340 341//341 342//342
f 343//343 344//344 345//345
f 346//346 347//347 348//348
f 349//349 350//350 351//351
f 352//352 353//353 354//354
f 355//355 356//356 357//357
f 358//358 359//359 360//360
f 361//361 362//362 363//363
f 364//364 365//365 366//366
f 367//367 368//368 369//369
f 370//370 371//371 372//372
f 373//373 374//374 375//375
f 376//376 377//377 378//378
f 379//379 380//380 381//381
f 382//382 383//383 384//384
f 385//385 386//386 387//387
f 388//388 389//389 390//390
f 391//391 392//392 393//393
f 394//394 395//395 396//396
f 397//397 398//398 399//399
f 400//400 401//401 402//402
f 403//403 404//404 405//405
f 406//406 407//407 408//408
f 409//409 410//410 411//411
f 412//412 413//413 414//414
f 415//415 416//416 417//417
f 418//418 419//419 420//420
f 421//421 422//422 423//423
f 424//424 425//425 426//426
f 427//427 428//428 429//429
f 430//430 431//431 432//432
f 433//433 434//434 435//435
f 436//436 437//437 438//438
f 439//439 440//440 441//441
f 442//442 443//443 444//444
f 445//445 446//446 447//447
f 448//448 449//449 450//450
f 451//451 452//452 453//453
f 454//454 455//455 456//456
f 457//457 458//458 459//459
f 460//460 461//461 462//462
f 463//463 464//464 465//465
f 466//466 467//467 468//468
f 469//469 470//470 471//471
f 472//472 473//473 474//474
f 475//475 476//476 477//477
f 478//478 479//479 480//480
f 481//481 482//482 483//483
f 484//484 485//485 486//486
f 487//487 488//488 489//489
f 490//490 491//491 492//492
f 493//493 494//494 495//495
f 496//496 497//497 498//498
f 499//499 500//500 501//501
f 502//502 503//503 504//504
f 505//505 506//506 507//507
f 508//508 509//509 510//510
f 511//511 512//512 513//513
f 514//514 515//515 516//516
f 517//517 518//518 519//519
f 520//520 521//521 522//522
f 523//523 524//524 525//525
f 526//526 527//527 528//528
f 529//529 530//530 531//531
f 532//532 533//533 534//534
f 535//535 536//536 537//537
f 538//538 539//539 540//540
f 541//541 542//542 543//543
f 544//544 545//545 546//546
f 547//547 548//548 549//549
f 550//550 551//551 552//552
f 553//553 554//554 555//555
f 556//556 557//557 558//558
f 559//559 560//560 561//561
f 562//562 563//563 564//564
f 565//565 566//566 567//567
f 568//568 569//569 570//570
f 571//571 572//572 573//573
f 574//574 575//575 576//576
f 577//577 578//578 579//579
f 580//580 581//581 582//582
f 583//583 584//584 585//585
f 586//586 587//587 588//588
f 589//589 590//590 591//591
f 592//592 593//593 594//594
f 595//595 596//596 597//597
f 598//598 599//599 600//600
f 601//601 602//602 603//603
f 604//604 605//605 606//606
f 607//607 608//608 609//609
f 610//610 611//611 612//612
f 613//613 614//614 615//615
f 616//616 617//617 618//618
f 619//619 620//620 621//621
f 622//622 623//623 624//624
f 625//625 626//626 627//627
f 628//628 629//629 630//630
f 631//631 632//632 633//633
f 634//634 635//635 636//636
f 637//637 638//638 639//639
f 640//640 641//641 642//642
f 643//643 644//644 645//645
f 646//646 647//647 648//648
f 649//649 650//650 651//651
f 652//652 653//653 654//654
f 655//655 656//656 657//657
f 658//658 659//659 660//660
f 661//661 662//662 663//663
f 664//664 665//665 666//666
f 667//667 668//668 669//669
f 670//670 671//671 672//672
f 673//673 674//674 675//675
f 676//676 677//677 678//678
f 679//679 680//680 681//681
f 682//682 683//683 684//684
f 685//685 686//686 687//687
f 688//688 689//689 690//690
f 691//691 692//692 693//693
f 694//694 695//695 696//696
f 697//697 698//698 699//699
f 700//700 701//701 702//702
f 703//703 704//704 705//705
f 706//706 707//707 708//708
# 236 faces, 0 coords texture

# End of File