#VRML V2.0 utf8

# Generated by VCGLIB, (C)Copyright 1999-2001 VCG, IEI-CNR

NavigationInfo {
	type [ "EXAMINE", "ANY" ]
}
Transform {
  scale 1 1 1
  translation 0 0 0
  children
  [
    Shape
    {
      geometry IndexedFaceSet
      {
        creaseAngle .5
        solid FALSE
        coord Coordinate
        {
          point
          [
            -0.00332271 -0.00534899 -0.000880741, 0.00322303 0.0043042 0.000656538, 0.0159025 -0.000523308 -0.00289116, 0.00833046 -0.00401021 0.00278436, 
            0.00911614 -0.00039366 0.00720703, 0.00839068 -0.00391343 0.00929881, 0.00833046 -0.00401021 0.00278436, 0.00911614 -0.00039366 0.00720703, 
            0.0153048 7.55461e-05 0.00710506, 0.00911614 -0.00039366 0.00720703, 0.00833046 -0.00401021 0.00278436, 0.00839068 -0.00391343 0.00929881, 
            0.0153048 7.55461e-05 0.00710506, 0.00911614 -0.00039366 0.00720703, 0.00971682 -0.00378097 0.002794, 0.0157457 -0.00298346 -0.00428399, 
            0.0159704 -0.00333733 0.0037149, 0.00971682 -0.00378097 0.002794, 0.00835474 -0.00398597 -0.00277422, 0.0159704 -0.00333733 0.0037149, 
            0.0161978 -0.00375483 -0.0028781, 0.00322303 0.0043042 0.000656538, 0.0143026 0.00244793 0.00303341, -0.000495889 0.00633058 0.002667, 
            0.0154923 0.00157363 0.00903058, 0.0230657 0.00413449 0.0083652, 0.0102939 0.00248519 0.00930302, 0.015249 0.000989406 -0.00716863, 
            0.0143026 0.00244793 0.00303341, 0.0159025 -0.000523308 -0.00289116, 0.0159037 -0.00321692 -0.00900902, 0.00899723 -0.00292408 -0.00937098, 
            0.00968229 0.00376895 -0.00933507, 0.0157457 -0.00298346 -0.00428399, 0.00971682 -0.00369714 -0.0029825, 0.00974277 0.000698933 -0.00709689, 
            0.00974277 0.000698933 -0.00709689, 0.00971682 -0.00369714 -0.0029825, 0.0161978 -0.00375483 -0.0028781, 0.0102939 0.00248519 0.00930302, 
            0.00839068 -0.00391343 0.00929881, 0.0159037 -0.00321692 0.00900902, 0.0143026 0.00244793 0.00303341, 0.00275941 0.00302547 -0.00383292, 
            -0.00227036 0.00304716 0.00454295, 0.0157457 -0.00298346 -0.00428399, 0.00974277 0.000698933 -0.00709689, 0.015249 0.000989406 -0.00716863, 
            0.0154875 0.00312192 -0.00903084, 0.0222518 0.00146632 -0.00867633, 0.0159037 -0.00321692 -0.00900902, 0.0157457 -0.00298346 -0.00428399, 
            0.015249 0.000989406 -0.00716863, 0.00974277 0.000698933 -0.00709689, 0.0159025 -0.000523308 -0.00289116, 0.0258717 0.00104494 -0.005873, 
            0.0212725 0 -0.005715, 0.0154875 0.00312192 -0.00903084, 0.0159037 -0.00321692 -0.00900902, 0.00968229 0.00376895 -0.00933507, 
            0.00322303 0.0043042 0.000656538, 0.0230657 0.00413449 0.0083652, 0.0143026 0.00244793 0.00303341, 0.0100258 0.0080063 0.0030468, 
            0.0176877 0.00702113 0.00319542, 0.0108708 0.00809249 -0.00447285, 0.0154923 0.00157363 0.00903058, 0.0102939 0.00248519 0.00930302, 
            0.0159037 -0.00321692 0.00900902, 0.0159704 -0.00333733 0.0037149, 0.0175575 -0.00489561 0.0076351, 0.0177466 -0.00508473 -0.00694123, 
            0.0154923 0.00157363 0.00903058, 0.0228264 -0.00375065 0.00820892, 0.0230657 0.00413449 0.0083652, 0.0159704 -0.00333733 0.0037149, 
            0.0161978 -0.00375483 -0.0028781, 0.0175575 -0.00489561 0.0076351, 0.009239 0.0014325 -0.00729671, 0.00835474 -0.00398597 -0.00277422, 
            0.00899723 -0.00292408 -0.00937098, 0.00835474 -0.00398597 -0.00277422, 0.00763038 -0.00499924 -0.00831008, 0.00763038 -0.00499924 0.00831008, 
            0.00833046 -0.00401021 0.00278436, 0.00763038 -0.00499924 0.00831008, 0.00763038 -0.00499924 -0.00831008, 0.00946836 0.00642684 -0.00449465, 
            0.0052887 0.00635518 0.00309802, 0.0176877 0.00702113 0.00319542, 0.00322303 0.0043042 0.000656538, -0.00369804 -0.00339131 0.00538636, 
            0.00557672 -0.00396922 0.006096, 0.009239 0.0014325 -0.00729671, 0.00968229 0.00376895 -0.00933507, 0.00899723 -0.00292408 -0.00937098, 
            0.00968229 0.00376895 -0.00933507, 0.009239 0.0014325 -0.00729671, 0.00899723 -0.00292408 -0.00937098, 0.015249 0.000989406 -0.00716863, 
            0.0100803 0.00390266 -0.00742477, 0.00974277 0.000698933 -0.00709689, 0.0104515 0.00577828 0.00641659, 0.00677349 0.00754038 0.00591824, 
            0.0176877 0.00702113 0.00319542, 0.0104515 0.00577828 0.00641659, 0.0197177 0.0052627 0.0059901, 0.0052887 0.00635518 0.00309802, 
            0.0276435 -0.000821182 0.00764429, 0.0230657 0.00413449 0.0083652, 0.0228264 -0.00375065 0.00820892, 0.0145068 0.00368793 -0.00719235, 
            0.00275941 0.00302547 -0.00383292, 0.0106801 0.00387345 -0.005588, 0.0159025 -0.000523308 -0.00289116, 0.0188721 0.00507854 -0.00352789, 
            0.015409 0.00308962 -0.00742506, 0.0222518 0.00146632 -0.00867633, 0.0212725 0 -0.005715, 0.0240867 -0.00320124 -0.00839922, 
            0.0159025 -0.000523308 -0.00289116, 0.00322303 0.0043042 0.000656538, 0.00763038 -0.00499924 0.00831008, -0.00332271 -0.00534899 -0.000880741, 
            0.0159025 -0.000523308 -0.00289116, 0.0143026 0.00244793 0.00303341, 0.0136911 0.0013174 0.00539363, 0.0159025 -0.000523308 -0.00289116, 
            0.00557672 -0.00396922 0.006096, 0.0161978 -0.00375483 -0.0028781, 0.0177466 -0.00508473 -0.00694123, 0.0175575 -0.00489561 0.0076351, 
            0.0161978 -0.00375483 -0.0028781, 0.0159704 -0.00333733 0.0037149, 0.0177466 -0.00508473 -0.00694123, 0.0157457 -0.00298346 -0.00428399, 
            0.015249 0.000989406 -0.00716863, 0.0159037 -0.00321692 -0.00900902, 0.00833046 -0.00401021 0.00278436, 0.0153048 7.55461e-05 0.00710506, 
            0.0159704 -0.00333733 0.0037149, 0.0153048 7.55461e-05 0.00710506, 0.0159704 -0.00333733 0.0037149, 0.0159037 -0.00321692 0.00900902, 
            0.0153048 7.55461e-05 0.00710506, 0.00971682 -0.00378097 0.002794, 0.0159704 -0.00333733 0.0037149, 0.0143026 0.00244793 0.00303341, 
            -0.00227036 0.00304716 0.00454295, -0.00216937 -9.32638e-05 0.0018997, 0.0154115 0.0058203 -0.00323733, 0.0197177 0.0052627 0.0059901, 
            0.0148129 0.00562065 0.00331371, 0.0148129 0.00562065 0.00331371, 0.0197177 0.0052627 0.0059901, 0.0107309 0.00625495 0.00202908, 
            0.00947741 0.0014522 0.00719218, 0.0102939 0.00248519 0.00930302, 0.0154923 0.00157363 0.00903058, 0.00947741 0.0014522 0.00719218, 
            0.0145459 0.00210499 0.00719218, 0.0102939 0.00248519 0.00930302, 0.00947741 0.0014522 0.00719218, 0.00839068 -0.00391343 0.00929881, 
            0.0102939 0.00248519 0.00930302, 0.00947741 0.0014522 0.00719218, 0.0102939 0.00248519 0.00930302, 0.00839068 -0.00391343 0.00929881, 
            0.0154115 0.0058203 -0.00323733, 0.00946836 0.00642684 -0.00449465, 0.0176877 0.00702113 0.00319542, 0.0154115 0.0058203 -0.00323733, 
            0.0176877 0.00702113 0.00319542, 0.0197177 0.0052627 0.0059901, 0.00946836 0.00642684 -0.00449465, 0.0107309 0.00625495 0.00202908, 
            0.0108708 0.00809249 -0.00447285, 0.00946836 0.00642684 -0.00449465, 0.0108708 0.00809249 -0.00447285, 0.0156568 0.00749008 -0.00417879, 
            0.0206965 -0.00376841 0.00603379, 0.0230121 0.00454411 0.00547116, 0.0276435 -0.000821182 0.00764429, 0.00322303 0.0043042 0.000656538, 
            0.00763038 -0.00499924 -0.00831008, 0.00763038 -0.00499924 0.00831008, 0.00662997 -0.00427924 0.00874892, 0.00322303 0.0043042 0.000656538, 
            0.00557672 -0.00396922 0.006096, 0.00557672 -0.00396922 0.006096, 0.0159025 -0.000523308 -0.00289116, 0.00763038 -0.00499924 0.00831008, 
            0.0136911 0.0013174 0.00539363, 0.0206965 -0.00376841 0.00603379, 0.0159025 -0.000523308 -0.00289116, 0.0206965 -0.00376841 0.00603379, 
            0.0175575 -0.00489561 0.0076351, 0.0159025 -0.000523308 -0.00289116, 0.0154923 0.00157363 0.00903058, 0.0159037 -0.00321692 0.00900902, 
            0.0228264 -0.00375065 0.00820892, 0.0052887 0.00635518 0.00309802, 0.00677349 0.00754038 0.00591824, 0.0107309 0.00625495 0.00202908, 
            0.00928844 0.00652986 0.00490735, 0.0100258 0.0080063 0.0030468, 0.00677349 0.00754038 0.00591824, 0.0108708 0.00809249 -0.00447285, 
            0.0107309 0.00625495 0.00202908, 0.0100258 0.0080063 0.0030468, 0.00835474 -0.00398597 -0.00277422, 0.00833046 -0.00401021 0.00278436, 
            0.00763038 -0.00499924 -0.00831008, 0.00833046 -0.00401021 0.00278436, 0.00835474 -0.00398597 -0.00277422, 0.00763038 -0.00499924 0.00831008, 
            0.00835474 -0.00398597 -0.00277422, 0.00833046 -0.00401021 0.00278436, 0.0159704 -0.00333733 0.0037149, 0.0157457 -0.00298346 -0.00428399, 
            0.00971682 -0.00378097 0.002794, 0.00971682 -0.00369714 -0.0029825, 0.0100803 0.00390266 -0.00742477, 0.00968229 0.00376895 -0.00933507, 
            0.009239 0.0014325 -0.00729671, 0.00968229 0.00376895 -0.00933507, 0.0100803 0.00390266 -0.00742477, 0.00275941 0.00302547 -0.00383292, 
            0.0145068 0.00368793 -0.00719235, 0.00968229 0.00376895 -0.00933507, 0.0100803 0.00390266 -0.00742477, 0.0145068 0.00368793 -0.00719235, 
            0.0100803 0.00390266 -0.00742477, 0.00322303 0.0043042 0.000656538, -0.00221453 -0.00287493 -0.00521891, 0.00275941 0.00302547 -0.00383292, 
            -0.00216937 -9.32638e-05 0.0018997, -0.00216937 -9.32638e-05 0.0018997, -0.00227036 0.00304716 0.00454295, -0.00369804 -0.00339131 0.00538636, 
            -0.00227036 0.00304716 0.00454295, 0.00322303 0.0043042 0.000656538, -0.000495889 0.00633058 0.002667, -0.00227036 0.00304716 0.00454295, 
            -0.000495889 0.00633058 0.002667, -0.00332271 -0.00534899 -0.000880741, 0.0206965 -0.00376841 0.00603379, 0.0230657 0.00413449 0.0083652, 
            0.0228264 -0.00375065 0.00820892, 0.0230657 0.00413449 0.0083652, 0.0230121 0.00454411 0.00547116, 0.0228264 -0.00375065 0.00820892, 
            0.015249 0.000989406 -0.00716863, 0.00974277 0.000698933 -0.00709689, 0.0143026 0.00244793 0.00303341, 0.009239 0.0014325 -0.00729671, 
            0.00968229 0.00376895 -0.00933507, 0.00275941 0.00302547 -0.00383292, 0.0177466 -0.00508473 -0.00694123, 0.0112483 -0.00693529 -0.00100603, 
            0.0159037 -0.00321692 -0.00900902, 0.0157457 -0.00298346 -0.00428399, 0.0177466 -0.00508473 -0.00694123, 0.0159037 -0.00321692 -0.00900902, 
            0.0157457 -0.00298346 -0.00428399, 0.0159037 -0.00321692 -0.00900902, 0.0177466 -0.00508473 -0.00694123, 0.0188721 0.00507854 -0.00352789, 
            0.0159025 -0.000523308 -0.00289116, 0.0212725 0 -0.005715, 0.015249 0.000989406 -0.00716863, 0.0154875 0.00312192 -0.00903084, 
            0.0159037 -0.00321692 -0.00900902, 0.015249 0.000989406 -0.00716863, 0.0159037 -0.00321692 -0.00900902, 0.015409 0.00308962 -0.00742506, 
            0.015249 0.000989406 -0.00716863, 0.0145068 0.00368793 -0.00719235, 0.0100803 0.00390266 -0.00742477, 0.015249 0.000989406 -0.00716863, 
            0.0159025 -0.000523308 -0.00289116, 0.015409 0.00308962 -0.00742506, 0.0156568 0.00749008 -0.00417879, 0.0154115 0.0058203 -0.00323733, 
            0.0148129 0.00562065 0.00331371, 0.0156568 0.00749008 -0.00417879, 0.0148129 0.00562065 0.00331371, 0.0176877 0.00702113 0.00319542, 
            0.0108708 0.00809249 -0.00447285, 0.0176877 0.00702113 0.00319542, 0.0148129 0.00562065 0.00331371, 0.0176877 0.00702113 0.00319542, 
            0.00677349 0.00754038 0.00591824, 0.0197177 0.0052627 0.0059901, 0.00275941 0.00302547 -0.00383292, 0.00322303 0.0043042 0.000656538, 
            -0.00227036 0.00304716 0.00454295, 0.0222518 0.00146632 -0.00867633, 0.0240867 -0.00320124 -0.00839922, 0.0258717 0.00104494 -0.005873, 
            0.0240867 -0.00320124 -0.00839922, 0.0212725 0 -0.005715, 0.0258717 0.00104494 -0.005873, 0.0176877 0.00702113 0.00319542, 
            0.0052887 0.00635518 0.00309802, 0.0156568 0.00749008 -0.00417879, 0.0222518 0.00146632 -0.00867633, 0.0240867 -0.00320124 -0.00839922, 
            0.0159037 -0.00321692 -0.00900902, 0.0240867 -0.00320124 -0.00839922, 0.0177466 -0.00508473 -0.00694123, 0.0159037 -0.00321692 -0.00900902, 
            -0.00216937 -9.32638e-05 0.0018997, -0.00332271 -0.00534899 -0.000880741, -0.000495889 0.00633058 0.002667, -0.00369804 -0.00339131 0.00538636, 
            -0.00332271 -0.00534899 -0.000880741, 0.00557672 -0.00396922 0.006096, 0.0136911 0.0013174 0.00539363, 0.00557672 -0.00396922 0.006096, 
            -0.00332271 -0.00534899 -0.000880741, 0.00899723 -0.00292408 -0.00937098, 0.00322303 0.0043042 0.000656538, 0.00968229 0.00376895 -0.00933507, 
            0.00961985 0.00582456 -0.0052754, 0.0188721 0.00507854 -0.00352789, 0.00322303 0.0043042 0.000656538, 0.00961985 0.00582456 -0.0052754, 
            0.00338563 0.00557766 -0.00460409, 0.0188721 0.00507854 -0.00352789, 0.0100803 0.00390266 -0.00742477, 0.00968229 0.00376895 -0.00933507, 
            0.00322303 0.0043042 0.000656538, 0.00275941 0.00302547 -0.00383292, 0.00338563 0.00557766 -0.00460409, 0.00322303 0.0043042 0.000656538, 
            -0.00221453 -0.00287493 -0.00521891, -0.00216937 -9.32638e-05 0.0018997, 0.00322303 0.0043042 0.000656538, 0.0206965 -0.00376841 0.00603379, 
            0.0136911 0.0013174 0.00539363, 0.0143026 0.00244793 0.00303341, 0.0176877 0.00702113 0.00319542, 0.0107309 0.00625495 0.00202908, 
            0.0104515 0.00577828 0.00641659, 0.0104515 0.00577828 0.00641659, 0.0052887 0.00635518 0.00309802, 0.00928844 0.00652986 0.00490735, 
            0.0104515 0.00577828 0.00641659, 0.0107309 0.00625495 0.00202908, 0.0197177 0.0052627 0.0059901, 0.00928844 0.00652986 0.00490735, 
            0.00677349 0.00754038 0.00591824, 0.0104515 0.00577828 0.00641659, -0.00221453 -0.00287493 -0.00521891, -0.00332271 -0.00534899 -0.000880741, 
            0.00338563 0.00557766 -0.00460409, 0.0143026 0.00244793 0.00303341, -0.00216937 -9.32638e-05 0.0018997, -0.000495889 0.00633058 0.002667, 
            0.00275941 0.00302547 -0.00383292, -0.00221453 -0.00287493 -0.00521891, 0.00338563 0.00557766 -0.00460409, 0.00662997 -0.00427924 0.00874892, 
            0.00557672 -0.00396922 0.006096, 0.00763038 -0.00499924 0.00831008, 0.0102939 0.00248519 0.00930302, 0.00662997 -0.00427924 0.00874892, 
            0.00839068 -0.00391343 0.00929881, -0.00216937 -9.32638e-05 0.0018997, -0.00369804 -0.00339131 0.00538636, 0.00322303 0.0043042 0.000656538, 
            0.0276435 -0.000821182 0.00764429, 0.0230121 0.00454411 0.00547116, 0.0230657 0.00413449 0.0083652, 0.0107309 0.00625495 0.00202908, 
            0.00677349 0.00754038 0.00591824, 0.0100258 0.0080063 0.0030468, 0.0240867 -0.00320124 -0.00839922, 0.0258717 0.00104494 -0.005873, 
            0.0159025 -0.000523308 -0.00289116, 0.00947741 0.0014522 0.00719218, 0.0145459 0.00210499 0.00719218, 0.0153048 7.55461e-05 0.00710506, 
            0.0153048 7.55461e-05 0.00710506, 0.0154923 0.00157363 0.00903058, 0.0159037 -0.00321692 0.00900902, 0.0153048 7.55461e-05 0.00710506, 
            0.0159037 -0.00321692 0.00900902, 0.0154923 0.00157363 0.00903058, 0.0145459 0.00210499 0.00719218, 0.00947741 0.0014522 0.00719218, 
            0.0153048 7.55461e-05 0.00710506, 0.0102939 0.00248519 0.00930302, 0.0230657 0.00413449 0.0083652, 0.00322303 0.0043042 0.000656538, 
            0.0102939 0.00248519 0.00930302, 0.00322303 0.0043042 0.000656538, 0.00662997 -0.00427924 0.00874892, 0.009239 0.0014325 -0.00729671, 
            0.00275941 0.00302547 -0.00383292, 0.0143026 0.00244793 0.00303341, 0.00677349 0.00754038 0.00591824, 0.0108708 0.00809249 -0.00447285, 
            0.0052887 0.00635518 0.00309802, 0.00946836 0.00642684 -0.00449465, 0.0108708 0.00809249 -0.00447285, 0.00677349 0.00754038 0.00591824, 
            0.0258717 0.00104494 -0.005873, 0.0240867 -0.00320124 -0.00839922, 0.00322303 0.0043042 0.000656538, -0.00332271 -0.00534899 -0.000880741, 
            -0.00369804 -0.00339131 0.00538636, -0.00227036 0.00304716 0.00454295, 0.0154115 0.0058203 -0.00323733, 0.0107309 0.00625495 0.00202908, 
            0.00946836 0.00642684 -0.00449465, 0.0148129 0.00562065 0.00331371, 0.0107309 0.00625495 0.00202908, 0.0108708 0.00809249 -0.00447285, 
            0.0177466 -0.00508473 -0.00694123, 0.0159025 -0.000523308 -0.00289116, 0.0175575 -0.00489561 0.0076351, 0.0177466 -0.00508473 -0.00694123, 
            0.0240867 -0.00320124 -0.00839922, 0.0159025 -0.000523308 -0.00289116, 0.0156568 0.00749008 -0.00417879, 0.0108708 0.00809249 -0.00447285, 
            0.0154115 0.0058203 -0.00323733, 0.0108708 0.00809249 -0.00447285, 0.0107309 0.00625495 0.00202908, 0.0154115 0.0058203 -0.00323733, 
            0.0206965 -0.00376841 0.00603379, 0.0228264 -0.00375065 0.00820892, 0.0230121 0.00454411 0.00547116, 0.0143026 0.00244793 0.00303341, 
            0.0230121 0.00454411 0.00547116, 0.0206965 -0.00376841 0.00603379, 0.0206965 -0.00376841 0.00603379, 0.0230121 0.00454411 0.00547116, 
            0.0230657 0.00413449 0.0083652, 0.00275941 0.00302547 -0.00383292, 0.015409 0.00308962 -0.00742506, 0.0188721 0.00507854 -0.00352789, 
            0.00946836 0.00642684 -0.00449465, 0.0156568 0.00749008 -0.00417879, 0.0052887 0.00635518 0.00309802, 0.0108708 0.00809249 -0.00447285, 
            0.00946836 0.00642684 -0.00449465, 0.0052887 0.00635518 0.00309802, 0.0159704 -0.00333733 0.0037149, 0.0159037 -0.00321692 0.00900902, 
            0.0175575 -0.00489561 0.0076351, 0.0159704 -0.00333733 0.0037149, 0.0175575 -0.00489561 0.0076351, 0.0159037 -0.00321692 0.00900902, 
            0.0159037 -0.00321692 0.00900902, 0.00839068 -0.00391343 0.00929881, 0.0175575 -0.00489561 0.0076351, 0.0159037 -0.00321692 0.00900902, 
            0.0175575 -0.00489561 0.0076351, 0.0228264 -0.00375065 0.00820892, 0.0052887 0.00635518 0.00309802, 0.00946836 0.00642684 -0.00449465, 
            0.00677349 0.00754038 0.00591824, 0.0228264 -0.00375065 0.00820892, 0.0206965 -0.00376841 0.00603379, 0.0276435 -0.000821182 0.00764429, 
            0.0230121 0.00454411 0.00547116, 0.0143026 0.00244793 0.00303341, 0.0230657 0.00413449 0.0083652, 0.0145068 0.00368793 -0.00719235, 
            0.0154875 0.00312192 -0.00903084, 0.00968229 0.00376895 -0.00933507, 0.015409 0.00308962 -0.00742506, 0.0159037 -0.00321692 -0.00900902, 
            0.0154875 0.00312192 -0.00903084, 0.015409 0.00308962 -0.00742506, 0.0154875 0.00312192 -0.00903084, 0.015249 0.000989406 -0.00716863, 
            0.0145068 0.00368793 -0.00719235, 0.00322303 0.0043042 0.000656538, 0.0154875 0.00312192 -0.00903084, 0.0145459 0.00210499 0.00719218, 
            0.0154923 0.00157363 0.00903058, 0.0102939 0.00248519 0.00930302, 0.0145459 0.00210499 0.00719218, 0.0153048 7.55461e-05 0.00710506, 
            0.0154923 0.00157363 0.00903058, 0.00947741 0.0014522 0.00719218, 0.0154923 0.00157363 0.00903058, 0.0145459 0.00210499 0.00719218, 
            0.0188721 0.00507854 -0.00352789, -0.00216937 -9.32638e-05 0.0018997, 0.00275941 0.00302547 -0.00383292, -0.00221453 -0.00287493 -0.00521891, 
            0.00322303 0.0043042 0.000656538, -0.00332271 -0.00534899 -0.000880741, 0.00763038 -0.00499924 -0.00831008, 0.00322303 0.0043042 0.000656538, 
            0.00899723 -0.00292408 -0.00937098, 0.0112483 -0.00693529 -0.00100603, 0.00899723 -0.00292408 -0.00937098, 0.0159037 -0.00321692 -0.00900902, 
            0.00835474 -0.00398597 -0.00277422, 0.00899723 -0.00292408 -0.00937098, 0.00763038 -0.00499924 -0.00831008, 0.00835474 -0.00398597 -0.00277422, 
            0.00763038 -0.00499924 -0.00831008, 0.00899723 -0.00292408 -0.00937098, 0.00833046 -0.00401021 0.00278436, 0.00763038 -0.00499924 0.00831008, 
            0.00839068 -0.00391343 0.00929881, 0.00662997 -0.00427924 0.00874892, 0.00763038 -0.00499924 0.00831008, 0.00839068 -0.00391343 0.00929881, 
            0.00763038 -0.00499924 0.00831008, 0.0112483 -0.00693529 -0.00100603, 0.00839068 -0.00391343 0.00929881, 0.00833046 -0.00401021 0.00278436, 
            0.00839068 -0.00391343 0.00929881, 0.00763038 -0.00499924 0.00831008, 0.00677349 0.00754038 0.00591824, 0.0052887 0.00635518 0.00309802, 
            0.0197177 0.0052627 0.0059901, 0.00961985 0.00582456 -0.0052754, 0.00322303 0.0043042 0.000656538, 0.00338563 0.00557766 -0.00460409, 
            0.0136911 0.0013174 0.00539363, -0.00332271 -0.00534899 -0.000880741, 0.0143026 0.00244793 0.00303341, 0.0106801 0.00387345 -0.005588, 
            0.0100803 0.00390266 -0.00742477, 0.00961985 0.00582456 -0.0052754, 0.0100803 0.00390266 -0.00742477, 0.0106801 0.00387345 -0.005588, 
            0.00961985 0.00582456 -0.0052754, 0.0145068 0.00368793 -0.00719235, 0.0106801 0.00387345 -0.005588, 0.0100803 0.00390266 -0.00742477, 
            0.0106801 0.00387345 -0.005588, 0.00275941 0.00302547 -0.00383292, 0.0100803 0.00390266 -0.00742477, 0.00911614 -0.00039366 0.00720703, 
            0.00947741 0.0014522 0.00719218, 0.0153048 7.55461e-05 0.00710506, 0.00947741 0.0014522 0.00719218, 0.00911614 -0.00039366 0.00720703, 
            0.00839068 -0.00391343 0.00929881, 0.00911614 -0.00039366 0.00720703, 0.00947741 0.0014522 0.00719218, 0.00839068 -0.00391343 0.00929881, 
            0.00911614 -0.00039366 0.00720703, 0.0153048 7.55461e-05 0.00710506, 0.00947741 0.0014522 0.00719218, 0.0107309 0.00625495 0.00202908, 
            0.00928844 0.00652986 0.00490735, 0.0052887 0.00635518 0.00309802, 0.0107309 0.00625495 0.00202908, 0.0176877 0.00702113 0.00319542, 
            0.00928844 0.00652986 0.00490735, 0.0175575 -0.00489561 0.0076351, 0.0206965 -0.00376841 0.00603379, 0.0228264 -0.00375065 0.00820892, 
            0.00833046 -0.00401021 0.00278436, 0.00971682 -0.00369714 -0.0029825, 0.00971682 -0.00378097 0.002794, 0.00911614 -0.00039366 0.00720703, 
            0.00833046 -0.00401021 0.00278436, 0.00971682 -0.00378097 0.002794, 0.0175575 -0.00489561 0.0076351, 0.0112483 -0.00693529 -0.00100603, 
            0.0177466 -0.00508473 -0.00694123, 0.0112483 -0.00693529 -0.00100603, 0.0175575 -0.00489561 0.0076351, 0.00839068 -0.00391343 0.00929881, 
            0.0161978 -0.00375483 -0.0028781, 0.0157457 -0.00298346 -0.00428399, 0.0177466 -0.00508473 -0.00694123, 0.0161978 -0.00375483 -0.0028781, 
            0.0157457 -0.00298346 -0.00428399, 0.00974277 0.000698933 -0.00709689, 0.00971682 -0.00369714 -0.0029825, 0.0157457 -0.00298346 -0.00428399, 
            0.0161978 -0.00375483 -0.0028781, 0.0157457 -0.00298346 -0.00428399, 0.0161978 -0.00375483 -0.0028781, 0.0159704 -0.00333733 0.0037149, 
            0.0157457 -0.00298346 -0.00428399, 0.00971682 -0.00369714 -0.0029825, 0.0161978 -0.00375483 -0.0028781, 0.0157457 -0.00298346 -0.00428399, 
            0.0161978 -0.00375483 -0.0028781, 0.0177466 -0.00508473 -0.00694123, 0.00322303 0.0043042 0.000656538, 0.0240867 -0.00320124 -0.00839922, 
            0.0222518 0.00146632 -0.00867633, 0.00322303 0.0043042 0.000656538, 0.0222518 0.00146632 -0.00867633, 0.0154875 0.00312192 -0.00903084, 
            0.00971682 -0.00369714 -0.0029825, 0.00835474 -0.00398597 -0.00277422, 0.0161978 -0.00375483 -0.0028781, 0.00833046 -0.00401021 0.00278436, 
            0.00835474 -0.00398597 -0.00277422, 0.00971682 -0.00369714 -0.0029825, 0.00621622 -0.0034023 0.00834196, 0.00662997 -0.00427924 0.00874892, 
            0.00557672 -0.00396922 0.006096, 0.00662997 -0.00427924 0.00874892, 0.00621622 -0.0034023 0.00834196, 0.00557672 -0.00396922 0.006096, 
            -0.00216937 -9.32638e-05 0.0018997, 0.0188721 0.00507854 -0.00352789, -0.00332271 -0.00534899 -0.000880741, 0.015249 0.000989406 -0.00716863, 
            0.015409 0.00308962 -0.00742506, 0.0145068 0.00368793 -0.00719235, 0.0145068 0.00368793 -0.00719235, 0.015409 0.00308962 -0.00742506, 
            0.0154875 0.00312192 -0.00903084, 0.0145068 0.00368793 -0.00719235, 0.015409 0.00308962 -0.00742506, 0.00275941 0.00302547 -0.00383292, 
            0.015409 0.00308962 -0.00742506, 0.0145068 0.00368793 -0.00719235, 0.0154875 0.00312192 -0.00903084, 0.00974277 0.000698933 -0.00709689, 
            0.009239 0.0014325 -0.00729671, 0.0143026 0.00244793 0.00303341, 0.0100803 0.00390266 -0.00742477, 0.009239 0.0014325 -0.00729671, 
            0.00974277 0.000698933 -0.00709689, 0.00928844 0.00652986 0.00490735, 0.0176877 0.00702113 0.00319542, 0.0100258 0.0080063 0.0030468, 
            0.0188721 0.00507854 -0.00352789, 0.0212725 0 -0.005715, 0.0258717 0.00104494 -0.005873, 0.0222518 0.00146632 -0.00867633, 
            0.0258717 0.00104494 -0.005873, 0.0212725 0 -0.005715, 0.0188721 0.00507854 -0.00352789, 0.00338563 0.00557766 -0.00460409, 
            -0.00332271 -0.00534899 -0.000880741, 0.0188721 0.00507854 -0.00352789, 0.0258717 0.00104494 -0.005873, 0.00322303 0.0043042 0.000656538, 
            0.0112483 -0.00693529 -0.00100603, 0.00763038 -0.00499924 0.00831008, 0.00763038 -0.00499924 -0.00831008, 0.0112483 -0.00693529 -0.00100603, 
            0.00763038 -0.00499924 -0.00831008, 0.00899723 -0.00292408 -0.00937098
          ]
        }
        coordIndex
        [
          0,1,2,-1, 3,4,5,-1, 6,7,8,-1, 9,10,11,-1, 12,13,14,-1, 15,16,17,-1, 
          18,19,20,-1, 21,22,23,-1, 24,25,26,-1, 27,28,29,-1, 30,31,32,-1, 33,34,35,-1, 
          36,37,38,-1, 39,40,41,-1, 42,43,44,-1, 45,46,47,-1, 48,49,50,-1, 51,52,53,-1, 
          54,55,56,-1, 57,58,59,-1, 60,61,62,-1, 63,64,65,-1, 66,67,68,-1, 69,70,71,-1, 
          72,73,74,-1, 75,76,77,-1, 78,79,80,-1, 81,82,83,-1, 84,85,86,-1, 87,88,89,-1, 
          90,91,92,-1, 93,94,95,-1, 96,97,98,-1, 99,100,101,-1, 102,103,104,-1, 105,106,107,-1, 
          108,109,110,-1, 111,112,113,-1, 114,115,116,-1, 117,118,119,-1, 120,121,122,-1, 123,124,125,-1, 
          126,127,128,-1, 129,130,131,-1, 132,133,134,-1, 135,136,137,-1, 138,139,140,-1, 141,142,143,-1, 
          144,145,146,-1, 147,148,149,-1, 150,151,152,-1, 153,154,155,-1, 156,157,158,-1, 159,160,161,-1, 
          162,163,164,-1, 165,166,167,-1, 168,169,170,-1, 171,172,173,-1, 174,175,176,-1, 177,178,179,-1, 
          180,181,182,-1, 183,184,185,-1, 186,187,188,-1, 189,190,191,-1, 192,193,194,-1, 195,196,197,-1, 
          198,199,200,-1, 201,202,203,-1, 204,205,206,-1, 207,208,209,-1, 210,211,212,-1, 213,214,215,-1, 
          216,217,218,-1, 219,220,221,-1, 222,223,224,-1, 225,226,227,-1, 228,229,230,-1, 231,232,233,-1, 
          234,235,236,-1, 237,238,239,-1, 240,241,242,-1, 243,244,245,-1, 246,247,248,-1, 249,250,251,-1, 
          252,253,254,-1, 255,256,257,-1, 258,259,260,-1, 261,262,263,-1, 264,265,266,-1, 267,268,269,-1, 
          270,271,272,-1, 273,274,275,-1, 276,277,278,-1, 279,280,281,-1, 282,283,284,-1, 285,286,287,-1, 
          288,289,290,-1, 291,292,293,-1, 294,295,296,-1, 297,298,299,-1, 300,301,302,-1, 303,304,305,-1, 
          306,307,308,-1, 309,310,311,-1, 312,313,314,-1, 315,316,317,-1, 318,319,320,-1, 321,322,323,-1, 
          324,325,326,-1, 327,328,329,-1, 330,331,332,-1, 333,334,335,-1, 336,337,338,-1, 339,340,341,-1, 
          342,343,344,-1, 345,346,347,-1, 348,349,350,-1, 351,352,353,-1, 354,355,356,-1, 357,358,359,-1, 
          360,361,362,-1, 363,364,365,-1, 366,367,368,-1, 369,370,371,-1, 372,373,374,-1, 375,376,377,-1, 
          378,379,380,-1, 381,382,383,-1, 384,385,386,-1, 387,388,389,-1, 390,391,392,-1, 393,394,395,-1, 
          396,397,398,-1, 399,400,401,-1, 402,403,404,-1, 405,406,407,-1, 408,409,410,-1, 411,412,413,-1, 
          414,415,416,-1, 417,418,419,-1, 420,421,422,-1, 423,424,425,-1, 426,427,428,-1, 429,430,431,-1, 
          432,433,434,-1, 435,436,437,-1, 438,439,440,-1, 441,442,443,-1, 444,445,446,-1, 447,448,449,-1, 
          450,451,452,-1, 453,454,455,-1, 456,457,458,-1, 459,460,461,-1, 462,463,464,-1, 465,466,467,-1, 
          468,469,470,-1, 471,472,473,-1, 474,475,476,-1, 477,478,479,-1, 480,481,482,-1, 483,484,485,-1, 
          486,487,488,-1, 489,490,491,-1, 492,493,494,-1, 495,496,497,-1, 498,499,500,-1, 501,502,503,-1, 
          504,505,506,-1, 507,508,509,-1, 510,511,512,-1, 513,514,515,-1, 516,517,518,-1, 519,520,521,-1, 
          522,523,524,-1, 525,526,527,-1, 528,529,530,-1, 531,532,533,-1, 534,535,536,-1, 537,538,539,-1, 
          540,541,542,-1, 543,544,545,-1, 546,547,548,-1, 549,550,551,-1, 552,553,554,-1, 555,556,557,-1, 
          558,559,560,-1, 561,562,563,-1, 564,565,566,-1, 567,568,569,-1, 570,571,572,-1, 573,574,575,-1, 
          576,577,578,-1, 579,580,581,-1, 582,583,584,-1, 585,586,587,-1, 588,589,590,-1, 591,592,593,-1, 
          594,595,596,-1, 597,598,599,-1, 600,601,602,-1, 603,604,605,-1, 606,607,608,-1, 609,610,611,-1, 
          612,613,614,-1, 615,616,617,-1, 618,619,620,-1, 621,622,623,-1, 624,625,626,-1, 627,628,629,-1, 
          630,631,632,-1, 633,634,635,-1, 636,637,638,-1, 639,640,641,-1, 642,643,644,-1, 645,646,647,-1, 
          648,649,650,-1, 651,652,653,-1
        ]
      }
      appearance Appearance
      {
        material Material
        {
	       ambientIntensity 0.2
	       diffuseColor 0.9 0.9 0.9
	       specularColor .1 .1 .1
	       shininess .5
        }
      }
    }
  ]
}
