####
#
# OBJ File Generated by Meshlab
#
####
# Object pf4.obj
#
# Vertices: 714
# Faces: 238
#
####
vn 0.033689 -0.996862 -0.071639
v 0.013573 -0.003013 0.002794
vn 0.033689 -0.996862 -0.071639
v 0.007006 -0.003220 0.002585
vn 0.033689 -0.996862 -0.071639
v 0.008772 -0.002703 -0.003778
vn -0.320661 0.604617 -0.729119
v 0.000513 0.001475 0.002563
vn -0.320661 0.604617 -0.729119
v 0.004595 0.004644 0.003396
vn -0.320661 0.604617 -0.729119
v 0.002496 -0.002579 -0.001671
vn -0.030938 0.999369 -0.017465
v 0.013573 -0.003013 0.002794
vn -0.030938 0.999369 -0.017465
v 0.006854 -0.003317 -0.002647
vn -0.030938 0.999369 -0.017465
v 0.007006 -0.003220 0.002585
vn 0.082640 0.617393 0.782302
v 0.016654 0.003336 0.005288
vn 0.082640 0.617393 0.782302
v -0.000089 0.004985 0.005756
vn 0.082640 0.617393 0.782302
v 0.016913 0.001369 0.006813
vn -0.045064 0.998984 0.000000
v 0.013573 -0.003013 0.002794
vn -0.045064 0.998984 0.000000
v 0.013573 -0.003013 -0.002794
vn -0.045064 0.998984 0.000000
v 0.006854 -0.003317 -0.002647
vn -0.064458 -0.997920 0.000000
v 0.013573 -0.003013 -0.002794
vn -0.064458 -0.997920 0.000000
v 0.013573 -0.003013 0.002794
vn -0.064458 -0.997920 0.000000
v 0.008772 -0.002703 -0.003778
vn 0.416037 -0.897794 -0.144495
v -0.001266 -0.004117 -0.002946
vn 0.416037 -0.897794 -0.144495
v 0.002496 -0.002579 -0.001671
vn 0.416037 -0.897794 -0.144495
v -0.002077 -0.005174 0.001289
vn -0.252595 -0.967315 -0.022296
v 0.000513 0.001475 0.002563
vn -0.252595 -0.967315 -0.022296
v 0.002180 0.001159 -0.002629
vn -0.252595 -0.967315 -0.022296
v 0.002939 0.000813 0.003818
vn 0.008970 -0.989823 0.142023
v 0.010333 0.004082 0.000732
vn 0.008970 -0.989823 0.142023
v 0.010296 0.004847 0.006068
vn 0.008970 -0.989823 0.142023
v 0.004838 0.004611 0.004767
vn 0.020243 0.201413 0.979297
v 0.002180 0.001159 -0.002629
vn 0.020243 0.201413 0.979297
v 0.015730 0.003525 -0.003396
vn 0.020243 0.201413 0.979297
v 0.007779 0.004324 -0.003396
vn 0.006691 -0.807139 0.590324
v 0.007006 -0.003220 0.002585
vn 0.006691 -0.807139 0.590324
v 0.013573 -0.003013 0.002794
vn 0.006691 -0.807139 0.590324
v 0.007715 -0.000954 0.005677
vn -0.006691 0.807139 -0.590324
v 0.013573 -0.003013 0.002794
vn -0.006691 0.807139 -0.590324
v 0.007006 -0.003220 0.002585
vn -0.006691 0.807139 -0.590324
v 0.007715 -0.000954 0.005677
vn 0.448090 -0.090859 0.889359
v 0.007642 0.000791 0.007952
vn 0.448090 -0.090859 0.889359
v 0.007008 -0.002953 0.007889
vn 0.448090 -0.090859 0.889359
v 0.023087 -0.002347 -0.000151
vn -0.833913 0.537078 0.127027
v 0.002939 0.000813 0.003818
vn -0.833913 0.537078 0.127027
v 0.002180 0.001159 -0.002629
vn -0.833913 0.537078 0.127027
v -0.001266 -0.004117 -0.002946
vn -0.842709 0.518103 0.146324
v 0.000350 -0.003731 0.004996
vn -0.842709 0.518103 0.146324
v 0.002939 0.000813 0.003818
vn -0.842709 0.518103 0.146324
v -0.001266 -0.004117 -0.002946
vn -0.156376 -0.987697 -0.000778
v 0.011989 0.004220 -0.002908
vn -0.156376 -0.987697 -0.000778
v 0.016909 0.003436 0.002930
vn -0.156376 -0.987697 -0.000778
v 0.012284 0.004168 0.004177
vn 0.132262 0.989073 -0.065120
v 0.014675 0.005859 0.002659
vn 0.132262 0.989073 -0.065120
v 0.017867 0.004969 -0.004373
vn 0.132262 0.989073 -0.065120
v 0.011473 0.005854 -0.003928
vn 0.774044 0.448424 0.446958
v 0.023087 -0.002347 -0.000151
vn 0.774044 0.448424 0.446958
v 0.016654 0.003336 0.005288
vn 0.774044 0.448424 0.446958
v 0.016913 0.001369 0.006813
vn 0.679291 -0.714764 -0.166361
v 0.008687 0.004218 0.004886
vn 0.679291 -0.714764 -0.166361
v 0.000350 -0.003731 0.004996
vn 0.679291 -0.714764 -0.166361
v -0.002077 -0.005174 0.001289
vn 0.869978 -0.492820 -0.016320
v 0.006854 -0.003317 -0.002647
vn 0.869978 -0.492820 -0.016320
v 0.007006 -0.003220 0.002585
vn 0.869978 -0.492820 -0.016320
v 0.005687 -0.005302 -0.004917
vn -0.862169 0.506621 0.000239
v 0.006854 -0.003317 -0.002647
vn -0.862169 0.506621 0.000239
v 0.005687 -0.005302 -0.004917
vn -0.862169 0.506621 0.000239
v 0.005546 -0.005546 0.004113
vn -0.980976 -0.194127 0.000000
v 0.017063 0.001268 0.005207
vn -0.980976 -0.194127 0.000000
v 0.016654 0.003336 0.005288
vn -0.980976 -0.194127 0.000000
v 0.016654 0.003336 -0.005288
vn 0.662082 0.749432 -0.000000
v 0.023087 -0.002347 -0.000151
vn 0.662082 0.749432 -0.000000
v 0.016654 0.003336 -0.005288
vn 0.662082 0.749432 -0.000000
v 0.016654 0.003336 0.005288
vn 0.031655 0.998221 -0.050524
v 0.017957 0.001056 0.005213
vn 0.031655 0.998221 -0.050524
v 0.002180 0.001159 -0.002629
vn 0.031655 0.998221 -0.050524
v 0.000513 0.001475 0.002563
vn 0.333022 0.935956 0.114380
v 0.009317 0.006325 -0.003174
vn 0.333022 0.935956 0.114380
v 0.006144 0.006692 0.003059
vn 0.333022 0.935956 0.114380
v 0.010296 0.004847 0.006068
vn 0.431496 0.898363 0.082194
v 0.014675 0.005859 0.002659
vn 0.431496 0.898363 0.082194
v 0.020643 0.003453 -0.002377
vn 0.431496 0.898363 0.082194
v 0.017867 0.004969 -0.004373
vn 0.798874 -0.407915 -0.442047
v 0.012284 0.004168 0.004177
vn 0.798874 -0.407915 -0.442047
v 0.010333 0.004082 0.000732
vn 0.798874 -0.407915 -0.442047
v 0.009317 0.006325 -0.003174
vn -0.969303 0.202714 0.139133
v 0.011473 0.005854 -0.003928
vn -0.969303 0.202714 0.139133
v 0.012284 0.004168 0.004177
vn -0.969303 0.202714 0.139133
v 0.012474 0.006064 0.002740
vn -0.259274 0.027624 0.965409
v -0.000089 0.004985 0.005756
vn -0.259274 0.027624 0.965409
v 0.007008 -0.002953 0.007889
vn -0.259274 0.027624 0.965409
v 0.007642 0.000791 0.007952
vn 0.066964 0.557002 0.827807
v -0.000089 0.004985 0.005756
vn 0.066964 0.557002 0.827807
v 0.007642 0.000791 0.007952
vn 0.066964 0.557002 0.827807
v 0.016913 0.001369 0.006813
vn 0.863874 -0.503694 -0.003676
v 0.006854 -0.003317 -0.002647
vn 0.863874 -0.503694 -0.003676
v 0.005687 -0.005302 -0.004917
vn 0.863874 -0.503694 -0.003676
v 0.006892 -0.003214 -0.007720
vn 0.150094 -0.777903 -0.610196
v 0.007642 0.000791 -0.007952
vn 0.150094 -0.777903 -0.610196
v 0.016949 0.001663 -0.006773
vn 0.150094 -0.777903 -0.610196
v 0.023087 -0.002347 -0.000151
vn 0.049562 0.574873 -0.816740
v 0.007642 0.000791 -0.007952
vn 0.049562 0.574873 -0.816740
v -0.000172 0.005422 -0.005167
vn 0.049562 0.574873 -0.816740
v 0.016949 0.001663 -0.006773
vn -0.863874 0.503694 0.003676
v 0.006854 -0.003317 -0.002647
vn -0.863874 0.503694 0.003676
v 0.006892 -0.003214 -0.007720
vn -0.863874 0.503694 0.003676
v 0.005687 -0.005302 -0.004917
vn 0.118781 -0.828441 0.547335
v 0.023087 -0.002347 -0.000151
vn 0.118781 -0.828441 0.547335
v 0.016913 0.001369 0.006813
vn 0.118781 -0.828441 0.547335
v 0.007642 0.000791 0.007952
vn 0.846449 -0.532469 -0.001183
v 0.007006 -0.003220 0.002585
vn 0.846449 -0.532469 -0.001183
v 0.005546 -0.005546 0.004113
vn 0.846449 -0.532469 -0.001183
v 0.005687 -0.005302 -0.004917
vn -0.842338 0.538749 0.014670
v 0.007006 -0.003220 0.002585
vn -0.842338 0.538749 0.014670
v 0.006854 -0.003317 -0.002647
vn -0.842338 0.538749 0.014670
v 0.005546 -0.005546 0.004113
vn 0.267981 -0.839485 0.472705
v 0.005546 -0.005546 0.004113
vn 0.267981 -0.839485 0.472705
v 0.023087 -0.002347 -0.000151
vn 0.267981 -0.839485 0.472705
v 0.007008 -0.002953 0.007889
vn -0.200543 -0.969956 0.137725
v 0.010333 0.004082 0.000732
vn -0.200543 -0.969956 0.137725
v 0.012284 0.004168 0.004177
vn -0.200543 -0.969956 0.137725
v 0.010296 0.004847 0.006068
vn 0.464949 0.715768 -0.521056
v 0.000513 0.001475 0.002563
vn 0.464949 0.715768 -0.521056
v 0.002939 0.000813 0.003818
vn 0.464949 0.715768 -0.521056
v -0.002099 -0.000784 -0.002871
vn -0.619238 0.785203 0.000000
v 0.013573 -0.003013 -0.002794
vn -0.619238 0.785203 0.000000
v 0.013573 -0.003013 0.002794
vn -0.619238 0.785203 0.000000
v 0.018199 0.000635 -0.005548
vn -0.014511 0.806507 0.591047
v 0.013573 -0.003013 -0.002794
vn -0.014511 0.806507 0.591047
v 0.016325 -0.001162 -0.005253
vn -0.014511 0.806507 0.591047
v 0.007706 -0.001069 -0.005591
vn 0.153285 -0.687415 -0.709904
v 0.007706 -0.001069 -0.005591
vn 0.153285 -0.687415 -0.709904
v 0.016885 0.001167 -0.005774
vn 0.153285 -0.687415 -0.709904
v 0.008772 -0.002703 -0.003778
vn -0.248564 0.726939 -0.640138
v 0.009317 0.006325 -0.003174
vn -0.248564 0.726939 -0.640138
v 0.010258 0.004075 -0.006095
vn -0.248564 0.726939 -0.640138
v 0.002226 0.006162 -0.000606
vn -0.548915 -0.835484 0.025674
v 0.004219 0.004767 -0.003384
vn -0.548915 -0.835484 0.025674
v 0.004838 0.004611 0.004767
vn -0.548915 -0.835484 0.025674
v 0.002226 0.006162 -0.000606
vn -0.137515 0.842133 -0.521441
v 0.004219 0.004767 -0.003384
vn -0.137515 0.842133 -0.521441
v 0.002226 0.006162 -0.000606
vn -0.137515 0.842133 -0.521441
v 0.010258 0.004075 -0.006095
vn 0.569347 0.123850 0.812715
v -0.000172 0.005422 -0.005167
vn 0.569347 0.123850 0.812715
v -0.002099 -0.000784 -0.002871
vn 0.569347 0.123850 0.812715
v -0.001266 -0.004117 -0.002946
vn 0.012570 -0.139141 0.990193
v 0.016229 -0.001150 0.005345
vn 0.012570 -0.139141 0.990193
v 0.017000 0.000854 0.005617
vn 0.012570 -0.139141 0.990193
v 0.007862 0.000763 0.005721
vn 0.556817 -0.830635 0.000000
v 0.018318 0.000167 0.001930
vn 0.556817 -0.830635 0.000000
v 0.013573 -0.003013 0.002794
vn 0.556817 -0.830635 0.000000
v 0.013573 -0.003013 -0.002794
vn -0.671501 0.741004 0.000000
v 0.016229 -0.001150 0.005345
vn -0.671501 0.741004 0.000000
v 0.018199 0.000635 0.005548
vn -0.671501 0.741004 0.000000
v 0.018199 0.000635 -0.005548
vn -0.035031 0.147543 -0.988435
v 0.016229 -0.001150 0.005345
vn -0.035031 0.147543 -0.988435
v 0.007715 -0.000954 0.005677
vn -0.035031 0.147543 -0.988435
v 0.017000 0.000854 0.005617
vn -0.854111 0.519442 -0.025968
v 0.007006 -0.003220 0.002585
vn -0.854111 0.519442 -0.025968
v 0.005546 -0.005546 0.004113
vn -0.854111 0.519442 -0.025968
v 0.007008 -0.002953 0.007889
vn 0.947974 -0.317955 0.015798
v 0.007006 -0.003220 0.002585
vn 0.947974 -0.317955 0.015798
v 0.007715 -0.000954 0.005677
vn 0.947974 -0.317955 0.015798
v 0.007008 -0.002953 0.007889
vn -0.947974 0.317955 -0.015798
v 0.007006 -0.003220 0.002585
vn -0.947974 0.317955 -0.015798
v 0.007008 -0.002953 0.007889
vn -0.947974 0.317955 -0.015798
v 0.007715 -0.000954 0.005677
vn 0.854111 -0.519442 0.025968
v 0.007006 -0.003220 0.002585
vn 0.854111 -0.519442 0.025968
v 0.007008 -0.002953 0.007889
vn 0.854111 -0.519442 0.025968
v 0.005546 -0.005546 0.004113
vn 0.988473 0.132896 -0.072518
v 0.004219 0.004767 -0.003384
vn 0.988473 0.132896 -0.072518
v 0.003989 0.006592 -0.003176
vn 0.988473 0.132896 -0.072518
v 0.004838 0.004611 0.004767
vn -0.639960 -0.262565 0.722157
v 0.006144 0.006692 0.003059
vn -0.639960 -0.262565 0.722157
v 0.002226 0.006162 -0.000606
vn -0.639960 -0.262565 0.722157
v 0.010296 0.004847 0.006068
vn -0.848425 0.529303 -0.003566
v 0.005338 0.005359 -0.003146
vn -0.848425 0.529303 -0.003566
v 0.004838 0.004611 0.004767
vn -0.848425 0.529303 -0.003566
v 0.006144 0.006692 0.003059
vn 0.166114 0.936956 -0.307439
v 0.015419 0.003556 -0.004887
vn 0.166114 0.936956 -0.307439
v 0.010258 0.004075 -0.006095
vn 0.166114 0.936956 -0.307439
v 0.020643 0.003453 -0.002377
vn -0.153033 -0.981987 -0.110831
v 0.017532 0.004180 -0.004519
vn -0.153033 -0.981987 -0.110831
v 0.020643 0.003453 -0.002377
vn -0.153033 -0.981987 -0.110831
v 0.016909 0.003436 0.002930
vn -0.209574 -0.090742 0.973573
v 0.017867 0.004969 -0.004373
vn -0.209574 -0.090742 0.973573
v 0.010258 0.004075 -0.006095
vn -0.209574 -0.090742 0.973573
v 0.017532 0.004180 -0.004519
vn -0.903739 0.291951 0.313081
v -0.002077 -0.005174 0.001289
vn -0.903739 0.291951 0.313081
v 0.000513 0.001475 0.002563
vn -0.903739 0.291951 0.313081
v -0.002099 -0.000784 -0.002871
vn -0.959343 -0.279703 0.037779
v 0.011989 0.004220 -0.002908
vn -0.959343 -0.279703 0.037779
v 0.012284 0.004168 0.004177
vn -0.959343 -0.279703 0.037779
v 0.011473 0.005854 -0.003928
vn 0.328033 0.853518 0.404848
v 0.010333 0.004082 0.000732
vn 0.328033 0.853518 0.404848
v 0.011473 0.005854 -0.003928
vn 0.328033 0.853518 0.404848
v 0.009317 0.006325 -0.003174
vn -0.796925 -0.604005 0.009430
v 0.010333 0.004082 0.000732
vn -0.796925 -0.604005 0.009430
v 0.009730 0.004817 -0.003177
vn -0.796925 -0.604005 0.009430
v 0.010258 0.004075 -0.006095
vn -0.044305 0.966235 -0.253824
v 0.009730 0.004817 -0.003177
vn -0.044305 0.966235 -0.253824
v 0.010258 0.004075 -0.006095
vn -0.044305 0.966235 -0.253824
v 0.008090 0.004293 -0.004887
vn 0.135220 0.727311 -0.672855
v 0.011473 0.005854 -0.003928
vn 0.135220 0.727311 -0.672855
v 0.017532 0.004180 -0.004519
vn 0.135220 0.727311 -0.672855
v 0.010258 0.004075 -0.006095
vn 0.044305 -0.966235 0.253824
v 0.009730 0.004817 -0.003177
vn 0.044305 -0.966235 0.253824
v 0.008090 0.004293 -0.004887
vn 0.044305 -0.966235 0.253824
v 0.010258 0.004075 -0.006095
vn -0.533314 -0.481696 -0.695374
v 0.007642 0.000791 -0.007952
vn -0.533314 -0.481696 -0.695374
v 0.002496 -0.002579 -0.001671
vn -0.533314 -0.481696 -0.695374
v -0.000172 0.005422 -0.005167
vn 0.122173 0.989770 -0.073688
v 0.016654 0.003336 -0.005288
vn 0.122173 0.989770 -0.073688
v -0.000172 0.005422 -0.005167
vn 0.122173 0.989770 -0.073688
v 0.015108 0.003587 -0.004478
vn -0.030413 -0.429138 0.902727
v 0.015419 0.003556 -0.004887
vn -0.030413 -0.429138 0.902727
v 0.017532 0.004180 -0.004519
vn -0.030413 -0.429138 0.902727
v 0.011473 0.005854 -0.003928
vn -0.666615 -0.744777 -0.030530
v 0.002496 -0.002579 -0.001671
vn -0.666615 -0.744777 -0.030530
v 0.005687 -0.005302 -0.004917
vn -0.666615 -0.744777 -0.030530
v 0.005546 -0.005546 0.004113
vn -0.550119 0.834437 -0.032917
v 0.010396 0.002877 0.004622
vn -0.550119 0.834437 -0.032917
v 0.002496 -0.002579 -0.001671
vn -0.550119 0.834437 -0.032917
v 0.000350 -0.003731 0.004996
vn -0.965543 0.190988 0.176777
v 0.007706 -0.001069 -0.005591
vn -0.965543 0.190988 0.176777
v 0.007642 0.000791 -0.007952
vn -0.965543 0.190988 0.176777
v 0.006892 -0.003214 -0.007720
vn 0.017407 -0.152576 -0.988138
v 0.007706 -0.001069 -0.005591
vn 0.017407 -0.152576 -0.988138
v 0.007888 0.000967 -0.005902
vn 0.017407 -0.152576 -0.988138
v 0.016885 0.001167 -0.005774
vn -0.037025 0.154206 0.987345
v 0.016325 -0.001162 -0.005253
vn -0.037025 0.154206 0.987345
v 0.007888 0.000967 -0.005902
vn -0.037025 0.154206 0.987345
v 0.007706 -0.001069 -0.005591
vn 0.965543 -0.190988 -0.176777
v 0.007706 -0.001069 -0.005591
vn 0.965543 -0.190988 -0.176777
v 0.006892 -0.003214 -0.007720
vn 0.965543 -0.190988 -0.176777
v 0.007642 0.000791 -0.007952
vn -0.999850 0.017301 0.000000
v 0.007714 0.000552 -0.004562
vn -0.999850 0.017301 0.000000
v 0.007779 0.004324 -0.003396
vn -0.999850 0.017301 0.000000
v 0.007779 0.004324 -0.004478
vn 0.100000 0.994987 0.000000
v 0.007779 0.004324 -0.004478
vn 0.100000 0.994987 0.000000
v 0.007779 0.004324 -0.003396
vn 0.100000 0.994987 0.000000
v 0.015108 0.003587 -0.004478
vn -0.134165 0.451123 0.882320
v -0.000172 0.005422 -0.005167
vn -0.134165 0.451123 0.882320
v 0.002180 0.001159 -0.002629
vn -0.134165 0.451123 0.882320
v 0.007779 0.004324 -0.003396
vn 0.999850 -0.017301 0.000000
v 0.007714 0.000552 -0.004562
vn 0.999850 -0.017301 0.000000
v 0.007779 0.004324 -0.004478
vn 0.999850 -0.017301 0.000000
v 0.007779 0.004324 -0.003396
vn 0.557527 -0.830158 -0.001034
v 0.016325 -0.001162 -0.005253
vn 0.557527 -0.830158 -0.001034
v 0.018318 0.000167 0.001930
vn 0.557527 -0.830158 -0.001034
v 0.013573 -0.003013 -0.002794
vn 0.278813 0.959836 -0.031260
v 0.017957 0.001056 0.005213
vn 0.278813 0.959836 -0.031260
v 0.018199 0.000635 -0.005548
vn 0.278813 0.959836 -0.031260
v 0.017036 0.000972 -0.005596
vn -0.689055 0.675416 -0.262709
v 0.013573 -0.003013 -0.002794
vn -0.689055 0.675416 -0.262709
v 0.018199 0.000635 -0.005548
vn -0.689055 0.675416 -0.262709
v 0.016325 -0.001162 -0.005253
vn 0.285475 -0.712540 0.640930
v 0.008090 0.004293 -0.004887
vn 0.285475 -0.712540 0.640930
v 0.010258 0.004075 -0.006095
vn 0.285475 -0.712540 0.640930
v 0.009317 0.006325 -0.003174
vn 0.671146 -0.721056 -0.172167
v 0.018199 0.000635 0.005548
vn 0.671146 -0.721056 -0.172167
v 0.016229 -0.001150 0.005345
vn 0.671146 -0.721056 -0.172167
v 0.013573 -0.003013 0.002794
vn -0.590330 0.806761 0.025461
v 0.013573 -0.003013 0.002794
vn -0.590330 0.806761 0.025461
v 0.016229 -0.001150 0.005345
vn -0.590330 0.806761 0.025461
v 0.018199 0.000635 -0.005548
vn -0.004116 0.809655 -0.586891
v 0.016229 -0.001150 0.005345
vn -0.004116 0.809655 -0.586891
v 0.013573 -0.003013 0.002794
vn -0.004116 0.809655 -0.586891
v 0.007715 -0.000954 0.005677
vn 0.014559 -0.799322 0.600727
v 0.013573 -0.003013 0.002794
vn 0.014559 -0.799322 0.600727
v 0.013294 -0.000939 0.005561
vn 0.014559 -0.799322 0.600727
v 0.007715 -0.000954 0.005677
vn 0.959644 0.072062 -0.271828
v -0.002099 -0.000784 -0.002871
vn 0.959644 0.072062 -0.271828
v -0.000089 0.004985 0.005756
vn 0.959644 0.072062 -0.271828
v 0.000350 -0.003731 0.004996
vn -0.018778 0.222691 0.974708
v 0.016325 -0.001162 -0.005253
vn -0.018778 0.222691 0.974708
v 0.016885 0.001167 -0.005774
vn -0.018778 0.222691 0.974708
v 0.007888 0.000967 -0.005902
vn -0.004792 -0.157248 -0.987547
v 0.017036 0.000972 -0.005596
vn -0.004792 -0.157248 -0.987547
v 0.018199 0.000635 -0.005548
vn -0.004792 -0.157248 -0.987547
v 0.016325 -0.001162 -0.005253
vn -0.152811 -0.180777 -0.971580
v 0.016885 0.001167 -0.005774
vn -0.152811 -0.180777 -0.971580
v 0.016325 -0.001162 -0.005253
vn -0.152811 -0.180777 -0.971580
v 0.008772 -0.002703 -0.003778
vn -0.100491 -0.994936 0.002120
v 0.010333 0.004082 0.000732
vn -0.100491 -0.994936 0.002120
v 0.010258 0.004075 -0.006095
vn -0.100491 -0.994936 0.002120
v 0.015419 0.003556 -0.004887
vn -0.934979 0.354704 0.000144
v 0.007706 -0.001069 -0.005591
vn -0.934979 0.354704 0.000144
v 0.006892 -0.003214 -0.007720
vn -0.934979 0.354704 0.000144
v 0.006854 -0.003317 -0.002647
vn 0.934979 -0.354704 -0.000144
v 0.007706 -0.001069 -0.005591
vn 0.934979 -0.354704 -0.000144
v 0.006854 -0.003317 -0.002647
vn 0.934979 -0.354704 -0.000144
v 0.006892 -0.003214 -0.007720
vn -0.022802 0.797850 0.602424
v 0.013573 -0.003013 -0.002794
vn -0.022802 0.797850 0.602424
v 0.007706 -0.001069 -0.005591
vn -0.022802 0.797850 0.602424
v 0.006854 -0.003317 -0.002647
vn -0.179340 -0.983601 0.019123
v 0.011989 0.004220 -0.002908
vn -0.179340 -0.983601 0.019123
v 0.015419 0.003556 -0.004887
vn -0.179340 -0.983601 0.019123
v 0.016909 0.003436 0.002930
vn 0.487089 0.869724 -0.079528
v 0.011473 0.005854 -0.003928
vn 0.487089 0.869724 -0.079528
v 0.016909 0.003436 0.002930
vn 0.487089 0.869724 -0.079528
v 0.015419 0.003556 -0.004887
vn -0.972844 0.167408 -0.159839
v 0.007715 -0.000954 0.005677
vn -0.972844 0.167408 -0.159839
v 0.007008 -0.002953 0.007889
vn -0.972844 0.167408 -0.159839
v 0.007642 0.000791 0.007952
vn 0.972844 -0.167408 0.159839
v 0.007715 -0.000954 0.005677
vn 0.972844 -0.167408 0.159839
v 0.007642 0.000791 0.007952
vn 0.972844 -0.167408 0.159839
v 0.007008 -0.002953 0.007889
vn -0.011556 0.026605 -0.999579
v 0.007715 -0.000954 0.005677
vn -0.011556 0.026605 -0.999579
v 0.007862 0.000763 0.005721
vn -0.011556 0.026605 -0.999579
v 0.017000 0.000854 0.005617
vn 0.020725 -0.027387 0.999410
v 0.013294 -0.000939 0.005561
vn 0.020725 -0.027387 0.999410
v 0.007862 0.000763 0.005721
vn 0.020725 -0.027387 0.999410
v 0.007715 -0.000954 0.005677
vn -0.159736 0.232511 0.959387
v 0.002180 0.001159 -0.002629
vn -0.159736 0.232511 0.959387
v -0.002099 -0.000784 -0.002871
vn -0.159736 0.232511 0.959387
v 0.002496 -0.002579 -0.001671
vn 0.332785 -0.647665 -0.685408
v -0.002077 -0.005174 0.001289
vn 0.332785 -0.647665 -0.685408
v -0.002099 -0.000784 -0.002871
vn 0.332785 -0.647665 -0.685408
v 0.002180 0.001159 -0.002629
vn -0.244874 0.863360 -0.441188
v 0.010396 0.002877 0.004622
vn -0.244874 0.863360 -0.441188
v 0.015108 0.003587 0.003396
vn -0.244874 0.863360 -0.441188
v 0.002496 -0.002579 -0.001671
vn -0.090025 0.080697 -0.992665
v 0.000350 -0.003731 0.004996
vn -0.090025 0.080697 -0.992665
v 0.008687 0.004218 0.004886
vn -0.090025 0.080697 -0.992665
v 0.010396 0.002877 0.004622
vn 0.794853 -0.415160 -0.442550
v 0.012284 0.004168 0.004177
vn 0.794853 -0.415160 -0.442550
v 0.009317 0.006325 -0.003174
vn 0.794853 -0.415160 -0.442550
v 0.012474 0.006064 0.002740
vn -0.868881 0.153765 0.470533
v 0.012474 0.006064 0.002740
vn -0.868881 0.153765 0.470533
v 0.009317 0.006325 -0.003174
vn -0.868881 0.153765 0.470533
v 0.013786 0.004836 0.005564
vn -0.799537 -0.303720 0.518165
v 0.007008 -0.002953 0.007889
vn -0.799537 -0.303720 0.518165
v 0.002939 0.000813 0.003818
vn -0.799537 -0.303720 0.518165
v 0.005546 -0.005546 0.004113
vn -0.890389 -0.351598 0.289112
v 0.005546 -0.005546 0.004113
vn -0.890389 -0.351598 0.289112
v 0.002939 0.000813 0.003818
vn -0.890389 -0.351598 0.289112
v 0.002496 -0.002579 -0.001671
vn -0.169277 -0.977282 -0.127538
v 0.004219 0.004767 -0.003384
vn -0.169277 -0.977282 -0.127538
v 0.010258 0.004075 -0.006095
vn -0.169277 -0.977282 -0.127538
v 0.008090 0.004293 -0.004887
vn 0.068645 -0.993605 -0.089653
v 0.005338 0.005359 -0.003146
vn 0.068645 -0.993605 -0.089653
v 0.011473 0.005854 -0.003928
vn 0.068645 -0.993605 -0.089653
v 0.004838 0.004611 0.004767
vn 0.030336 -0.145793 0.988850
v 0.016229 -0.001150 0.005345
vn 0.030336 -0.145793 0.988850
v 0.018199 0.000635 0.005548
vn 0.030336 -0.145793 0.988850
v 0.017000 0.000854 0.005617
vn 0.137529 0.559986 -0.817008
v 0.017063 0.001268 0.005207
vn 0.137529 0.559986 -0.817008
v 0.017957 0.001056 0.005213
vn 0.137529 0.559986 -0.817008
v 0.000513 0.001475 0.002563
vn -0.230963 -0.972960 0.002407
v 0.017957 0.001056 0.005213
vn -0.230963 -0.972960 0.002407
v 0.017063 0.001268 0.005207
vn -0.230963 -0.972960 0.002407
v 0.017034 0.001249 -0.005388
vn -0.026239 0.896042 0.443193
v 0.016885 0.001167 -0.005774
vn -0.026239 0.896042 0.443193
v 0.016949 0.001663 -0.006773
vn -0.026239 0.896042 0.443193
v 0.007888 0.000967 -0.005902
vn -0.983820 -0.179136 0.003065
v 0.017034 0.001249 -0.005388
vn -0.983820 -0.179136 0.003065
v 0.017063 0.001268 0.005207
vn -0.983820 -0.179136 0.003065
v 0.016654 0.003336 -0.005288
vn 0.138249 -0.890604 -0.433256
v 0.016885 0.001167 -0.005774
vn 0.138249 -0.890604 -0.433256
v 0.007642 0.000791 -0.007952
vn 0.138249 -0.890604 -0.433256
v 0.016949 0.001663 -0.006773
vn 0.894833 0.142522 0.423039
v 0.017034 0.001249 -0.005388
vn 0.894833 0.142522 0.423039
v 0.016654 0.003336 -0.005288
vn 0.894833 0.142522 0.423039
v 0.015730 0.003525 -0.003396
vn 0.657564 0.593169 0.464499
v 0.013786 0.004836 0.005564
vn 0.657564 0.593169 0.464499
v 0.016909 0.003436 0.002930
vn 0.657564 0.593169 0.464499
v 0.020643 0.003453 -0.002377
vn 0.554152 0.782944 0.282692
v 0.020643 0.003453 -0.002377
vn 0.554152 0.782944 0.282692
v 0.014675 0.005859 0.002659
vn 0.554152 0.782944 0.282692
v 0.015960 0.004191 0.004760
vn -0.579411 0.758659 -0.297860
v 0.009730 0.004817 -0.003177
vn -0.579411 0.758659 -0.297860
v 0.011473 0.005854 -0.003928
vn -0.579411 0.758659 -0.297860
v 0.010258 0.004075 -0.006095
vn -0.797814 0.115073 -0.591821
v 0.007642 0.000791 -0.007952
vn -0.797814 0.115073 -0.591821
v 0.006892 -0.003214 -0.007720
vn -0.797814 0.115073 -0.591821
v 0.002496 -0.002579 -0.001671
vn -0.791081 -0.276137 -0.545838
v 0.006892 -0.003214 -0.007720
vn -0.791081 -0.276137 -0.545838
v 0.005687 -0.005302 -0.004917
vn -0.791081 -0.276137 -0.545838
v 0.002496 -0.002579 -0.001671
vn -0.322231 0.606127 -0.727171
v 0.000513 0.001475 0.002563
vn -0.322231 0.606127 -0.727171
v -0.000089 0.004985 0.005756
vn -0.322231 0.606127 -0.727171
v 0.004595 0.004644 0.003396
vn 0.091442 -0.078895 0.992680
v -0.000089 0.004985 0.005756
vn 0.091442 -0.078895 0.992680
v 0.010396 0.002877 0.004622
vn 0.091442 -0.078895 0.992680
v 0.008687 0.004218 0.004886
vn -0.756913 -0.630019 0.173664
v -0.000089 0.004985 0.005756
vn -0.756913 -0.630019 0.173664
v 0.002939 0.000813 0.003818
vn -0.756913 -0.630019 0.173664
v 0.007008 -0.002953 0.007889
vn 0.158226 0.069660 -0.984943
v 0.017063 0.001268 0.005207
vn 0.158226 0.069660 -0.984943
v 0.000513 0.001475 0.002563
vn 0.158226 0.069660 -0.984943
v 0.016654 0.003336 0.005288
vn 0.061973 -0.706238 0.705257
v 0.000513 0.001475 0.002563
vn 0.061973 -0.706238 0.705257
v 0.002496 -0.002579 -0.001671
vn 0.061973 -0.706238 0.705257
v 0.015108 0.003587 0.003396
vn -0.140113 -0.129399 0.981644
v 0.005338 0.005359 -0.003146
vn -0.140113 -0.129399 0.981644
v 0.003989 0.006592 -0.003176
vn -0.140113 -0.129399 0.981644
v 0.004219 0.004767 -0.003384
vn 0.096089 -0.371435 -0.923473
v -0.000172 0.005422 -0.005167
vn 0.096089 -0.371435 -0.923473
v 0.002496 -0.002579 -0.001671
vn 0.096089 -0.371435 -0.923473
v -0.002099 -0.000784 -0.002871
vn -0.816622 -0.090834 0.569980
v 0.000350 -0.003731 0.004996
vn -0.816622 -0.090834 0.569980
v -0.000089 0.004985 0.005756
vn -0.816622 -0.090834 0.569980
v -0.002077 -0.005174 0.001289
vn -0.530826 -0.642113 0.553096
v -0.000089 0.004985 0.005756
vn -0.530826 -0.642113 0.553096
v -0.002099 -0.000784 -0.002871
vn -0.530826 -0.642113 0.553096
v 0.002939 0.000813 0.003818
vn 0.064460 -0.997738 0.019082
v 0.007862 0.000763 0.005721
vn 0.064460 -0.997738 0.019082
v 0.016913 0.001369 0.006813
vn 0.064460 -0.997738 0.019082
v 0.007642 0.000791 0.007952
vn -0.010101 0.999855 -0.013731
v 0.017000 0.000854 0.005617
vn -0.010101 0.999855 -0.013731
v 0.007862 0.000763 0.005721
vn -0.010101 0.999855 -0.013731
v 0.007642 0.000791 0.007952
vn 0.991213 -0.087539 0.099169
v 0.007715 -0.000954 0.005677
vn 0.991213 -0.087539 0.099169
v 0.007862 0.000763 0.005721
vn 0.991213 -0.087539 0.099169
v 0.007642 0.000791 0.007952
vn -0.991213 0.087539 -0.099169
v 0.007862 0.000763 0.005721
vn -0.991213 0.087539 -0.099169
v 0.007715 -0.000954 0.005677
vn -0.991213 0.087539 -0.099169
v 0.007642 0.000791 0.007952
vn -0.083572 0.993683 -0.074895
v 0.007888 0.000967 -0.005902
vn -0.083572 0.993683 -0.074895
v 0.016949 0.001663 -0.006773
vn -0.083572 0.993683 -0.074895
v 0.007642 0.000791 -0.007952
vn 0.988408 -0.105019 -0.109642
v 0.007888 0.000967 -0.005902
vn 0.988408 -0.105019 -0.109642
v 0.007706 -0.001069 -0.005591
vn 0.988408 -0.105019 -0.109642
v 0.007642 0.000791 -0.007952
vn 0.021018 -0.996359 0.082630
v 0.016885 0.001167 -0.005774
vn 0.021018 -0.996359 0.082630
v 0.007888 0.000967 -0.005902
vn 0.021018 -0.996359 0.082630
v 0.007642 0.000791 -0.007952
vn -0.988408 0.105019 0.109642
v 0.007888 0.000967 -0.005902
vn -0.988408 0.105019 0.109642
v 0.007642 0.000791 -0.007952
vn -0.988408 0.105019 0.109642
v 0.007706 -0.001069 -0.005591
vn 0.152650 -0.955730 -0.251552
v 0.000513 0.001475 0.002563
vn 0.152650 -0.955730 -0.251552
v 0.015108 0.003587 0.003396
vn 0.152650 -0.955730 -0.251552
v 0.016654 0.003336 0.005288
vn 0.038627 0.615521 -0.787174
v -0.000089 0.004985 0.005756
vn 0.038627 0.615521 -0.787174
v 0.016654 0.003336 0.005288
vn 0.038627 0.615521 -0.787174
v 0.010396 0.002877 0.004622
vn 0.731578 -0.256356 -0.631724
v 0.014732 -0.000153 0.004478
vn 0.731578 -0.256356 -0.631724
v 0.015108 0.003587 0.003396
vn 0.731578 -0.256356 -0.631724
v 0.016654 0.003336 0.005288
vn -0.776869 -0.058599 0.626930
v 0.015581 -0.000239 0.003625
vn -0.776869 -0.058599 0.626930
v 0.016654 0.003336 0.005288
vn -0.776869 -0.058599 0.626930
v 0.015108 0.003587 0.003396
vn -0.148753 -0.963684 -0.221780
v 0.011473 0.005854 -0.003928
vn -0.148753 -0.963684 -0.221780
v 0.017867 0.004969 -0.004373
vn -0.148753 -0.963684 -0.221780
v 0.016909 0.003436 0.002930
vn -0.917311 0.396438 -0.037105
v 0.016909 0.003436 0.002930
vn -0.917311 0.396438 -0.037105
v 0.017867 0.004969 -0.004373
vn -0.917311 0.396438 -0.037105
v 0.017532 0.004180 -0.004519
vn 0.010897 0.999902 -0.008738
v 0.017957 0.001056 0.005213
vn 0.010897 0.999902 -0.008738
v 0.017036 0.000972 -0.005596
vn 0.010897 0.999902 -0.008738
v 0.002180 0.001159 -0.002629
vn 0.149393 -0.601420 0.784841
v 0.017034 0.001249 -0.005388
vn 0.149393 -0.601420 0.784841
v 0.015730 0.003525 -0.003396
vn 0.149393 -0.601420 0.784841
v 0.002180 0.001159 -0.002629
vn -0.203699 -0.967387 -0.150564
v 0.004838 0.004611 0.004767
vn -0.203699 -0.967387 -0.150564
v 0.009730 0.004817 -0.003177
vn -0.203699 -0.967387 -0.150564
v 0.010333 0.004082 0.000732
vn -0.725207 0.391050 -0.566705
v 0.000513 0.001475 0.002563
vn -0.725207 0.391050 -0.566705
v -0.002077 -0.005174 0.001289
vn -0.725207 0.391050 -0.566705
v -0.000089 0.004985 0.005756
vn -0.174988 0.983555 0.044698
v 0.006144 0.006692 0.003059
vn -0.174988 0.983555 0.044698
v 0.003989 0.006592 -0.003176
vn -0.174988 0.983555 0.044698
v 0.002226 0.006162 -0.000606
vn 0.722084 -0.649160 -0.239137
v 0.004838 0.004611 0.004767
vn 0.722084 -0.649160 -0.239137
v 0.003989 0.006592 -0.003176
vn 0.722084 -0.649160 -0.239137
v 0.006144 0.006692 0.003059
vn 0.136829 0.990595 0.000000
v -0.000172 0.005422 -0.005167
vn 0.136829 0.990595 0.000000
v 0.007779 0.004324 -0.003396
vn 0.136829 0.990595 0.000000
v 0.007779 0.004324 -0.004478
vn 0.091786 0.913260 0.396903
v -0.000172 0.005422 -0.005167
vn 0.091786 0.913260 0.396903
v 0.007779 0.004324 -0.004478
vn 0.091786 0.913260 0.396903
v 0.015108 0.003587 -0.004478
vn 0.013607 -0.918093 0.396130
v 0.007862 0.000763 0.005721
vn 0.013607 -0.918093 0.396130
v 0.017000 0.000854 0.005617
vn 0.013607 -0.918093 0.396130
v 0.016913 0.001369 0.006813
vn -0.105752 0.910580 -0.399575
v 0.017000 0.000854 0.005617
vn -0.105752 0.910580 -0.399575
v 0.007642 0.000791 0.007952
vn -0.105752 0.910580 -0.399575
v 0.016913 0.001369 0.006813
vn 0.978449 0.190527 0.079606
v 0.017063 0.001268 0.005207
vn 0.978449 0.190527 0.079606
v 0.016654 0.003336 0.005288
vn 0.978449 0.190527 0.079606
v 0.016913 0.001369 0.006813
vn -0.978449 -0.190527 -0.079606
v 0.017063 0.001268 0.005207
vn -0.978449 -0.190527 -0.079606
v 0.016913 0.001369 0.006813
vn -0.978449 -0.190527 -0.079606
v 0.016654 0.003336 0.005288
vn 0.948499 0.241643 -0.204836
v -0.002099 -0.000784 -0.002871
vn 0.948499 0.241643 -0.204836
v 0.000350 -0.003731 0.004996
vn 0.948499 0.241643 -0.204836
v -0.001266 -0.004117 -0.002946
vn -0.313999 0.662013 0.680546
v 0.017532 0.004180 -0.004519
vn -0.313999 0.662013 0.680546
v 0.015419 0.003556 -0.004887
vn -0.313999 0.662013 0.680546
v 0.020643 0.003453 -0.002377
vn -0.982768 0.073206 -0.169729
v -0.002077 -0.005174 0.001289
vn -0.982768 0.073206 -0.169729
v -0.000172 0.005422 -0.005167
vn -0.982768 0.073206 -0.169729
v -0.001266 -0.004117 -0.002946
vn 0.276793 0.947189 0.161925
v 0.011989 0.004220 -0.002908
vn 0.276793 0.947189 0.161925
v 0.010333 0.004082 0.000732
vn 0.276793 0.947189 0.161925
v 0.015419 0.003556 -0.004887
vn 0.788850 0.485041 0.377426
v 0.010333 0.004082 0.000732
vn 0.788850 0.485041 0.377426
v 0.011989 0.004220 -0.002908
vn 0.788850 0.485041 0.377426
v 0.011473 0.005854 -0.003928
vn 0.099647 0.928556 0.357567
v 0.013786 0.004836 0.005564
vn 0.099647 0.928556 0.357567
v 0.014675 0.005859 0.002659
vn 0.099647 0.928556 0.357567
v 0.012474 0.006064 0.002740
vn 0.090939 0.994838 -0.045036
v 0.011473 0.005854 -0.003928
vn 0.090939 0.994838 -0.045036
v 0.012474 0.006064 0.002740
vn 0.090939 0.994838 -0.045036
v 0.014675 0.005859 0.002659
vn 0.148505 -0.597106 0.788296
v 0.005338 0.005359 -0.003146
vn 0.148505 -0.597106 0.788296
v 0.004219 0.004767 -0.003384
vn 0.148505 -0.597106 0.788296
v 0.011473 0.005854 -0.003928
vn 0.060531 -0.828773 -0.556301
v 0.016325 -0.001162 -0.005253
vn 0.060531 -0.828773 -0.556301
v 0.013573 -0.003013 -0.002794
vn 0.060531 -0.828773 -0.556301
v 0.008772 -0.002703 -0.003778
vn -0.993846 -0.070717 0.085259
v 0.017957 0.001056 0.005213
vn -0.993846 -0.070717 0.085259
v 0.017034 0.001249 -0.005388
vn -0.993846 -0.070717 0.085259
v 0.017036 0.000972 -0.005596
vn 0.150507 -0.592860 0.791116
v 0.017036 0.000972 -0.005596
vn 0.150507 -0.592860 0.791116
v 0.017034 0.001249 -0.005388
vn 0.150507 -0.592860 0.791116
v 0.002180 0.001159 -0.002629
vn 0.534740 -0.304850 -0.788111
v 0.016885 0.001167 -0.005774
vn 0.534740 -0.304850 -0.788111
v 0.017036 0.000972 -0.005596
vn 0.534740 -0.304850 -0.788111
v 0.016325 -0.001162 -0.005253
vn -0.534740 0.304850 0.788111
v 0.016325 -0.001162 -0.005253
vn -0.534740 0.304850 0.788111
v 0.017036 0.000972 -0.005596
vn -0.534740 0.304850 0.788111
v 0.016885 0.001167 -0.005774
vn 0.000890 0.025358 0.999678
v 0.005338 0.005359 -0.003146
vn 0.000890 0.025358 0.999678
v 0.009317 0.006325 -0.003174
vn 0.000890 0.025358 0.999678
v 0.003989 0.006592 -0.003176
vn -0.013711 -0.800699 0.598910
v 0.013573 -0.003013 0.002794
vn -0.013711 -0.800699 0.598910
v 0.016229 -0.001150 0.005345
vn -0.013711 -0.800699 0.598910
v 0.013294 -0.000939 0.005561
vn 0.085022 0.179640 0.980051
v 0.013294 -0.000939 0.005561
vn 0.085022 0.179640 0.980051
v 0.016229 -0.001150 0.005345
vn 0.085022 0.179640 0.980051
v 0.007862 0.000763 0.005721
vn 0.021687 0.928150 -0.371573
v 0.015960 0.004191 0.004760
vn 0.021687 0.928150 -0.371573
v 0.016909 0.003436 0.002930
vn 0.021687 0.928150 -0.371573
v 0.010296 0.004847 0.006068
vn 0.073109 0.865302 -0.495891
v 0.012284 0.004168 0.004177
vn 0.073109 0.865302 -0.495891
v 0.013786 0.004836 0.005564
vn 0.073109 0.865302 -0.495891
v 0.015960 0.004191 0.004760
vn -0.041358 -0.953340 0.299054
v 0.012284 0.004168 0.004177
vn -0.041358 -0.953340 0.299054
v 0.015960 0.004191 0.004760
vn -0.041358 -0.953340 0.299054
v 0.010296 0.004847 0.006068
vn -0.320826 -0.940332 -0.113339
v 0.015960 0.004191 0.004760
vn -0.320826 -0.940332 -0.113339
v 0.013786 0.004836 0.005564
vn -0.320826 -0.940332 -0.113339
v 0.020643 0.003453 -0.002377
vn 0.425471 -0.131506 -0.895366
v 0.007642 0.000791 -0.007952
vn 0.425471 -0.131506 -0.895366
v 0.023087 -0.002347 -0.000151
vn 0.425471 -0.131506 -0.895366
v 0.006892 -0.003214 -0.007720
vn 0.567986 -0.813673 0.123804
v 0.018199 0.000635 0.005548
vn 0.567986 -0.813673 0.123804
v 0.013573 -0.003013 0.002794
vn 0.567986 -0.813673 0.123804
v 0.018318 0.000167 0.001930
vn 0.094513 0.992371 0.079163
v -0.000089 0.004985 0.005756
vn 0.094513 0.992371 0.079163
v 0.008687 0.004218 0.004886
vn 0.094513 0.992371 0.079163
v 0.005216 0.004581 0.004478
vn 0.155146 0.609014 -0.777838
v 0.005216 0.004581 0.004478
vn 0.155146 0.609014 -0.777838
v 0.008687 0.004218 0.004886
vn 0.155146 0.609014 -0.777838
v 0.002496 -0.002579 -0.001671
vn 0.173697 -0.984509 -0.023897
v 0.005687 -0.005302 -0.004917
vn 0.173697 -0.984509 -0.023897
v 0.023087 -0.002347 -0.000151
vn 0.173697 -0.984509 -0.023897
v 0.005546 -0.005546 0.004113
vn 0.275527 -0.823938 -0.495188
v 0.006892 -0.003214 -0.007720
vn 0.275527 -0.823938 -0.495188
v 0.023087 -0.002347 -0.000151
vn 0.275527 -0.823938 -0.495188
v 0.005687 -0.005302 -0.004917
vn -0.584608 0.736219 -0.340903
v 0.004838 0.004611 0.004767
vn -0.584608 0.736219 -0.340903
v 0.011473 0.005854 -0.003928
vn -0.584608 0.736219 -0.340903
v 0.009730 0.004817 -0.003177
vn 0.016343 0.518049 0.855195
v -0.002077 -0.005174 0.001289
vn 0.016343 0.518049 0.855195
v 0.002180 0.001159 -0.002629
vn 0.016343 0.518049 0.855195
v -0.000172 0.005422 -0.005167
vn -0.233315 0.956491 -0.175182
v 0.006144 0.006692 0.003059
vn -0.233315 0.956491 -0.175182
v 0.009317 0.006325 -0.003174
vn -0.233315 0.956491 -0.175182
v 0.005338 0.005359 -0.003146
vn 0.591755 -0.769795 0.239255
v 0.002496 -0.002579 -0.001671
vn 0.591755 -0.769795 0.239255
v 0.008687 0.004218 0.004886
vn 0.591755 -0.769795 0.239255
v -0.002077 -0.005174 0.001289
vn -0.993701 0.056941 -0.096523
v 0.017063 0.001268 0.005207
vn -0.993701 0.056941 -0.096523
v 0.017000 0.000854 0.005617
vn -0.993701 0.056941 -0.096523
v 0.016913 0.001369 0.006813
vn 0.993701 -0.056941 0.096523
v 0.017000 0.000854 0.005617
vn 0.993701 -0.056941 0.096523
v 0.017063 0.001268 0.005207
vn 0.993701 -0.056941 0.096523
v 0.016913 0.001369 0.006813
vn -0.157903 -0.682184 -0.713927
v 0.017000 0.000854 0.005617
vn -0.157903 -0.682184 -0.713927
v 0.017063 0.001268 0.005207
vn -0.157903 -0.682184 -0.713927
v 0.017957 0.001056 0.005213
vn 0.157903 0.682184 0.713927
v 0.017063 0.001268 0.005207
vn 0.157903 0.682184 0.713927
v 0.017000 0.000854 0.005617
vn 0.157903 0.682184 0.713927
v 0.017957 0.001056 0.005213
vn 0.686400 -0.725047 -0.056235
v 0.016325 -0.001162 -0.005253
vn 0.686400 -0.725047 -0.056235
v 0.018199 0.000635 -0.005548
vn 0.686400 -0.725047 -0.056235
v 0.018318 0.000167 0.001930
vn 0.969291 0.245916 0.000000
v 0.018199 0.000635 -0.005548
vn 0.969291 0.245916 0.000000
v 0.018199 0.000635 0.005548
vn 0.969291 0.245916 0.000000
v 0.018318 0.000167 0.001930
vn 0.983773 0.179296 -0.006566
v 0.017034 0.001249 -0.005388
vn 0.983773 0.179296 -0.006566
v 0.016949 0.001663 -0.006773
vn 0.983773 0.179296 -0.006566
v 0.016654 0.003336 -0.005288
vn -0.983773 -0.179296 0.006566
v 0.017034 0.001249 -0.005388
vn -0.983773 -0.179296 0.006566
v 0.016654 0.003336 -0.005288
vn -0.983773 -0.179296 0.006566
v 0.016949 0.001663 -0.006773
vn 0.077674 0.669555 -0.738690
v -0.000172 0.005422 -0.005167
vn 0.077674 0.669555 -0.738690
v 0.016654 0.003336 -0.005288
vn 0.077674 0.669555 -0.738690
v 0.016949 0.001663 -0.006773
vn 0.765441 0.497432 -0.408242
v 0.016654 0.003336 -0.005288
vn 0.765441 0.497432 -0.408242
v 0.023087 -0.002347 -0.000151
vn 0.765441 0.497432 -0.408242
v 0.016949 0.001663 -0.006773
vn 0.872389 -0.444180 0.204065
v 0.000350 -0.003731 0.004996
vn 0.872389 -0.444180 0.204065
v 0.002496 -0.002579 -0.001671
vn 0.872389 -0.444180 0.204065
v 0.002939 0.000813 0.003818
vn 0.160115 -0.744967 0.647601
v 0.004219 0.004767 -0.003384
vn 0.160115 -0.744967 0.647601
v 0.008090 0.004293 -0.004887
vn 0.160115 -0.744967 0.647601
v 0.011473 0.005854 -0.003928
vn -0.106237 0.677498 -0.727812
v 0.009317 0.006325 -0.003174
vn -0.106237 0.677498 -0.727812
v 0.011473 0.005854 -0.003928
vn -0.106237 0.677498 -0.727812
v 0.008090 0.004293 -0.004887
vn 0.025629 0.987552 0.155193
v 0.009317 0.006325 -0.003174
vn 0.025629 0.987552 0.155193
v 0.010296 0.004847 0.006068
vn 0.025629 0.987552 0.155193
v 0.013786 0.004836 0.005564
vn 0.074544 -0.841339 0.535342
v 0.013786 0.004836 0.005564
vn 0.074544 -0.841339 0.535342
v 0.010296 0.004847 0.006068
vn 0.074544 -0.841339 0.535342
v 0.016909 0.003436 0.002930
vn -0.999850 0.017301 0.000000
v 0.007714 0.000552 -0.003312
vn -0.999850 0.017301 0.000000
v 0.007779 0.004324 -0.003396
vn -0.999850 0.017301 0.000000
v 0.007714 0.000552 -0.004562
vn 0.999850 -0.017301 0.000000
v 0.007714 0.000552 -0.004562
vn 0.999850 -0.017301 0.000000
v 0.007779 0.004324 -0.003396
vn 0.999850 -0.017301 0.000000
v 0.007714 0.000552 -0.003312
vn -0.961089 0.096541 0.258819
v 0.015354 -0.000216 -0.003396
vn -0.961089 0.096541 0.258819
v 0.015730 0.003525 -0.003396
vn -0.961089 0.096541 0.258819
v 0.015043 -0.000184 -0.004562
vn 0.966118 -0.010995 -0.257867
v 0.015043 -0.000184 -0.004562
vn 0.966118 -0.010995 -0.257867
v 0.015108 0.003587 -0.004478
vn 0.966118 -0.010995 -0.257867
v 0.015354 -0.000216 -0.003396
vn -0.598013 0.478630 -0.642879
v 0.014732 -0.000153 0.004478
vn -0.598013 0.478630 -0.642879
v 0.016654 0.003336 0.005288
vn -0.598013 0.478630 -0.642879
v 0.015581 -0.000239 0.003625
vn 0.709371 0.129161 0.692900
v 0.015581 -0.000239 0.003625
vn 0.709371 0.129161 0.692900
v 0.015108 0.003587 0.003396
vn 0.709371 0.129161 0.692900
v 0.014732 -0.000153 0.004478
vn 0.264242 0.048143 -0.963254
v 0.003908 0.000935 0.003937
vn 0.264242 0.048143 -0.963254
v 0.005216 0.004581 0.004478
vn 0.264242 0.048143 -0.963254
v 0.005068 0.000818 0.004249
vn -0.264242 -0.048143 0.963254
v 0.003908 0.000935 0.003937
vn -0.264242 -0.048143 0.963254
v 0.005068 0.000818 0.004249
vn -0.264242 -0.048143 0.963254
v 0.005216 0.004581 0.004478
vn -0.118827 0.937067 0.328307
v 0.002226 0.006162 -0.000606
vn -0.118827 0.937067 0.328307
v 0.004838 0.004611 0.004767
vn -0.118827 0.937067 0.328307
v 0.010296 0.004847 0.006068
vn 0.308965 -0.951036 0.008466
v 0.007006 -0.003220 0.002585
vn 0.308965 -0.951036 0.008466
v 0.006854 -0.003317 -0.002647
vn 0.308965 -0.951036 0.008466
v 0.008772 -0.002703 -0.003778
vn -0.121489 -0.771725 -0.624244
v 0.006854 -0.003317 -0.002647
vn -0.121489 -0.771725 -0.624244
v 0.007706 -0.001069 -0.005591
vn -0.121489 -0.771725 -0.624244
v 0.008772 -0.002703 -0.003778
vn -0.867149 0.003953 0.498034
v 0.015043 -0.000184 -0.004562
vn -0.867149 0.003953 0.498034
v 0.015730 0.003525 -0.003396
vn -0.867149 0.003953 0.498034
v 0.015108 0.003587 -0.004478
vn 0.861833 -0.086569 -0.499749
v 0.015354 -0.000216 -0.003396
vn 0.861833 -0.086569 -0.499749
v 0.015108 0.003587 -0.004478
vn 0.861833 -0.086569 -0.499749
v 0.015730 0.003525 -0.003396
vn 0.146467 0.988846 -0.027030
v 0.016654 0.003336 -0.005288
vn 0.146467 0.988846 -0.027030
v 0.015108 0.003587 -0.004478
vn 0.146467 0.988846 -0.027030
v 0.015730 0.003525 -0.003396
vn 0.100000 0.994987 -0.000000
v 0.007779 0.004324 -0.003396
vn 0.100000 0.994987 -0.000000
v 0.015730 0.003525 -0.003396
vn 0.100000 0.994987 -0.000000
v 0.015108 0.003587 -0.004478
vn -0.049066 -0.979053 -0.197605
v 0.009317 0.006325 -0.003174
vn -0.049066 -0.979053 -0.197605
v 0.002226 0.006162 -0.000606
vn -0.049066 -0.979053 -0.197605
v 0.003989 0.006592 -0.003176
vn -0.093268 0.974205 0.205489
v 0.016654 0.003336 0.005288
vn -0.093268 0.974205 0.205489
v 0.015108 0.003587 0.003396
vn -0.093268 0.974205 0.205489
v 0.010396 0.002877 0.004622
vn 0.838783 -0.227521 -0.494649
v 0.003908 0.000935 0.003937
vn 0.838783 -0.227521 -0.494649
v 0.004595 0.004644 0.003396
vn 0.838783 -0.227521 -0.494649
v 0.005216 0.004581 0.004478
vn 0.865785 0.093303 -0.491640
v 0.004595 0.004644 0.003396
vn 0.865785 0.093303 -0.491640
v 0.005216 0.004581 0.004478
vn 0.865785 0.093303 -0.491640
v 0.002496 -0.002579 -0.001671
vn 0.078752 0.996818 0.012304
v -0.000089 0.004985 0.005756
vn 0.078752 0.996818 0.012304
v 0.005216 0.004581 0.004478
vn 0.078752 0.996818 0.012304
v 0.004595 0.004644 0.003396
vn -0.838783 0.227521 0.494649
v 0.003908 0.000935 0.003937
vn -0.838783 0.227521 0.494649
v 0.005216 0.004581 0.004478
vn -0.838783 0.227521 0.494649
v 0.004595 0.004644 0.003396
vn 0.244089 -0.578291 -0.778460
v 0.017867 0.004969 -0.004373
vn 0.244089 -0.578291 -0.778460
v 0.020643 0.003453 -0.002377
vn 0.244089 -0.578291 -0.778460
v 0.010258 0.004075 -0.006095
vn -0.825268 0.525252 0.207469
v 0.016885 0.001167 -0.005774
vn -0.825268 0.525252 0.207469
v 0.017034 0.001249 -0.005388
vn -0.825268 0.525252 0.207469
v 0.016949 0.001663 -0.006773
vn -0.864703 -0.305269 0.398873
v 0.016885 0.001167 -0.005774
vn -0.864703 -0.305269 0.398873
v 0.017036 0.000972 -0.005596
vn -0.864703 -0.305269 0.398873
v 0.017034 0.001249 -0.005388
vn 0.825268 -0.525252 -0.207469
v 0.017034 0.001249 -0.005388
vn 0.825268 -0.525252 -0.207469
v 0.016885 0.001167 -0.005774
vn 0.825268 -0.525252 -0.207469
v 0.016949 0.001663 -0.006773
vn 0.864703 0.305269 -0.398873
v 0.016885 0.001167 -0.005774
vn 0.864703 0.305269 -0.398873
v 0.017034 0.001249 -0.005388
vn 0.864703 0.305269 -0.398873
v 0.017036 0.000972 -0.005596
vn 0.386472 -0.198314 -0.900728
v 0.002496 -0.002579 -0.001671
vn 0.386472 -0.198314 -0.900728
v -0.001266 -0.004117 -0.002946
vn 0.386472 -0.198314 -0.900728
v 0.002180 0.001159 -0.002629
vn -0.726355 -0.680571 -0.096082
v 0.015960 0.004191 0.004760
vn -0.726355 -0.680571 -0.096082
v 0.014675 0.005859 0.002659
vn -0.726355 -0.680571 -0.096082
v 0.016909 0.003436 0.002930
vn 0.509400 -0.848548 -0.143101
v 0.014675 0.005859 0.002659
vn 0.509400 -0.848548 -0.143101
v 0.013786 0.004836 0.005564
vn 0.509400 -0.848548 -0.143101
v 0.012284 0.004168 0.004177
vn 0.295970 0.371591 0.879955
v 0.014675 0.005859 0.002659
vn 0.295970 0.371591 0.879955
v 0.012284 0.004168 0.004177
vn 0.295970 0.371591 0.879955
v 0.016909 0.003436 0.002930
vn -0.866668 -0.498886 -0.000000
v 0.018199 0.000635 0.005548
vn -0.866668 -0.498886 -0.000000
v 0.017957 0.001056 0.005213
vn -0.866668 -0.498886 -0.000000
v 0.018199 0.000635 -0.005548
vn 0.866668 0.498886 0.000000
v 0.018199 0.000635 -0.005548
vn 0.866668 0.498886 0.000000
v 0.017957 0.001056 0.005213
vn 0.866668 0.498886 0.000000
v 0.018199 0.000635 0.005548
vn 0.164010 0.671215 0.722891
v 0.017000 0.000854 0.005617
vn 0.164010 0.671215 0.722891
v 0.018199 0.000635 0.005548
vn 0.164010 0.671215 0.722891
v 0.017957 0.001056 0.005213
# 714 vertices, 0 vertices normals

f 1//1 2//2 3//3
f 4//4 5//5 6//6
f 7//7 8//8 9//9
f 10//10 11//11 12//12
f 13//13 14//14 15//15
f 16//16 17//17 18//18
f 19//19 20//20 21//21
f 22//22 23//23 24//24
f 25//25 26//26 27//27
f 28//28 29//29 30//30
f 31//31 32//32 33//33
f 34//34 35//35 36//36
f 37//37 38//38 39//39
f 40//40 41//41 42//42
f 43//43 44//44 45//45
f 46//46 47//47 48//48
f 49//49 50//50 51//51
f 52//52 53//53 54//54
f 55//55 56//56 57//57
f 58//58 59//59 60//60
f 61//61 62//62 63//63
f 64//64 65//65 66//66
f 67//67 68//68 69//69
f 70//70 71//71 72//72
f 73//73 74//74 75//75
f 76//76 77//77 78//78
f 79//79 80//80 81//81
f 82//82 83//83 84//84
f 85//85 86//86 87//87
f 88//88 89//89 90//90
f 91//91 92//92 93//93
f 94//94 95//95 96//96
f 97//97 98//98 99//99
f 100//100 101//101 102//102
f 103//103 104//104 105//105
f 106//106 107//107 108//108
f 109//109 110//110 111//111
f 112//112 113//113 114//114
f 115//115 116//116 117//117
f 118//118 119//119 120//120
f 121//121 122//122 123//123
f 124//124 125//125 126//126
f 127//127 128//128 129//129
f 130//130 131//131 132//132
f 133//133 134//134 135//135
f 136//136 137//137 138//138
f 139//139 140//140 141//141
f 142//142 143//143 144//144
f 145//145 146//146 147//147
f 148//148 149//149 150//150
f 151//151 152//152 153//153
f 154//154 155//155 156//156
f 157//157 158//158 159//159
f 160//160 161//161 162//162
f 163//163 164//164 165//165
f 166//166 167//167 168//168
f 169//169 170//170 171//171
f 172//172 173//173 174//174
f 175//175 176//176 177//177
f 178//178 179//179 180//180
f 181//181 182//182 183//183
f 184//184 185//185 186//186
f 187//187 188//188 189//189
f 190//190 191//191 192//192
f 193//193 194//194 195//195
f 196//196 197//197 198//198
f 199//199 200//200 201//201
f 202//202 203//203 204//204
f 205//205 206//206 207//207
f 208//208 209//209 210//210
f 211//211 212//212 213//213
f 214//214 215//215 216//216
f 217//217 218//218 219//219
f 220//220 221//221 222//222
f 223//223 224//224 225//225
f 226//226 227//227 228//228
f 229//229 230//230 231//231
f 232//232 233//233 234//234
f 235//235 236//236 237//237
f 238//238 239//239 240//240
f 241//241 242//242 243//243
f 244//244 245//245 246//246
f 247//247 248//248 249//249
f 250//250 251//251 252//252
f 253//253 254//254 255//255
f 256//256 257//257 258//258
f 259//259 260//260 261//261
f 262//262 263//263 264//264
f 265//265 266//266 267//267
f 268//268 269//269 270//270
f 271//271 272//272 273//273
f 274//274 275//275 276//276
f 277//277 278//278 279//279
f 280//280 281//281 282//282
f 283//283 284//284 285//285
f 286//286 287//287 288//288
f 289//289 290//290 291//291
f 292//292 293//293 294//294
f 295//295 296//296 297//297
f 298//298 299//299 300//300
f 301//301 302//302 303//303
f 304//304 305//305 306//306
f 307//307 308//308 309//309
f 310//310 311//311 312//312
f 313//313 314//314 315//315
f 316//316 317//317 318//318
f 319//319 320//320 321//321
f 322//322 323//323 324//324
f 325//325 326//326 327//327
f 328//328 329//329 330//330
f 331//331 332//332 333//333
f 334//334 335//335 336//336
f 337//337 338//338 339//339
f 340//340 341//341 342//342
f 343//343 344//344 345//345
f 346//346 347//347 348//348
f 349//349 350//350 351//351
f 352//352 353//353 354//354
f 355//355 356//356 357//357
f 358//358 359//359 360//360
f 361//361 362//362 363//363
f 364//364 365//365 366//366
f 367//367 368//368 369//369
f 370//370 371//371 372//372
f 373//373 374//374 375//375
f 376//376 377//377 378//378
f 379//379 380//380 381//381
f 382//382 383//383 384//384
f 385//385 386//386 387//387
f 388//388 389//389 390//390
f 391//391 392//392 393//393
f 394//394 395//395 396//396
f 397//397 398//398 399//399
f 400//400 401//401 402//402
f 403//403 404//404 405//405
f 406//406 407//407 408//408
f 409//409 410//410 411//411
f 412//412 413//413 414//414
f 415//415 416//416 417//417
f 418//418 419//419 420//420
f 421//421 422//422 423//423
f 424//424 425//425 426//426
f 427//427 428//428 429//429
f 430//430 431//431 432//432
f 433//433 434//434 435//435
f 436//436 437//437 438//438
f 439//439 440//440 441//441
f 442//442 443//443 444//444
f 445//445 446//446 447//447
f 448//448 449//449 450//450
f 451//451 452//452 453//453
f 454//454 455//455 456//456
f 457//457 458//458 459//459
f 460//460 461//461 462//462
f 463//463 464//464 465//465
f 466//466 467//467 468//468
f 469//469 470//470 471//471
f 472//472 473//473 474//474
f 475//475 476//476 477//477
f 478//478 479//479 480//480
f 481//481 482//482 483//483
f 484//484 485//485 486//486
f 487//487 488//488 489//489
f 490//490 491//491 492//492
f 493//493 494//494 495//495
f 496//496 497//497 498//498
f 499//499 500//500 501//501
f 502//502 503//503 504//504
f 505//505 506//506 507//507
f 508//508 509//509 510//510
f 511//511 512//512 513//513
f 514//514 515//515 516//516
f 517//517 518//518 519//519
f 520//520 521//521 522//522
f 523//523 524//524 525//525
f 526//526 527//527 528//528
f 529//529 530//530 531//531
f 532//532 533//533 534//534
f 535//535 536//536 537//537
f 538//538 539//539 540//540
f 541//541 542//542 543//543
f 544//544 545//545 546//546
f 547//547 548//548 549//549
f 550//550 551//551 552//552
f 553//553 554//554 555//555
f 556//556 557//557 558//558
f 559//559 560//560 561//561
f 562//562 563//563 564//564
f 565//565 566//566 567//567
f 568//568 569//569 570//570
f 571//571 572//572 573//573
f 574//574 575//575 576//576
f 577//577 578//578 579//579
f 580//580 581//581 582//582
f 583//583 584//584 585//585
f 586//586 587//587 588//588
f 589//589 590//590 591//591
f 592//592 593//593 594//594
f 595//595 596//596 597//597
f 598//598 599//599 600//600
f 601//601 602//602 603//603
f 604//604 605//605 606//606
f 607//607 608//608 609//609
f 610//610 611//611 612//612
f 613//613 614//614 615//615
f 616//616 617//617 618//618
f 619//619 620//620 621//621
f 622//622 623//623 624//624
f 625//625 626//626 627//627
f 628//628 629//629 630//630
f 631//631 632//632 633//633
f 634//634 635//635 636//636
f 637//637 638//638 639//639
f 640//640 641//641 642//642
f 643//643 644//644 645//645
f 646//646 647//647 648//648
f 649//649 650//650 651//651
f 652//652 653//653 654//654
f 655//655 656//656 657//657
f 658//658 659//659 660//660
f 661//661 662//662 663//663
f 664//664 665//665 666//666
f 667//667 668//668 669//669
f 670//670 671//671 672//672
f 673//673 674//674 675//675
f 676//676 677//677 678//678
f 679//679 680//680 681//681
f 682//682 683//683 684//684
f 685//685 686//686 687//687
f 688//688 689//689 690//690
f 691//691 692//692 693//693
f 694//694 695//695 696//696
f 697//697 698//698 699//699
f 700//700 701//701 702//702
f 703//703 704//704 705//705
f 706//706 707//707 708//708
f 709//709 710//710 711//711
f 712//712 713//713 714//714
# 238 faces, 0 coords texture

# End of File