#VRML V2.0 utf8

# Generated by VCGLIB, (C)Copyright 1999-2001 VCG, IEI-CNR

NavigationInfo {
	type [ "EXAMINE", "ANY" ]
}
Transform {
  scale 1 1 1
  translation 0 0 0
  children
  [
    Shape
    {
      geometry IndexedFaceSet
      {
        creaseAngle .5
        solid FALSE
        coord Coordinate
        {
          point
          [
            0.0151865 -0.00279444 -0.00255539, 0.00893803 0.000341942 -0.00656194, 0.00758784 -0.0028731 -0.00301443, 0.00893803 0.000341942 -0.00656194, 
            0.0147668 0.000822408 -0.00647378, 0.00758784 -0.0028731 -0.00301443, 0.0168555 0.00228812 0.00151556, -0.00320327 0.00193255 -0.00285777, 
            0.00245734 -0.00172941 0.00389641, 0.0193208 0.00131633 0.00632772, 0.0150728 -0.00265901 0.002794, 0.00897961 0.000347594 0.00653673, 
            0.00897961 0.000347594 0.00653673, 0.0150728 -0.00265901 0.002794, 0.0147668 0.000344557 0.00644845, 0.0150728 -0.00265901 0.002794, 
            0.00772505 -0.00288719 0.00254076, 0.00897961 0.000347594 0.00653673, 0.0168555 0.00228812 0.00151556, -0.000528053 -0.00085349 0.00114035, 
            0.00854048 0.00419895 0.00318967, 0.00585716 -0.00585716 0.00487606, 0.0228569 -0.00234743 0.000448846, 0.00755587 -0.0029149 0.0090932, 
            0.00897961 0.000347594 0.00653673, 0.00772505 -0.00288719 0.00254076, 0.0150728 -0.00265901 0.002794, 0.00342845 0.00469977 -0.006909, 
            0.017544 0.00214113 -0.00783743, 0.00906598 0.00150848 -0.00904684, 0.0107037 0.00627098 -0.00288794, 0.00593769 0.00683519 0.000252337, 
            0.0117826 0.00561508 0.00492759, 0.0041952 0.00409553 0.006477, 0.00245734 -0.00172941 0.00389641, 0.00340311 0.000597603 0.00716104, 
            0.00854048 0.00419895 0.00318967, -0.00277632 -0.00145866 -0.000328257, 0.00312652 -0.00420615 -0.00187247, 0.0147668 0.000822408 -0.00647378, 
            0.0151865 -0.00279444 -0.00255539, 0.00758784 -0.0028731 -0.00301443, 0.0150728 -0.00265901 0.002794, 0.0193208 0.00131633 0.00632772, 
            0.0193208 0.00131633 -0.00632772, 0.0193208 0.00131633 -0.00632772, 0.0193208 0.00131633 0.00632772, 0.0194813 0.000609068 -1.46739e-05, 
            0.0151865 -0.00279444 -0.00255539, 0.0193208 0.00131633 -0.00632772, 0.00893803 0.000341942 -0.00656194, 0.00906598 0.00150848 0.00904684, 
            0.0175355 0.00192579 0.00793718, 0.00340311 0.000597603 0.00716104, 0.00245734 -0.00172941 0.00389641, 0.00342845 0.00469977 -0.006909, 
            -0.000528053 -0.00085349 0.00114035, 0.0168555 0.00228812 0.00151556, 0.00342845 0.00469977 -0.006909, -0.00277632 -0.00145866 -0.000328257, 
            0.0162241 0.0043684 0.00277818, 0.0204286 0.00420865 -0.00524508, 0.0206025 0.00329692 0.00506596, 0.0166191 0.00551521 0.00487849, 
            0.00368212 0.00563272 0.00587385, 0.0157673 0.00363759 -0.00128838, 0.00903818 0.00139613 -0.0067894, 0.00906598 0.00150848 -0.00904684, 
            0.017544 0.00214113 -0.00783743, 0.00893803 0.000341942 -0.00656194, 0.00755587 -0.0029149 -0.0090932, 0.00758784 -0.0028731 -0.00301443, 
            0.00893803 0.000341942 -0.00656194, 0.00758784 -0.0028731 -0.00301443, 0.00755587 -0.0029149 -0.0090932, 0.00772505 -0.00288719 0.00254076, 
            0.00755587 -0.0029149 0.0090932, 0.00585716 -0.00585716 0.00487606, 0.00758784 -0.0028731 -0.00301443, 0.00585716 -0.00585716 -0.00487606, 
            0.00585716 -0.00585716 0.00487606, 0.00772505 -0.00288719 0.00254076, 0.00585716 -0.00585716 0.00487606, 0.00755587 -0.0029149 0.0090932, 
            0.00772505 -0.00288719 0.00254076, 0.00585716 -0.00585716 0.00487606, 0.00585716 -0.00585716 -0.00487606, 0.0106513 0.00435424 -0.00309721, 
            0.0157673 0.00363759 -0.00128838, 0.0121793 0.00422055 0.00309721, 0.0056883 0.00464697 -0.000384241, 0.0121793 0.00422055 0.00309721, 
            0.00368212 0.00563272 0.00587385, 0.0106513 0.00435424 -0.00309721, 0.0117826 0.00561508 0.00492759, 0.0056883 0.00464697 -0.000384241, 
            0.00758784 -0.0028731 -0.00301443, 0.00755587 -0.0029149 -0.0090932, 0.00585716 -0.00585716 -0.00487606, 0.00758784 -0.0028731 -0.00301443, 
            0.00585716 -0.00585716 -0.00487606, 0.00755587 -0.0029149 -0.0090932, 0.00593769 0.00683519 0.000252337, 0.00440248 0.00669115 -0.00358714, 
            0.0019747 0.00587232 0.00243695, 0.00932975 0.0047604 -0.00443875, 0.0056883 0.00464697 -0.000384241, 0.00325746 0.0057071 -0.00616762, 
            0.0228569 -0.00234743 0.000448846, 0.0175355 0.00192579 0.00793718, 0.00906598 0.00150848 0.00904684, 0.0168555 0.00228812 0.00151556, 
            -0.00277632 -0.00145866 -0.000328257, -0.00320327 0.00193255 -0.00285777, 0.017474 0.00155614 -0.00662071, 0.00903818 0.00139613 -0.0067894, 
            0.017544 0.00214113 -0.00783743, 0.017474 0.00155614 -0.00662071, 0.0176288 0.00147141 0.00647549, 0.017544 0.00214113 -0.00783743, 
            0.00903818 0.00139613 -0.0067894, 0.017474 0.00155614 -0.00662071, 0.017544 0.00214113 -0.00783743, 0.0116272 0.00568693 -0.00511376, 
            0.0157673 0.00363759 -0.00128838, 0.0204286 0.00420865 -0.00524508, 0.0157673 0.00363759 -0.00128838, 0.0204286 0.00420865 -0.00524508, 
            0.0162241 0.0043684 0.00277818, -0.000528053 -0.00085349 0.00114035, 0.0041952 0.00409553 0.006477, 0.00528548 0.00463699 0.00400305, 
            0.0041952 0.00409553 0.006477, 0.0173062 0.00348942 0.00645949, 0.00528548 0.00463699 0.00400305, -0.00277632 -0.00145866 -0.000328257, 
            0.0041952 0.00409553 0.006477, -0.000528053 -0.00085349 0.00114035, -0.00142098 0.00179059 0.002667, -0.00277632 -0.00145866 -0.000328257, 
            0.00340311 0.000597603 0.00716104, 0.00593769 0.00683519 0.000252337, 0.0019747 0.00587232 0.00243695, 0.00368212 0.00563272 0.00587385, 
            0.0150728 -0.00265901 0.002794, 0.00772505 -0.00288719 0.00254076, 0.0151865 -0.00279444 -0.00255539, 0.0151865 -0.00279444 -0.00255539, 
            0.0150728 -0.00265901 0.002794, 0.0193208 0.00131633 -0.00632772, 0.0150728 -0.00265901 0.002794, 0.0151865 -0.00279444 -0.00255539, 
            0.00758784 -0.0028731 -0.00301443, 0.0173062 0.00348942 0.00645949, 0.0168555 0.00228812 0.00151556, 0.00528548 0.00463699 0.00400305, 
            -0.00142098 0.00179059 0.002667, 0.00340311 0.000597603 0.00716104, -0.000528053 -0.00085349 0.00114035, 0.0168555 0.00228812 0.00151556, 
            0.00312652 -0.00420615 -0.00187247, 0.00340311 0.000597603 0.00716104, 0.00755587 -0.0029149 0.0090932, 0.00340311 0.000597603 0.00716104, 
            0.00585716 -0.00585716 0.00487606, 0.00932975 0.0047604 -0.00443875, 0.00593769 0.00683519 0.000252337, 0.0107037 0.00627098 -0.00288794, 
            0.00932975 0.0047604 -0.00443875, 0.0204286 0.00420865 -0.00524508, 0.0106513 0.00435424 -0.00309721, 0.0106513 0.00435424 -0.00309721, 
            0.0204286 0.00420865 -0.00524508, 0.0157673 0.00363759 -0.00128838, 0.00245734 -0.00172941 0.00389641, 0.0041952 0.00409553 0.006477, 
            -0.00277632 -0.00145866 -0.000328257, 0.0168555 0.00228812 0.00151556, 0.00245734 -0.00172941 0.00389641, -0.00142098 0.00179059 0.002667, 
            0.0121793 0.00422055 0.00309721, 0.0056883 0.00464697 -0.000384241, 0.0117826 0.00561508 0.00492759, 0.0116272 0.00568693 -0.00511376, 
            0.0121793 0.00422055 0.00309721, 0.0117826 0.00561508 0.00492759, 0.0162241 0.0043684 0.00277818, 0.0166191 0.00551521 0.00487849, 
            0.0117826 0.00561508 0.00492759, 0.00772505 -0.00288719 0.00254076, 0.00758784 -0.0028731 -0.00301443, 0.00585716 -0.00585716 0.00487606, 
            0.00772505 -0.00288719 0.00254076, 0.00585716 -0.00585716 -0.00487606, 0.00758784 -0.0028731 -0.00301443, 0.0150728 -0.00265901 0.002794, 
            0.00758784 -0.0028731 -0.00301443, 0.00772505 -0.00288719 0.00254076, 0.00772505 -0.00288719 0.00254076, 0.00758784 -0.0028731 -0.00301443, 
            0.0151865 -0.00279444 -0.00255539, 0.0193208 0.00131633 0.00632772, 0.017474 0.00155614 -0.00662071, 0.0168555 0.00228812 0.00151556, 
            0.017474 0.00155614 -0.00662071, 0.017544 0.00214113 -0.00783743, 0.0168555 0.00228812 0.00151556, 0.0056883 0.00464697 -0.000384241, 
            0.00932975 0.0047604 -0.00443875, 0.0106513 0.00435424 -0.00309721, 0.00897961 0.000347594 0.00653673, 0.00755587 -0.0029149 0.0090932, 
            0.00772505 -0.00288719 0.00254076, 0.00897961 0.000347594 0.00653673, 0.00772505 -0.00288719 0.00254076, 0.00755587 -0.0029149 0.0090932, 
            0.00903818 0.00139613 0.0067894, 0.0175355 0.00192579 0.00793718, 0.00906598 0.00150848 0.00904684, 0.0228569 -0.00234743 0.000448846, 
            0.017544 0.00214113 -0.00783743, 0.0173062 0.00348942 0.00645949, 0.017544 0.00214113 -0.00783743, 0.0228569 -0.00234743 0.000448846, 
            0.00755587 -0.0029149 -0.0090932, 0.00340311 0.000597603 0.00716104, 0.00528548 0.00463699 0.00400305, 0.0168555 0.00228812 0.00151556, 
            -0.000528053 -0.00085349 0.00114035, 0.00340311 0.000597603 0.00716104, 0.00245734 -0.00172941 0.00389641, 0.0176288 0.00147141 0.00647549, 
            0.0193208 0.00131633 0.00632772, 0.00897961 0.000347594 0.00653673, 0.0176288 0.00147141 0.00647549, 0.0193208 0.00131633 0.00632772, 
            0.0168555 0.00228812 0.00151556, 0.0150728 -0.00265901 0.002794, 0.0193208 0.00131633 0.00632772, 0.0147668 0.000344557 0.00644845, 
            0.0193208 0.00131633 0.00632772, 0.0176288 0.00147141 0.00647549, 0.017474 0.00155614 -0.00662071, -0.00277632 -0.00145866 -0.000328257, 
            -0.00360339 -0.00319424 -0.00633125, 0.00312652 -0.00420615 -0.00187247, 0.0157673 0.00363759 -0.00128838, 0.0117826 0.00561508 0.00492759, 
            0.0166191 0.00551521 0.00487849, 0.00368212 0.00563272 0.00587385, 0.0019747 0.00587232 0.00243695, 0.00325746 0.0057071 -0.00616762, 
            0.00440248 0.00669115 -0.00358714, 0.00325746 0.0057071 -0.00616762, 0.0019747 0.00587232 0.00243695, 0.00312652 -0.00420615 -0.00187247, 
            0.00342845 0.00469977 -0.006909, 0.00906598 0.00150848 -0.00904684, 0.00755587 -0.0029149 -0.0090932, 0.00585716 -0.00585716 -0.00487606, 
            0.00312652 -0.00420615 -0.00187247, 0.0193208 0.00131633 0.00632772, 0.0193208 0.00131633 -0.00632772, 0.017474 0.00155614 -0.00662071, 
            0.0147668 0.000822408 -0.00647378, 0.0193208 0.00131633 -0.00632772, 0.0151865 -0.00279444 -0.00255539, 0.00893803 0.000341942 -0.00656194, 
            0.0193208 0.00131633 -0.00632772, 0.017474 0.00155614 -0.00662071, 0.0168555 0.00228812 0.00151556, -0.00142098 0.00179059 0.002667, 
            -0.000528053 -0.00085349 0.00114035, 0.0056883 0.00464697 -0.000384241, 0.00593769 0.00683519 0.000252337, 0.00932975 0.0047604 -0.00443875, 
            0.00440248 0.00669115 -0.00358714, 0.0056883 0.00464697 -0.000384241, 0.00368212 0.00563272 0.00587385, 0.00389544 0.000985039 0.004445, 
            0.00528548 0.00463699 0.00400305, 0.0041952 0.00409553 0.006477, 0.00389544 0.000985039 0.004445, 0.0041952 0.00409553 0.006477, 
            0.00528548 0.00463699 0.00400305, 0.0176288 0.00147141 0.00647549, 0.0168555 0.00228812 0.00151556, 0.0173062 0.00348942 0.00645949, 
            0.0176288 0.00147141 0.00647549, 0.0173062 0.00348942 0.00645949, 0.017544 0.00214113 -0.00783743, 0.00903818 0.00139613 0.0067894, 
            0.0175355 0.00192579 0.00793718, 0.0176288 0.00147141 0.00647549, 0.00903818 0.00139613 0.0067894, 0.0176288 0.00147141 0.00647549, 
            0.0175355 0.00192579 0.00793718, 0.0121793 0.00422055 0.00309721, 0.0157673 0.00363759 -0.00128838, 0.00368212 0.00563272 0.00587385, 
            -0.000528053 -0.00085349 0.00114035, -0.00360339 -0.00319424 -0.00633125, -0.00320327 0.00193255 -0.00285777, 0.00755587 -0.0029149 -0.0090932, 
            0.0228569 -0.00234743 0.000448846, 0.00585716 -0.00585716 -0.00487606, 0.00585716 -0.00585716 -0.00487606, 0.0228569 -0.00234743 0.000448846, 
            0.00585716 -0.00585716 0.00487606, 0.00585716 -0.00585716 0.00487606, 0.00340311 0.000597603 0.00716104, 0.00312652 -0.00420615 -0.00187247, 
            0.00585716 -0.00585716 0.00487606, 0.00312652 -0.00420615 -0.00187247, 0.00585716 -0.00585716 -0.00487606, 0.0106513 0.00435424 -0.00309721, 
            0.0107037 0.00627098 -0.00288794, 0.0117826 0.00561508 0.00492759, 0.0106513 0.00435424 -0.00309721, 0.0121793 0.00422055 0.00309721, 
            0.0116272 0.00568693 -0.00511376, 0.0166191 0.00551521 0.00487849, 0.0206025 0.00329692 0.00506596, 0.0204286 0.00420865 -0.00524508, 
            0.0117826 0.00561508 0.00492759, 0.0206025 0.00329692 0.00506596, 0.0166191 0.00551521 0.00487849, 0.0166191 0.00551521 0.00487849, 
            0.0162241 0.0043684 0.00277818, 0.0206025 0.00329692 0.00506596, 0.0166191 0.00551521 0.00487849, 0.0206025 0.00329692 0.00506596, 
            0.00368212 0.00563272 0.00587385, 0.0204286 0.00420865 -0.00524508, 0.0157673 0.00363759 -0.00128838, 0.0166191 0.00551521 0.00487849, 
            0.0116272 0.00568693 -0.00511376, 0.0117826 0.00561508 0.00492759, 0.0166191 0.00551521 0.00487849, -0.00277632 -0.00145866 -0.000328257, 
            0.00342845 0.00469977 -0.006909, -0.00360339 -0.00319424 -0.00633125, 0.00893803 0.000341942 -0.00656194, 0.00755587 -0.0029149 -0.0090932, 
            0.00906598 0.00150848 -0.00904684, 0.00755587 -0.0029149 -0.0090932, 0.00312652 -0.00420615 -0.00187247, 0.00906598 0.00150848 -0.00904684, 
            0.00893803 0.000341942 -0.00656194, 0.00906598 0.00150848 -0.00904684, 0.00755587 -0.0029149 -0.0090932, 0.00906598 0.00150848 -0.00904684, 
            0.017544 0.00214113 -0.00783743, 0.00755587 -0.0029149 -0.0090932, 0.0056883 0.00464697 -0.000384241, 0.00932975 0.0047604 -0.00443875, 
            0.0204286 0.00420865 -0.00524508, 0.00932975 0.0047604 -0.00443875, 0.00325746 0.0057071 -0.00616762, 0.0204286 0.00420865 -0.00524508, 
            0.00932975 0.0047604 -0.00443875, 0.0116272 0.00568693 -0.00511376, 0.0204286 0.00420865 -0.00524508, 0.00440248 0.00669115 -0.00358714, 
            0.00593769 0.00683519 0.000252337, 0.0056883 0.00464697 -0.000384241, 0.00340311 0.000597603 0.00716104, -0.00277632 -0.00145866 -0.000328257, 
            0.00854048 0.00419895 0.00318967, -0.00277632 -0.00145866 -0.000328257, -0.000528053 -0.00085349 0.00114035, -0.00320327 0.00193255 -0.00285777, 
            0.00340311 0.000597603 0.00716104, 0.00755587 -0.0029149 0.0090932, 0.00906598 0.00150848 0.00904684, 0.00897961 0.000347594 0.00653673, 
            0.00755587 -0.0029149 0.0090932, 0.00906598 0.00150848 0.00904684, 0.00906598 0.00150848 0.00904684, 0.00755587 -0.0029149 0.0090932, 
            0.0228569 -0.00234743 0.000448846, 0.00897961 0.000347594 0.00653673, 0.00906598 0.00150848 0.00904684, 0.00755587 -0.0029149 0.0090932, 
            0.0041952 0.00409553 0.006477, 0.00340311 0.000597603 0.00716104, 0.0173062 0.00348942 0.00645949, 0.0194813 0.000609068 -1.46739e-05, 
            0.0193208 0.00131633 0.00632772, 0.0150728 -0.00265901 0.002794, 0.0194813 0.000609068 -1.46739e-05, 0.0150728 -0.00265901 0.002794, 
            0.0151865 -0.00279444 -0.00255539, 0.0147668 0.000822408 -0.00647378, 0.00893803 0.000341942 -0.00656194, 0.017474 0.00155614 -0.00662071, 
            0.017474 0.00155614 -0.00662071, 0.0193208 0.00131633 -0.00632772, 0.0147668 0.000822408 -0.00647378, 0.0193208 0.00131633 -0.00632772, 
            0.0194813 0.000609068 -1.46739e-05, 0.0151865 -0.00279444 -0.00255539, 0.0116272 0.00568693 -0.00511376, 0.0166191 0.00551521 0.00487849, 
            0.0157673 0.00363759 -0.00128838, 0.0193208 0.00131633 0.00632772, 0.0176288 0.00147141 0.00647549, 0.0147668 0.000344557 0.00644845, 
            0.0176288 0.00147141 0.00647549, 0.00897961 0.000347594 0.00653673, 0.0147668 0.000344557 0.00644845, -0.00142098 0.00179059 0.002667, 
            0.00245734 -0.00172941 0.00389641, -0.00277632 -0.00145866 -0.000328257, 0.0056883 0.00464697 -0.000384241, 0.0204286 0.00420865 -0.00524508, 
            0.00325746 0.0057071 -0.00616762, 0.00593769 0.00683519 0.000252337, 0.0056883 0.00464697 -0.000384241, 0.00325746 0.0057071 -0.00616762, 
            0.00312652 -0.00420615 -0.00187247, -0.000528053 -0.00085349 0.00114035, 0.00342845 0.00469977 -0.006909, 0.00312652 -0.00420615 -0.00187247, 
            -0.00360339 -0.00319424 -0.00633125, -0.000528053 -0.00085349 0.00114035, 0.00593769 0.00683519 0.000252337, 0.00440248 0.00669115 -0.00358714, 
            0.00368212 0.00563272 0.00587385, 0.00593769 0.00683519 0.000252337, 0.00325746 0.0057071 -0.00616762, 0.00440248 0.00669115 -0.00358714, 
            -0.00320327 0.00193255 -0.00285777, 0.00342845 0.00469977 -0.006909, 0.00245734 -0.00172941 0.00389641, 0.00368212 0.00563272 0.00587385, 
            0.00325746 0.0057071 -0.00616762, 0.0056883 0.00464697 -0.000384241, 0.00593769 0.00683519 0.000252337, 0.00368212 0.00563272 0.00587385, 
            0.0056883 0.00464697 -0.000384241, 0.0168555 0.00228812 0.00151556, 0.017544 0.00214113 -0.00783743, 0.00342845 0.00469977 -0.006909, 
            -0.00360339 -0.00319424 -0.00633125, 0.00342845 0.00469977 -0.006909, -0.00320327 0.00193255 -0.00285777, 0.00903818 0.00139613 0.0067894, 
            0.00897961 0.000347594 0.00653673, 0.00906598 0.00150848 0.00904684, 0.00903818 0.00139613 0.0067894, 0.00897961 0.000347594 0.00653673, 
            0.0176288 0.00147141 0.00647549, 0.00903818 0.00139613 0.0067894, 0.00906598 0.00150848 0.00904684, 0.00897961 0.000347594 0.00653673, 
            0.00903818 0.00139613 0.0067894, 0.0176288 0.00147141 0.00647549, 0.00897961 0.000347594 0.00653673, 0.0106513 0.00435424 -0.00309721, 
            0.0116272 0.00568693 -0.00511376, 0.0107037 0.00627098 -0.00288794, 0.0107037 0.00627098 -0.00288794, 0.0116272 0.00568693 -0.00511376, 
            0.00932975 0.0047604 -0.00443875, 0.0117826 0.00561508 0.00492759, 0.00368212 0.00563272 0.00587385, 0.0206025 0.00329692 0.00506596, 
            0.00593769 0.00683519 0.000252337, 0.00368212 0.00563272 0.00587385, 0.0117826 0.00561508 0.00492759, 0.0117826 0.00561508 0.00492759, 
            0.0157673 0.00363759 -0.00128838, 0.0162241 0.0043684 0.00277818, 0.001792 0.00494263 -0.00253867, 0.0019747 0.00587232 0.00243695, 
            0.00325746 0.0057071 -0.00616762, 0.0019747 0.00587232 0.00243695, 0.001792 0.00494263 -0.00253867, 0.00325746 0.0057071 -0.00616762, 
            0.00903818 0.00139613 -0.0067894, 0.00893803 0.000341942 -0.00656194, 0.00906598 0.00150848 -0.00904684, 0.00903818 0.00139613 -0.0067894, 
            0.017474 0.00155614 -0.00662071, 0.00893803 0.000341942 -0.00656194, 0.017474 0.00155614 -0.00662071, 0.00903818 0.00139613 -0.0067894, 
            0.00893803 0.000341942 -0.00656194, 0.00903818 0.00139613 -0.0067894, 0.00906598 0.00150848 -0.00904684, 0.00893803 0.000341942 -0.00656194, 
            0.0176288 0.00147141 0.00647549, 0.0175355 0.00192579 0.00793718, 0.0173062 0.00348942 0.00645949, 0.0176288 0.00147141 0.00647549, 
            0.0173062 0.00348942 0.00645949, 0.0175355 0.00192579 0.00793718, 0.0173062 0.00348942 0.00645949, 0.00340311 0.000597603 0.00716104, 
            0.0175355 0.00192579 0.00793718, 0.0228569 -0.00234743 0.000448846, 0.0173062 0.00348942 0.00645949, 0.0175355 0.00192579 0.00793718, 
            0.0168555 0.00228812 0.00151556, 0.00854048 0.00419895 0.00318967, 0.00312652 -0.00420615 -0.00187247, 0.00340311 0.000597603 0.00716104, 
            0.00854048 0.00419895 0.00318967, 0.00528548 0.00463699 0.00400305, -0.000528053 -0.00085349 0.00114035, 0.00528548 0.00463699 0.00400305, 
            0.00854048 0.00419895 0.00318967
          ]
        }
        coordIndex
        [
          0,1,2,-1, 3,4,5,-1, 6,7,8,-1, 9,10,11,-1, 12,13,14,-1, 15,16,17,-1, 
          18,19,20,-1, 21,22,23,-1, 24,25,26,-1, 27,28,29,-1, 30,31,32,-1, 33,34,35,-1, 
          36,37,38,-1, 39,40,41,-1, 42,43,44,-1, 45,46,47,-1, 48,49,50,-1, 51,52,53,-1, 
          54,55,56,-1, 57,58,59,-1, 60,61,62,-1, 63,64,65,-1, 66,67,68,-1, 69,70,71,-1, 
          72,73,74,-1, 75,76,77,-1, 78,79,80,-1, 81,82,83,-1, 84,85,86,-1, 87,88,89,-1, 
          90,91,92,-1, 93,94,95,-1, 96,97,98,-1, 99,100,101,-1, 102,103,104,-1, 105,106,107,-1, 
          108,109,110,-1, 111,112,113,-1, 114,115,116,-1, 117,118,119,-1, 120,121,122,-1, 123,124,125,-1, 
          126,127,128,-1, 129,130,131,-1, 132,133,134,-1, 135,136,137,-1, 138,139,140,-1, 141,142,143,-1, 
          144,145,146,-1, 147,148,149,-1, 150,151,152,-1, 153,154,155,-1, 156,157,158,-1, 159,160,161,-1, 
          162,163,164,-1, 165,166,167,-1, 168,169,170,-1, 171,172,173,-1, 174,175,176,-1, 177,178,179,-1, 
          180,181,182,-1, 183,184,185,-1, 186,187,188,-1, 189,190,191,-1, 192,193,194,-1, 195,196,197,-1, 
          198,199,200,-1, 201,202,203,-1, 204,205,206,-1, 207,208,209,-1, 210,211,212,-1, 213,214,215,-1, 
          216,217,218,-1, 219,220,221,-1, 222,223,224,-1, 225,226,227,-1, 228,229,230,-1, 231,232,233,-1, 
          234,235,236,-1, 237,238,239,-1, 240,241,242,-1, 243,244,245,-1, 246,247,248,-1, 249,250,251,-1, 
          252,253,254,-1, 255,256,257,-1, 258,259,260,-1, 261,262,263,-1, 264,265,266,-1, 267,268,269,-1, 
          270,271,272,-1, 273,274,275,-1, 276,277,278,-1, 279,280,281,-1, 282,283,284,-1, 285,286,287,-1, 
          288,289,290,-1, 291,292,293,-1, 294,295,296,-1, 297,298,299,-1, 300,301,302,-1, 303,304,305,-1, 
          306,307,308,-1, 309,310,311,-1, 312,313,314,-1, 315,316,317,-1, 318,319,320,-1, 321,322,323,-1, 
          324,325,326,-1, 327,328,329,-1, 330,331,332,-1, 333,334,335,-1, 336,337,338,-1, 339,340,341,-1, 
          342,343,344,-1, 345,346,347,-1, 348,349,350,-1, 351,352,353,-1, 354,355,356,-1, 357,358,359,-1, 
          360,361,362,-1, 363,364,365,-1, 366,367,368,-1, 369,370,371,-1, 372,373,374,-1, 375,376,377,-1, 
          378,379,380,-1, 381,382,383,-1, 384,385,386,-1, 387,388,389,-1, 390,391,392,-1, 393,394,395,-1, 
          396,397,398,-1, 399,400,401,-1, 402,403,404,-1, 405,406,407,-1, 408,409,410,-1, 411,412,413,-1, 
          414,415,416,-1, 417,418,419,-1, 420,421,422,-1, 423,424,425,-1, 426,427,428,-1, 429,430,431,-1, 
          432,433,434,-1, 435,436,437,-1, 438,439,440,-1, 441,442,443,-1, 444,445,446,-1, 447,448,449,-1, 
          450,451,452,-1, 453,454,455,-1, 456,457,458,-1, 459,460,461,-1, 462,463,464,-1, 465,466,467,-1, 
          468,469,470,-1, 471,472,473,-1, 474,475,476,-1, 477,478,479,-1, 480,481,482,-1, 483,484,485,-1, 
          486,487,488,-1, 489,490,491,-1, 492,493,494,-1, 495,496,497,-1, 498,499,500,-1, 501,502,503,-1, 
          504,505,506,-1, 507,508,509,-1, 510,511,512,-1
        ]
      }
      appearance Appearance
      {
        material Material
        {
	       ambientIntensity 0.2
	       diffuseColor 0.9 0.9 0.9
	       specularColor .1 .1 .1
	       shininess .5
        }
      }
    }
  ]
}
